	-1.9048011237446758	0.9605969123426492	-0.07189732070208521	0.9923398163593102	-1.2845364245950668
	-2.3327579123143405	2.2288914150644255	-1.8364497596261353	-2.5904601281300597	1.9412971549622033
	2.47049122195283	2.311842992845116	-1.215855175791697	-0.5192900752515035	-0.9696532889367497
