	-0.02036649501354315	2.8424149740400666	1.221436572070029	2.7920666455470093	0.013031892615354757
	-0.2267743665682067	-1.3040803641808552	0.49162058421474386	0.7277398101273564	1.8374312545211893
	0.002752446909593864	-0.7292982882190926	-0.12661595232128242	-1.4165326461825476	-0.6418287708805854
