id0	sample0	obj0	-1.7010762433239561	1.5288699309649265	0.38309172001337477	1.726960662708805	3.0291785969110436
id1	sample0	obj1	-0.40641121006830994	-0.11238914768691766	0.2681527799203207	1.7527755185515428	1.6996369721131757
id2	sample0	obj2	-1.074139167629908	1.6514638168497242	0.16930576757588234	3.2886285981918686	1.1618458217380951
id3	sample0	obj3	-1.3616716769037351	0.5860463394396358	0.8743607407643321	2.763321669859284	3.112440810389794
id4	sample0	obj4	-1.4036078930212081	1.067146674128063	-0.6056763626768571	3.3512776676118436	2.7238497184111345
id5	sample0	obj5	-1.1128305957163964	-0.22030983563547513	1.5426521580910453	2.135626268007927	1.6252844973087393
id6	sample0	obj6	-1.9678430590480933	1.610916129271008	-0.4911109661630664	2.510690492442518	2.51213034415483
id7	sample0	obj7	-2.147767286634032	0.049748458219911584	0.2641978897750952	1.2299957255973033	2.6978899237967333
id8	sample0	obj8	-1.0126471829349875	-0.02545625462880985	-0.38177906036831133	3.4532220452133995	3.475194538086228
id9	sample0	obj9	0.026093645229813722	1.5030361923701172	1.6543054902284264	1.1697244424236877	3.4546973140532353
id10	sample0	obj10	-0.6994118087660257	-0.45628863995193836	1.4995973630279298	1.4671964679324638	1.4365130697719948
id11	sample0	obj11	-0.80349192678727	0.3668811290836187	-0.5786285598140974	2.0490965925858187	3.459356501773409
id12	sample0	obj12	-1.8508641864309667	0.43373306184152205	1.0523578453263929	2.148435365842218	2.976251559312488
id13	sample0	obj13	0.06635954900303509	-0.0025545173780817665	-0.20568662329676557	2.090779701041963	3.0187301264325677
id14	sample0	obj14	-0.2538122270013188	-0.6755742301730465	1.6767833870008226	1.1657118542106448	1.8174042438822955
id15	sample0	obj15	-0.16377592300309174	-0.13430088518132355	-0.6095102371796903	1.5008280068447006	2.216776909677494
id16	sample0	obj16	-2.20094303473618	0.4157819959687423	0.5931579716630002	3.2105215834498866	3.014743439580191
id17	sample0	obj17	-2.328205153424877	0.8938703451831633	1.1084564333028812	2.515606986621844	3.418522753165419
id18	sample0	obj18	-1.5013884865954816	-0.6778046485929399	0.4021601797126877	3.489152890534818	2.3723427082904176
id19	sample0	obj19	-1.3817487302474825	0.6987971651073348	-0.09274462408110373	3.456044433061405	3.2991753948000184
id20	sample0	obj20	-0.9624241442215848	-0.6059193098523752	1.2525739874727313	2.9236341016364915	1.6177721358323391
id21	sample0	obj21	-1.8614992085301216	-0.5428088855456823	1.5862732320705464	3.3007071478377217	2.3432787842698355
id22	sample0	obj22	0.057672993204586964	-0.39817434246738403	1.022156114791826	1.6117283663114053	3.1384129206825087
id23	sample0	obj23	-0.3579328574436407	-0.5585753139858023	-0.09294837946009527	1.960295616584801	1.823648779599039
id24	sample0	obj24	-1.1970727674839297	1.1381038196226725	0.7323364418273042	1.254740816491278	2.3376763143242347
id25	sample0	obj25	-0.2637606951922129	0.3830419505165097	-0.599225072663935	3.282244166711566	2.109675357618273
id26	sample0	obj26	-1.2912089347713174	1.0906736032194275	0.007275730814536141	2.9954964528766905	2.4962615541846125
id27	sample0	obj27	-0.7290567088153543	1.5047906685693138	-0.6174956573520007	2.0352053450161716	3.369419667603272
id28	sample0	obj28	-0.9158974241647089	-0.0911192769922401	1.5526454969874506	2.0174413261373725	2.0259259714995537
id29	sample0	obj29	-0.636361430402349	0.12056362906358853	-0.5544277266066802	1.9192941756197093	2.719778583899086
id30	sample0	obj30	-2.154776047275436	0.13317536321540802	-0.43065871519764687	1.5394117256414779	1.5805885744317378
id31	sample0	obj31	-0.31961197435746125	0.5362337771207821	0.8368928444233694	2.6190589110349665	2.243833070483255
id32	sample0	obj32	-1.0609440115588626	-0.6219500969439087	1.5321813413800658	2.8992126515775283	3.041928792165675
id33	sample0	obj33	-1.4859081781598573	0.3929597449860278	0.016289783624326648	1.2622403487099974	1.2343399084616002
id34	sample0	obj34	-1.4560343123426842	1.6548958531201963	-0.5465096728795913	3.2527375276131627	2.3239880580378207
id35	sample0	obj35	-0.959279726633042	1.3781327931743073	-0.4197142289872171	2.9684747783955965	1.9371712664399277
id36	sample0	obj36	-0.034990027139284896	1.3923725502505933	0.8163073506760625	3.2239572116951223	2.843624174940432
id37	sample0	obj37	-1.6507752255580623	-0.21226995436117635	1.583141539471393	1.6681897999847375	2.15834842136035
id38	sample0	obj38	-2.0578201645376613	0.3579749340019349	-0.3981957534924039	1.6246986554359402	2.781013631906863
id39	sample0	obj39	-2.1693510530072624	0.15743208293604083	0.7152762131361947	3.243035318242115	1.1631620666290847
id40	sample0	obj40	-1.132264399066102	0.7055797507255512	-0.14965738686044938	2.721728377767941	3.3067388969298603
id41	sample0	obj41	-0.32319388247824477	-0.31154294936428906	1.4015447759248325	3.085286841106212	3.3357135994129443
id42	sample0	obj42	-2.238954967465278	-0.030155225965739274	0.38544220646813354	3.4622488215887524	1.1793435290546075
id43	sample0	obj43	-1.0212665056872554	1.277657624022625	0.4591918527030652	1.7947510984376658	1.4820554964669317
id44	sample0	obj44	-1.0233176250276923	0.7994288715150892	1.694776653504271	1.1775094067092233	3.5195800078626167
id45	sample0	obj45	-2.170023594062783	1.420019906659953	0.7076450545532724	2.7277975331268176	1.6499547254032716
id46	sample0	obj46	-0.07611216272627375	-0.43290611749915253	-0.2978434517169981	2.567829107697852	1.544919979448494
id47	sample0	obj47	-0.6703998589314888	0.485297955571075	-0.35034558602940225	1.8842345765321502	1.9031437287887194
id48	sample0	obj48	-1.2471673042103597	-0.6841558756142134	1.4793035973966748	2.2309193438983446	2.8002399448800865
id49	sample0	obj49	-0.9553293104350853	0.8791112228619857	1.4456288109975641	2.1638409044400317	3.42777030595394
id50	sample0	obj50	-1.9845223823395313	1.3963524821486624	1.236063527547643	3.2289909148897316	2.347938807723526
id51	sample0	obj51	-0.668210867070061	0.5824254978054584	0.2803636573120659	2.7454578042347717	1.6635994008754351
id52	sample0	obj52	-0.06384403096452895	0.2220155316700988	1.5925486999685392	1.1987222133760065	2.8830887608334965
id53	sample0	obj53	-0.867891143941909	-0.47806814542640597	1.2736978210924572	1.437641608221722	3.4423640014205645
id54	sample0	obj54	-2.0706415423728757	1.6140745743047444	0.7765453343246507	1.6917595009715307	3.0165628655168035
id55	sample0	obj55	-1.5558926021063377	-0.24256698343494576	1.3139814834691623	3.320968617147611	1.7805074205414355
id56	sample0	obj56	-0.6204628601341358	0.030332564936799367	0.6043642483004048	2.192013747877885	1.2214282605917244
id57	sample0	obj57	-2.15677015372297	0.780937825227676	0.9955811043161562	1.6481791234371035	2.613400764841055
id58	sample0	obj58	-1.549906604718287	0.3670913448562625	-0.30684232491011576	2.3896128799436243	1.3652358676526934
id59	sample0	obj59	-0.4426371168275127	1.1057606967323386	1.0189899727264564	1.9894413302569647	1.372964946263156
id60	sample0	obj60	-1.183944758293876	1.5950263759314283	0.5175678864084734	2.3999608857165953	1.5531833852459727
id61	sample0	obj61	-1.878055876611395	-0.01748441197058459	0.7644584689854348	2.0061082548014566	3.100469649648348
id62	sample0	obj62	-0.08270436449968277	1.0358111045761265	1.6634182764747536	2.299950510661895	1.1844700274632682
id63	sample0	obj63	-1.6716462102478706	1.3124877238772126	1.677399552730663	2.607436323531641	2.1511249862882664
id64	sample0	obj64	-2.193514055523698	1.6073959429091176	0.7459998538558412	2.011968698257976	1.276505906935878
id65	sample0	obj65	0.044079393539517175	0.4374598709120998	0.40617159340569353	1.9908264112791807	1.6869267507216086
id66	sample0	obj66	-0.6816782182700976	0.26194064435202746	-0.24964864211697435	2.199927855496124	1.8389841141201773
id67	sample0	obj67	-1.2770104512263583	1.0686649645835944	1.1101814949020736	1.787243268546005	1.4690578546705644
id68	sample0	obj68	-1.8860955073024948	-0.688506571339939	0.6157734921424298	2.8501509227154056	2.1821646476554495
id69	sample0	obj69	-0.16110537928878021	0.1761288221677536	0.6085970440889672	3.029561899948888	2.9509943629750897
id70	sample0	obj70	-2.0434976446376574	-0.21739692636858532	-0.07333704981272537	3.3935304669020896	2.3210654881951207
id71	sample0	obj71	-1.7345829688613283	1.193262018926024	1.6673001642609344	2.532683757344268	2.938306590781532
id72	sample0	obj72	-2.0477376069991493	0.16214359055238536	1.586594061481623	2.583976922224627	2.8895985185795543
id73	sample0	obj73	-2.2099623623552516	1.5250630655516684E-4	-0.0759437867018048	2.3203593764306625	2.320990984350247
id74	sample0	obj74	-1.958215727986428	-0.3072726376132291	0.5424218035996426	1.8817638079235457	2.40603211247631
id75	sample0	obj75	-0.10997214898070795	-0.5673946392678377	0.7292197054137404	1.5547477804801213	2.199010490836889
id76	sample0	obj76	-1.644185526084778	0.747171805755559	0.9900207764611653	1.5989726605528831	1.533506181997295
id77	sample0	obj77	-2.187178908540222	0.12256884168643634	-0.06836211762751232	3.220836241668353	2.511567085119726
id78	sample0	obj78	-1.2493394390501438	0.5575840290649217	1.4331216381103087	2.1478331619160334	3.356668898920801
id79	sample0	obj79	-0.10677836846316224	1.10918085698022	-0.6332392853080089	1.388938975022715	2.045471695698484
id80	sample0	obj80	0.6059385819659608	1.950922520674205	2.426132572601144	1.6615187915260572	-1.9432053834471223
id81	sample0	obj81	0.5943598932455816	3.723468281558188	1.8508921458827425	2.2947558321796855	-1.153231636824904
id82	sample0	obj82	-0.20806931307133736	4.052548877427558	0.9095838403467524	1.199359114271889	-2.167539412493314
id83	sample0	obj83	-0.22853157576083838	2.246883528128218	3.1507661207607294	2.9063746192818662	-2.4880128150574583
id84	sample0	obj84	0.8242124510034519	3.949705721382384	2.5479616449496065	3.4306005837468527	-1.796918288694993
id85	sample0	obj85	0.15543493429543465	2.761785686917497	1.286262216566325	3.417271008995277	-0.6868781276752496
id86	sample0	obj86	-0.3128447888192645	2.0207318292201886	3.0590660293320084	3.0184814536435187	-0.6031840885427371
id87	sample0	obj87	1.7045345309577964	2.413350945876613	2.890941457011418	2.519492428262711	-0.5378587710554708
id88	sample0	obj88	-0.07634960171532268	3.18913944127501	2.1993462455199086	2.940938158540692	-2.510172952184916
id89	sample0	obj89	0.9759850541904735	2.3432066138937486	1.6179028552861858	1.6132667953316684	-1.0261808775374595
id90	sample0	obj90	0.05770796808720635	3.1984394276797357	2.023226963176928	1.4442819956694275	-0.9966423762101473
id91	sample0	obj91	0.325774415095721	3.0793490870084765	1.7195208672569273	1.8567951110650003	-2.587368688453415
id92	sample0	obj92	0.5716043881264123	2.9611388372327774	2.8113756628679165	1.9259667414772357	-0.869966276125101
id93	sample0	obj93	-0.11226772235623061	1.811939327047758	1.0940610426974366	2.047271720877963	-2.338061341234158
id94	sample0	obj94	-0.1280697865662065	3.926222030445114	2.8581215906632025	1.8559939418982223	-1.2707790249505901
id95	sample0	obj95	1.6829931694036422	3.562961583640491	3.074931300875358	2.025100367742321	-1.1904274080242006
id96	sample0	obj96	0.9562324563996125	3.730520869756698	1.223079746801442	2.1050958882018347	-2.6164046755600703
id97	sample0	obj97	1.47584293115939	2.0663206374965464	1.740668727631753	1.2393672201155124	-1.4162168692652928
id98	sample0	obj98	1.744289044607649	3.6954731403532355	1.2418776317032303	1.6814282947964774	-0.6635651940924421
id99	sample0	obj99	1.631782459753605	1.9585498474244445	3.2011072581599027	3.4337265894620863	-1.3116471006601307
id100	sample0	obj100	1.0653978526119843	3.6018612897926237	2.6557259107160665	2.4861015468430563	-1.9685166201440207
id101	sample0	obj101	0.04848861539668492	2.438893442051995	1.167512884687999	2.5079479031104435	-1.5244750851246223
id102	sample0	obj102	0.6954051169237769	2.6212191727551715	2.0594176071179726	1.8814701405747374	-0.7454192041195284
id103	sample0	obj103	1.020193764337971	3.0911225384423897	2.3418199102033928	1.8814671027578385	-1.3397651865125688
id104	sample0	obj104	1.61454332725948	1.9036857233942504	1.3821849639956647	1.6246954697100553	-0.6714030337689951
id105	sample0	obj105	0.860850721077884	1.8680364961187819	2.1624422776899763	2.9313786352987696	-0.38101686277215285
id106	sample0	obj106	0.6094915669556418	2.918180793359756	2.7056865838764637	1.2526903362552053	-1.7594478122586876
id107	sample0	obj107	1.0512928330603226	2.923195112706563	2.621480584534776	2.498398594880256	-2.168474015829263
id108	sample0	obj108	1.070414433588279	1.8118699180667346	2.488240110770596	2.7131473801036092	-2.0178506055523533
id109	sample0	obj109	0.9904430124866042	2.833022550371851	2.020486742754395	2.65042293131269	-0.7865935903213062
id110	sample0	obj110	1.7360810384373664	3.4019805551706543	2.804261496478726	2.919947063561431	-1.437712900474365
id111	sample0	obj111	0.3204693413130333	3.38601474232915	2.8592941307372826	1.8643984264611604	-2.1478069380755476
id112	sample0	obj112	1.6175079391423026	3.734123794420368	2.7227142112857576	3.1698352374797505	-1.097533056747326
id113	sample0	obj113	-0.33937222285919266	2.724378844407143	0.9547632043274616	1.5333179278559217	-1.399863932142666
id114	sample0	obj114	1.5829140316785744	3.0373721442282173	1.8382155179978295	2.9908531158996885	-0.44664838350556724
id115	sample0	obj115	1.2243780816208916	1.8070250530608218	1.1636369382002076	2.0262456896966556	-2.3092065213941186
id116	sample0	obj116	-0.48588040825291245	3.3774344921462056	2.633291019038749	1.4015977729736613	-1.5269251130974397
id117	sample0	obj117	0.40920026238313345	3.521425211197557	2.33604436310293	1.6253707088975888	-1.362974040947912
id118	sample0	obj118	1.7468647031593558	3.7553661236547056	1.9901136812093279	1.5439828266891586	-1.214752815132745
id119	sample0	obj119	0.43838543488741033	2.905446920976998	2.3535342798085885	3.1351819163170607	-2.4673987800896757
id120	sample0	obj120	0.6848665664051481	1.8203434294523377	2.7849037912079746	1.2107651213203863	-1.9130546027078674
id121	sample0	obj121	1.6989163073861675	4.0488653769918805	2.1078637863823833	3.2049512303111047	-1.4805074512952192
id122	sample0	obj122	-0.5702212153607169	3.3611270744421504	2.888014528665523	2.322694809294289	-0.6956818744611637
id123	sample0	obj123	1.1593973037906642	3.527848574957386	1.4541124868598259	1.2268048451568971	-1.8021994404140318
id124	sample0	obj124	-0.2034405721603656	1.9119324040401786	2.2575679690075683	2.118741953638145	-0.3042172680219537
id125	sample0	obj125	-0.433161160970583	2.0843056197236733	1.3240336795370744	2.067756706634537	-0.8549291961657142
id126	sample0	obj126	0.5860984788690236	3.5545173264651173	1.9543521145964844	1.7064445777489978	-1.0198670508338255
id127	sample0	obj127	1.4109422679466783	4.095581586484226	1.5129008257068581	1.46517206554366	-2.5233770858146265
id128	sample0	obj128	0.8642989172800222	1.9193937368780538	1.4205322016772495	2.878018525838751	-1.8807795868062063
id129	sample0	obj129	0.1093771924317063	2.9885761023469284	1.9554492658274238	1.061222474620793	-1.6816483932175927
id130	sample0	obj130	1.049149591324454	3.485161909936748	2.6545743713114183	1.7314624138633827	-1.3877835826327067
id131	sample0	obj131	-0.2926139102569667	2.9359566550163634	2.183857490651942	2.572987928437243	-2.6216969767478586
id132	sample0	obj132	-0.36532794151983095	2.746059075579419	1.9796222470953833	2.8444843153518256	-2.5391943159017663
id133	sample0	obj133	-0.6001050932856284	3.3307304925583683	1.9130559995953083	1.4909543214238503	-0.7068257199138093
id134	sample0	obj134	0.18296580869600498	2.663910510876325	2.3424119662869893	3.332671712193175	-1.1579950593463815
id135	sample0	obj135	-0.025848150978878492	2.2690351088530094	1.7259959604579382	2.369750022978323	-1.5092728359710756
id136	sample0	obj136	-0.2070768759794135	2.441762412966189	2.694653792981308	3.2819192854180343	-2.022354177815397
id137	sample0	obj137	-0.564238880930467	2.5795975581164003	1.0338529499992677	3.0210572384452017	-0.4510495413323061
id138	sample0	obj138	-0.5934753138212006	4.0525704707207435	1.5986533228697135	1.378722256511542	-0.28309736665353324
id139	sample0	obj139	0.620820959321436	2.4219101906768503	2.8634851852873062	2.9397291289380014	-0.9523491605984882
id140	sample0	obj140	1.240974117817801	2.7274123846593348	1.7637882131147935	1.6705383615891223	-1.2494082072126764
id141	sample0	obj141	-0.28827988305616603	2.9337610823537097	1.576809170393748	2.8902359284332135	-0.7020065197687195
id142	sample0	obj142	0.9372714165868856	3.953786130850535	3.16030023476271	1.272013891721576	-1.846688650763289
id143	sample0	obj143	1.263990112770248	2.2423537794694743	1.5541000123682445	1.7516586745061038	-2.2996406544605112
id144	sample0	obj144	0.09316983209503493	2.455647881358801	3.0717069270294273	1.4914631404505347	-0.2981660164538973
id145	sample0	obj145	0.6164542965816742	3.5618422718911518	1.7755665514550383	2.665541365248002	-2.1792710242637288
id146	sample0	obj146	1.1008041744372083	3.9229403681835313	2.7369795505286088	3.08558549188393	-1.6544893943919647
id147	sample0	obj147	1.1967590308127927	2.6837033153631125	3.112895835758594	1.2520075205034484	-0.40935354146318237
id148	sample0	obj148	-0.16337752551644869	3.9294531304198914	2.498479110744932	2.95899646884858	-0.8932152661352684
id149	sample0	obj149	0.24921542748479963	3.324959838859337	3.1948051684923264	2.5556392524449456	-0.8743390082324345
id150	sample0	obj150	-0.446403374771001	3.7239518523488906	1.0114854834486486	3.0087440624491535	-2.032737975275432
id151	sample0	obj151	0.30172412151549755	3.9328640605612595	2.7379830380814494	2.8537125832531327	-0.4780127964478986
id152	sample0	obj152	0.10303108444143705	3.400606800948582	3.085997586569702	3.1725749686401468	-2.252876509010932
id153	sample0	obj153	0.45339945315089003	2.6532430204005717	2.8371454614720113	2.305474733733611	-1.3690306554465472
id154	sample0	obj154	0.765632984508241	2.1508443176294056	1.9213281123767363	2.4733090383017338	-2.386986532733826
id155	sample0	obj155	1.7043528312354088	3.8533013734851966	2.4852759427402242	2.2422444913473725	-1.7742218245060801
id156	sample0	obj156	-0.30114949779894373	2.4698396598161168	2.8588581938617814	1.1602739829563413	-2.548121283344369
id157	sample0	obj157	0.06393931637595018	3.0482722349599314	1.5474628469216603	1.8942085398536626	-2.4353876234793113
id158	sample0	obj158	1.5098295897360943	1.936961862982419	1.3181623964703841	1.5323468124007231	-2.474422423780843
id159	sample0	obj159	1.6636142026513931	3.7148984332626718	2.9390913616894903	1.1208829852402526	-2.0804782855025206
id160	sample0	obj160	2.8526185834521396	2.188970930332088	-1.1079779946583865	-1.075924199355426	-0.82809253320331
id161	sample0	obj161	1.6773256579125273	2.1617164832783153	-3.1430464704845678	0.49663524301282513	-1.2217036648491109
id162	sample0	obj162	1.6170529164547336	2.452100418467484	-2.1025623370517987	-0.8983939835946205	-0.9443543597027837
id163	sample0	obj163	2.908673829449903	2.6609481871954705	-1.9790636485407342	0.5554113226517445	-1.6476861091519526
id164	sample0	obj164	3.4547137370670313	2.9165321458075812	-1.7506512960694376	-1.471236068805862	-0.8562652968335243
id165	sample0	obj165	3.269525188147784	2.8516779247017507	-2.15895958830456	-1.3000540089042267	-1.7187265558212566
id166	sample0	obj166	3.4720046363718176	1.1390642999524703	-1.8776441305631097	0.40551634794258606	-2.2909012849421204
id167	sample0	obj167	3.846925032397131	2.013789866883509	-1.1894266171167835	0.4100930141760446	-1.656401679782166
id168	sample0	obj168	3.0154263559641517	2.8246675063818287	-1.8781574518155435	-0.31865172600118696	-0.9330904796573567
id169	sample0	obj169	2.9376832456218738	2.8645306277587883	-3.1300395309514166	-1.027258725952313	-0.6318750323076283
id170	sample0	obj170	3.4758588118484406	1.687436525195414	-3.0290201590107717	0.3746554888562543	-1.5937273289215246
id171	sample0	obj171	1.8192408617792644	0.7668773446485588	-2.4417960072630316	0.17183578435677083	-1.2106569380391456
id172	sample0	obj172	1.5495404116946407	1.4113007104725055	-2.5468026433658255	-1.0938100329274667	-1.1279564146796361
id173	sample0	obj173	2.9238038200733723	2.8462456411906096	-2.1103800028360324	0.8414618213500462	-2.332304065485027
id174	sample0	obj174	3.7838463037925116	1.9985534572185928	-2.905921922512052	-0.4001463270749934	-2.169656331067263
id175	sample0	obj175	1.6606418355747246	1.0672708908265722	-1.7746414029390722	0.31771141594013996	-1.0371937826869526
id176	sample0	obj176	1.5133091583575082	2.115357179816135	-1.2185176138626423	0.7627304550879652	-1.1963107586259345
id177	sample0	obj177	1.5962937505275316	2.930989330741508	-1.0884411705304522	-1.0288575859075098	-1.2126621229277288
id178	sample0	obj178	3.143670861593657	1.9394718937489241	-0.9874521141598038	-1.2101603572743589	-0.7110097882283213
id179	sample0	obj179	1.7422643580865853	1.4363404439972087	-2.8666678782562696	0.7227360685849689	-2.315952609164786
id180	sample0	obj180	1.969096915861444	1.086550684906913	-1.8789433675660647	0.34768794243369183	-2.6259808437624725
id181	sample0	obj181	2.314640719277468	1.5085054123240087	-2.513887504071968	-1.257647728690064	-1.1415779518230857
id182	sample0	obj182	1.910028958995104	1.4374385617172099	-1.1214955409674345	-1.525708530207904	-1.0547053207307697
id183	sample0	obj183	3.519901572241415	1.2301892735539304	-2.806744448755518	-1.0002256035774395	-0.43585325013685217
id184	sample0	obj184	1.9364951787054236	1.9100044331661885	-1.922948385126854	-1.0080684306058711	-1.2673319384210548
id185	sample0	obj185	1.8860348369061037	2.520549843115665	-1.8988885340968622	-1.4154684090349714	-1.9215166837455468
id186	sample0	obj186	2.0940411795101985	2.6151312074305184	-1.9076237632943562	-1.0374968292696178	-1.9367560175714738
id187	sample0	obj187	2.797924388812494	1.3900685775093606	-1.039858297190251	0.7317773533005971	-1.6805074156657231
id188	sample0	obj188	1.5767884214567176	1.80758064656393	-2.41070205279973	0.6239085384620473	-2.00038836244515
id189	sample0	obj189	3.810808592735987	0.9582533773846553	-2.1470076766559396	-0.5124003553057797	-2.053129874164268
id190	sample0	obj190	3.3944709740673478	2.588545724881448	-2.3271191656327934	-1.2704591333859516	-1.8852946190202813
id191	sample0	obj191	3.4054590271060903	2.654656807563943	-2.0422193311105143	-0.8817706424794233	-1.4469874384093324
id192	sample0	obj192	2.457644373078238	1.0377944524935743	-1.297430317991132	-0.7285012169958819	-2.2920423948325475
id193	sample0	obj193	3.713570097085924	0.8322865670192339	-3.0628036964187126	-0.48629059477698333	-1.7092249034628815
id194	sample0	obj194	1.5576055138614964	2.549405382924122	-1.1232429825241408	-0.3982355407817637	-1.4052484886751881
id195	sample0	obj195	3.381694728381153	3.006079453597162	-0.8786399782310956	-0.24232079064130208	-1.200777586575323
id196	sample0	obj196	1.5449042922163774	1.4161866689447935	-3.0399777506928563	-0.025827684117612826	-1.2964764741139012
id197	sample0	obj197	2.956904622179657	2.8877030327975834	-2.8952702998648503	-1.0689762699405834	-1.221478155951266
id198	sample0	obj198	3.212673727958789	1.7539658964063018	-1.4348726169764814	-1.0864101947669582	-1.2077898160372396
id199	sample0	obj199	2.7671979586597204	1.5215440630860022	-2.5953157245933642	-1.1117699423295213	-1.5700308724865817
id200	sample0	obj200	2.9683472467013496	1.2780304315872786	-2.983301075481916	0.7773244403380726	-1.7519226095031688
id201	sample0	obj201	3.8345198866459373	0.7353350174731987	-2.5682383755255884	-1.0086122236125934	-1.7830177433943608
id202	sample0	obj202	2.3296761592255626	0.840092598682806	-2.7866328287956375	-0.1926343009553544	-1.8376860896986025
id203	sample0	obj203	3.4981071377076622	2.0024653871844036	-1.0011304253155469	-0.7921366010450083	-1.9822583168660204
id204	sample0	obj204	2.608304626745536	2.005247191523945	-2.7300195159285785	-1.5193362717175156	-2.5268853437847407
id205	sample0	obj205	2.7407090354530146	0.6716168857798157	-2.6508664980434515	-0.4262268106700571	-2.47000020741926
id206	sample0	obj206	3.2465022466887405	1.094483478481014	-2.7386465414734174	-0.5517587289262951	-2.251676516026717
id207	sample0	obj207	3.700083263129202	0.7529559832916062	-2.5906129479432947	-0.8035281849069821	-0.64657454440829
id208	sample0	obj208	1.949998877210451	1.039406119375584	-1.6961468909231778	-0.1874724272078061	-0.6689522753802433
id209	sample0	obj209	3.113007493354019	1.8587113870937153	-1.721343766078152	-0.884631458192053	-1.4853061984257159
id210	sample0	obj210	3.012209614254581	1.2919144279506025	-1.09902932648502	-0.4741012261289783	-1.500997831993941
id211	sample0	obj211	3.6788914140686915	1.079556683045507	-0.7616680159047007	0.4614761305093489	-2.4846250077768968
id212	sample0	obj212	2.652481909527914	2.1026830703041366	-3.0561300716265225	-1.2979992972491257	-2.0093174255575965
id213	sample0	obj213	3.3449182337722383	1.336813433906356	-1.7769311093874391	0.8521915502833612	-1.7274806918890626
id214	sample0	obj214	2.393340276518508	1.5283801608846121	-1.402253116943927	0.015026272194981205	-2.2711865996656817
id215	sample0	obj215	3.1044881637166077	1.6840826310781791	-1.681208509455973	-0.9710988235868748	-1.2133199851733432
id216	sample0	obj216	3.479048126359893	1.948653199280801	-2.0803194359288426	-1.4792889805998908	-0.37614272780423774
id217	sample0	obj217	1.8655798351820403	2.540506909219501	-1.7434651172293485	-1.2089027236081074	-0.988041756204066
id218	sample0	obj218	2.690149396595194	2.4700072373509565	-1.3565043359940379	0.1664058708823375	-2.432281127012737
id219	sample0	obj219	3.085489759943486	2.7214594286394442	-0.9518125744195263	-0.8982143895916687	-1.9825000227679948
id220	sample0	obj220	2.6359972871244857	2.36479250501786	-1.0679953390361108	0.3661788043531389	-2.469882192189968
id221	sample0	obj221	2.1832535298840203	1.791048952032112	-2.7374498618030825	-0.9649414996349645	-1.6802841660958314
id222	sample0	obj222	3.7096205947505645	1.0396133868586035	-1.763160936885165	0.10049197885543792	-0.9525490833214172
id223	sample0	obj223	3.4308962641913063	1.8944244973396576	-1.632531383470636	-0.3921990016322434	-1.5706583068857616
id224	sample0	obj224	1.966621521623754	0.7485638045005336	-0.8790771132569597	-0.9414070027777065	-2.0536940038599347
id225	sample0	obj225	3.6895033132464414	2.236457073098633	-2.533861609300463	0.683591957686603	-2.4027016075253744
id226	sample0	obj226	2.042143854036923	0.9627882251930331	-2.8115134864674554	-0.6246451324317916	-0.7288654380228234
id227	sample0	obj227	2.795946525827444	1.5569687514407868	-2.7669718837510495	0.45795451609754423	-0.941844297489828
id228	sample0	obj228	2.8472923815124087	1.9789610396704347	-2.467638061285836	0.32289071758383026	-0.912065770094771
id229	sample0	obj229	3.0209443705976966	2.111274211739492	-1.6927914810131297	0.33020628513688055	-2.6401532137927926
id230	sample0	obj230	3.7887302184082117	1.9953705047590509	-1.6518557367647173	-0.8991353161544542	-2.2868659150265733
id231	sample0	obj231	2.8089788423442092	2.7983932826749083	-2.171780643786591	-0.7617493971446067	-1.9668744118402102
id232	sample0	obj232	3.4325222904872525	1.305388079808505	-0.8203520441045471	-1.171985895059813	-0.6307771916017548
id233	sample0	obj233	2.5754348733184944	0.7878860308812317	-2.3980509034232536	0.7787466372485621	-0.9058992337678542
id234	sample0	obj234	1.6856388467189825	1.8541967968702364	-2.150068940173937	0.3709901919418006	-0.9040006092617501
id235	sample0	obj235	3.4761727726950884	1.4798567718679663	-1.43865229306168	0.056187301116828126	-1.9119738931750372
id236	sample0	obj236	2.6958756213248325	1.3757463682038376	-1.1029972914464465	-1.0447795810547393	-1.451325962560003
id237	sample0	obj237	1.7795865622510423	1.8912665445837353	-2.060865070655474	0.40051054974864875	-2.0276309461021738
id238	sample0	obj238	1.57329088630498	2.2729969425184358	-1.526825585409076	-0.4139118263270867	-1.5086131542056838
id239	sample0	obj239	1.7610467216925907	1.7952874551596327	-2.902988935448687	-0.736039548996004	-1.0979758857494581
id240	sample0	obj240	-0.5904628134354255	-1.8201188661789356	1.051468129261808	-1.599914499748678	-2.4592937848838266
id241	sample0	obj241	-1.810215302502271	0.74853157185088	0.5433317010498206	2.2374418739360644	-3.6883192395989797
id242	sample0	obj242	-0.09637397949228355	0.09625285264638295	1.4921157446451605	2.1315813782905826	-0.2416208779339426
id243	sample0	obj243	-0.16583553579743282	1.780788431908295	-2.156046745793888	-0.9125045466163944	2.8541210650108977
id244	sample0	obj244	-1.5884812023526866	-2.3091102958748646	-0.008673182137211688	-3.727154920803276	2.260997955062245
id245	sample0	obj245	-0.32393574256584556	-0.7407752756702688	-0.1497483569663154	1.5230595817153008	1.292046137923707
id246	sample0	obj246	-1.539190068635456	1.0462326393005963	-0.6613813168563816	3.9943848023026467	-1.052783964059083
id247	sample0	obj247	-3.0184172777994314	0.7636720287994259	-1.3483324599512279	-3.4332323415800436	1.247591588028166
id248	sample0	obj248	2.655233209585589	0.28912318876560206	-1.0944354519326909	2.4687577189378866	-1.275491401786994
id249	sample0	obj249	1.266671410819359	-1.3454756804853045	-1.962463305387874	3.962966145013092	-1.7885798833542954
id250	sample0	obj250	0.540065908962811	2.027715191651557	1.2441440265549915	-1.3802465290995114	-1.409708484996506
id251	sample0	obj251	1.3773962478984088	-0.6057952090381733	1.3004718320070203	0.11212789351129016	-0.850160078370519
id252	sample0	obj252	1.4330090673977132	-1.4097569100089669	-3.153241059533663	-0.3879793558120561	-1.7868660908151504
id253	sample0	obj253	1.726499856189843	3.313649426405107	1.340998779733894	-0.16889786507040028	3.032941277379145
id254	sample0	obj254	1.4802574038920175	-0.315948937483866	1.8948494245614216	0.9485765907724153	2.57895717423406
id255	sample0	obj255	-1.3968757654811446	0.6729216009095527	3.3851809823949814	-2.6640588452140483	-3.0713898180985044
id256	sample0	obj256	-1.8809118501801552	0.16395040217729973	2.48055216042833	3.410979460403059	-1.2758508888064863
id257	sample0	obj257	-1.5764886217626681	0.03762573849622464	-1.5943425130415116	-1.9537489632961718	-3.701375321438345
id258	sample0	obj258	2.4126049979360005	1.0284472145593893	3.4428184256481265	-2.3373794044622	-0.7623674984380722
id259	sample0	obj259	2.441998333671063	1.2628209004206221	-1.2487135562526055	0.5000145287596363	3.233092809204639
id260	sample0	obj260	-2.5187679448087215	-1.2845671093827802	1.6012759575968794	-2.0337061857060124	1.6571938531573884
id261	sample0	obj261	1.6350857849337417	-2.1413776255225123	1.6567890843779638	0.00975709071991937	3.0553144218931303
id262	sample0	obj262	-2.8866454635221075	-2.1328626114284326	0.257570503790733	-0.3947684085573291	-0.730433598051783
id263	sample0	obj263	0.5511538648043622	3.0474286473901997	-0.9388577011191832	0.08084859956436419	0.14376181333749183
id264	sample0	obj264	1.339367523264031	2.0425367001181085	1.4265781318696982	-2.5275762404500255	-1.4525913915521804
id265	sample0	obj265	2.2079875442208836	-2.6032728873518893	3.205535881480568	0.1323817429560159	-1.2206574792203206
id266	sample0	obj266	-2.8732942368953807	-1.0967528016050325	2.27167438938035	1.3340130996780168	-1.6361917979883136
id267	sample0	obj267	1.0593199333251135	1.7475603922180762	0.23195821061414157	-3.145607420186458	-1.8888469357302322
id268	sample0	obj268	1.878066640280488	-2.423549375776053	2.2907178348372508	-0.7905742188611788	1.4667257857302662
id269	sample0	obj269	1.098867291984271	0.3175633655332216	1.4698523751364934	-1.961279374965299	0.4315400539893599
id270	sample0	obj270	1.9192061768004751	0.6876518256055413	1.5674102839584032	0.44114111746370654	-0.5946291870761822
id271	sample0	obj271	1.9320662651994944	-1.7010601285246094	-1.1954618425132342	2.2729858963467704	0.7203945902334018
id272	sample0	obj272	2.6928433094648083	-2.7620711682975196	0.9564633246918912	0.6252465007828472	0.41187055907260506
id273	sample0	obj273	1.6590602645353874	0.19234637399103716	-1.50193597640848	2.9282357932785184	-2.916156248199858
id274	sample0	obj274	-2.465889707943051	-3.238095541309038	-1.8429707855787778	0.821016997420158	-0.15503250966262128
id275	sample0	obj275	1.3207492481947996	-0.1299013446924817	3.5179734776786438	-2.3027320066638146	-0.19528875628311315
id276	sample0	obj276	-2.2503996627296434	3.237314248435583	-0.8501501480704652	2.140812687375363	0.7443639641136979
id277	sample0	obj277	0.5125525038701573	0.5554142445961858	-2.634526081729507	2.205193877903903	0.7784157984658628
id278	sample0	obj278	0.6716388115252272	-0.7756356828310274	-3.2114340646458226	2.2339650382823653	-0.7725501160175086
id279	sample0	obj279	-3.2762237757643318	-1.8962185536197707	1.5313142123627088	-2.5745340213435215	1.3717210356650318
id280	sample0	obj280	-1.716590872133473	-3.001062371982706	-0.6401979862905942	-3.9803709182066793	-1.0565182125810304
id281	sample0	obj281	2.0053384986621148	0.7959572748159585	0.6550634259186622	2.3310743951707993	3.022626337179946
id282	sample0	obj282	2.082559340005066	-2.28746428220052	-3.055522809691046	0.7884312659680358	-0.6472094228137011
id283	sample0	obj283	3.896792574911318	-1.8411678156177829	-1.5776390253428894	-0.39429564464038624	-2.445398184333291
id284	sample0	obj284	0.3963028319008588	1.1328494930896398	0.12043671500445008	3.3007607191552646	-3.045247956189127
id285	sample0	obj285	-1.0137158974198324	1.830709740591146	-1.3693616104748578	-1.4775289211200051	-1.70853029010308
id286	sample0	obj286	2.665398654071151	-0.10060425930483075	-3.4047417677965415	-0.5372165695686812	0.0040738145224994415
id287	sample0	obj287	-0.6358376036784761	-2.3344397664275967	0.2994865113706674	-1.4917636623661013	0.6493568617199039
id288	sample0	obj288	-1.9669380497976579	2.6684114208642065	2.011006630065239	0.7891217118353153	-0.33224921307856325
id289	sample0	obj289	0.4953906530237555	0.5153535371785887	-0.9773379727687905	2.4047197422275914	3.3369232390435606
id290	sample0	obj290	-1.6162464916484396	0.8899768715127527	-0.946504215799476	-1.9792231195336292	0.7029519602246201
id291	sample0	obj291	-0.1848989319677805	0.33096910236342947	-1.8107816384938924	0.21855880080165369	2.6589269791066243
id292	sample0	obj292	-1.36914983804619	-2.137651366751337	-0.48614539625320097	-0.351267757030742	1.3133955322280721
id293	sample0	obj293	-1.1427122861532493	0.8343535858734694	2.166593803613247	2.330113866561426	1.37279399174864
id294	sample0	obj294	2.7437346908307303	1.0172052546832089	0.8222372172936996	0.7015158629053334	0.19597196170816455
id295	sample0	obj295	-0.2962908497510448	-2.8714234098323153	0.21909983765740804	-1.0429901318950332	0.9410659231591858
id296	sample0	obj296	-0.9716850533989371	0.22434031841137747	1.0857825127571048	0.1058143629371463	3.510026620769249
id297	sample0	obj297	1.1383556434825348	-0.8079386172114822	-1.4766711840241513	-0.5670585808701538	-1.972888146393842
id298	sample0	obj298	-1.6929644547280702	1.7054692656968256	3.8563094200835586	2.5248641473629596	1.5073255682133033
id299	sample0	obj299	0.01909316954072815	1.010456042472375	0.7820174105863078	0.5472616494582423	1.7324321791335788
id300	sample0	obj300	2.2247491664005437	-0.8176831748137008	-0.3477047023122388	-0.7631104050065312	2.4943557566962364
id301	sample0	obj301	-3.131471419599412	-2.2004236831181836	-0.4612455924360077	2.7895110655054283	1.0207802997053854
id302	sample0	obj302	1.4535976280961538	2.564107861723018	-2.131956850338234	1.8538795440091258	-2.0458120926140473
id303	sample0	obj303	1.3000336659217386	-0.22405882246441622	-2.276512680673002	-1.2139048793937774	-0.5449363279982402
id304	sample0	obj304	-2.908989543382419	0.6970709164185678	-3.8430231887101467	2.0129148139850326	-0.474910898408589
id305	sample0	obj305	1.0323072928562131	0.37337568059088055	-1.9256498636928203	2.31369629828872	1.4232207761674212
id306	sample0	obj306	0.674231883238753	2.8656823193482266	-1.0227609648171183	1.8069929431658083	-0.35897134174864154
id307	sample0	obj307	-2.243663340808286	-2.3123899518006583	-1.0299603182890278	1.50429693379483	2.699356276859263
id308	sample0	obj308	-2.700031179656593	0.3309245624306463	-3.23054594946296	0.4370379129437143	-3.405658746198716
id309	sample0	obj309	3.0898105596113012	3.0702488159947334	0.534639946306088	-0.579328247461446	-2.0560441682425177
id310	sample0	obj310	1.9631973772663225	-0.508629616420865	1.0294190321970922	0.41098006544602583	-0.19280368821397076
id311	sample0	obj311	2.539705715353983	-0.432363034079839	-3.2435920451239078	1.3067322802967918	1.0506981507718656
id312	sample0	obj312	2.7486236281864067	0.5263040766632976	-0.5267926297802343	-1.8154405584344349	2.55305937253578
id313	sample0	obj313	-3.7818554571380583	1.691352142849325	-1.6493537477935043	-1.5129230830739795	1.7868661667683858
id314	sample0	obj314	-0.7718641833998066	2.572631650094737	-1.9887900171257098	-1.016056939434892	-1.5190704879292056
id315	sample0	obj315	0.787534060718852	0.8869378425994736	-2.515147085907639	1.3257349258888678	1.1661754147932064
id316	sample0	obj316	1.883631215709396	-1.404247340268691	-1.052705245259866	2.243300499281795	-1.1560046548800036
id317	sample0	obj317	-2.3494840973330997	0.5526629553998643	-0.8560151097376951	-1.0680335635177494	-0.22749649899530766
id318	sample0	obj318	-3.290118206247636	1.608129888209762	-2.529328884719033	-1.6879500465752248	-1.1325697389996119
id319	sample0	obj319	0.3824866524807047	0.4895115342459917	0.2740783832977496	2.3733091684425434	-1.7884929485433536
id320	sample0	obj320	0.6996410180925617	1.3361211867095883	-1.1780798596333977	-0.7455180570018232	1.3545121496923254
id321	sample0	obj321	3.298717945186336	-1.3777964372475806	2.4247276753686755	1.5031580068752068	-1.505669029729149
id322	sample0	obj322	1.825707948620119	1.739497462062157	0.9511742676883201	3.6771554774387774	-1.3254903139806509
id323	sample0	obj323	-2.0280417298734132	3.3400347054701056	-1.7167754342182664	-0.8994431521771918	0.9584642377485566
id324	sample0	obj324	-1.7545531110247066	2.4031512862649445	-1.6204167043524262	-0.22758483416223196	1.9077272755589567
id325	sample0	obj325	-0.5759430652491386	-2.6707601724282988	-1.2803942450650447	-2.6875657548760423	-0.4387636530123947
id326	sample0	obj326	-3.8858360266117455	-1.856964542520089	-0.12371499930738628	-2.659363179845122	3.021631073479606
id327	sample0	obj327	-0.7676595457761419	1.3796511134122529	-3.2119373688123467	0.3624438362695117	-1.0676065042648386
id328	sample0	obj328	2.2054171299788656	-2.445482302173696	-1.3591793069167208	-1.712201340286213	-1.8504000294015042
id329	sample0	obj329	-1.962565645871709	1.8063091347604925	-0.7579127168845048	-0.4701040641401877	-0.9119487068024426
id330	sample0	obj330	-2.864537957231564	-3.756524992225013	-0.056416521185502	-3.5607403398549646	2.325414515554439
id331	sample0	obj331	0.8066415816732498	1.6109319674231142	2.9557837546738943	-0.6293548595634892	-0.9652478841914399
id332	sample0	obj332	-1.9277869135076875	0.846103049183125	-2.339558350039151	0.03864661972029948	0.745360813289399
id333	sample0	obj333	0.8591573342908534	-1.8045807973511503	-0.7427989349772068	-1.2922420901157383	-1.9792767746094708
id334	sample0	obj334	-3.3092392378893676	2.666546790525211	1.6684145349211725	1.4885792168189234	2.52802302106621
id335	sample0	obj335	3.8861125817964695	3.205039563643796	0.3958109429458001	3.400834080556902	1.830810781931334
id336	sample0	obj336	-2.061398552196549	-3.059230873105684	0.6090839905485381	-2.046612570389102	-0.19692114944511396
id337	sample0	obj337	-0.263329223393032	1.6833696364917548	-0.4802544367454391	-1.3427160973097056	-1.8056003865425811
id338	sample0	obj338	0.7743296267541655	-2.912599358972547	1.7577550025373523	0.3147105601985669	-1.3614477914575973
id339	sample0	obj339	-0.5845694535216643	0.1838067934196368	0.9342567772721722	1.0503132886785729	-1.7158092903015962
id340	sample0	obj340	2.142749679356302	-2.5607980590824275	0.3908742170640098	-2.173314022582758	-2.1090387250550506
id341	sample0	obj341	-1.065626160268454	3.034074861810372	-0.38671652715301463	-0.22044495224133398	1.7547268267492513
id342	sample0	obj342	2.0119837135713365	1.8832483782450957	-0.029218119126246167	0.7225955796904548	3.0205905220710365
id343	sample0	obj343	1.3677572598226686	3.2995452578472664	1.736430092073183	-0.5926031061462325	0.8243532962967046
id344	sample0	obj344	-1.0252881374796647	1.016397906371505	1.7577580355638727	-2.38969006776083	2.4582931573822915
id345	sample0	obj345	1.2027960921972645	-1.872940235274814	1.2886716704249799	-0.37334832498963144	-0.39582966921461327
id346	sample0	obj346	-1.631270507000064	-0.053899510690207375	-1.3000611473166563	-1.9127670038582125	-2.4096524073888044
id347	sample0	obj347	-2.068501333386637	0.2600092826207985	-1.4020339279386174	-0.1903769041583081	0.960130725208282
id348	sample0	obj348	1.2662968329014315	-2.484985997227837	-0.5905062165875853	-0.21240545619049334	-2.92543352321957
id349	sample0	obj349	1.6462368984992468	-2.596806400684218	-1.799135255661072	-0.7069734935215408	-3.080731473053044
id350	sample0	obj350	-1.875939516438549	-0.993259338402799	-1.2791722760219044	-0.0026145035227802538	-1.8466159460704143
id351	sample0	obj351	0.060111369083914123	1.5368287288263371	0.13821629022710202	1.918473055104235	1.6527775093522727
id352	sample0	obj352	-0.7369128632792614	3.5501998982009297	0.42524907536478107	0.1533670678985961	0.8339527561782187
id353	sample0	obj353	-0.9492466637194916	-0.4627415691972433	-2.6464158286786876	1.5187920615207977	0.11062646286736721
id354	sample0	obj354	-0.020364934191789086	1.738946534502127	1.5220456919590815	1.3204495838836385	1.4193916141671996
id355	sample0	obj355	-0.9754891036399134	-1.4814944455775008	1.3915021161536985	2.446330049835272	0.9651825837106094
id356	sample0	obj356	-1.5022777104062797	-1.6387041885646552	-3.076868824928808	0.8211048235849212	0.24729020336869412
id357	sample0	obj357	-1.797269869807845	-0.701243070922032	-0.8240340283252587	1.1634571415352422	-0.48697641509905465
id358	sample0	obj358	-2.9129202250815593	-0.505226938952517	-2.491646883211305	-0.7563953208371827	-0.7754016915806963
id359	sample0	obj359	1.8884365105191587	-0.6959449989471744	1.2221917145807697	-1.529692938357773	2.1122704487695323
id360	sample1	obj0	-1.1085486799360125	-0.5106457117554402	0.5724972565485851	3.125570425046913	3.1851077292709187
id361	sample1	obj1	-1.7056005590979535	1.3269652991869079	1.1226830797397018	1.2496298569468796	3.2041279179031976
id362	sample1	obj2	-2.31355617889011	0.6095823119130119	1.5200123207310787	1.7337384695089177	2.6766259264901877
id363	sample1	obj3	-1.7033319196671253	-0.6464182080513765	0.24054701732754058	1.7305174645840873	2.9920141554928694
id364	sample1	obj4	-0.6917744748206269	0.6678563022594843	0.748366702014521	1.6824211440566332	2.665876462245344
id365	sample1	obj5	-1.6274922274596273	1.2962044761725688	1.459182490308008	3.161696142954657	1.6521930213687845
id366	sample1	obj6	-1.3738726322800894	-0.41611045053325313	1.5401095144294425	1.4964784123089465	1.536551426861158
id367	sample1	obj7	-0.7570438416612923	1.3923132862386505	0.46016017791035413	3.092882654617058	1.3751473361608253
id368	sample1	obj8	-0.8260470147891557	0.8984052000160268	-0.26669950948247134	1.3632423057195895	1.749539367261744
id369	sample1	obj9	-1.2321184176023425	-0.210345617792427	-0.12646625307384796	2.931848268590232	2.380593634188309
id370	sample1	obj10	-1.146400521359804	-0.2272003751270607	0.6742822590092694	2.120207930831466	3.4891786918876067
id371	sample1	obj11	-1.7857556618960784	0.9126403524726938	0.7846745215668527	3.110095532680713	1.2957952673624789
id372	sample1	obj12	-1.402310725699495	-0.04667149859312869	-0.5769454684245612	2.0280842048431116	2.6937902741287747
id373	sample1	obj13	-2.12406499076651	-0.6185552679343802	-0.22954495308545242	2.7609330693678635	3.0759552253054214
id374	sample1	obj14	-1.9340063225918225	-0.2107563936318828	-0.6612339941720189	2.955742719170983	1.3944891356964582
id375	sample1	obj15	-1.3788581868912895	-0.4037345784721107	1.2122164531203894	3.228284733961151	3.429360043884909
id376	sample1	obj16	-1.3534786181576337	0.3841538955147894	-0.2935688787731098	1.8309467313886447	3.3573672372339978
id377	sample1	obj17	-0.7732066086600244	1.4765775634782339	0.6540509939751733	2.539410187154488	2.868539067349945
id378	sample1	obj18	-0.5967596283964114	1.3247264575288182	-0.6254253766220288	3.2130851993051808	3.070234161147283
id379	sample1	obj19	-0.1817843771922989	1.397538106864537	-0.22897669047021352	2.3645605584318994	3.2422974929336705
id380	sample1	obj20	-0.2415055015670673	-0.42931322413192685	1.2570996901968108	2.2214817865077907	1.9361966939899546
id381	sample1	obj21	-1.8342627777100666	0.8930490652885776	0.2830483569068155	2.7514348977667464	1.7120755948943858
id382	sample1	obj22	-1.5807302717021958	0.6049234479325529	-0.3887309512894326	1.8051919882936742	1.332449463611825
id383	sample1	obj23	-1.2014300181889803	-0.2026696139393891	0.8962372403793724	3.4621472541074825	2.8196798683383455
id384	sample1	obj24	-0.2474402040463255	-0.167656591264425	0.23728249166675364	2.867544702930547	1.5637469090130347
id385	sample1	obj25	-1.5201143329911746	1.5741963192542594	0.0746165327291689	3.2552586921169526	2.1520254101166474
id386	sample1	obj26	-1.5138266774570992	0.4809695136439349	1.553528560142596	3.261028957311061	2.686115793661947
id387	sample1	obj27	-1.6543967153093608	1.4355736428595092	0.9412201836425422	2.745271038948572	2.3421237732592113
id388	sample1	obj28	-1.5425809431207902	1.0986156487872878	0.685180388604743	2.1454708366063775	1.6974650615622677
id389	sample1	obj29	-1.0570042988645503	0.07814359354062528	1.278646329665089	2.9368237532216988	2.954142644318417
id390	sample1	obj30	-0.04679988551908276	0.7533172181013696	0.8624006403332625	2.4547874968459658	3.487841452614534
id391	sample1	obj31	-2.0861821653920485	-0.5306671976711432	1.0452657918126609	2.9706792750656437	1.7839583998241126
id392	sample1	obj32	-0.21885959247968478	1.2355408365687413	1.35801448175457	2.644951323909413	2.2131734871150215
id393	sample1	obj33	-1.6497484849343675	1.691223085226216	1.6443630189521354	3.4334251557463604	3.4652167874380826
id394	sample1	obj34	-0.21753871752632903	-0.6749621714888028	0.903102224871716	3.098138758463726	2.2024409812784835
id395	sample1	obj35	-0.6894423609985034	0.20329255032935833	-0.22041772299187645	1.3726653237390858	3.204508968488579
id396	sample1	obj36	-2.156579293688117	0.9250530245732675	0.8025572540835286	2.535383831561951	1.1292997345904336
id397	sample1	obj37	-1.3850813100372856	0.21224548299900037	0.5011482901721283	1.524317270145673	2.1778665317170676
id398	sample1	obj38	-1.816781193777937	1.3814411762060705	1.2312498611442295	3.142399398057479	2.5752856555988033
id399	sample1	obj39	-0.14945169870863295	0.7395309235357033	0.19342197650121662	1.9984742624445646	2.2043700800390127
id400	sample1	obj40	-0.8076301389056264	0.9940897922091785	0.22502934829780363	2.2405724902828723	3.482816039504529
id401	sample1	obj41	-1.9012606214269123	-0.5455048778046747	1.575446361695504	3.3851375364620857	2.3712618310654117
id402	sample1	obj42	-0.23336654619698982	0.7928883690396318	0.889392091181781	3.2374848936109233	1.5423000170848193
id403	sample1	obj43	-0.9448847719724971	0.7934547784108918	1.6822327695681676	1.930964367910859	3.3185451326109368
id404	sample1	obj44	-0.6723092868102039	-0.10966997245400589	1.1322365651755595	1.2686528571965396	1.8787622487190727
id405	sample1	obj45	-0.8520580926344221	1.5123244775114115	1.0656287915222336	3.3030245726396847	2.2996485627109724
id406	sample1	obj46	-0.2571535592558363	-0.66232670750483	-0.6142805088660717	1.394524516720717	1.8994803914640008
id407	sample1	obj47	-0.032045730154639296	0.42277226444344285	0.4997053768520707	2.295399671568725	3.5183250324864526
id408	sample1	obj48	-2.047868860911961	-0.3985624737772544	0.11582200127358666	1.4441161874157689	2.635227958000657
id409	sample1	obj49	-0.7932587347089572	0.2392237847787667	-0.503306634714159	2.04930380029678	3.2005507946247214
id410	sample1	obj50	-0.9177297816307721	0.3418471642756491	0.4268276659044421	2.3990138699692665	1.5538095698042207
id411	sample1	obj51	-1.2406697174809644	0.8163777219999226	-0.6644074506756381	1.947248330485452	1.3937826550265968
id412	sample1	obj52	-1.2269174381322059	0.11468551718158981	0.5515083965551737	2.1888085558507377	1.6456689172914947
id413	sample1	obj53	-2.119795693046973	-0.21576048210608145	-0.32332766016058734	1.5066171057801319	1.794525778443639
id414	sample1	obj54	-0.4370368576683388	0.33286159625516976	0.07640789845745666	1.5213791230400173	2.977443086985546
id415	sample1	obj55	-2.309421862252622	-0.5099764957465232	0.5811745177830028	1.9378616373460553	1.388757482556112
id416	sample1	obj56	-2.1238006404807064	1.5138370550167266	1.5852058071903878	2.898779234827189	1.8804317304132572
id417	sample1	obj57	-2.281644311548984	-0.5663815757550958	1.676623970797274	1.5473703452926608	1.7483471184185095
id418	sample1	obj58	-0.17403689693968594	0.5039050544080181	1.6117404125831192	3.471828698733483	3.087041754562005
id419	sample1	obj59	-2.089218133341496	0.6356538753199128	1.704246119887063	1.4549091457129046	2.260205355637865
id420	sample1	obj60	-1.1070843310071563	-0.18984409419576476	-0.22214041533052598	1.663854172549476	1.8493633167355075
id421	sample1	obj61	-1.3066014753803366	-0.5954498168866353	1.5560837647417907	1.7603745860688464	2.373489930766417
id422	sample1	obj62	-0.2395444335908785	0.3858075447466003	1.549865753294217	1.3463667384714413	1.1701262226408915
id423	sample1	obj63	-1.2424939813665885	-0.42872389008922007	-0.24449975611323582	2.534444573192177	2.733788604979929
id424	sample1	obj64	-2.2162670176246166	1.6044241715445413	0.9809131506317716	1.776808602482541	2.547378893309169
id425	sample1	obj65	-1.0580741604302828	1.237885408276065	1.1558489374341379	1.6225554109500897	2.6317944631946517
id426	sample1	obj66	-0.45935030639566965	1.5233887556308912	-0.08469166830831565	1.7108440805661393	3.0803273873945773
id427	sample1	obj67	-0.36654463453106967	1.6382436068885162	0.628182916641701	3.0414774759413192	2.7275813037172316
id428	sample1	obj68	-1.7408456633552947	1.6768396171135362	-0.18573828915855461	2.0790146465697736	1.8048638899943628
id429	sample1	obj69	-1.8560034332040962	1.036703078524127	0.8799728584849698	2.912605838587746	1.5201819353316535
id430	sample1	obj70	-0.5637603482490348	1.5531245023620837	-0.3787718429691167	2.5699208841466192	2.92340879434164
id431	sample1	obj71	-1.2690630916890309	-0.3071736970343436	0.49289469296771005	1.2159258399435382	3.1157647463782476
id432	sample1	obj72	-0.5398597363384774	0.20166985680513227	-0.08142922813635267	2.989438139056171	3.1647851117642887
id433	sample1	obj73	-1.889047382207668	0.7976022040146868	0.7888422306867049	1.9634573475586574	2.906298408220151
id434	sample1	obj74	-0.08167634253576828	0.47900657925332224	1.2358751783358286	1.9678167214259594	3.255935122233179
id435	sample1	obj75	-2.1240003084704813	0.5389429307122653	1.0294135844981203	2.0808247791788155	2.8041883413134707
id436	sample1	obj76	-1.0800390034927103	0.08353681139610891	-0.04616537960422129	3.0638605159523427	2.208385934865707
id437	sample1	obj77	-1.8461496715941585	1.2815936539567954	-0.07478551816230383	3.150444681790641	2.286961284033608
id438	sample1	obj78	-0.21734197417990297	0.7434709902599512	0.006221167528240423	2.767722718236387	3.418462450646312
id439	sample1	obj79	-0.6358725997942074	1.6489305322833452	0.6774147036602702	2.209665466878051	2.08967039704737
id440	sample1	obj80	0.9189887529987368	2.3674134157539357	2.06063577906326	2.201370275030028	-1.1397133078735577
id441	sample1	obj81	-0.5059486870125169	2.9266724917399145	2.7396733720881015	1.4822085957366218	-0.6497699504829095
id442	sample1	obj82	-0.4982118276199581	2.545475666472038	1.3552298226047257	1.226920985330407	-2.3659285825985954
id443	sample1	obj83	-0.25097263686805404	2.5744324556332043	2.272546114423095	1.8199110198086108	-1.1161387748119953
id444	sample1	obj84	-0.48370617024704177	3.487970273242894	2.888468980258943	2.723977485282891	-1.4588137140104274
id445	sample1	obj85	0.14983563046634252	3.11770877527571	2.4698685689738307	1.2701912453417883	-0.6407029910755873
id446	sample1	obj86	0.9899209677457326	3.2713654606018063	3.257128869369673	1.293464519868384	-1.1595608878422459
id447	sample1	obj87	0.7183793169527799	3.66304195503234	2.422225949078171	1.0685410241505262	-1.280136959442435
id448	sample1	obj88	1.62494757271576	2.283239907694174	1.1317808598455437	2.2287813001218337	-1.175761007093141
id449	sample1	obj89	0.2159405003668431	3.8886254500899398	1.9641899203362103	1.3261524378723257	-2.235728644588786
id450	sample1	obj90	-0.15255821675243264	2.063492914127494	1.3313356362344952	3.2238476967646825	-1.1884769157953772
id451	sample1	obj91	-0.32655255783819226	4.0556704749288235	1.8118118654686768	2.4990553344903628	-0.3523188972611686
id452	sample1	obj92	0.9595362475291243	1.7653502092968327	2.0538996541227177	1.256158754199527	-2.0619511332151506
id453	sample1	obj93	0.5145289788304988	1.9996133333717818	2.180049843516568	2.281176497950567	-1.0651995876166507
id454	sample1	obj94	1.2135796655273172	2.0193447707140724	2.2352099429203487	1.8651355448504698	-0.3881988538096526
id455	sample1	obj95	0.8910598530248932	2.4073906734760495	2.9713161065932967	1.1334058885085128	-1.5885503332136022
id456	sample1	obj96	0.622789644550412	2.773294492717179	1.3395050826387382	1.6734047444892184	-1.0276437047978102
id457	sample1	obj97	1.334491421391197	3.064352013212723	3.2474252226349396	1.2755986960022385	-2.580398588358361
id458	sample1	obj98	1.2941246759931653	2.646143357421114	1.5962847940983336	2.0009815877788295	-0.660859487261021
id459	sample1	obj99	1.4848582832439197	3.906722746208433	2.2933172548809018	2.1582852198150433	-0.5854947617742361
id460	sample1	obj100	0.8151867571484659	2.873376185566987	1.9800037465652367	1.399676424212075	-0.9453879325151353
id461	sample1	obj101	-0.5070560759114389	2.442874191652269	2.3520230640822204	2.5957051226160974	-2.4489008035330286
id462	sample1	obj102	0.14806004222633573	3.436559837049128	2.088339836646714	1.4873874648553889	-1.475508130030365
id463	sample1	obj103	1.0996822885851407	3.009001529308474	1.6564339549751312	1.4816261827535135	-0.60949552597348
id464	sample1	obj104	0.579083945551568	2.8594096802063844	2.1082693934748487	2.7892868900129906	-1.1717399079516153
id465	sample1	obj105	1.5804667523821092	3.802154157385311	0.904530470294842	2.9242506142894626	-1.12400780371601
id466	sample1	obj106	1.3446542341009309	2.0176210300131108	2.667777561684125	2.9952500928530243	-1.9807700351672313
id467	sample1	obj107	0.7006306406588096	3.485905734401924	2.0208195065986985	3.326357302421278	-2.0385935121438297
id468	sample1	obj108	1.3992385803181369	2.1495517611703105	1.1546237091554294	2.320223935894825	-2.4453953774289077
id469	sample1	obj109	0.5619579267615644	2.791296707023613	1.3178229406519164	1.8016701576176106	-0.7163795842423886
id470	sample1	obj110	1.012885945276817	2.069684240383939	1.8421772906340048	3.106570269244652	-0.4079844767043357
id471	sample1	obj111	0.32867606869241695	3.5380243686649444	2.81755318259124	3.3582887701625603	-2.545804207547143
id472	sample1	obj112	1.0816051023482784	3.3766388877550115	2.6959321973888115	1.834768154324684	-2.6398642842637585
id473	sample1	obj113	0.30497735746608	3.078199874433263	3.1140074133822138	2.0948586357211103	-1.295988199199288
id474	sample1	obj114	0.6050788678098387	3.61235603171598	3.2429017431766898	1.7111990223355125	-0.5429461482080409
id475	sample1	obj115	1.4947075123645146	3.917335295679467	2.753803099034407	3.2450048289869757	-0.8517795241922588
id476	sample1	obj116	0.532276761727972	3.8689056202417396	2.5696903255301535	2.9790855679362274	-2.4488103079419155
id477	sample1	obj117	0.40745607135895856	2.9945676618708146	1.483173789100026	1.8703940399853702	-1.1525188643807303
id478	sample1	obj118	1.4966201524902611	4.054228761452782	2.7736314588025337	3.250995662373139	-0.844375086913894
id479	sample1	obj119	1.2838748087253062	4.00647061531137	3.055635616369748	3.142636335353642	-1.0749796043975657
id480	sample1	obj120	1.058449632577535	2.717958450054706	1.8249750153762552	2.2886700557182453	-1.0821826251842288
id481	sample1	obj121	0.6966454763357977	2.0361474377816755	1.6157306882457265	1.269078849973934	-2.5423436508823367
id482	sample1	obj122	0.14363770815857002	3.0033107301222497	2.00670192346667	1.1582729629281523	-1.1872403948811847
id483	sample1	obj123	-0.5578885038105779	1.8016445869476059	2.770345901727751	3.207389903385123	-2.1074789564055543
id484	sample1	obj124	1.6132822198403274	2.3308810554675747	3.0821359955473344	2.566510345841453	-2.2512625313037247
id485	sample1	obj125	1.371182082500918	2.6650666035394415	2.7301999877127727	2.978674758233984	-2.2501918807144414
id486	sample1	obj126	0.7205118598163203	2.0350248448781785	1.8991184406006552	2.235404696202986	-1.6090621255901223
id487	sample1	obj127	-0.4832896453566282	2.346118363094845	2.7501854002735024	2.6287071854932123	-1.4445331190805943
id488	sample1	obj128	1.2065273088275184	3.163344796120726	2.2731030068217115	1.6008565350300448	-2.120751985897298
id489	sample1	obj129	-0.6418574639169641	2.6611442847547533	2.31834547766492	2.3017062117555005	-0.8936432938247578
id490	sample1	obj130	0.35909567835567646	3.214650312495027	1.1001238304397325	1.9224701826617827	-0.43731683987371217
id491	sample1	obj131	0.12282634541366444	3.7610769179293024	1.9393604345152977	2.0809305703110605	-1.4960290417064006
id492	sample1	obj132	0.30281003506643145	2.930600557370532	2.734182571985175	1.4694612463764365	-2.3060274901707394
id493	sample1	obj133	1.2569635448995498	2.669052345448672	2.129510559334654	1.8152065699352407	-1.8985680085022005
id494	sample1	obj134	1.1115193050300094	3.571082994509937	2.122193478360547	1.9998106673665155	-0.9760717539311199
id495	sample1	obj135	-0.5922175179108375	2.620792992123495	1.386177482686322	1.6903495850507855	-1.0079463256282792
id496	sample1	obj136	0.4294271622987089	2.5932264193444285	2.4232205540926106	3.0771704391499233	-1.59368555527803
id497	sample1	obj137	-0.5578975724713195	3.7882011767354644	2.8160396989578422	2.2192832269952674	-1.6736394339599738
id498	sample1	obj138	0.1584534239146782	2.518788850211931	2.847333656613536	2.0723732741775605	-1.729972142889116
id499	sample1	obj139	0.3850537429784837	3.418953313369844	3.2022099809945033	1.6145029420765509	-1.62195242434965
id500	sample1	obj140	-0.5844565405151017	2.8145056345162356	1.633004590212919	1.5737389288534884	-1.0635037948223882
id501	sample1	obj141	0.09631270406628889	1.8522247907679121	1.1616591844843773	3.171375874216455	-0.7120434596951812
id502	sample1	obj142	1.5847068299711056	3.8248260465280914	1.8405573719239294	2.382716760117808	-2.14370776308388
id503	sample1	obj143	0.60980296475201	3.0730220033338584	1.8903613961879686	3.3306117506284085	-1.4012580368768754
id504	sample1	obj144	-0.5153412122055832	3.9863113735101727	2.3727818914176644	1.2987451840446673	-1.4899430247117313
id505	sample1	obj145	0.5464096917266981	2.4449410470992987	2.0146916319989128	2.903083123408911	-2.348510992374136
id506	sample1	obj146	0.044032369774994584	3.9178101783880583	0.9424125010550104	3.2995543382609087	-2.435081973053118
id507	sample1	obj147	0.6678453837305431	3.613515625794078	2.0636999317915965	3.1300183864520497	-1.7508568816868877
id508	sample1	obj148	0.42222252157462203	1.920371381843513	2.3897673365099896	2.3004810482606812	-2.501315744620536
id509	sample1	obj149	1.0734019357944242	2.0996610951803465	2.44797937721942	2.816432400116872	-1.2997968608569401
id510	sample1	obj150	0.03501775820302355	2.1356978746329602	1.2124385946933847	1.8287089179705243	-1.8998103714129817
id511	sample1	obj151	1.7499149954702482	3.6050657701781725	1.1769398111574318	1.11550627204886	-0.7602759251791031
id512	sample1	obj152	1.0402685745314693	3.1017892397744413	1.8025166528798824	2.2756910429707085	-0.3747451861974038
id513	sample1	obj153	0.16886224113277937	4.128723270059274	2.2673923612982305	2.2564683816241944	-1.9167315342617326
id514	sample1	obj154	0.7099345288994439	1.9092638588988826	0.8954254845431127	2.893355118900124	-1.8661721488121263
id515	sample1	obj155	1.58310956003847	3.4461438219477003	1.292443874835691	1.598375614624624	-0.5969594115606276
id516	sample1	obj156	1.5609477087596708	2.401696029576619	2.518039987491596	3.1770360594700193	-2.345040820830727
id517	sample1	obj157	-0.3905855970228419	3.7301272952612115	1.9907942336632232	2.8570346915626814	-2.2759699074983297
id518	sample1	obj158	1.5384216039355192	3.678146365031731	2.2823501633954186	1.330423604275515	-2.077640239000265
id519	sample1	obj159	0.9913875130370222	2.6943224014108287	1.702622596341655	2.9921498001280673	-0.7784136442145178
id520	sample1	obj160	2.2527648017074826	2.424302411105397	-1.2000051239137195	0.17349227067600248	-0.30712895633413617
id521	sample1	obj161	2.833143841834411	1.296536551832198	-1.185192359770038	-0.9050407001315272	-2.041076934747647
id522	sample1	obj162	2.859811573489335	1.814730143468858	-2.666669281730726	-1.011622307297782	-0.28312969856526826
id523	sample1	obj163	2.468927262601674	0.6423434695927781	-2.373930673170957	-0.26187676365868806	-1.352750345485268
id524	sample1	obj164	3.469792773990971	1.3148599973525243	-2.0129520719505605	-0.4194522051500973	-2.1810769168927195
id525	sample1	obj165	2.3182036598836957	0.9031592476109823	-1.8815341380383277	0.6195066004396403	-2.611987717863733
id526	sample1	obj166	1.9743707313196117	1.4823764375522712	-2.2383143091710345	0.643225804231274	-1.8039014998677216
id527	sample1	obj167	1.5666186239856221	3.021502419779099	-1.9734804360341385	-1.070386932477487	-1.0066673954413572
id528	sample1	obj168	1.9947480546131162	1.7013214596931108	-1.9347549531953527	-0.8178977129788384	-2.640553782630831
id529	sample1	obj169	3.814500917203076	2.3972964255711986	-1.442407273062613	-0.470998718077809	-1.113685461918203
id530	sample1	obj170	1.5743386947730864	2.80078905996384	-1.8170591827037588	-0.7453263844109914	-2.0779657283028468
id531	sample1	obj171	2.4425726786772115	2.755136330502833	-3.0915238452379787	-1.2931794221274178	-0.9517096242271719
id532	sample1	obj172	3.6691223353718705	1.298688575343351	-0.8430215589347478	0.224237967186399	-2.2525614427526772
id533	sample1	obj173	1.9616581590027489	1.7685470362863376	-0.8375023501942189	-1.1752080603322335	-0.7219311300693625
id534	sample1	obj174	2.797961489391651	1.9475062333062017	-2.3086312566684963	-1.4574142565451476	-0.5298174505729938
id535	sample1	obj175	3.609843752598647	2.541207235347084	-2.7979132993893967	-0.6475306756114199	-0.7866442188533711
id536	sample1	obj176	2.8112561883868823	2.24883770037696	-1.5696091988712984	0.10276688555066804	-1.129279385651353
id537	sample1	obj177	1.9441349027822126	2.222459354464603	-2.7071737981334074	-0.3855399371493302	-1.6768881205688428
id538	sample1	obj178	3.307403765926269	0.9683068422221573	-1.5320960299146742	0.6056607770485665	-0.36634911993086416
id539	sample1	obj179	3.232249353301118	2.7867685316898743	-1.2088855515566974	0.16012679985230394	-0.7867932938682509
id540	sample1	obj180	3.172624676097109	2.022331738811091	-2.171694936406574	0.36141727869987994	-0.5610613626994241
id541	sample1	obj181	3.6837808173834743	2.5341369629334185	-2.601344155611197	-0.16886298853054016	-1.5036797159337223
id542	sample1	obj182	3.440810980954587	1.4230410839847614	-0.8814789877642457	0.6991832157604592	-1.067976738685158
id543	sample1	obj183	3.168559140987247	0.9708244907365551	-2.666908535345929	-0.8579293105315401	-0.43936171121421386
id544	sample1	obj184	2.5661448639886157	0.6574881615918411	-2.2159805300443134	-0.714130241742533	-2.3102223941502142
id545	sample1	obj185	2.853628923931466	1.2070700492515192	-0.8948250138823874	-0.8958610865820359	-1.1695187092512702
id546	sample1	obj186	2.8723309730342708	2.542154485772559	-2.989584754518969	-0.4429373891868278	-1.7546196187947378
id547	sample1	obj187	1.5488608923131046	2.860851490602243	-1.3110070811750887	0.11191164064226866	-1.6543999252753852
id548	sample1	obj188	3.388379410295418	0.833577273191514	-2.1041569209589617	-0.8594819315855757	-1.8437424748784133
id549	sample1	obj189	1.484803808743082	1.484066009259959	-2.2571783016086755	0.3777955166510454	-1.3055343561156942
id550	sample1	obj190	2.301968558782063	2.290779937847332	-3.122138445731447	-1.1949655448807943	-1.8046588599934377
id551	sample1	obj191	2.954980114491149	2.1298567057211164	-1.6156914888384124	-1.1611533636796851	-0.4795263712966473
id552	sample1	obj192	3.8575123112845873	1.875027292814436	-2.667753598513255	-1.3051708065746328	-2.3830108968784174
id553	sample1	obj193	2.3384203836687463	2.8571545767587865	-2.555244037402379	-0.5246528550165359	-0.8214215771788604
id554	sample1	obj194	3.697150143911209	2.7372733663876474	-2.8303743508579133	0.8118986618993664	-1.3049987261144764
id555	sample1	obj195	1.4768266859797357	0.7208488503909081	-1.476615416907389	-0.22958192738282035	-0.9465345859066101
id556	sample1	obj196	2.1889702432313416	1.3835093571584969	-2.060497880465535	-0.11382132201247286	-1.6487365627723718
id557	sample1	obj197	2.614347844201462	1.323342814725226	-0.8664589855095814	0.004784737544965001	-2.4410373273562547
id558	sample1	obj198	3.2078718484474917	2.523067856128101	-1.7901968533933443	-1.0743300562318037	-0.9103575232122503
id559	sample1	obj199	2.9165444839062222	1.3055956904900068	-1.6210867153142572	0.22065404378174036	-2.4780103110619125
id560	sample1	obj200	3.330566026730196	1.9947789580850266	-0.7763088495644717	0.4660347077791729	-0.9791496198764209
id561	sample1	obj201	3.168713663442902	2.0330944541229963	-1.681091320663774	0.40350871187393733	-0.2870695394677776
id562	sample1	obj202	2.67730647818694	3.0307207915553334	-2.356038629699918	-0.15848497909949844	-2.489910890571541
id563	sample1	obj203	1.8123388944277523	2.1845442622800206	-1.3215570000530594	-0.47953576214866755	-0.48208310853381886
id564	sample1	obj204	1.6790384948733634	2.1571481917231212	-1.0210509653904782	0.2763675462115178	-1.8996187698377065
id565	sample1	obj205	2.012023041161397	2.9784090051255565	-2.9715161130980814	-1.0813188878876256	-0.8429028609802913
id566	sample1	obj206	1.4697447906873289	2.647029631473424	-0.7575410515107881	0.4483523826151148	-1.7394144837111714
id567	sample1	obj207	2.353856789309443	1.5747776719057067	-2.1902147228718087	0.027166749352335984	-0.7634380044754112
id568	sample1	obj208	2.59986355644733	0.8284635263402869	-2.866172468650768	-0.9968417498201397	-2.6218098158487253
id569	sample1	obj209	3.8597683778105036	2.56737560960055	-1.206657329833122	0.5201456915194818	-0.8198072890058616
id570	sample1	obj210	2.937745547431047	2.1180910108594917	-3.067181922727161	0.500989119717971	-1.7369296936092744
id571	sample1	obj211	2.4609943119589017	2.032884289335373	-2.8328065871769867	-1.3099791975186417	-2.178711601783367
id572	sample1	obj212	2.1722121125460907	0.9884648423728077	-1.4123537934826562	-0.1461179371853476	-1.550510213723647
id573	sample1	obj213	3.7074042463871724	2.9320759331504336	-2.9897201439891745	0.742791696108376	-0.8575732248482701
id574	sample1	obj214	3.2503696395189112	1.3931780874477617	-2.6669755291348283	-1.3353306103499503	-1.4202781832038474
id575	sample1	obj215	2.4980076105199935	1.5596138719652253	-2.5398129034494143	-0.33135979167204477	-2.1643982334368084
id576	sample1	obj216	3.5809290634287656	2.263400076438452	-2.9912903360721383	0.605841282206528	-2.2762444914688564
id577	sample1	obj217	3.8015624141168054	3.0167125139494453	-1.1973400529023974	-1.1447636616302956	-1.3867196433377147
id578	sample1	obj218	2.9043732255673347	2.5543112024721903	-1.7423697203860895	-0.7210894125365084	-1.1643495112445317
id579	sample1	obj219	2.2948010923648656	1.7331959488331234	-2.79310093073002	-0.09883711068045975	-2.3653907196969644
id580	sample1	obj220	2.7774091891898456	2.359770811452867	-1.0337354567539145	-0.32777708530098026	-1.931805679141577
id581	sample1	obj221	1.5793819755721767	2.4928359189580385	-2.4982722212845077	-0.24830039999919862	-0.7803989161276772
id582	sample1	obj222	2.6402347221335956	2.8283973630918924	-2.7314656644847752	0.1875011945854661	-2.2363877497190403
id583	sample1	obj223	3.547268212417393	1.4181953404117045	-1.9661821729838005	-1.480948866483122	-0.5922810341292306
id584	sample1	obj224	3.8312442662395307	1.2040836274698967	-2.831927759916198	-0.16724417768398103	-1.7908281679520432
id585	sample1	obj225	1.9478300611645794	2.1485470711107495	-2.9297474965615	0.5639487665923346	-0.9241243225823101
id586	sample1	obj226	3.6848908893253034	0.678812274824955	-3.057684404034328	-0.21846388982780907	-0.30738131128599355
id587	sample1	obj227	1.6685605677004158	2.7967796978915067	-1.9961977305446788	0.0053975006687658755	-0.3355454234499786
id588	sample1	obj228	2.5945167203648	2.285482573248581	-1.0245285109950764	0.07584265503632692	-1.5865259065869328
id589	sample1	obj229	2.2748875210026003	1.3985489384841339	-2.009619174242353	-0.6098149721506678	-0.7314445205654594
id590	sample1	obj230	1.6430567625118353	2.5733015580426626	-1.8740059438936076	-0.39763643781756675	-1.397681588953897
id591	sample1	obj231	2.1631592913005093	1.869273847517073	-2.0057578721448923	0.7936121691820881	-1.2647396616689524
id592	sample1	obj232	2.7006148042174365	1.4981371261322167	-1.4321936819166128	0.19904111654980317	-0.8287222656605826
id593	sample1	obj233	2.264474994412711	1.3619227509873655	-1.2624254405348738	-0.6622506503967908	-0.7336904921992622
id594	sample1	obj234	2.3590049052519646	1.8250747159171874	-2.946905696874734	-1.3486801142294784	-1.6349744635054815
id595	sample1	obj235	3.5956242141589634	0.9708770219400331	-1.2527592303572588	0.003365447862479165	-0.7408289298854347
id596	sample1	obj236	3.7194442244903883	2.380261375751508	-2.271905786897104	0.2147701581911483	-0.9972953173391668
id597	sample1	obj237	2.6869939975752013	0.9545041693982854	-2.0374935906570806	-1.5234788149921554	-0.4719194693615487
id598	sample1	obj238	2.270678215795034	2.3039678620259902	-2.008112926362626	0.15312546146548867	-1.2027313001465663
id599	sample1	obj239	2.6258958786477082	2.2514164588104286	-1.9863063402771575	-1.189338418671736	-2.1697774121230307
id600	sample1	obj240	-0.1440156520200604	-0.2240240228611008	0.1324488957739851	-0.3081438838534363	-1.5883105996945432
id601	sample1	obj241	-1.9526411960830383	-0.13748205863470808	-0.08668649511862125	2.697875926464046	-3.9642582445305523
id602	sample1	obj242	0.846887392756728	1.1810253803232036	1.326286868307715	2.1612085363867903	-0.13744345292405025
id603	sample1	obj243	-1.8165069305544583	1.6186820355854032	-0.43708197903042856	-3.0070588483727922	2.6068088746716005
id604	sample1	obj244	-0.4841144562970341	-1.2342231320177375	1.0774989732974964	-2.8865762374577875	2.413304604578438
id605	sample1	obj245	-1.172260025580366	-0.751157746852924	0.3961799556874894	1.1421252268994488	1.8844422827210898
id606	sample1	obj246	-2.1127182867042245	0.6708682548174805	-0.5939573354800656	2.7117265755808573	0.13703826270262076
id607	sample1	obj247	-2.9769244197550297	1.000463123736227	-0.9423747910241037	-1.5176343832431975	0.8427144974327301
id608	sample1	obj248	3.0988414398002053	-1.2580368590551059	-1.082693212007388	2.8221333636583097	-0.6299122965095374
id609	sample1	obj249	3.181801441996444	-2.0151904566807084	-1.362613001923043	3.7239072853965665	-1.115645147925795
id610	sample1	obj250	-1.4139532965251498	2.8586807107789687	0.9701930145215106	-0.618451121991461	-0.24216679204159863
id611	sample1	obj251	0.4327480463727076	-1.4143283405499782	1.849689128140566	-0.13664699371938582	-1.490681363872983
id612	sample1	obj252	2.5294229711367064	0.43122475511229186	-3.598500144323469	-0.7640956773283736	-0.8849669845196468
id613	sample1	obj253	1.712208132238898	2.4637510532233486	0.6019911919389423	-0.12396797522243941	1.7443894466882057
id614	sample1	obj254	1.494268311279868	-1.5639021959705002	1.0330238915152243	0.7226211004364254	1.996083806161156
id615	sample1	obj255	-1.3460307742513884	-0.4770973943864605	3.9333541102192395	-2.3294176143302465	-2.233343550242083
id616	sample1	obj256	-0.17945341612257715	0.12658058420022078	2.220728413444689	3.0685665786674203	-1.7847602750264628
id617	sample1	obj257	-1.1254964471936264	1.074862207827503	-0.36912644275118756	-0.4439267187085505	-2.5696625822978185
id618	sample1	obj258	3.699033112765843	-0.7478796304692197	1.6884593498455964	-2.8000234624800924	0.19908897112006652
id619	sample1	obj259	1.3160092836233144	1.5014112620114137	-0.19177586181694495	1.2265757552789165	3.0624191604468423
id620	sample1	obj260	-1.4469203950285587	0.42223040723798966	1.5983431172127445	-2.2680986167611428	2.862170561023451
id621	sample1	obj261	2.566000875242562	-2.226736096593786	0.5095122856429295	-1.0297497914286866	3.191112480025267
id622	sample1	obj262	-1.812470542358495	-0.8394916363524176	0.29978363514896456	0.7802187136172185	0.049234367648897326
id623	sample1	obj263	1.9589608942270276	2.404331130805483	-1.0815775204319034	0.5348506342147716	-0.650963648026952
id624	sample1	obj264	0.4303100304683567	0.4078144560277892	-0.9486625619876172	-1.0459600940820948	-0.7133561921827865
id625	sample1	obj265	1.194066580556947	-1.6920610515252046	3.5386116575504136	0.3302541094448541	-0.4909548764056746
id626	sample1	obj266	-2.0180274024325433	-0.934031672210955	2.4873154475115147	1.5085403818940493	-1.370616900616434
id627	sample1	obj267	0.44954522667116437	1.1321957710437829	-1.2297817438362157	-3.5605148513643723	-1.775752021417431
id628	sample1	obj268	2.1926566846614666	-1.2072937809619724	1.857296052789657	-0.4318455275905635	0.5888266170645637
id629	sample1	obj269	-0.284698335541381	0.8494704432775444	0.3499779094715325	-2.0935281597268256	1.1187943289356876
id630	sample1	obj270	1.8528890102847475	-0.07390317293642434	2.8330525314480113	-0.2290613295009325	-0.3613840000869486
id631	sample1	obj271	2.8260990676974975	-3.711453193502691	-0.9087370043092761	1.078642429592416	1.5901030023100189
id632	sample1	obj272	3.2295077970411126	-2.868253617838067	0.11268533936168357	-0.6699013992374199	1.824425741369947
id633	sample1	obj273	1.6136395419027005	-1.7072851387513686	-3.395015596643518	2.114438602260403	-2.9202253626944437
id634	sample1	obj274	-3.827672405772687	-3.565199347584686	-1.3287514093945247	-0.14220536615164003	0.6070422984998562
id635	sample1	obj275	1.8694673099803882	-2.1156931591586585	3.658592710993506	-1.414876548731918	-0.10096359318897452
id636	sample1	obj276	-2.611347640138001	2.4330762113523656	-1.917668108228212	1.3552484617269478	0.8622829939428431
id637	sample1	obj277	-0.30991324310939106	-0.006263568909149475	-2.1995219386324263	3.3283690200103573	-0.08890598759848367
id638	sample1	obj278	0.415401322974703	-2.094014304545592	-1.8063269077378574	3.3539849140735765	-0.9826719309596035
id639	sample1	obj279	-3.2643546422270946	-0.9970662043297522	1.2092711937075356	-2.9742296815499616	0.7393184377512638
id640	sample1	obj280	-0.3473502448635055	-1.839126325160992	0.3658843404072696	-2.1858911891017847	0.6487443968359219
id641	sample1	obj281	1.767783959377313	0.6876858245155864	0.7840535283170126	0.21907836489321864	3.1737657449535437
id642	sample1	obj282	3.198520623846855	-1.4154286051235279	-2.3224657476920907	1.8662566916101744	-0.22262911055535206
id643	sample1	obj283	3.754223807597185	-1.867093313278389	-1.2464638431249977	-1.4928949787706003	-3.495601442347386
id644	sample1	obj284	0.3559086844644107	-0.6191331757771981	0.7172426886892855	2.850440397788094	-1.933269641972353
id645	sample1	obj285	-2.3520029525707704	3.7271651541693016	-2.1372951761250047	-2.7727102633013816	-3.189056555691637
id646	sample1	obj286	3.3006787418586416	0.6963970781261897	-2.2543456395535144	-1.8994637248978925	0.6115502864338859
id647	sample1	obj287	-1.577012710066426	-2.9423083166738784	1.7891285341553844	-0.3789981151770534	0.26790896271555176
id648	sample1	obj288	-0.9544509547629618	1.933989373466211	1.0125064379434772	1.6312947890928025	0.905873342418869
id649	sample1	obj289	2.0853671845205657	-0.7123773212413915	-0.7997483486691961	0.7904007591461046	2.365935638994004
id650	sample1	obj290	-0.17226997945026246	0.4542018786595259	0.5960743947152254	-2.402543696773182	-0.2624087003134199
id651	sample1	obj291	-2.2020372105643378	-0.24712127967136888	-1.1278065968773803	1.92679988585371	2.7068689484812927
id652	sample1	obj292	-1.0660861411576266	-1.834150295383861	-1.827652254713321	-0.27861128918859634	0.9935890668526608
id653	sample1	obj293	-2.1867587414876573	0.26682424769359514	0.9697045270088874	1.8805039980178448	0.21106363887683988
id654	sample1	obj294	1.7782413514537967	1.6895189976319323	-0.34528526809396587	1.2545977665944887	0.8362393252059084
id655	sample1	obj295	-1.1997821978882857	-2.240820519850348	-0.5708308878832544	-1.6355546129751888	-0.5841302434512585
id656	sample1	obj296	-1.295826553584533	-1.095735199984841	1.4965415116389986	1.895312608179588	1.5901425000562424
id657	sample1	obj297	1.5934979241084217	-0.44559835842975004	-1.1251546474530534	-1.1253385619213527	-2.4149407573183623
id658	sample1	obj298	-1.7147589356722603	0.5829143940545748	2.404534896561746	2.593888162310548	0.282641059904687
id659	sample1	obj299	-1.9725930982592785	2.521693335981346	1.077760399046462	0.5738902222373684	3.190329860740321
id660	sample1	obj300	2.5623774623418796	-2.53203290945559	-0.3402517732467286	0.09415352762645512	1.0797545334060892
id661	sample1	obj301	-1.1456352050279934	-2.08504429749705	-0.8697022050973375	1.6590346650006567	-0.274019553002393
id662	sample1	obj302	1.5301951671068934	0.8148546434695663	-2.63670073485848	1.8960148565648824	-3.404110240169201
id663	sample1	obj303	3.3912997039394037	-2.1428434103136684	-3.746683399177707	-0.9608634498227728	-0.4210630721204185
id664	sample1	obj304	-2.162202322423746	1.073841798951028	-3.50192809951345	1.8465037211377813	-0.464978036075274
id665	sample1	obj305	0.5907919848472363	0.40582440628565086	-0.15836415186920783	2.172816408101165	1.4946941721306874
id666	sample1	obj306	-0.6393320425790308	3.7987000530434516	0.6670069335672024	2.3062235735323537	-1.0391277172136417
id667	sample1	obj307	-2.2844121406455153	-3.4877932373539	-2.3156851075109914	1.2252273282488972	2.321509232566325
id668	sample1	obj308	-1.9699768517903504	0.24023315337238604	-3.0541109462466802	0.029129330605017323	-1.8459406329122314
id669	sample1	obj309	1.8687756997245089	3.611815006761451	0.23076069920285824	-0.3493813119053617	-2.155634629163978
id670	sample1	obj310	2.1302705330163336	-1.20467089894193	-1.2217474042402405	0.44970699725657637	0.05676953230546333
id671	sample1	obj311	2.5205205139102693	0.10464618730435471	-2.9898248221301627	-0.5081966130120643	1.1300012535779433
id672	sample1	obj312	2.1802334840830344	1.3622128719093103	0.15800357234045315	-0.6998806818984737	2.334018442667257
id673	sample1	obj313	-2.7921664388904164	1.2387110614609385	-3.3777821643797257	-0.17065268302436865	2.444833902158001
id674	sample1	obj314	-2.212332864881719	0.9965706133174667	-0.43274135942768344	-0.7696237590763779	0.6845681104379191
id675	sample1	obj315	1.3453473875346385	2.1069182406183957	-1.9153445023322044	-0.041830652035709126	1.2203798108750448
id676	sample1	obj316	2.1980126178967687	-0.5115595507093724	-1.9757738110889744	2.474525513478455	-1.6784452286772433
id677	sample1	obj317	-1.9933161318282813	0.21890572076017056	-0.4108572733144198	-1.577671224362346	-0.49899452027419167
id678	sample1	obj318	-4.0796506476866945	1.494092076284165	-3.0416913802254637	-1.564866414242318	-1.2000658917502731
id679	sample1	obj319	1.4440449147681438	0.9971530092384577	-0.4563728129836777	3.625357753524721	-1.2050176309348277
id680	sample1	obj320	0.0441322072434176	0.05797596959575513	-2.9815694688549144	-2.759296686910219	1.8563598772276746
id681	sample1	obj321	1.881513540346889	-2.0595046577685236	2.7232293412269835	0.820569551332614	0.05399397419340901
id682	sample1	obj322	2.439398335235646	0.8701605581851846	0.2830634272976362	3.3736631849868366	-2.582125373009644
id683	sample1	obj323	-2.8735062086597845	1.481444242935585	-2.0799429540070884	-1.4993418539834265	1.58889623890662
id684	sample1	obj324	-0.1470288187662825	0.82794426369669	-0.8849569905313717	-0.6027502878674682	2.0649968675089108
id685	sample1	obj325	0.034399417159135526	-3.7757851868768295	-1.5309665229087461	-3.191040202571083	0.20531985916118867
id686	sample1	obj326	-2.8573412057777685	-1.4803762697256235	0.741747270003944	-1.5864445960623736	3.107583948557748
id687	sample1	obj327	-0.31854310821944476	1.8646106196772092	-2.6137041459450394	0.6104709519420584	-0.35322358082118854
id688	sample1	obj328	0.38656470291113154	-2.652701625098262	-2.7657426511461667	-1.9258579998754595	-2.391343848364521
id689	sample1	obj329	-1.8641747141228089	1.7893659527846202	-0.27410288754373524	-2.2953436440058486	-0.8228987697520104
id690	sample1	obj330	-2.5298348883526716	-2.241477168834982	0.32256830885276255	-3.8759374237431756	1.9060068445255336
id691	sample1	obj331	0.5800802799292362	0.09349401512925537	3.478395235877798	-1.7384407729353728	0.8079060536457219
id692	sample1	obj332	-0.9333251518773564	-0.39000651838091627	-3.5696862058989636	1.216745922896692	-0.10571229975193153
id693	sample1	obj333	0.6661770905794959	-3.085878284946847	-0.5220212139550757	-0.4171685464434034	-2.2388320193628135
id694	sample1	obj334	-3.5278571732683353	3.696923790820904	2.034606350036447	1.7833428619835614	1.930874221315056
id695	sample1	obj335	2.7458408614925007	2.4644771105973304	-0.00608747336944504	1.7413005029774713	3.2897120518812484
id696	sample1	obj336	-1.7465738465813843	-2.617948068700455	0.5748850600462789	0.13717537895605036	0.1319430367942236
id697	sample1	obj337	0.6296608601723963	1.2477931024323865	-1.588145854320723	-3.3248806968312996	-2.4653999576886454
id698	sample1	obj338	-0.732699130108479	-2.2444880085266785	0.009816902432445596	0.12587871203578782	-0.8400824126613007
id699	sample1	obj339	-0.21921247482720485	0.21293337165444326	1.1378040863731322	1.1178727882742805	-1.9697414686512418
id700	sample1	obj340	2.043318614025374	-2.516021502794961	1.3822962448852592	-2.2049393574313165	-2.3866545377368324
id701	sample1	obj341	-0.35824505679527285	1.5874421423349716	-1.2321878445150984	1.6272340725528769	1.8862119207896806
id702	sample1	obj342	1.851832706888456	2.738597349311638	-2.046942004289331	2.7839300161892844	2.5557109243314766
id703	sample1	obj343	1.9973532865515211	2.7665726438741105	0.6982437874836134	-2.5074393226959812	1.6337877882691707
id704	sample1	obj344	-1.2599338810403187	2.551709816067568	1.7006052894798431	-2.2822612564536	1.2869341995907986
id705	sample1	obj345	2.41922896515237	-2.9503222491796413	0.8791637143208313	-0.4808007144515456	1.5833703066504181
id706	sample1	obj346	-1.761382503628565	-0.0313868631051164	-1.0099057245590697	-1.8626128916325575	-2.8763994580528847
id707	sample1	obj347	-2.9519406553991168	-1.1545487659695006	-1.0454514334549292	-0.3392849589634128	0.9475990957497984
id708	sample1	obj348	1.6600799282986713	-0.782294232970344	-0.0498935146069448	0.04360691905878933	-3.5375084231712832
id709	sample1	obj349	1.9319517921562381	-2.644161852172261	-0.7765397250709423	-1.7006842862483946	-2.075448209799351
id710	sample1	obj350	-2.5462657347576974	-2.0883414763505215	-2.2081800965677028	0.0067432644688503185	-1.5931816143307118
id711	sample1	obj351	-0.8933951952018866	-0.5047430198613836	-2.146635782424176	2.318789694724258	2.9768030276561745
id712	sample1	obj352	-2.7516253020668633	1.5594495162842534	0.9329115804553932	0.5125263013441455	0.9811323577173451
id713	sample1	obj353	-0.7571482403590157	0.6426396798261782	-3.0199505920969694	1.5432815930154773	-0.2856364346682039
id714	sample1	obj354	-0.84836608761468	3.094842985537414	2.2668323073888277	2.9674355824498075	3.026859601257101
id715	sample1	obj355	-0.6764686168170018	-0.5448623509058361	-0.06035531244210168	1.0997360949142223	0.750835884221567
id716	sample1	obj356	-1.2345818494829446	-2.100963595147849	-2.906868132873125	1.5258396454974703	-0.3284114862837556
id717	sample1	obj357	-1.4400662167217988	0.6985105970563807	-0.05951806559227113	1.0965571901041151	-0.7861098162228004
id718	sample1	obj358	-2.86217746795623	-0.4802800939538281	-3.1097097889748304	-0.7782125494089727	-1.0258487486373586
id719	sample1	obj359	1.7644132018311633	-2.63209433928046	2.12775859403407	-0.2996313227143321	2.1466308185931737
