id0	sample0	obj0	-2.3714919735064526	2.4970622186485048	0.4907321022506339	0.47304960156408016	-1.2051018109003808
id1	sample0	obj1	-1.8650751239608976	1.3769524579699355	-0.043106273637802284	-0.666798231782264	-0.8041786823490498
id2	sample0	obj2	-1.9299595682854034	2.936325841722037	-2.7159587811949955	0.6483614476579433	-0.74775973874239
id3	sample0	obj3	0.5781266187505769	1.3959623792430387	-0.27429579178786434	-1.6535206976224948	1.5712326867259512
id4	sample0	obj4	-0.14049103869702528	3.180282837700048	-1.7158409183469399	1.3960905363930143	-1.3343628089002397
id5	sample0	obj5	-1.575222753245616	1.6087639742144129	0.019398487732427805	-1.6848101712957733	-0.8191005823933131
id6	sample0	obj6	0.40068703943409667	1.7764495812410508	-0.9657730650221881	1.3939295353675185	-0.002565174556665495
id7	sample0	obj7	-1.5832717652205182	1.6411694343826135	-0.3834562100354513	0.5338109506802147	0.21183542113530973
id8	sample0	obj8	0.2466751871001558	4.080316919595207	-0.33308512347761154	-1.0851936616746845	-0.9286957019478564
id9	sample0	obj9	0.17267778694934166	2.228380552123344	-0.20752274363521717	-1.4409239142852597	1.3048790598512732
id10	sample0	obj10	0.14517975531589689	2.3300767740988686	-1.6644205950759967	-2.0079984686541716	1.039055915658362
id11	sample0	obj11	-2.3456633063451267	1.7452835464895389	-2.460285051428224	-1.4613823570339424	-1.0099307197516145
id12	sample0	obj12	-2.4845376955368375	4.0287113839044695	-2.5857734351991812	0.6230029294926791	-1.632849963166252
id13	sample0	obj13	-0.49078001247156045	1.6776706043642022	-0.5779393951639153	-1.9740781432603438	-0.027137084659384136
id14	sample0	obj14	-1.368022883838948	2.7069149454539634	-1.1194385924036168	1.43866012693817	-0.3339944160593775
id15	sample0	obj15	-0.7335868971270278	3.2293873479369894	0.5538751508886779	-1.9201419825957027	0.19652766245614006
id16	sample0	obj16	0.5476073818923657	2.041098947899751	-0.3521413537258231	-1.3802368887284504	0.17668570067520029
id17	sample0	obj17	0.4453572064957185	2.4897062655939823	0.6883906510434332	-0.46337880405684007	-0.16659795822266354
id18	sample0	obj18	-1.218290309590416	3.578162229735505	-2.3003340266005416	-2.060918490883269	-0.14541996709410632
id19	sample0	obj19	-1.4829455829629494	2.219119878579802	-1.522811203861726	-2.001806510298287	-0.26461685963402615
id20	sample0	obj20	-1.5773094515645862	2.4816860552712403	-0.1893333982759169	-0.09714628550234772	0.0553727756396587
id21	sample0	obj21	0.616536734660831	2.1514445559773168	-0.8926910883182979	-1.2680929200151394	-1.8222375533561748
id22	sample0	obj22	-1.6721983853334355	1.9080193081836831	0.09681092231699995	0.05268659843836576	1.2442145894693277
id23	sample0	obj23	0.8138684623628223	2.9903433977997613	-1.9903097903366151	-0.7556496350469151	0.8929652804301111
id24	sample0	obj24	-1.1524905642293133	4.428003615665259	0.286040898452389	1.2209648358213567	0.6362539261805613
id25	sample0	obj25	-2.2747751907279854	1.1085625101678045	-1.5011905278605573	-1.1088528064367056	-1.0920473972395668
id26	sample0	obj26	-2.4503592439903543	1.647876579612465	0.8022713361154337	-0.483255761294173	1.5780681355328692
id27	sample0	obj27	-1.3266151856292792	4.236660464474294	0.8116420456404503	-0.31775850268127326	1.202826759398379
id28	sample0	obj28	0.052835176841698805	3.736643269371818	-1.4159233643865714	1.1003944475287206	-1.4560184458052223
id29	sample0	obj29	-2.527007142345501	3.9596513149535797	-2.163661779659687	0.7802093449905614	-0.7133014729369882
id30	sample0	obj30	0.12610598248532345	1.9300922010972534	-0.33695430960216366	0.2743936535651732	-1.1189767951568435
id31	sample0	obj31	-1.3555421448467915	2.53412218690715	0.5057746574851312	1.0895100950823016	-1.4721121162456734
id32	sample0	obj32	0.7634824101986724	1.806772339843918	-2.575510667984509	1.0689773347961393	-1.3177689504278767
id33	sample0	obj33	-1.6243003131550822	2.821164947575667	-2.151941783948938	-0.2617524292887059	-1.83674121124502
id34	sample0	obj34	-0.19012048641928847	3.940500625766095	-0.46140226651699856	-1.4467314046101485	1.5038098713545194
id35	sample0	obj35	0.8631267723460219	4.022575333217259	-1.795407897270882	-1.1106975286379777	-0.9721794850020018
id36	sample0	obj36	-1.5656793909671682	4.164669377334088	-2.3790778190873265	-0.041219496752012974	-1.8599127680052943
id37	sample0	obj37	-2.535986784529382	2.6376267895633285	-2.2944536898135324	-0.05130680109863106	-1.5088711906183656
id38	sample0	obj38	-0.8354078360857902	2.7978967620076807	-2.195546039660754	0.5919090016797643	0.8184144832729972
id39	sample0	obj39	-2.442351479998967	4.260354426167168	-0.20875747259921806	0.362286777392957	0.2944192120291478
id40	sample0	obj40	-0.5256801325335954	2.854373344364348	-0.5703801095418066	-1.9096201999077405	1.651561738273254
id41	sample0	obj41	0.07589952870518224	2.420755317615673	0.16351120823526455	-1.885172297376512	0.7711702246076075
id42	sample0	obj42	-2.5499953575912535	2.9789807866035467	-1.5003913729539657	-1.5919049759157464	0.8504690976465652
id43	sample0	obj43	-1.077967425469002	3.136461904508546	-1.6765443000678235	-0.08539794220414687	-0.12459986421302438
id44	sample0	obj44	-1.4155899619484267	2.788795203242577	-0.39421137953112484	-1.0820047062916878	1.0834978178588106
id45	sample0	obj45	-1.6961917821223675	2.0537246037877477	-0.11230415580876296	1.185844634596797	-0.35679071007341046
id46	sample0	obj46	-2.096837352278881	2.4973662328319115	-2.4178881121039577	-0.12016961101016799	-0.09839959575397494
id47	sample0	obj47	0.46326483155898335	1.2559840200132002	-1.7458817628472925	0.22606123223371433	0.5182514537636214
id48	sample0	obj48	-0.08326702863655888	4.1860721479717595	-1.3217905247508066	1.43450109120406	-0.3875122223200367
id49	sample0	obj49	-1.3039249463766966	2.0082191351163026	0.4598063042801497	-1.2252287540768434	-0.41230115995640304
id50	sample0	obj50	-2.477282037708769	1.96220546317053	-0.367493469758325	-0.9699026832811128	-0.15172671609371746
id51	sample0	obj51	-1.208068825972176	2.1592954621626825	-1.7852543315364695	-0.38459600232370006	0.21074897683703964
id52	sample0	obj52	-2.6425837244699233	2.281234280591798	-1.3261652080473203	0.2942965410144118	-1.718457381546575
id53	sample0	obj53	-0.2818983338520715	2.9938228285621067	-2.5228548351405524	0.7789071078932375	1.2107248196535594
id54	sample0	obj54	-1.0412318134765348	3.157128776700244	-1.58384548271374	1.043612311026347	-1.752375413000603
id55	sample0	obj55	-2.123071756933766	1.7923248462694863	-2.132815133971261	-1.855580157211052	0.46624201930082454
id56	sample0	obj56	-2.272797025130836	4.296050710682803	-1.2821977137034133	1.4514575856776653	-1.8725668522534975
id57	sample0	obj57	-2.2476705500094525	3.0901095439439406	-0.1578826242007525	0.7180904613982728	-0.39806540625030484
id58	sample0	obj58	-2.2739921769320737	1.4503510202524692	-0.6545728502944084	0.6829673343621752	-1.2463661537092245
id59	sample0	obj59	-1.3076901224385178	4.359384366630151	-1.8906044868632785	-0.3036276395515929	1.1882524893979107
id60	sample0	obj60	-2.031254767869203	3.389899180619672	-0.025699997924414353	0.7074833938130862	-0.28394411787464247
id61	sample0	obj61	-1.7074038485131324	0.9444695168196053	0.23193574747244194	-2.019244421064742	0.12397641531930437
id62	sample0	obj62	0.542034678709683	4.153069091163486	-1.7465424118741888	-0.10528676006221249	-0.004533718051965563
id63	sample0	obj63	-1.100477820939228	2.2264725114685917	-1.2659016726406314	0.997613944490993	0.8510441127022184
id64	sample0	obj64	-1.9704848903004102	3.8924229808649145	-0.24459636372146476	-1.865922541887809	0.6106275622606672
id65	sample0	obj65	-2.5165794197955726	3.140200810154738	-2.1361553792244967	-2.015582457705513	0.8528323426683351
id66	sample0	obj66	0.19189996881073834	1.7406380778084451	-0.39024994497734533	1.1367417448320694	-1.1532131637683531
id67	sample0	obj67	-0.45478697964936443	3.1304249873328063	-2.1403483653014086	0.1424404733700737	0.05555119982285017
id68	sample0	obj68	0.3782281260821374	3.4702048682096773	-1.804961336957899	-1.9095607772159915	-1.1207763376570021
id69	sample0	obj69	-0.5159852184729445	3.411472187943935	-1.9940819492309567	-0.32481337676724387	-1.6571582813456653
id70	sample0	obj70	0.7254308137935042	3.557139466084939	-2.4487387359115216	-0.5445020152534101	1.150825144898857
id71	sample0	obj71	0.3607130966766532	3.278352695966987	0.7595317099255909	-0.5341727666815554	0.9013533558916802
id72	sample0	obj72	-1.4590853510007775	2.3404687467817036	0.3814166308605269	-1.5106787599220113	0.08735825835195499
id73	sample0	obj73	-2.6005025883453055	3.6600769578844687	-1.2847258626118327	-0.5446200880138703	0.24364179097595096
id74	sample0	obj74	0.3941234407688825	2.809825032296774	-1.2334557013845775	-2.0130764212548247	-0.19887177007150125
id75	sample0	obj75	-0.534413769184374	3.2370997769755165	-1.0304040168308701	-1.921082148433025	-1.7201659534850346
id76	sample0	obj76	-2.03198091739794	2.776094330751731	-0.4804101822522322	0.7059431439311867	-1.0765855288908406
id77	sample0	obj77	-1.151588545249449	4.201468215785845	-1.910437944966115	1.2799862878824777	-0.48697591567065124
id78	sample0	obj78	-0.8063142093181233	0.9679542546649658	-0.7680300216228937	-1.5613092141781109	-1.409155413522313
id79	sample0	obj79	-0.9669654298486268	1.4573901573243628	-2.1964678801316344	0.5487957749896826	0.5993790330119626
id80	sample0	obj80	1.3763009333856107	-0.4877076865679226	-0.7827946624053381	-0.16559291182014535	-1.319803862233618
id81	sample0	obj81	1.808858466523047	-0.09364960855175153	0.46188802880295454	1.6016205881667116	-4.3354840836575885
id82	sample0	obj82	2.466085842469168	0.616013500179796	0.09313365917821548	-0.693743792995106	-1.4585846883715263
id83	sample0	obj83	3.5913183443265586	1.7516625123844873	0.8345159728624578	2.381438744086916	-1.9957408646116053
id84	sample0	obj84	3.743294357748959	-0.39773516849227164	1.409338250098349	1.3025719527411066	-1.885687941373943
id85	sample0	obj85	3.6289303460429077	2.624119533266458	0.2581259614610514	2.0360875790181616	-2.4851922592250326
id86	sample0	obj86	1.3491012530936533	2.7251108154306913	0.5230996870813052	2.027103086933483	-3.623185847655608
id87	sample0	obj87	2.812129677837227	1.1326589073904265	-0.4755917003806487	1.9666893133981238	-4.058984781474171
id88	sample0	obj88	3.6384784438529474	1.553969914938809	0.9500367237957508	0.5385544482625586	-3.2577298305904625
id89	sample0	obj89	2.625806279096838	0.7424850598273793	-0.09585801661760762	0.11590072293874354	-2.2176564591999464
id90	sample0	obj90	3.122736525128351	2.2218816145444307	0.7700126890093786	0.8655158579241233	-1.680346073207559
id91	sample0	obj91	3.060287597957328	2.5171018123002775	-0.3619766409087313	0.6025871434248065	-3.1263378785122065
id92	sample0	obj92	1.2310668332521173	-0.2895601338308953	2.151266691870666	0.9922927635699053	-2.6727463392065767
id93	sample0	obj93	0.6384210613305235	1.2707239313169891	-0.11137747234362516	1.2601920741579347	-2.4839529916753076
id94	sample0	obj94	3.042415107078167	1.4673544367312283	2.324765855130436	-0.11867551807058874	-3.9868687865541035
id95	sample0	obj95	1.3196608016386344	0.13191026182377452	1.3981565026486222	1.7774974444026201	-2.2233150568411197
id96	sample0	obj96	3.3737819216725775	1.902988050402898	1.8317870532738356	0.8545178406156402	-4.317101522501351
id97	sample0	obj97	3.7580715593534357	2.3009016587964943	1.1690352830506272	0.5283573574600497	-3.0944992410127172
id98	sample0	obj98	1.3083127722223793	1.3251115033053256	0.6212554751888084	2.1749617774302425	-4.054871601729005
id99	sample0	obj99	3.569684758509446	1.9272875737270345	-0.7810986745186925	1.9273821284880273	-3.99285535448353
id100	sample0	obj100	3.8063049730725362	0.8465080382260459	2.189380636567357	0.3521322231211368	-2.7430204219505145
id101	sample0	obj101	2.105652714350164	2.141263438835185	2.459149868331073	0.6614369175862858	-2.4395108006366115
id102	sample0	obj102	1.264523482709636	0.7379477271185164	1.6326473552315621	2.137834998441381	-1.7126189152717568
id103	sample0	obj103	0.5311648026211286	1.3408872187240468	2.0056823435445423	0.022212191628181333	-1.3061967509147927
id104	sample0	obj104	0.7739858378693976	1.9994460674899286	0.4262344158676985	1.3867765107345094	-2.8876109374049292
id105	sample0	obj105	3.7761051865205717	0.46937626307197666	2.552910446616721	2.4030128828407404	-1.8977154772679163
id106	sample0	obj106	1.1736398539915855	-0.014391200656387548	2.543449120429427	-0.27520875181718374	-0.9829069044424974
id107	sample0	obj107	1.5519462182646082	1.8106347209804223	1.826795877408007	2.023303043375371	-3.66435117217165
id108	sample0	obj108	0.6071231159261454	0.7462577136660344	1.9977819149558134	-0.30060244326232555	-3.4992847541662306
id109	sample0	obj109	1.5203874288957975	-0.21216545517531182	2.579973339889869	-0.09256434836387184	-2.913011103123707
id110	sample0	obj110	0.5620617759244708	1.7314208320244346	1.8177006225698584	1.381491220843036	-1.033690374692357
id111	sample0	obj111	2.0527667168521146	1.969019935134018	1.501772934030938	-0.530615038685881	-2.1198675651182093
id112	sample0	obj112	3.5061282468656154	0.6601634800267766	0.855319676150311	-0.5563697459526606	-3.0762619044950426
id113	sample0	obj113	3.635284831555624	1.9653418182771865	0.38822244897253033	0.5431918585307056	-3.418756224965596
id114	sample0	obj114	3.43134472180025	1.265624316440885	0.4835948987876011	1.9595015940253175	-2.855638577317683
id115	sample0	obj115	2.053600385257222	1.551671216006564	0.15187510139946103	-0.45077817422470146	-1.3485710033407503
id116	sample0	obj116	1.077886487250494	-0.09598561538506112	0.5527109177668297	1.7508041775796974	-3.721848947738304
id117	sample0	obj117	2.231368054241969	2.7459808646088115	2.548574975825888	-0.7007735274834015	-2.9893790776642715
id118	sample0	obj118	1.5309004701517734	1.4532244733743398	0.554842570662605	0.45192016297180837	-3.021306353796994
id119	sample0	obj119	3.4008083684980264	2.5530245126284936	2.258037542091815	1.318589748241476	-1.8009644326273138
id120	sample0	obj120	1.6686259236757992	-0.2729198635877692	-0.21251134090908952	2.569390065908091	-1.821176019163355
id121	sample0	obj121	1.349413483437024	2.4094846328415724	1.1773886709802592	0.9020313718656725	-3.5989938843408216
id122	sample0	obj122	0.9873630312318165	2.3941707821440077	0.2090914596984108	2.482345728948176	-2.5806099003283984
id123	sample0	obj123	0.6154073788132615	2.6618994660149857	1.4715699129531161	0.8194289905166456	-1.1629811526140414
id124	sample0	obj124	3.238608151863943	-0.08442679609718096	0.04667028333764511	-0.03830352848972218	-3.9440825439307075
id125	sample0	obj125	1.49559785143452	1.2653209266776098	0.4717853828300431	0.05131339698030746	-2.766711848764844
id126	sample0	obj126	1.6859323152558705	-0.49632188681333655	0.6437148715747465	-0.6199948569080815	-4.247293321311702
id127	sample0	obj127	2.7827686386292783	0.5097957837142457	-0.6770704616558769	0.7589806003099424	-4.25577536675064
id128	sample0	obj128	3.6239528705148274	0.9547201078040843	0.3275972390961708	1.140630033675421	-1.0788366248943209
id129	sample0	obj129	3.665780194871453	-0.036597069940578875	2.3532013537605136	0.2820536086471548	-3.7683330121063374
id130	sample0	obj130	1.6990074491795102	-0.5794980976367758	0.8292800301444683	0.9738501886593784	-2.5310737900779787
id131	sample0	obj131	2.4040604147686304	0.7647208708603259	1.0738772081701284	1.3067217772145658	-0.804238441191411
id132	sample0	obj132	2.1309085447861014	1.1601935362034703	2.404110858314956	2.429331983245099	-2.6013778201950406
id133	sample0	obj133	3.229182734273226	0.3042380867498087	1.914477564625982	1.6607706726749523	-1.8941084586664918
id134	sample0	obj134	2.7574227350757807	-0.7490200741249544	0.4810104622557536	2.138436086066462	-2.97015312175834
id135	sample0	obj135	2.42974602720175	0.8033631977455731	0.25833075963922303	-0.13308916853239294	-2.803928124297946
id136	sample0	obj136	1.307881522266499	-0.4632827692182666	0.6083782863689386	2.6265025898225938	-3.6847696336184486
id137	sample0	obj137	2.5417840398341625	-0.46867181549533177	1.0658029597122047	0.023801251664364198	-2.0322585867088376
id138	sample0	obj138	0.85959909565657	1.5566535163047397	0.06855266101979884	1.6243957788730767	-1.3187831206191298
id139	sample0	obj139	1.1954500337169223	2.794422356822921	0.35722582153872895	-0.2154445992151468	-1.9160983941820324
id140	sample0	obj140	0.6405372851765174	1.6216559817232308	-0.6013200417600106	-0.4397726860253619	-3.7535492610934638
id141	sample0	obj141	3.659736360029343	0.7886327568042191	-0.7251772460031347	1.7654087960317832	-3.1579364193961634
id142	sample0	obj142	1.0139222029233763	1.5932797326028827	1.9843627329733404	1.8063205244680527	-3.8445719434913888
id143	sample0	obj143	1.480504822497231	2.325908760293964	0.5526989068011345	0.04261572642939604	-1.6205170518643996
id144	sample0	obj144	3.6152849073769318	1.2714036724108948	2.0834716239344306	-0.2868842418482016	-1.887662498806274
id145	sample0	obj145	1.0231198613716486	2.125908572249523	0.39622371606786744	1.4835349829616467	-3.2073220206418345
id146	sample0	obj146	2.409661664350569	-0.5909518439797872	-0.10897785023781215	1.6808606525615588	-3.390219083020637
id147	sample0	obj147	2.8094908235993827	2.8092261037823385	-0.5930957025507293	0.10825603690005958	-4.355759880827732
id148	sample0	obj148	2.8964577830113427	2.248381845616968	1.3720329740771573	-0.2984330625471361	-2.1806710612629416
id149	sample0	obj149	2.080346809259833	-0.6652624340112872	-0.11389000356016521	0.2910038811267992	-1.3165368031262872
id150	sample0	obj150	2.01174163110176	0.3098141198496709	1.7677974246661134	-0.05214161683161089	-1.3543670438496103
id151	sample0	obj151	1.8170822226358991	1.3928476428799499	-0.7892235523575721	0.9859563500181849	-2.176666639815375
id152	sample0	obj152	2.862503438799105	0.36646073986982763	-0.27798367521837974	0.09197306366512381	-3.556919973376447
id153	sample0	obj153	3.9235268557281913	2.798055473660055	0.3964814750948551	-0.5000059177312153	-2.305064410195407
id154	sample0	obj154	0.6746775513695624	0.4991610525605572	-0.12324456366596626	0.7073256284159648	-2.8462563230426525
id155	sample0	obj155	1.1965105025266458	1.0184009905688862	1.8480521115884503	2.435296856669809	-4.158648541138932
id156	sample0	obj156	2.8464941825224246	2.6526157773276755	1.9542064203178835	1.3366741567118325	-1.6523521508010746
id157	sample0	obj157	2.505107134595913	1.0359946219219667	0.24512683006125013	2.4875889042996926	-2.183365912830051
id158	sample0	obj158	3.9709895674497933	2.401104359097221	-0.23125354262545716	0.8050786430383439	-1.3688714728214155
id159	sample0	obj159	3.4519591718361085	-0.2480288319758579	2.319862983270334	0.811227599313127	-3.2785333128309873
id160	sample0	obj160	-2.3655037104744867	2.457654044118966	-2.8154085741266535	2.738013529592214	-0.33442391046257525
id161	sample0	obj161	-0.5856766194392427	2.505873582569442	-0.9639693885739191	2.6757562039896685	2.9648571140611995
id162	sample0	obj162	-0.8623693862392743	0.648271146608854	-0.17064543552944023	1.7853799250342792	3.0439678850347716
id163	sample0	obj163	-1.9165746066730949	-0.6015411127855523	-0.5450013512917187	1.910173783026819	-0.27240196545342066
id164	sample0	obj164	-2.2822352724623087	-0.27630834914725577	-2.5346598356172754	2.6700825368532723	0.558785715495598
id165	sample0	obj165	-3.6655691940734743	0.2890173573791499	-0.15311034025731352	2.8803453209141914	2.1706591550788175
id166	sample0	obj166	-2.513603321199681	-0.4067618894101235	0.0064106248106672314	1.9301758973445717	0.5064789508055356
id167	sample0	obj167	-2.4249826664092358	0.8816740645226586	0.07243554511119155	4.526564435233496	1.824490235374899
id168	sample0	obj168	-3.6325630543443768	1.1915223187350577	-0.8982107309437393	1.5240271937524028	-0.30590125671081037
id169	sample0	obj169	-3.725614565578236	-0.12745468230136314	-1.6241571209088947	2.919973696117645	2.8969333187598694
id170	sample0	obj170	-2.203008014258474	1.1761655464065617	-0.263828865159734	2.7008022602167925	2.8595763324021153
id171	sample0	obj171	-2.2696406921534518	1.0483043978493793	0.23823484417527685	3.6606571520149433	0.5645349318756747
id172	sample0	obj172	-2.4874419160487644	1.905252918248488	-1.279968079174895	3.448982441432249	1.5440211533317991
id173	sample0	obj173	-2.019188408720776	0.00850588797337648	-0.4529944320234802	2.1818700036399568	1.1202063163638052
id174	sample0	obj174	-4.076417767321633	0.956105660682685	-1.2072449031232622	4.5042233059040635	0.8099489351993305
id175	sample0	obj175	-3.1890616395205775	0.12813583050981725	-1.0335983772296686	2.924725105319207	2.2869610094151147
id176	sample0	obj176	-2.7098902383860812	-0.20265361370276613	0.2522112254247644	2.1545064775121654	0.3466129926243743
id177	sample0	obj177	-2.7760746360954287	0.2584950631166538	-0.23308872773794787	2.6355448095036853	1.6359734769159648
id178	sample0	obj178	-1.2664927743479095	1.3391239253604634	-1.122057924518706	2.6996778632065808	1.7133792927530713
id179	sample0	obj179	-2.3789367979391365	0.3086646002770861	-2.5941923786367407	4.088478700289018	1.9382205794693248
id180	sample0	obj180	-2.6369886785148067	-0.6382473050557986	-2.5688856966673663	3.004103810356459	2.9443510202173044
id181	sample0	obj181	-0.5216163748693459	2.2564424805087198	0.6484577865575469	3.5488783183145154	1.6324798155245102
id182	sample0	obj182	-1.4758771649173459	2.0609150393977416	-1.807073425264097	4.1253201344902415	1.8722126596431572
id183	sample0	obj183	-2.4895944424730914	2.506781516523578	-0.6202253207184512	1.4683095988458255	2.8084777873222775
id184	sample0	obj184	-3.240370242411212	0.7479629759638611	-2.5558339348514822	3.308186841705944	1.1265321118092522
id185	sample0	obj185	-3.622404869355	1.2473980486676697	-0.5225441357363969	3.6399749484592263	1.3824943685593216
id186	sample0	obj186	-0.8786928053684402	0.7067481530551778	-1.7078709699978691	4.503204780598875	2.4215220775544832
id187	sample0	obj187	-1.6773410314071608	1.945363968662744	-1.396583471407502	4.5437084933665215	0.08374683330563104
id188	sample0	obj188	-2.819888902560667	0.33379892423476876	-0.5828655716853215	2.999288077227394	2.6705286999344104
id189	sample0	obj189	-3.088194110948432	1.385131996576175	-1.8829074301362516	3.8725964498881824	2.0733905909453876
id190	sample0	obj190	-0.545055247530416	0.9765534576807511	-1.4606259765859042	2.9554298351351576	2.049282494833695
id191	sample0	obj191	-1.889371269214165	2.067587812384523	-1.6759479597535072	3.258667466016446	0.28399230458143054
id192	sample0	obj192	-3.5851547803387707	0.9347498846276068	0.6978606220293238	3.5723364190510116	0.7772090416379611
id193	sample0	obj193	-3.5597285007635495	2.7713611674150895	-2.6543774920709797	1.4029869548499818	2.0958440149088715
id194	sample0	obj194	-3.8932992745496415	2.1029631156168698	-2.4132502746478774	1.1642490581616383	1.4958661212186182
id195	sample0	obj195	-0.661935004081448	2.4217704889259766	-1.5699972386772334	3.7658805185664797	1.957503264910211
id196	sample0	obj196	-0.5796227189677559	1.9076706305416258	0.41032571934199313	4.472809022942419	0.09583597725744752
id197	sample0	obj197	-2.112171373323517	2.719413535559098	-1.4774008961733383	2.0859022924733956	0.41146144064334933
id198	sample0	obj198	-1.174602713714324	1.3301187672478634	0.596460700008435	4.0089664793121225	1.6781713201370771
id199	sample0	obj199	-2.8114490230507103	-0.15043955252178698	-2.426914496495904	4.071554637116951	0.7018549236019904
id200	sample0	obj200	-1.7019219714736138	1.5066517827698	-0.5506327689606076	3.4155713963386933	2.4337544777554467
id201	sample0	obj201	-1.2038209624431173	0.6251439583400407	-0.6210419827526816	4.2476557505701855	2.1196529387006566
id202	sample0	obj202	-3.6946941150523003	2.661057972905051	-0.5740144708070842	3.4124258400705623	-0.21630151908943418
id203	sample0	obj203	-1.0982397559357129	0.010282321602753663	-2.4498847375709345	3.138643394052849	-0.3182308566619745
id204	sample0	obj204	-0.6791151438117977	1.5488753135816904	0.5863568198438587	4.4172191779075165	0.14618295850367513
id205	sample0	obj205	-0.7998025227921104	0.3279129536784693	0.4262661241806762	4.533992588731824	0.6440596202914399
id206	sample0	obj206	-2.377334172600111	0.7814924435552557	-1.7031462203437162	3.629906800078725	2.9798835371119097
id207	sample0	obj207	-3.64260621171042	1.1742524737828812	-1.9112719789457016	1.1063160149169524	0.5141876348829137
id208	sample0	obj208	-3.9465728033045515	1.748268667207647	-1.143846628135643	2.2247329069323674	0.9014186301418268
id209	sample0	obj209	-3.800423376028081	1.1444421856413072	-0.2195523611657777	1.940606800376135	1.8588490185637432
id210	sample0	obj210	-1.5742559774984601	-0.03220966247633106	-0.032647707136227	3.113241716935465	1.0840039949831493
id211	sample0	obj211	-1.3728890780657748	-0.48212287834157386	-0.11716141743515807	3.183474153924191	0.6908684278226604
id212	sample0	obj212	-2.689151919379796	0.7747683054658443	0.09564218877921227	2.7232584989863966	0.41677087199393303
id213	sample0	obj213	-3.203878441638939	2.058357724829741	-1.70469953756211	2.234111435399538	1.5751922976829373
id214	sample0	obj214	-0.9262533092599965	2.6869748602688803	-2.0705240069510973	3.782963979219921	2.438967896763979
id215	sample0	obj215	-1.8852345836312436	1.2533443609524275	-1.3769564507710093	1.0741294935584746	3.0088205650539894
id216	sample0	obj216	-3.598365700104501	0.39700677297967024	-1.5958259719292551	3.005827177008114	0.6605348030339544
id217	sample0	obj217	-1.3329942283776186	1.2482344706122295	-1.7988848917301112	4.271275846980466	1.5082333893454956
id218	sample0	obj218	-2.3801039587329207	0.6965527050992073	-0.5495669952741953	4.241300978005015	0.5402994831312822
id219	sample0	obj219	-3.194740206909196	2.6257240420739896	0.46728392218348414	3.8924535804905043	0.17888693960826418
id220	sample0	obj220	-0.6002320527293239	2.7662348685675857	-1.0037839845707333	3.2878253480080426	2.7153169169382623
id221	sample0	obj221	-2.5556974785025357	-0.763045561745755	-2.6562914343499564	1.0243419520302564	2.1448646222370766
id222	sample0	obj222	-3.3660151165170507	2.351983096633173	-2.8209805367556777	2.758825083759594	2.659633508459223
id223	sample0	obj223	-3.157669141626575	0.5102873250254873	0.2970787528277785	4.225313469233345	3.0827901947132066
id224	sample0	obj224	-2.9084880439828105	2.599291863903095	-2.5834734258567207	1.3490283622741077	1.5980261095666024
id225	sample0	obj225	-2.828898345074756	0.44519039359124757	0.019185586346393668	3.820231876419739	1.8326200974172937
id226	sample0	obj226	-1.0402789200615465	1.1296016990897129	-1.2628267000533673	4.3675732194512245	0.6100308733947457
id227	sample0	obj227	-2.644422453276152	0.04285791158585728	-1.7953578517759665	3.5001050417497988	2.0489521152954926
id228	sample0	obj228	-3.457858580749268	2.1184353292048437	-0.21183202190334582	3.88601038874077	0.431842153163828
id229	sample0	obj229	-2.0954726583779406	1.631828691646365	-2.1002597342389047	2.0014602278277125	-0.09000004642913528
id230	sample0	obj230	-2.7978257028206395	0.07281087540738695	-2.1829773194473976	2.0934499256071044	2.2984280380776534
id231	sample0	obj231	-2.8429548441344776	1.0160088983432438	-2.643802551652472	2.115696528366847	-0.18259934601320138
id232	sample0	obj232	-1.2720656944512798	1.9058450359136432	0.46366773441647635	3.657742653597987	1.0654741141392026
id233	sample0	obj233	-3.4640333494666327	-0.19585776142459843	-2.1541897854132612	1.516562374922186	2.598537552948125
id234	sample0	obj234	-1.3593618317025056	2.569349137707399	-1.9962607901825846	4.0607240521695696	2.410532746389669
id235	sample0	obj235	-3.372322720130013	-0.3260840110894907	-0.7232005976308085	1.09429525156108	0.1640756367444529
id236	sample0	obj236	-0.8468015060728409	0.45155324179790335	0.4927694844998858	1.3679448358164583	0.3906492845651409
id237	sample0	obj237	-3.3721784716178966	-0.2906456627523215	0.1724755277285841	3.48811098008903	0.7814225014935294
id238	sample0	obj238	-0.5350973393890668	2.2084753400812716	-1.824592191939325	1.512022385440713	1.5982613692267917
id239	sample0	obj239	-1.4371888204370495	0.8499207362069374	-0.7825427640374143	4.4824082206274545	1.8045530876611382
id240	sample0	obj240	-0.2842425268955946	-0.17907879056709475	0.15670914240846057	0.4322464775052566	-2.4273212415655614
id241	sample0	obj241	4.741394432798914	-2.9554975885398975	-1.3190328111020648	0.6991065921063881	-1.2599462890849822
id242	sample0	obj242	-0.5176285802728271	-2.3917432222449317	3.8467389279724555	0.00707893363507095	1.8193676488178754
id243	sample0	obj243	-1.2442085446330307	1.2629137547089864	-2.1639132985890424	0.6057910728382294	-0.635223965892102
id244	sample0	obj244	0.45177189632212333	2.477809547030275	-0.28307652336492406	0.8481948951323053	-3.1757133115742224
id245	sample0	obj245	0.8444067764482948	2.329569665621719	2.7504448377610116	-2.492684730436512	3.3935307916108686
id246	sample0	obj246	-1.2504133744110375	3.724906138753159	-0.08240207514661857	3.2210054096322445	0.33227387521265395
id247	sample0	obj247	2.365992588848667	0.7992079612328364	2.711821911886922	0.048866438569002524	-2.2046226325583484
id248	sample0	obj248	0.9663733269167636	-1.030551711339682	-1.923322603604897	-4.1733960606432365	1.7855626861986214
id249	sample0	obj249	0.02555227381562175	-0.4927026562026102	2.719122019863055	-1.3640266207237508	-1.8497258457312111
id250	sample0	obj250	-0.3049448364259213	1.7895761128196048	-2.8871526506785723	0.9978091409120353	-0.20829038042028025
id251	sample0	obj251	2.1867928712474	0.18947499578641946	-0.5860566254355304	-1.6605931292233653	-1.1831631974846044
id252	sample0	obj252	2.1824190464876434	1.769713353172338	1.1667732669581719	3.010329202750044	0.07057499885272467
id253	sample0	obj253	0.2553182127961706	1.030971808368462	3.217802723680866	1.34838084307263	-4.055688091359315
id254	sample0	obj254	1.6882573823360065	-2.2939650815086856	1.9494608222565077	-2.8405117704162532	-0.18750927295729003
id255	sample0	obj255	-2.7588107928353662	-2.2343832072278866	1.4635226551339644	-1.4493478489719083	3.6387178401284697
id256	sample0	obj256	-1.8159639712220024	1.0028687908446046	2.444169142772597	-1.8849430553267335	1.3308124954882274
id257	sample0	obj257	2.4802409886907837	4.2401030196958756	-0.6440271984127037	2.160396028488826	0.828248064210074
id258	sample0	obj258	0.6650824648961995	-0.16445497038336576	0.19177718922199571	2.9866791625245623	-1.7793314176545587
id259	sample0	obj259	-2.3778225559441344	3.210244139982102	2.84518407404407	-0.6506720832107422	-1.7533934402275788
id260	sample0	obj260	0.5429875708434169	2.574509307213302	-3.014216520509609	1.1328181366910812	-0.2851374561343134
id261	sample0	obj261	-2.0933573878423957	2.407443638199295	-1.6989178531600102	0.8476399557763752	-0.9682842625158175
id262	sample0	obj262	-4.021727355635205	-0.36156416950887826	1.6528579083770873	-1.7712587782769562	-1.3539948588278612
id263	sample0	obj263	-1.4489877586055908	-2.0063065828385396	-3.824081599719741	1.0612682310649542	-0.04663934091773547
id264	sample0	obj264	0.6003642361100072	3.0357876983195857	-3.703866049556309	0.15445668942082147	-2.6439418364421794
id265	sample0	obj265	-2.1054059781111185	2.045352967521551	-2.1626273354460324	3.8507108134338655	0.22768772090587297
id266	sample0	obj266	-2.0142576483777725	-2.710413386046235	-0.9599059776857632	1.3294729673738812	-2.5126179368902575
id267	sample0	obj267	-4.241284727198748	-1.9006243767553865	-0.08125151837308553	-3.592159714308006	0.05377018095422614
id268	sample0	obj268	1.8305764932821096	3.329916763147538	-1.4324758183660238	3.036955078745838	-0.7102174434379342
id269	sample0	obj269	-3.5342725362947442	-2.4166079663308686	-0.32226900093872834	1.5738944077186425	0.5603991018734498
id270	sample0	obj270	-2.417286183586393	1.977758145640556	-0.22245581374119316	3.352397898555071	-0.3156237006729421
id271	sample0	obj271	1.8176453338932654	0.2965421770932406	0.9277919863062576	-0.697728440754112	2.04993730265162
id272	sample0	obj272	-1.6014103434401792	-1.4011510603063624	0.1487434863000907	-0.03652074259066773	1.3013933026172761
id273	sample0	obj273	0.9329825067131737	-0.5449329428286445	-1.3031155769391307	3.9144924833950565	1.8884605766854015
id274	sample0	obj274	-2.3290952859767122	-0.1205942540208047	-0.9825266250798435	1.3981854202185455	1.5875279485609355
id275	sample0	obj275	-2.052077332522998	-4.0429717308239645	-3.9113821885012108	-2.5667184599460917	-1.3250122938455748
id276	sample0	obj276	4.357025590094082	0.15178850977123903	2.8181734961977973	-0.018808329267169244	-2.0574912048433203
id277	sample0	obj277	1.8722984537313996	-0.9740723115955376	1.7096224874876085	1.2608137022651176	0.5549983008383543
id278	sample0	obj278	-4.22999780421369	-0.5807588895138864	0.16018020926079868	0.836426826600717	-1.9744759147044737
id279	sample0	obj279	-2.468526960538771	0.10284135873155686	0.9817888226566811	-0.891068871196945	3.141005658565887
id280	sample0	obj280	-0.572462650474298	0.02299213258109334	3.1627542143935523	-0.8858724292413256	-2.522932126327695
id281	sample0	obj281	-2.8747781097676044	1.8751504312066178	0.27127153079375765	-1.845602012152384	2.363588002243306
id282	sample0	obj282	-3.8931343196086456	-0.6332691004705759	0.02221655362854924	-3.3586953861099897	0.7192401744572583
id283	sample0	obj283	-2.3433072743824077	-0.7452169675099345	0.2200243834106359	-2.848647289160891	1.805486296091427
id284	sample0	obj284	1.3192900469291746	-0.20462439803677923	-0.6293362210839659	-0.6037658330636073	0.508979549168102
id285	sample0	obj285	-2.262050971852594	-3.0948913843767563	-2.6522247286960288	0.9795423777583054	-0.9509834607916059
id286	sample0	obj286	-2.373155801687334	3.7218357531593913	3.1277950803561394	-2.448364190495206	0.19186653119106256
id287	sample0	obj287	4.126677885057835	2.2216773497376074	0.9134554516162444	-2.171268608195947	2.10752654087066
id288	sample0	obj288	1.2735290667149426	-3.6978916111262468	-0.6275949229481621	-0.81086411896295	-1.0691145876562396
id289	sample0	obj289	1.6102490103594949	-0.20713283379749448	0.4273042332597623	1.1573116547074511	-1.6895943153225434
id290	sample0	obj290	1.0913202521867758	0.25324388194784	2.024771756077648	-1.7321762507179743	2.8836176669370976
id291	sample0	obj291	-1.5406241820876232	-1.9992091112602786	1.2689978989187818	-0.5073352375985423	-0.09251907305557139
id292	sample0	obj292	0.33320453380327764	1.7760579143060804	0.6842547413348805	0.457206980807616	-0.1294844764048153
id293	sample0	obj293	-3.0292925089534966	2.3756676105831707	3.1651533183298453	1.03165218809019	-0.5576904679232959
id294	sample0	obj294	2.5415953944519085	1.3373618260313374	3.9091699535642164	1.2198771463923257	-0.9889323791505424
id295	sample0	obj295	0.7364840200720382	3.287503091902627	1.805540893017786	-0.7298077841094759	3.457476668245179
id296	sample0	obj296	2.732434465855564	4.558431069746587	-2.6256111413489798	0.9183530350849824	1.4520409862086558
id297	sample0	obj297	-1.1415756343110908	-1.7971819180254758	-0.3163198651850989	-3.047838837530291	1.8156489539630711
id298	sample0	obj298	1.6890953115603613	1.5329769415305508	2.208225306929872	-3.191007845473862	0.5526687026743646
id299	sample0	obj299	4.084411301692739	-3.414138843942948	-0.8898414164100055	1.5310689147612342	2.999032628717953
id300	sample0	obj300	-0.8817273741679441	-1.74997115811841	1.2142077884066418	0.18017205993519858	-1.392479232038125
id301	sample0	obj301	0.7775560205951397	-0.8169020843793364	1.157376176676623	-1.5378331025470027	0.2381367478223715
id302	sample0	obj302	0.31496505022195165	-1.8806890821392708	2.557205210374267	2.90309925743483	-1.119778784506017
id303	sample0	obj303	1.739883382047625	0.9388305559023716	-2.21414385335349	2.6394583871282356	0.1538695904688019
id304	sample0	obj304	-2.419237944536415	-1.5548098385241524	1.466598525518729	0.20386754572387544	1.5874933936048612
id305	sample0	obj305	-3.2143979473120914	1.4748568375770827	1.2897839092201635	-0.7649734692009122	-1.2646288500426943
id306	sample0	obj306	2.4515650927345094	-0.22518547457907645	3.0786928048688558	-0.7608372069348017	2.4111139841942433
id307	sample0	obj307	2.162589990943291	-0.7167005933532742	-0.4589890111060474	-0.22370734139180715	1.6658113531838794
id308	sample0	obj308	2.077079324733195	-2.567633378813991	-2.3056690706205734	3.35205584380639	-4.564417925009596
id309	sample0	obj309	-1.6606441385371595	-0.3254921198199312	-2.9929814548492324	3.6817443641275656	1.2730562144574986
id310	sample0	obj310	0.4241925478359436	0.5345249212378409	2.8714661721661865	3.1170353212046065	-0.548953404774229
id311	sample0	obj311	2.5089997227449325	-0.6700045193640363	2.658788774340465	0.4680761268189979	-3.7347055934242177
id312	sample0	obj312	2.1150789896043927	3.9770510711887894	-1.4865573231381377	0.427852767375666	3.696709297584463
id313	sample0	obj313	-2.0410218103315145	-1.908414209672948	3.6178846780327483	0.04487002557101971	-0.5711567150416699
id314	sample0	obj314	3.976945683542019	-0.4944553649712675	-3.1403455165688534	-1.8919214714995256	1.1029173400715802
id315	sample0	obj315	2.9062046655567353	-0.5102609788958969	-3.5953397402848006	3.7427314549107846	-1.311311740955652
id316	sample0	obj316	-1.574112518049137	-1.522086737611687	-2.586845856354455	-3.4106607429389	1.9123818924297915
id317	sample0	obj317	0.1018766299466296	-1.2987205948699325	-2.2905128079777075	0.07235693062705195	-0.3940349501582501
id318	sample0	obj318	1.3595958415954363	-2.67670891703047	-1.3173939433593151	1.5870562336799423	1.7113978753928274
id319	sample0	obj319	1.9128624113082067	3.0743063008961196	1.631111714151463	3.6305114107207004	-1.284770981395625
id320	sample0	obj320	1.5867767886938509	4.234343801682554	3.0144502494504035	3.5013174117289196	-1.3358949391755341
id321	sample0	obj321	-0.8469198638864853	-3.155687684777367	1.1740126583684591	-0.4260703149185743	-1.2709040758674468
id322	sample0	obj322	4.044659760384313	-3.4187663863633584	-0.610355365725062	-0.7621648183740866	1.7764553014295612
id323	sample0	obj323	-0.35711421671393184	-2.254826637358197	-0.24461694673561096	1.4657048168817381	2.6293988860118906
id324	sample0	obj324	1.5407546215170138	0.6499841244093367	-0.6793753421697533	1.7787719988306818	-1.6120585883585123
id325	sample0	obj325	1.0293387039757713	-0.24155883095648067	-1.7245509542550954	0.9338795748521067	-3.1633668173743845
id326	sample0	obj326	-1.9309854046032287	1.6597079210927606	0.7102382430632921	-0.4440172212992719	-3.4712575438476545
id327	sample0	obj327	-2.6370491640929714	-0.8338011839907107	-1.660136983253717	-4.540200486962784	2.844724075842807
id328	sample0	obj328	-3.1577317015067057	0.3125752920581435	0.3551264414757995	-0.6314383325446488	-1.6922001678795302
id329	sample0	obj329	4.283890176157052	0.09260797037888402	0.24701051049621214	-0.8841005597377951	-2.2794573632599064
id330	sample0	obj330	-0.8484617726309216	-1.0105614408538497	0.1813434600859114	-3.9473088515958676	0.43754735813602275
id331	sample0	obj331	-0.6567493369444715	-0.20081313134979184	-2.0513029565413543	-0.29110959636392475	2.806248270413087
id332	sample0	obj332	0.35165669030531244	-4.272986277912411	1.3917205179138703	-1.2870679887694412	1.6382835548026973
id333	sample0	obj333	0.07455081420155207	1.0794116300917553	1.1803466282859487	1.4724835953661657	2.704227577519593
id334	sample0	obj334	-2.330213564846182	1.2653737482576495	2.362411065417634	1.0240585552405088	-1.567728930310483
id335	sample0	obj335	-0.5652783833830155	-1.8770938361863598	3.6237243277784508	-3.2599427517717205	-2.1765651455459527
id336	sample0	obj336	-0.6137863270693094	0.8774670030491831	-3.8053290707223204	-0.49839732603854325	1.7937427297990844
id337	sample0	obj337	-3.549495747385381	-0.6496179931988451	1.4592806591726224	1.1341279397596569	2.9970062424849715
id338	sample0	obj338	-2.5065247947390263	2.032891782632338	1.9386675186588957	-3.3429210232469964	-0.05670613226886423
id339	sample0	obj339	1.9069464817556445	-4.0160609616927285	3.831907330139546	-4.152221142945071	0.827373927699292
id340	sample0	obj340	1.2691926774420743	0.6795293418879538	0.22490787952283875	-3.0805117275024534	1.5990429639614343
id341	sample0	obj341	0.9007860230208382	-1.3448141761573396	-0.5499114556971485	-1.8686059536209336	-0.16233419710091979
id342	sample0	obj342	2.0503433317917192	-1.196807604898108	4.595423437870247	0.3664367692753323	-2.816057986731371
id343	sample0	obj343	-0.37153949051463186	-1.1022822094833071	1.5293606172114664	0.5810250475109839	0.14525096345334476
id344	sample0	obj344	4.272575280360142	0.5064804708499813	-1.8416246394364701	-3.366738400814361	0.16159737517568318
id345	sample0	obj345	2.125261414005588	-1.1731618254836664	0.3382261084131726	-0.8606944944628462	-3.940701186754171
id346	sample0	obj346	-1.5861089325073146	-1.147683538517806	-3.055687508821897	-0.07318021963717891	2.2710084993915656
id347	sample0	obj347	-0.5333716498200058	-2.27999994164721	0.2317502875326365	2.22855790653941	3.5227198351022126
id348	sample0	obj348	-1.0850744749599561	2.99782850032448	0.04419442460657175	-3.957743919115069	2.027701111249576
id349	sample0	obj349	2.779539861695529	-3.9085161303313396	1.0067753401127244	1.2053890430376328	0.28310014848661136
id350	sample0	obj350	-0.6780643613780484	-1.7910156784492781	0.32384024264611466	2.9512153779549783	-2.8960905595439397
id351	sample0	obj351	2.2555685346113523	0.41491599536616763	0.61978676460208	1.377610812987496	-0.6866479318261314
id352	sample0	obj352	0.4678869382081994	1.4028898725412329	-0.935431379967395	-0.10790903969138577	3.290205404833814
id353	sample0	obj353	-1.5585075007951394	2.6591543705079186	2.0535515855521522	3.035572003933536	-4.127122969006827
id354	sample0	obj354	-0.17919361671297485	-3.1527477894955784	-2.590066087904639	3.234703486493803	-2.0942597920867816
id355	sample0	obj355	-0.8111971494377304	-2.2690451795390896	-1.9699780417220467	0.9784588128417322	-2.4474784769210967
id356	sample0	obj356	1.9263436716139992	1.0800555833597252	1.8829912972648695	2.226282007625144	-3.678523479370222
id357	sample0	obj357	-1.4578498381198444	-3.554043125967456	0.2892511457624065	-1.7298484923427389	3.4799478115972464
id358	sample0	obj358	0.11144445044028295	-1.7668113325682449	-0.7606884507968246	1.7646112274506183	3.286393513870716
id359	sample0	obj359	-1.1033790650855422	1.6579831727340562	1.136934380446454	-1.9453765395297704	-3.27720655326657
id360	sample1	obj0	-0.5510607158360055	1.510277221760612	-2.3528374470956406	-0.43078726912833853	-0.657493952434576
id361	sample1	obj1	-1.9623069057958547	1.4619949299173014	-1.879644763454123	-1.8023624703224934	-0.709915898358759
id362	sample1	obj2	-2.192457947398504	3.5766103329540284	-0.4119127390353914	0.009192805740609211	1.209727616736701
id363	sample1	obj3	-0.584800726812525	1.161823333278086	-0.03801251608291456	-2.096569066792251	-1.4418393858980856
id364	sample1	obj4	-2.254163916138789	1.4543902995181839	-2.051355636790669	-1.986693540643895	0.08975426233132944
id365	sample1	obj5	-1.3478600073579092	3.4723226038415014	-1.7602917090996097	0.3766718691140689	-0.8388319808259754
id366	sample1	obj6	0.9311892490094402	2.793083797877336	-1.6726317431856124	0.20693879413517613	-1.2904931085599043
id367	sample1	obj7	-0.7268016660874284	3.035589493359822	-0.15470784945754956	1.247012174684844	-0.8301033128929489
id368	sample1	obj8	-0.11214501739697291	1.622314643780083	-1.969186252509691	0.9921507845325135	-0.4212150775707606
id369	sample1	obj9	0.9020879099845571	2.5176750140862643	-0.8607790066621588	0.4564890439348235	-1.51940298670771
id370	sample1	obj10	-1.6635368456456014	1.832456419095772	-1.861822740888083	-1.1244564925513303	-1.0719636683258282
id371	sample1	obj11	-0.16994325779638042	1.0359387666856041	-1.708786167814154	0.11590850507476191	-1.0976976625914248
id372	sample1	obj12	-0.8513271678114693	1.1438006874396773	-0.748114948560417	-0.633886130406192	1.235321227137092
id373	sample1	obj13	-0.9756282136782193	2.66733170355283	0.14331501832734195	0.17934150624686418	-1.1906327671029944
id374	sample1	obj14	0.8927301720713265	4.461284277474635	-1.4638712693664857	-2.0230668946796757	0.18751093277802844
id375	sample1	obj15	0.4782174746534491	3.507578639251757	-2.4497420372663026	-1.5643012973640027	0.48719484665496116
id376	sample1	obj16	-1.592334318118955	1.0502275429431285	-2.218620125902651	-0.8390463491505777	-1.2619706572851783
id377	sample1	obj17	0.0010011584548828	3.281130612203132	0.7479057405476006	0.6862206005306974	-1.8199499816819094
id378	sample1	obj18	-2.344173440337311	2.975140033139504	-2.01599806557905	-1.714527939889324	0.42026069030696944
id379	sample1	obj19	-1.1247728988216559	1.6563832997058845	-1.228799398537216	0.36498983411894437	0.10656801670471716
id380	sample1	obj20	-2.330230202419924	3.924035596429518	0.6378542404485479	-0.3036097976899059	0.1454032016508917
id381	sample1	obj21	-2.2618266651714283	1.6759246317559648	-0.7762443907235348	-0.44659778965482255	1.2585894482046036
id382	sample1	obj22	-0.89367256576	1.967930863592725	-0.22729883551694363	-0.7457664565189139	-0.531378628952833
id383	sample1	obj23	0.8722332790076519	2.4927347992048814	0.2258831804592336	0.6517040006723296	1.6229795393445972
id384	sample1	obj24	-0.16269734039963235	2.5409739575781707	-1.6277239315489909	-1.7510873093428732	0.20219275499609268
id385	sample1	obj25	-1.9442038700491309	1.3404261745468082	-2.5216072474835944	-0.42558133549818833	-0.4309237248861124
id386	sample1	obj26	-0.36122813809144483	1.604838637087906	-0.940049151531982	-1.1155994759947006	0.25520242043031227
id387	sample1	obj27	0.12277265323923525	3.845103066073661	-1.0556334930503108	-1.5420920783198304	1.0737029220838796
id388	sample1	obj28	-1.4461423408504772	3.414535147971983	0.7591037990704523	-0.4657348966054995	1.6047285600508496
id389	sample1	obj29	-1.5769841824070192	3.8211880847965336	-1.29848622016818	-0.040672836003470936	-1.587677942946946
id390	sample1	obj30	-0.4207699152177835	1.4188035555718232	0.21691886619995437	-1.7587349290103937	-0.10864562653907583
id391	sample1	obj31	-1.078926791426409	3.207025959857458	-2.507215990569949	0.6493234499265454	-0.041458843685369784
id392	sample1	obj32	-2.148623695044389	0.9950274092135452	0.5784047536461572	-1.0025188897226873	0.8790470380665292
id393	sample1	obj33	-0.19408037309398884	3.0535799935773342	-2.527259494046713	-0.0893056510324104	-1.8421927979452972
id394	sample1	obj34	-2.300337093019927	1.5367265178616392	-0.20919193203604736	-1.8216976592941188	-0.3523896426331494
id395	sample1	obj35	-0.9928131262040147	2.3211723107654056	-0.9471739189158166	1.4205937605395575	0.6537315127063266
id396	sample1	obj36	0.3622359672292854	2.2525934275022954	-0.30240424083472095	-1.2038649828722776	-1.573856883512526
id397	sample1	obj37	-0.4597933868224702	3.973751029641692	-1.2993110530788166	-0.17788519883006604	1.0571562189925479
id398	sample1	obj38	-2.15747411053895	3.5580935268925096	-0.23441348810823182	-1.0710285490257263	0.06910321422700916
id399	sample1	obj39	-1.2757389457421884	2.8512907681169333	-0.38696413100326077	-1.040337382573869	0.13719295011617771
id400	sample1	obj40	-2.302153210628613	1.7481135621226878	-2.346970810007116	-0.15212234625606014	-1.8432673177247059
id401	sample1	obj41	-2.151466024947242	4.131704071632163	-0.32266537222288405	-1.3154739899094188	0.5371967161414204
id402	sample1	obj42	-1.904123670019313	0.9062161336999701	-0.6428037600790717	-0.3510454061645556	0.7007845904683367
id403	sample1	obj43	-2.132195035577017	2.481153014597596	-2.605278324313431	0.6778099560584085	-1.180662459562782
id404	sample1	obj44	-2.3288948298268353	1.8028260832219747	-1.7082487316391923	-0.3986760332316641	0.4344217013178231
id405	sample1	obj45	-1.0395670777437012	1.5328641032188424	-1.9544919264884513	-0.11295229511361193	-0.23664682847863117
id406	sample1	obj46	0.19247400926610347	3.5694282342489716	-1.2089997567650725	-0.9837389716798302	-0.2766591677369843
id407	sample1	obj47	0.8140574096820792	3.6925911275482868	-1.22019734234584	0.8484501944826246	0.1959119575681243
id408	sample1	obj48	-0.976121204907334	1.8206031787067727	-0.5899104074500332	-1.6910507614954793	-0.2424268070505371
id409	sample1	obj49	-2.185757028904905	3.651379294638634	-0.2928550748015415	0.9332151193621525	-0.019996180016445653
id410	sample1	obj50	0.2703989452451101	1.5276410553697644	-1.718204329187342	0.618656247895246	-0.10500131229436804
id411	sample1	obj51	-2.209603217595073	3.2301278828631705	-1.3676673475319185	1.1030837799934619	0.34813994070963017
id412	sample1	obj52	-0.521051556610115	2.427794851279635	-2.4492586761980197	-0.8293906973596779	0.23429457436281864
id413	sample1	obj53	-1.0632073109207554	0.8848230652753615	-0.3249947909644957	-1.9246965779247989	1.5022730559575608
id414	sample1	obj54	-0.2339340468111717	0.9607370115384604	-0.3943919517806076	-2.104450771682955	0.3013645415704158
id415	sample1	obj55	-1.0937509865178472	1.7537820894583818	-2.429236265740312	0.2953742482285471	1.446855727808004
id416	sample1	obj56	-1.3452218855269502	2.793666196246907	-1.0240331817050738	-1.360824192521466	-0.2858444529449369
id417	sample1	obj57	-1.030679397072617	3.582196816166766	-0.3773631198662948	-2.113787851516795	0.5791446607061517
id418	sample1	obj58	-0.7796872483570738	2.8949413032391336	-0.5863466302426052	-1.0416638059971075	1.3068648221942174
id419	sample1	obj59	-1.5754408859722036	4.4222471727951005	-1.4976971793546718	0.4012059783201323	1.5041594665986786
id420	sample1	obj60	0.4535325404523618	0.9926843281694444	-2.5605986714842075	-1.9416938017910146	1.2486161334778847
id421	sample1	obj61	-1.6618696334422238	3.9743360238425716	0.14314640482989227	1.2330529034855975	-1.053139761205767
id422	sample1	obj62	-0.3369973978990555	1.9426510552000502	0.11544499568350752	0.42009551413125235	-0.3644590929662763
id423	sample1	obj63	-0.10750093556538887	2.2194284370015875	0.6379936635290002	-0.40845517712785684	1.3712109671922719
id424	sample1	obj64	-1.8943530637836807	1.5012015024508991	-0.1693371132096566	-1.6223086268549363	0.4715426066481092
id425	sample1	obj65	-1.9696257953969323	1.6414877701171564	0.34117568134190335	-0.8882908346036347	0.28641296358025436
id426	sample1	obj66	-1.4662458851963907	3.2263248822418342	-1.0607087607044139	-1.8086274293334075	-0.5471499862892899
id427	sample1	obj67	0.37713001529461043	3.1933830495917324	0.2832525428537702	0.060206189764513196	-0.02121561466948796
id428	sample1	obj68	-1.8249717041509623	2.484742909857081	0.23992973719597965	-1.673466813705051	-1.7388683666132085
id429	sample1	obj69	0.4695971586488741	2.5118413017567374	-1.128460754516354	-1.3552918346014002	-0.6345644400975889
id430	sample1	obj70	-1.922867858211594	1.8716993232783814	-1.4740341469952603	-1.1653310633337879	-1.7393374409670879
id431	sample1	obj71	-1.903908682616287	1.467987898540771	-0.7431733419939226	-0.898305864772114	-1.657736150514511
id432	sample1	obj72	-0.11588377735991595	2.5716525687624703	-1.592988951603663	0.45706453055788265	0.19908521899684417
id433	sample1	obj73	0.6934880106937731	1.5478504912601472	-0.8497283737694357	1.4825728363145514	0.5761179260205151
id434	sample1	obj74	0.45991692819734653	3.754235586682065	-2.684453849727775	-2.0908367907888277	0.6277102499120992
id435	sample1	obj75	0.3096093730151439	2.786811916315219	0.3153207385820911	0.20528425434002018	-0.10177801484171445
id436	sample1	obj76	-0.09355658088881724	0.9515382494569897	0.5410237370319024	-0.8620346347366064	0.04395877993541131
id437	sample1	obj77	-0.691674316973353	3.2417644392871274	0.23492380153900538	-0.2454533353220234	-1.7624057375913607
id438	sample1	obj78	0.024167122242287453	1.7037870790744165	-1.8596838096060164	1.042068290815383	1.171436138003709
id439	sample1	obj79	-0.37358073592616203	2.7069848626607187	0.0921857134795776	-0.30756890971535134	-1.2226676351819048
id440	sample1	obj80	1.9762867597517813	1.328777229111278	1.30202154918841	1.9876920621252812	-3.3094145887456046
id441	sample1	obj81	3.635665293915686	1.3292803672405893	2.1624732948808605	2.6659304247854907	-0.9546531988989806
id442	sample1	obj82	3.591041142215717	0.5830530587689304	1.1574093456256909	2.488523668343018	-3.983708852840991
id443	sample1	obj83	0.4683348389122588	-0.328152988452179	1.3615198937558255	-0.7860777676973487	-1.5342034884589644
id444	sample1	obj84	0.5803092576024784	2.1714780709546257	-0.12596354115052733	1.4653185737218035	-2.017399590046778
id445	sample1	obj85	2.6391430050904097	-0.05382253998668074	1.3685637934262063	2.505288131238653	-0.9074750530333489
id446	sample1	obj86	0.543565020297027	2.6859671837617367	-0.8571409854303798	2.709558716576584	-1.7147255360856224
id447	sample1	obj87	3.318842321504958	0.7367354348899542	0.8496058174354106	1.2295568780867316	-1.0324058938855696
id448	sample1	obj88	1.8986096300951536	0.9745541986120512	-0.22934706625885437	0.7241383547358258	-1.7693792108558168
id449	sample1	obj89	3.4182658844237626	1.1447657165370984	0.7381047955895956	1.0913643761013008	-1.823001630313595
id450	sample1	obj90	3.1002132583681226	2.7978527756163403	-0.07791341526799911	0.8229716233120901	-3.436464323996924
id451	sample1	obj91	2.5925865429381103	-0.6852578456288652	-0.8057864342680345	0.9501929914622251	-3.9686281414544746
id452	sample1	obj92	2.4975853890941977	0.7618592779667781	-0.7836982142820794	-0.5060395308611629	-1.2474471742335285
id453	sample1	obj93	3.1965933424305657	-0.5799002163798703	1.7554191752031747	0.850651114019354	-1.4643838328405707
id454	sample1	obj94	2.131710209991632	-0.4077021507895897	0.43001661357879084	1.3430605676994565	-1.899489552307086
id455	sample1	obj95	2.103154295254889	2.0423932584458573	0.9698580423213021	1.7830995965476328	-2.3665546560037543
id456	sample1	obj96	0.7364760909355428	1.1192188497536422	1.8283050085930614	-0.40305268336869826	-2.6751548553804967
id457	sample1	obj97	0.7911775193392723	-0.03720803517880422	1.5039698405845263	0.5554478048634606	-3.0805112116115545
id458	sample1	obj98	3.932917424059865	2.5065813273594686	0.17584846510900243	1.6640507562872757	-3.310591068782398
id459	sample1	obj99	1.3660226470946646	-0.46791636105935797	-0.8209579288084319	1.160458580636316	-1.3192697434997005
id460	sample1	obj100	2.2937784041416815	2.0900624911118437	1.6755963665255156	2.43849144516461	-2.629902918147016
id461	sample1	obj101	1.994453036540783	0.9951290212178578	-0.7834093829375375	2.4889143823182254	-4.139295083444598
id462	sample1	obj102	1.805999177762129	1.6773563613989215	1.4384104860457458	1.4787186795057814	-4.300535025646899
id463	sample1	obj103	1.2178639559177484	1.8179712466236402	-0.23959065136652313	0.7675161514808662	-2.1659858118260757
id464	sample1	obj104	3.4716150244033814	2.718735771489346	0.0064122164313505925	2.302414151841397	-4.339097084293752
id465	sample1	obj105	2.751658722032712	-0.39942795377519613	1.4935148607751791	0.8913989091717136	-3.2646389531198183
id466	sample1	obj106	3.3629485838538065	1.971670217576893	-0.0656102097523048	2.411493052117403	-1.3091719670805737
id467	sample1	obj107	2.285287752329374	0.35541141524216124	0.08110164901952688	0.6746650922429323	-2.0935523860083505
id468	sample1	obj108	2.1858702102876766	0.16180628677745768	2.077763919661294	0.4957976917932363	-2.9022561136449045
id469	sample1	obj109	3.866604609702228	0.19195301773033802	0.04601427545185799	0.35835239939820607	-1.7942825050355837
id470	sample1	obj110	1.9052854162447963	1.4836336519153135	1.2422512395215557	1.7613462219520224	-1.3800917047991208
id471	sample1	obj111	3.685835243861775	1.7692437106517698	0.12113300418763306	1.293769093912941	-4.129932416864149
id472	sample1	obj112	1.049904833831134	-0.21232525697398885	1.019505464652567	1.4887636254201084	-1.9812596843553385
id473	sample1	obj113	3.8685957017994825	2.063680303125568	1.1234611683183566	2.1601422812988016	-4.275707721966192
id474	sample1	obj114	0.7387404591402451	0.9670522268101618	1.9646564865739526	-0.45021203289122513	-2.4570108135070097
id475	sample1	obj115	3.0440359762593054	2.2462437750716435	-0.04240775144889586	1.9790446426612733	-1.796834138918021
id476	sample1	obj116	3.8596618687537774	0.7848043275561605	-0.23419178093951842	-0.1054895084827514	-0.8009231517277475
id477	sample1	obj117	3.9733256603342957	0.9732649234142405	-0.5183748583768937	1.7540783497194534	-3.317292778310925
id478	sample1	obj118	2.18073744328491	1.9743321433411545	1.5121973924797711	-0.6307255264758194	-3.9740816759669633
id479	sample1	obj119	3.4053411926314023	2.767052596267767	-0.7435121968997371	0.3928091401825966	-2.588685378903101
id480	sample1	obj120	0.4879775976186682	1.8988811895454307	0.5868551187955684	0.4349220223913628	-1.002087169844324
id481	sample1	obj121	2.370552211791108	0.9974808980393011	-0.5499814443704374	2.0589632985191004	-1.7119042234336785
id482	sample1	obj122	3.5184847191571498	2.7719727475187814	-0.308745396060913	2.427344761775621	-3.2323093654531223
id483	sample1	obj123	1.1307456011076416	0.6728961813183532	0.9800464391048278	1.2564109222495292	-2.345138812086585
id484	sample1	obj124	0.895908092745936	0.8192173098894655	0.6535675803983119	2.3370598126882456	-2.7894092349152624
id485	sample1	obj125	2.771368637888913	1.4084723617430988	-0.6438983745391278	1.162479508718181	-1.4501114663355141
id486	sample1	obj126	3.4754905469833526	2.002958418549428	0.9787951467241867	2.2817970599769453	-4.154265000288026
id487	sample1	obj127	1.7549099187703765	1.962407286922454	0.8172780976022984	0.8066520797708352	-1.6842938071033642
id488	sample1	obj128	3.468885474365652	1.2347094138998913	0.5681765590482801	-0.6941483151441219	-2.116045215074835
id489	sample1	obj129	1.8478807496151766	-0.18488166571289555	0.4641608707350282	0.43172581964769163	-3.5402139431489132
id490	sample1	obj130	2.044313268289823	-0.6336371175245323	0.46692124215959785	-0.5377820987450512	-2.909282045985303
id491	sample1	obj131	3.690596948560737	2.413862534593329	2.3456209462916737	0.5780167166741361	-3.5638253145473042
id492	sample1	obj132	3.3855156197634466	-0.7203334254306506	1.2934514946152598	0.31828963614295236	-3.347407576840208
id493	sample1	obj133	3.8981048706103225	-0.28503010035097853	1.6866726118609734	0.6972160389953435	-4.052266883064465
id494	sample1	obj134	2.643359461022314	1.4844773986328232	-0.6400187742153827	2.073176093976322	-4.001323743722674
id495	sample1	obj135	2.1622335837555644	1.7281470723172423	1.6314766309726292	0.6310177751418111	-2.137203374703585
id496	sample1	obj136	3.626829707958147	1.1898175045761896	1.8133982730061902	1.7844479395046455	-3.346188668006716
id497	sample1	obj137	3.968897326837477	0.7020706487010457	-0.17403543861832937	1.8806518193632853	-3.303293506080206
id498	sample1	obj138	1.2555427645210202	2.4277759963933288	1.6070585033117946	0.974394316391729	-4.3117085966426885
id499	sample1	obj139	1.8514116308215043	0.5877589576693825	1.0774507882784425	2.446974391967829	-0.972194906665645
id500	sample1	obj140	2.933802963457026	2.4888116063306467	-0.04175992067404144	0.9206363830212845	-2.8208358476610433
id501	sample1	obj141	3.969729225178214	0.8759731839745863	1.603987391989229	0.7367822204978396	-1.0008716334852965
id502	sample1	obj142	2.10661467930117	-0.7319697443040869	1.7526471431531865	2.6332108325537957	-4.088882387748795
id503	sample1	obj143	2.437139228335769	-0.17283342268254898	1.6241096619717805	2.2095320314352014	-4.198831917484028
id504	sample1	obj144	0.7209519912105831	0.3255255560756156	-0.2735075421395152	0.6799985496494756	-2.6796666889755705
id505	sample1	obj145	1.2101180103063065	2.2972652495463106	0.6380095709969149	0.2796634699346967	-3.2622810692532704
id506	sample1	obj146	3.1409819322954204	-0.47011407629504665	0.18832958465232075	2.04464362520011	-2.177423204918627
id507	sample1	obj147	1.3136557796018775	0.2098304464198183	2.5140656633181573	-0.7067610053706914	-2.454035406424658
id508	sample1	obj148	2.253823717625292	-0.11751171565020568	0.5369458921362587	0.6858697195799821	-3.4328106431339904
id509	sample1	obj149	1.2935288582838074	0.4349160584173304	-0.5799526302847662	2.1636296050725106	-1.7264011011831608
id510	sample1	obj150	3.4528206128025207	-0.08878616572226461	0.08826723388297153	2.2143695229243043	-3.8784669543847787
id511	sample1	obj151	1.068623008134678	2.2072032124685066	-0.87379505596036	2.4794905581694398	-3.39008256303348
id512	sample1	obj152	1.098188804971194	1.875735994715841	2.343367997905376	1.9132057185927043	-3.184165953315339
id513	sample1	obj153	3.8005584422929832	0.6507572119051983	2.4578426669646474	0.9892883409031368	-2.8755435411905794
id514	sample1	obj154	2.9303011601787246	-0.6574520141567337	2.411317414495934	0.3999309123693138	-4.1337422790151415
id515	sample1	obj155	3.0045043294465286	2.475019341194352	-0.9121311700536989	-0.6798462209900915	-0.814103127679523
id516	sample1	obj156	3.1487512934045148	2.2664111291228486	0.24473802540216427	-0.23660444875281383	-3.2555586094179003
id517	sample1	obj157	3.6942132974636097	1.266409829482047	1.2352011257243742	0.4048534096753553	-1.1844100903231494
id518	sample1	obj158	1.2707364201731663	2.3559228956871903	1.8525884378922395	2.6054827468763193	-1.4254004047305127
id519	sample1	obj159	1.2859457115728326	2.6221872093789047	2.1728018350608043	2.5691858544406037	-2.425794739506822
id520	sample1	obj160	-1.8465885232747514	0.17943828026917297	-1.196387891305137	4.103307853259348	-0.45605644006486523
id521	sample1	obj161	-2.6116805410077992	2.43299165720725	-0.5707106683849978	1.5986636918274595	2.7158724893902653
id522	sample1	obj162	-3.6673115851939255	2.0084445519968197	0.007031907804061044	4.550928846584067	0.645405251668324
id523	sample1	obj163	-4.095807145485208	-0.05738141357897186	0.0724648248173112	2.328094941757093	2.7086918545436727
id524	sample1	obj164	-3.008449215884106	0.299459241216562	0.6267154174910499	1.3606592195039526	-0.4140318035216495
id525	sample1	obj165	-3.2374681324798087	0.29878732736460867	-2.8360129078405194	3.699977962410575	1.8660479094030316
id526	sample1	obj166	-3.866496295552764	1.0807770265122747	-2.050831498186211	2.257537403847837	2.5335977335546076
id527	sample1	obj167	-0.6079839944086072	-0.7448239714132165	-1.930189956395493	4.272333260945017	2.4041023602911036
id528	sample1	obj168	-2.4624902186151707	-0.010332822730099167	-0.4626355712733996	3.8040773249322273	0.6243535759372785
id529	sample1	obj169	-3.019884228235955	1.9455197326033178	-2.746101949550157	1.2414169532397696	-0.3793189996480759
id530	sample1	obj170	-2.226551725430923	1.0461836934420676	-0.9914503776381993	1.4284063380953165	2.525238814872679
id531	sample1	obj171	-2.0046884371412625	2.5723786504017854	-0.379880522806076	2.761993194904009	2.9959918355051656
id532	sample1	obj172	-2.7474063116639114	-0.04658455240966708	-2.4231885015467545	1.7424243874146943	3.1033690973757517
id533	sample1	obj173	-1.5231668261437392	1.138100043648967	-1.0988903428513657	1.6426189939211762	2.501892217561747
id534	sample1	obj174	-2.120223837252981	1.6800003322522674	-1.7719526004935113	3.8083462820684595	3.1357034674530437
id535	sample1	obj175	-3.0802843622936313	-0.10725755896882139	-1.0489991001948324	2.246373917703118	2.6213267593934293
id536	sample1	obj176	-3.66322323281218	1.6842413565990613	-1.2358864702162484	1.5717537556881753	0.5689675785416684
id537	sample1	obj177	-1.6228936940085552	2.558495379945348	0.39930734424406444	2.8684821389862343	0.6862021010700816
id538	sample1	obj178	-3.1480974293731596	0.20517860401203147	-1.7154240523931976	2.7015521386115804	2.1772916979527466
id539	sample1	obj179	-3.0415987767569286	2.4373943831123714	0.08614213757606559	2.365790365098694	1.6111026688507368
id540	sample1	obj180	-1.9014259675794534	-0.4255135110190298	-1.0313773911328405	3.5619877861348437	1.1654758419371
id541	sample1	obj181	-2.1790730457904552	0.01889591108837929	-1.975663153552111	3.1790805861155045	2.731891789330544
id542	sample1	obj182	-3.1838481776859107	1.8940823932949706	-0.3236598815422378	3.9891529609424135	2.9286853992023913
id543	sample1	obj183	-3.765473469628444	2.676142668227044	-0.4780787706972094	1.1177124394689444	1.8523860154331375
id544	sample1	obj184	-2.9408826850027365	1.4778468700529326	0.3076958933676941	2.954166908633569	-0.19522904895363014
id545	sample1	obj185	-2.057452259751069	2.074516042329506	-1.0511848903420316	2.567105356100252	-0.04107220572321002
id546	sample1	obj186	-1.3438856074863692	0.7718713101682324	-2.360790180101313	1.8674886417811152	1.8432969651908904
id547	sample1	obj187	-2.5506273791530227	1.813336622933824	-2.355529027435137	1.333085740801332	0.5818244073085104
id548	sample1	obj188	-2.5017520820268464	0.846167342663704	-1.4975620674089547	3.413582934898707	-0.034245874131292764
id549	sample1	obj189	-1.3662312850434029	1.3813414635144536	0.43860118531298187	1.3531421974324227	2.864261876663614
id550	sample1	obj190	-1.9235718282495304	1.591783041110643	-0.5249667265020033	3.202426927433428	2.804321678717964
id551	sample1	obj191	-0.7810184750771965	1.5288294457154163	-1.2049905514773573	1.1831444598070882	2.643439917364625
id552	sample1	obj192	-1.9495617787878874	0.8607912392641721	0.5242876462175199	3.9841081740954873	1.3819350776874386
id553	sample1	obj193	-2.8753696765459082	1.0441354099154732	0.08894040042411766	2.3090989944502973	1.255320521816769
id554	sample1	obj194	-4.042206054071469	0.3526281823027504	-2.325299118284284	4.49503369624926	-0.16569297931675542
id555	sample1	obj195	-2.217892077855104	1.6693555811447471	0.3912503851415716	4.337030945029163	0.5435166651947252
id556	sample1	obj196	-2.3416447499315014	1.0787775677255698	-2.4347374761222964	4.3890334896134275	0.37493892633277215
id557	sample1	obj197	-1.2856729656804051	-0.29998421978748313	-1.6419069319992408	1.9800944885805682	3.084494237799795
id558	sample1	obj198	-4.0389605202820675	-0.07119088998035705	-2.8812269486745454	2.7539068257242008	0.6670508295757427
id559	sample1	obj199	-2.537703059176085	-0.31436365875637673	-2.387295611133122	3.49053282141669	2.1353960398589664
id560	sample1	obj200	-3.708122426666056	2.0142997667964186	-0.7353274324268779	2.4237277469159064	0.09174911042239597
id561	sample1	obj201	-1.1148477093466023	-0.017083405808065777	-1.2437380335718444	4.5751221204632655	1.867441202951571
id562	sample1	obj202	-0.7619565046901429	1.483175904661331	-2.461516651545998	3.6694889211870407	2.489641218733701
id563	sample1	obj203	-3.2330996767378792	-0.6894753920788728	-1.3423151223190888	3.486250804305694	3.0669912807615
id564	sample1	obj204	-2.8596200331215664	1.1755372037142942	-1.5748834876445563	1.2854310621508784	0.0034974077754161836
id565	sample1	obj205	-2.267711005179062	1.5142449794425803	-2.452370335240543	2.696800346524734	0.6680162626434887
id566	sample1	obj206	-3.792667324608701	-0.3669682853636549	-1.0800694802250645	2.1856693644512815	1.262450582269958
id567	sample1	obj207	-2.8941562999806933	0.8735028970175116	-0.3201695838809224	3.5455098297149785	0.02383438121018311
id568	sample1	obj208	-3.71390405235275	1.777372584734214	-0.8494273941320845	2.3854941136862418	-0.27638512118477165
id569	sample1	obj209	-3.057743466572188	1.6650477865260098	-1.076681016293055	3.2805223526561322	1.9326388634368046
id570	sample1	obj210	-0.5478359184154924	-0.5604000939189062	-2.3657281987240992	1.4639891582936717	1.7248960876131383
id571	sample1	obj211	-0.7870431283932307	0.5468461811046965	-0.9880441900384149	3.032325867056297	1.3004679707718687
id572	sample1	obj212	-2.8336271441582133	2.250206853421079	-2.560603061861909	3.289376435874553	2.703155198844002
id573	sample1	obj213	-1.1471719016546065	-0.565001112209796	-1.0969120356621578	1.6133182619984914	2.95691186326223
id574	sample1	obj214	-2.9010944460604895	2.1912658942503453	-0.4232711770975175	3.9357608758619476	-0.3052205048205108
id575	sample1	obj215	-3.5473190594002544	1.5187622227099997	-2.0149545953871697	2.4697408474131404	2.932994041284559
id576	sample1	obj216	-1.967369417636809	0.3652056862411386	-1.4349590146825242	3.329715984032684	2.661103896961389
id577	sample1	obj217	-0.7727701263946407	2.293520588751237	-2.676425568660441	1.6027407478350653	1.6673032769431821
id578	sample1	obj218	-1.4664742414719145	1.4509054929416567	-1.70277967242164	2.63741560837153	2.7690182471501625
id579	sample1	obj219	-3.305036907148473	1.3888215929548162	-2.2497998329549875	1.2288379930209448	0.3255926822590791
id580	sample1	obj220	-1.2861631777332285	-0.10371140296399295	-1.922697917046409	2.337782433965592	1.3074846724671438
id581	sample1	obj221	-1.3245649338588497	0.7283509850529508	-2.6291013471038793	1.366088623806952	0.3007051219182204
id582	sample1	obj222	-3.985992022413274	-0.6623868662353374	0.20543303972675386	1.924390856340826	1.633581068200105
id583	sample1	obj223	-2.658847424243312	0.18099106604803594	-1.1886489970995173	1.4107511344529375	1.8038227173536496
id584	sample1	obj224	-1.7076881443254506	1.4391735529201444	-1.8430821780621873	4.0386266927744225	2.417077030716697
id585	sample1	obj225	-2.6446349256089006	2.146870613462772	-0.18455891159096427	4.510279134698094	2.6646795727598898
id586	sample1	obj226	-2.1635011467185774	-0.08685850342496071	-0.16685657342209104	3.9588703725959293	3.090439617822006
id587	sample1	obj227	-2.6162893697407794	2.2695813039876747	0.07655211486288827	3.1419783431318606	0.6275176490528345
id588	sample1	obj228	-0.6003255237443532	-0.4922094996486377	-1.2436816222425155	4.155239647542007	0.2115557387171203
id589	sample1	obj229	-3.9131893077250233	0.6754998812265709	0.006603645638075362	3.172682259367405	1.5612067234559337
id590	sample1	obj230	-1.9869950274522516	2.2433659833503325	-0.16339699832996568	2.666688802588669	2.8093499467111833
id591	sample1	obj231	-1.9174544626130092	0.8134224414442375	-1.2643348895442317	2.6033152091076235	-0.3039117600296595
id592	sample1	obj232	-3.859257743523482	1.728374531325956	-2.5406519387613415	1.7670313143535665	2.507866583831329
id593	sample1	obj233	-0.889115081637742	1.502480809995326	0.18536990963608457	2.1932298143750613	0.6567459094859647
id594	sample1	obj234	-3.281550449859405	2.205085925514642	-1.478200273926197	2.558714571068997	-0.08772494454396518
id595	sample1	obj235	-3.2212668375255977	0.9306113964107252	-0.05035794629483914	1.807192678136376	1.1350213856236273
id596	sample1	obj236	-1.8011770621239271	2.680527674739455	-2.100104745474027	2.447852056186847	2.476922758756694
id597	sample1	obj237	-1.4377801321631727	-0.43254826892476306	-0.15549043056805734	2.701433248707236	1.8734783904511993
id598	sample1	obj238	-3.386051469265899	0.2386810893631457	-0.898022025939663	1.7120492328413888	2.654847049750449
id599	sample1	obj239	-1.7236095140865328	0.30602154280743643	-0.7248062863937708	4.441736628794199	-0.33625003422795285
id600	sample1	obj240	-1.072419440793321	0.9687501152779314	1.6893558081556879	1.0432933354228682	-2.5446604689715113
id601	sample1	obj241	1.9355889791164316	-0.46005520512951903	-1.0617554305297847	-1.5408641336935744	-3.2769714260617855
id602	sample1	obj242	-2.8213150407871233	-2.3552030405634747	3.3545104413555142	0.1755892663455334	1.9798591840808377
id603	sample1	obj243	-0.7281247959434027	-0.2579063873139298	-2.4808408787620078	-0.03770923905029755	-0.7293232474961606
id604	sample1	obj244	0.08911562390559413	1.6483533288758558	-0.9562525307133916	-2.3823863026524776	-2.557619674315041
id605	sample1	obj245	3.3613330297618162	1.6741706797371565	2.866455805130718	-1.3932689649288525	2.560235088954853
id606	sample1	obj246	-1.3277198213650967	3.512769565512828	-1.0117959227446034	1.000565292132431	0.9147440626980663
id607	sample1	obj247	2.290246405123707	1.6517897921441864	1.455566172884148	-0.7364581756601856	-2.1283292075547955
id608	sample1	obj248	1.7237758179226421	-1.7753239950798811	-2.90320441132304	-2.7828148800348442	2.2841568386756244
id609	sample1	obj249	0.16470767435327915	0.9079348903071922	1.7716240195101902	-2.3361777488225934	-2.3801611305125334
id610	sample1	obj250	1.84851042123425	2.023350212204882	-1.6241105726875789	0.23145911043468215	-3.0997924677938893
id611	sample1	obj251	1.9480355910760447	0.0031450723273207526	-0.5911635100369683	-1.6981300588337662	0.17885507236067322
id612	sample1	obj252	2.6141736829806654	3.589578128873156	0.12912676993607985	2.894947308634426	0.7443346261524031
id613	sample1	obj253	-1.2171210754956345	0.007960877256939503	1.042051173407513	3.645935322481206	-3.6823316844467957
id614	sample1	obj254	0.2736838832841261	-0.8767470407823297	0.15684214319831358	-3.1845780326574205	-0.22294639529210025
id615	sample1	obj255	-3.6445160862381663	-0.7702598420791176	1.5497470560677946	0.5854707900618388	1.7824320664693887
id616	sample1	obj256	-1.54245336000475	-0.9522076188440073	4.560610572341233	-0.6386734132381189	0.6081224163194381
id617	sample1	obj257	0.20774088788974	3.664817294565588	-0.09310672639552364	2.2901452253836405	0.06478088525570547
id618	sample1	obj258	-1.3410503669992377	1.034935220590676	-2.045040146375671	4.142361230451716	-2.5080238391767713
id619	sample1	obj259	-1.447718877913079	2.6099057028465236	2.8160151908789697	-1.7109684851363764	-1.411037870547935
id620	sample1	obj260	-1.2240917459901703	3.3975017522764404	-2.65119047008282	-0.385974992576142	0.6467159855126414
id621	sample1	obj261	-1.6296739422280249	2.2677938194529164	-2.8467407115060883	-0.9578591292168817	-3.58921946229158
id622	sample1	obj262	-2.7096666422809537	-2.7847494321640696	4.055368157592553	-1.013950050593419	-3.7779117741722956
id623	sample1	obj263	-1.740578476584506	-0.9326653718239097	-3.6568530298703217	0.16050111218221752	-3.2304954616373713
id624	sample1	obj264	-1.4085867567011123	0.4917998415291609	-3.6302931381664	0.716681539763466	-1.018845724326583
id625	sample1	obj265	-0.11712260881766379	1.3010398967970012	-0.6158110442809412	1.1215757103257065	1.5209706405971244
id626	sample1	obj266	-1.6588660895765972	-2.8568340998387596	-1.6795446723235512	1.1780665699017978	-1.7286710788048334
id627	sample1	obj267	-4.408635866758003	-0.42899957420673407	-0.6648103505774423	-1.6824477611040514	1.4409828457723715
id628	sample1	obj268	1.7680984212385198	3.9823260682129904	-2.1326067096465318	3.4278724535018226	-2.5786854522285845
id629	sample1	obj269	-3.6226181477941655	-3.463516821317337	0.9104286044120051	1.3887442018349938	-1.1736724501888676
id630	sample1	obj270	-3.1303820158286078	2.2642349260078936	-1.5538274207824847	2.5855118587693537	-2.2500866390438112
id631	sample1	obj271	0.9138212695367987	0.6053333545575323	0.6239752527625435	-0.6677435365694302	2.5018386200703624
id632	sample1	obj272	-2.9330756518990593	-0.817537985494176	-2.5255274656715323	-1.0962975188170243	1.996672693453244
id633	sample1	obj273	1.4435026751264883	0.0862017225098255	1.027860362056008	2.1880621269425964	2.748309163888885
id634	sample1	obj274	-1.1580213609728471	-1.3001296649270384	-1.4400881993713197	0.7084946505841497	-0.9609186889903529
id635	sample1	obj275	-3.452285270938698	-4.156032756051125	-3.3581284448107303	-2.4372930937208324	0.9285156686969198
id636	sample1	obj276	2.7143798070239455	-0.09372450243932495	1.5046351138617846	0.3128573718215708	0.5217385994672428
id637	sample1	obj277	3.2459290971675587	-1.3415473911830877	3.1731283740203544	2.080681831140793	-0.22599269005476663
id638	sample1	obj278	-1.303552304446901	0.7210849532331027	0.059991638404351955	0.8212138141047438	-1.7596640125476128
id639	sample1	obj279	-1.3559021508003508	-0.09903281267373365	-1.528639907733976	-0.09059502780860762	2.769001378270353
id640	sample1	obj280	-2.9913425054361973	0.3904502377012602	1.9813909514439891	-0.3372161418851638	-2.8097913908147083
id641	sample1	obj281	-2.976288647791363	-1.5906912106096054	-1.0733172171763128	-3.4183932174189113	2.7050695131099944
id642	sample1	obj282	-2.555788592110686	-1.8468084852818858	-1.4774057657150546	-2.911202401684526	0.9995703299366496
id643	sample1	obj283	-1.2983525319657792	-1.1959043800719187	-1.6616171651114786	-2.335078556865178	3.8759766812509753
id644	sample1	obj284	-0.5987768177282415	-0.559806375494599	-3.4254382830928343	-2.562746560457282	-0.1481895916003333
id645	sample1	obj285	0.35338904662581005	-2.9927898914592204	-2.7643310454227175	3.2402524513905773	1.3974060125688446
id646	sample1	obj286	-2.2657341473340935	2.876846925368449	3.791187053210681	-0.6967390801285733	-1.17157094813431
id647	sample1	obj287	3.764251481413882	-0.34189255938971064	3.4923115542960224	-1.9089483234210598	0.41266143803920197
id648	sample1	obj288	2.9338077352215937	-3.6014756307363767	1.3689910356423176	-2.2829759636674103	0.10147518232524444
id649	sample1	obj289	-1.1086839344858224	-3.0915949195673402	-2.703265971134366	2.886892884248428	-3.540487458680041
id650	sample1	obj290	2.0753467575021105	1.3162650622209726	2.7822664783012234	-0.7690608079468564	2.336467636026608
id651	sample1	obj291	-3.827537013982756	-2.7238607032548847	3.4670675140785647	1.0966189180328818	-2.629885843506279
id652	sample1	obj292	-0.2983575243939576	3.2241821111429196	0.46487612998985806	-0.3138124732601635	0.8423943061495642
id653	sample1	obj293	-1.9148271536660613	-0.20428760796081447	0.9731069183235179	-0.11889309284800276	-1.16451651222304
id654	sample1	obj294	-0.09016005999652643	-0.23238080028518526	3.910276778540638	2.70474007616554	-3.5030478703235834
id655	sample1	obj295	2.080041629864388	2.38844176990591	2.321849465948839	-1.1809046038881184	3.8537543807660093
id656	sample1	obj296	2.620905041836659	4.542173443225111	-2.183750133426652	-0.38035017693352313	1.6797016561668816
id657	sample1	obj297	-0.23678193902196099	-0.8466234345792476	-3.1435199273357126	-4.085242632539426	1.6114896432520565
id658	sample1	obj298	2.055129254706756	1.3957677423283357	0.7194514270459252	-2.497168330465973	1.2116837950130284
id659	sample1	obj299	3.925123570853577	-0.8946571702512156	1.0116737295697542	4.203193354952533	3.1764606956094115
id660	sample1	obj300	-0.7567095161810609	-2.701454036475424	4.018042079727259	0.19595922971031565	-0.24983764271778264
id661	sample1	obj301	0.3157818039983975	1.823508848411197	-0.4788828707143957	-4.1200091579125555	2.901516782678973
id662	sample1	obj302	-1.8388432958124181	-0.7451523774205056	2.2466125023534342	1.824362856628136	-1.0739075103438338
id663	sample1	obj303	3.024241152511463	0.6256736529072295	-2.1507043524971072	3.2791527190357286	0.8472600924930205
id664	sample1	obj304	-1.9813640637065089	0.966164000707731	1.303194108666118	-1.0626840784751244	-0.33575181846006197
id665	sample1	obj305	-2.781342149257692	1.1752647938977427	0.44631261751811535	-1.29665803945823	-2.172072792859219
id666	sample1	obj306	1.9469531764370391	-1.3882173294897249	2.122123723812774	-0.596684725912271	1.0934704334661471
id667	sample1	obj307	2.7559681624845798	-1.4443708374088846	-0.6009236697461158	0.25500590112791977	-0.18426754577561577
id668	sample1	obj308	2.26728620273241	-0.4167308110686603	-1.388764871630334	0.36245742165909567	-4.365941601373557
id669	sample1	obj309	0.04362521402511388	0.8485803041607947	-1.6336923043077156	2.5940227019974778	0.9431548178032834
id670	sample1	obj310	-2.520676745154692	0.3705776801081466	0.4200280417653457	2.1823003563218997	-1.5612284857898822
id671	sample1	obj311	2.3957024115856447	-0.9523946088101907	0.5676455394375208	-0.4014662595402938	-4.360667815218727
id672	sample1	obj312	1.7975171828162197	1.9145395461484147	-2.0687655179575843	1.3685039241141486	1.289054156115437
id673	sample1	obj313	-1.8705873733545442	-0.520656085831974	1.821463986834984	-1.4619376083231057	-0.4706644344722064
id674	sample1	obj314	2.4770040228195542	0.03779347262574162	-2.752781416381495	1.0065733698936221	-0.1677310114060564
id675	sample1	obj315	0.6476287858940318	1.3686804130051773	-4.088702481563219	4.189371365366873	-4.144308026798143
id676	sample1	obj316	-1.7092923462819367	-1.7989359626377943	-3.6379225808852205	-1.367138733886106	1.129158558772285
id677	sample1	obj317	0.32453214609813874	-0.8502399354485053	-3.6212961531572088	1.9859814276751722	-0.7297607731378501
id678	sample1	obj318	1.1247847361631271	-3.7629859816339275	0.6208402801050992	2.1499653679892443	3.664439804440403
id679	sample1	obj319	3.245298810682927	1.829728993319804	1.57798211725349	4.326469126817465	-1.0986063351617297
id680	sample1	obj320	2.1369877567109112	1.168432281538366	2.18216871533172	3.561064891972781	-2.27421927274483
id681	sample1	obj321	-0.0035540021569608893	-2.572777853964075	4.340781848391926	-0.9713824881906867	-0.4043294896585745
id682	sample1	obj322	1.9538963550225479	-3.9401525780881403	-0.10481447677946054	0.25744206566631456	-0.15107346818114298
id683	sample1	obj323	-1.2424080717400003	-3.865182066597998	-0.37049379992143505	1.6258038661204086	1.816219251492512
id684	sample1	obj324	0.38496179184569335	-0.07917092085605448	0.8252232326183895	1.3305870524262613	-1.065044798642378
id685	sample1	obj325	1.2548364407747103	1.5506608028918742	-2.7166555525551317	0.46900331674132345	-3.3106044592101056
id686	sample1	obj326	-2.710817496751453	3.3949855593634943	1.9337956712741013	0.2468273294406622	-3.4383838977867045
id687	sample1	obj327	-2.0602012881251475	-1.267441654006198	-1.325909921883923	-3.941354171078937	0.4193831930549956
id688	sample1	obj328	-2.7630115951528436	0.04391426243360419	-0.5112447468606058	0.15905946077921218	-0.7495508749883613
id689	sample1	obj329	2.453710401499178	0.5573402277421124	0.7901997022610654	-0.8017750769560552	-1.7249791858045613
id690	sample1	obj330	1.7811039317217319	-1.7199659591379275	3.4369644846087364	-2.2706100971108594	0.3432561085688445
id691	sample1	obj331	-1.006178212743208	-0.009390652438776015	-2.7185572669211604	-2.683043844867155	0.3181213329746031
id692	sample1	obj332	-0.324756388440089	-3.742495274997457	2.4281894027986337	-2.6984875437707805	1.743281766779191
id693	sample1	obj333	-1.3171521425163712	0.40875761718657344	1.757330048194599	2.2279917480537237	0.8907364348270468
id694	sample1	obj334	-2.701984403991603	1.3321267653888493	0.8929836727856437	1.089461231340029	-0.6623628858780546
id695	sample1	obj335	-1.755591169778671	1.001762340498243	1.5367628092334302	-2.9088209917901695	-1.568913138767653
id696	sample1	obj336	-1.17921268070194	-1.9069811171279945	-3.2473716811918614	-1.0937243626796709	0.23058466211115047
id697	sample1	obj337	-4.137292849494578	0.4034522781761012	1.9309892608580448	-0.8066289269637896	1.570165926041798
id698	sample1	obj338	-2.148377534574813	3.190228982072523	-1.0658020615240869	-1.6515971306314399	0.9044411793304941
id699	sample1	obj339	-0.3412388510243529	-2.861555916939924	2.7786620021365342	-2.0049431688771424	1.8958184373618814
id700	sample1	obj340	2.455746831944828	2.907703403246285	2.6750517590660112	-3.7708838899428234	2.7901348448344034
id701	sample1	obj341	1.85723914532225	0.1694195801773637	0.4718527358986979	0.8519994313345747	1.6998997208504354
id702	sample1	obj342	2.685009469600753	0.4728555459667525	3.1644357567441683	-1.6079913111779283	-3.1673283617716237
id703	sample1	obj343	1.767122580072795	-0.358452884317783	3.006123295355252	1.6218420142098633	3.5853975227308483
id704	sample1	obj344	2.0771908871110996	2.697931266673671	-3.2065124952744335	-1.8805418875175532	-0.16914989024979543
id705	sample1	obj345	0.07728121727729387	-1.744892051262058	-0.24026314634119084	1.6200948192069407	-4.317864100732403
id706	sample1	obj346	-3.368683088121883	0.15612830555620127	-2.4328942548859436	-0.796962780560988	1.8188653760756601
id707	sample1	obj347	-0.9932538450394703	-0.9143546510358982	-1.3762716768880727	1.680427762267886	3.1837842067541624
id708	sample1	obj348	-1.32851568071369	2.7275704341742646	-0.8767825833152396	-3.7724548004309937	0.5782713073825132
id709	sample1	obj349	1.8800716364154644	-1.4871216849947209	2.5977304631124243	0.43653301575218983	-1.081957512695479
id710	sample1	obj350	1.2601105346870962	-1.5601035034930237	-1.5097011289333275	1.9849028844175818	-2.6486265300429137
id711	sample1	obj351	2.0048601053205015	0.05156297043996516	-1.3629152106142326	1.1171265760625473	-0.4702799440907117
id712	sample1	obj352	0.818795554657423	1.6408166741192152	-0.6111143543418065	-2.424412207536675	2.021242902258892
id713	sample1	obj353	-0.41472457090178483	1.940734500845575	1.6026813506730428	2.7664905089873804	-1.8335538030695642
id714	sample1	obj354	-0.6746617601275544	-3.485868299201174	-3.8558354693026233	3.2402517664810198	0.9496580374114771
id715	sample1	obj355	0.9825003989362442	-4.187689794332297	0.05238040893380114	0.9695407287870872	-2.7475651220173165
id716	sample1	obj356	1.220489972888285	2.142743496335903	-0.5686823176186577	2.5653846938341136	-2.5168130967991194
id717	sample1	obj357	-3.6873826329037462	-1.6828520023897526	-0.18029967728106366	-3.5254784828791146	1.251899105643108
id718	sample1	obj358	-0.5607311090963256	-1.3722010858284788	0.20298198625948083	2.172742160094098	3.252374602333872
id719	sample1	obj359	0.17176833292049287	1.7711570860762997	2.263188522311818	0.35381396325715975	-2.2489564411539504
