id0	sample0	obj0	1.9221053077191603	-1.2341406719542696	-0.9751876731773123	0.5044162851519449	2.9016509469012712
id1	sample0	obj1	2.1645578841844917	-0.6047488748737876	-0.7977427340476404	0.4469092918009392	3.1548110527274478
id2	sample0	obj2	1.7044057817994052	-0.8433972857211244	-1.174082538274864	-0.14199809840459265	2.879885961396283
id3	sample0	obj3	2.0260487099139013	-1.1503168751574453	-0.8322035345214586	-0.1413595204257423	2.9145905508285987
id4	sample0	obj4	2.2643230904344103	-1.0178162002138293	-1.0623402810741274	-0.0710766604019244	2.7782582876736885
id5	sample0	obj5	2.107675018742376	-0.9760282836929803	-1.396391754110644	0.5104890388822229	3.1475883055758063
id6	sample0	obj6	1.7725141241546318	-1.1662307980736983	-0.8954129363598755	-0.01013886282716811	2.8563875738332007
id7	sample0	obj7	1.8395103758347011	-0.7616575543957776	-0.7262940395173972	0.2715577315569976	2.8934989635822475
id8	sample0	obj8	1.7942096502012082	-0.5033967845526206	-1.1695868112677892	0.41972360113381	3.088099114617663
id9	sample0	obj9	2.0115154480481845	-1.058201833929445	-1.149310646168832	-0.10190496831162532	3.2274125708318757
id10	sample0	obj10	2.0233427966525785	-0.8475422851879266	-1.3429516355201794	0.47104617572699625	2.8306514299998846
id11	sample0	obj11	1.7306282862808637	-0.8922147901002491	-0.8837216519044006	0.2065679620684902	3.0491841366146692
id12	sample0	obj12	1.8469090649007351	-1.2510348434082612	-1.012942383915258	0.4710828920471818	2.683594637349342
id13	sample0	obj13	2.135393240045028	-1.1297587066027934	-1.4211293390968247	0.2142773606615651	2.9729442194575997
id14	sample0	obj14	1.9318673267844466	-0.5591604302954	-1.5124409873804034	0.5604230998478084	2.85222561509484
id15	sample0	obj15	1.6014536715635699	-0.6883294904292313	-1.156599051743608	0.3642390044297603	2.7852322225371497
id16	sample0	obj16	1.8901727227582459	-0.5474784143504062	-1.4106443837813203	0.029997535733712333	2.618886887251957
id17	sample0	obj17	1.6970149300514001	-0.8780778755060616	-0.7929385637441208	0.4705854172885865	2.69101494021221
id18	sample0	obj18	2.065813447509515	-0.7186848869332854	-1.404123262024112	0.5993694212640851	2.538637653273287
id19	sample0	obj19	1.5981652303127822	-1.0216185045832171	-1.3822752825440898	0.06527471394993611	3.2426342376195216
id20	sample0	obj20	1.801004900054849	-0.9453861103654979	-0.9577152718980854	0.3862371853052078	2.7141064569679885
id21	sample0	obj21	1.8497234394603366	-1.0446881019765204	-1.2798092293713896	0.196423718998272	2.6475093213881067
id22	sample0	obj22	1.5769755494301363	-0.7256517782395169	-0.8041151187652189	0.049106985650242296	2.5676163589016237
id23	sample0	obj23	2.2580639538146916	-0.7478818468011662	-0.9713384821065453	0.023113971303114322	2.6761997151241066
id24	sample0	obj24	2.188060483622471	-0.6736871599756944	-1.2352422061564703	-0.1578759412030608	3.1169546599696565
id25	sample0	obj25	1.7281500594520778	-0.9626663596675554	-1.497872341405114	0.3710504936732193	2.8432169699232386
id26	sample0	obj26	1.7960997047575027	-0.9984318387322048	-1.2176862140922255	0.5030837346945611	3.074440577366123
id27	sample0	obj27	2.0077885455607976	-0.7628362439115561	-1.0373667433239773	0.1579847341325883	2.908753707101183
id28	sample0	obj28	2.1254194514834355	-1.1283611917714638	-0.9387484871743854	0.0026734741039451393	2.7272252138173774
id29	sample0	obj29	1.7778995578813257	-0.9455500197082984	-1.5153344373672177	0.26734354512257996	2.850280513643491
id30	sample0	obj30	1.7969560746150717	-0.7212358517021691	-0.8388171940979902	-0.18497070246408792	2.920039974179791
id31	sample0	obj31	2.3283766565923774	-0.7140497690905816	-0.9028019908988958	0.24303832133087439	2.4787419037245435
id32	sample0	obj32	1.8633634313111294	-1.0530130885291216	-1.5100317832014545	0.1267206870457807	2.5498902556728282
id33	sample0	obj33	1.5848937804245762	-0.6871378375551669	-1.5218036817490865	0.4979589371218718	3.0248641439549417
id34	sample0	obj34	1.5952257168625406	-0.8106025211253602	-1.0404118865740677	0.4833093866560638	3.1954727360883304
id35	sample0	obj35	2.3027967548927357	-1.0284526791275783	-1.415321876165657	0.17318860482425952	2.696868916407319
id36	sample0	obj36	2.281779158689454	-1.2186177205044117	-1.0568441206026593	0.3796591343067056	3.042375978450658
id37	sample0	obj37	2.0199981067742763	-0.6315543745476511	-1.0503013642284993	0.3545071902200476	3.0116679195697396
id38	sample0	obj38	1.647827017259302	-0.6107437709705482	-1.069538922200932	0.43220398821585493	2.528405110461028
id39	sample0	obj39	2.061575712320315	-1.114799462229159	-0.9090847369100297	0.047281370796345173	2.627394893127739
id40	sample0	obj40	1.8518139223894052	-0.811809543326931	-1.1447887903760685	-0.1715851478074757	3.1216525352429456
id41	sample0	obj41	1.7145563296606139	-1.0729532948236253	-1.2863340194849184	0.13037193883379167	2.455912828331928
id42	sample0	obj42	1.9183063856410212	-0.6271224975602175	-1.4320774867642938	0.13073442325024853	3.157218141386057
id43	sample0	obj43	2.0421471240303872	-1.2004569335203077	-1.4452226780187782	0.4542187576374239	3.2097152201422565
id44	sample0	obj44	1.671407919968389	-0.9410921979120438	-1.2458088651842818	0.019282453092899554	3.0967635421236928
id45	sample0	obj45	2.082458692996958	-0.7442342123297737	-0.7984011454697687	0.11779639251990542	2.6384214999014364
id46	sample0	obj46	1.5739184816515073	-1.0076377142158717	-1.0511425351567258	0.1896643114338022	2.9383661294048906
id47	sample0	obj47	1.977545282945849	-0.6618936534948213	-1.165957492025806	0.3536636928076887	2.5358484367924516
id48	sample0	obj48	2.140328616871074	-0.8703429488034778	-1.0276426502082205	0.3792471862113074	2.7924199998209254
id49	sample0	obj49	1.7043681145274787	-0.4541482722824338	-1.2243133747988224	0.16986216151556455	3.1494195961648788
id50	sample0	obj50	2.1800209872127834	-0.4807921078852153	-1.0836642108180556	0.5772991979269528	3.052612179265796
id51	sample0	obj51	2.130069937473689	-0.7082454171663752	-1.196714922422486	0.5419495756475873	2.8994574573296177
id52	sample0	obj52	2.240331990614133	-1.1889871639283545	-0.8686209351563652	-0.11858149382529026	3.1292835769335037
id53	sample0	obj53	1.8897295736520165	-1.1321673623516357	-0.847696165530286	-0.08201422744408648	3.1166829330639176
id54	sample0	obj54	2.2574086240314095	-1.0602170363893897	-0.8794965450737663	-0.005289892527233969	2.9757656189310575
id55	sample0	obj55	2.2855466060160268	-0.6773319878447088	-0.9306117086568898	0.09381981241870302	3.232028898637897
id56	sample0	obj56	2.186075818798797	-0.728217582770877	-1.1821809237032332	0.41519986085950855	2.826564498373179
id57	sample0	obj57	2.232187791134627	-0.6404920604376003	-0.999054217663111	-0.06444226095753003	3.103655390512166
id58	sample0	obj58	1.66821185651693	-1.2249299561854037	-0.9674305436131999	0.5510059710289475	2.4795464575225856
id59	sample0	obj59	2.223807773167613	-1.0034998769323882	-0.9296908024407176	0.5706226592247324	2.7418355779775476
id60	sample0	obj60	1.6124098269684528	-1.032633617669683	-0.9354721189622479	0.30181991342960157	2.8925587373299693
id61	sample0	obj61	1.9740380681220389	-0.7125731487473667	-1.2157712345842875	0.3383491718253281	3.1931623243449017
id62	sample0	obj62	1.6959848413198255	-0.8846992556377569	-1.352486478266832	-0.12072026985099954	2.6282017190847338
id63	sample0	obj63	1.9810196636626651	-0.9166664807573214	-1.2772796651653358	0.18558593737268908	2.5713073193756855
id64	sample0	obj64	1.6636678490947443	-0.7966754531264783	-1.1464288684133224	0.1958499278044991	2.9687497723227794
id65	sample0	obj65	1.595335297929632	-0.7775219023687063	-1.295420349048469	-0.08768888942274888	2.5723448886399742
id66	sample0	obj66	2.0856079863788004	-1.2398915254176501	-0.8088604972848726	0.23385346374844795	2.736498754283873
id67	sample0	obj67	2.019479734188522	-1.1319402268248742	-1.4158464936434536	0.3167970112587948	2.8884349480116835
id68	sample0	obj68	1.9505869776419549	-0.8752282533960642	-1.3436847813252002	-0.18666730651414165	2.593099804328658
id69	sample0	obj69	1.6432862147164982	-0.8297840237722462	-0.9767600772977312	-0.14060881348661858	2.9344399406309267
id70	sample0	obj70	2.108629889301036	-0.8451762231423829	-1.052900616655509	0.3094471576956045	3.25472051593516
id71	sample0	obj71	2.0205099665591835	-0.7891919391768653	-0.9047295879615393	0.558512658904297	2.627832378766458
id72	sample0	obj72	1.940478492404796	-1.0777710465500534	-0.7737039068672745	0.12714758186971675	3.0481552127550087
id73	sample0	obj73	1.617549826942084	-0.9034521632180603	-1.382790769237407	0.45199310041834495	3.0130306802507416
id74	sample0	obj74	1.7196736901397087	-0.9864627340710148	-1.0804868420767133	0.5228964439814229	3.146287811069074
id75	sample0	obj75	2.016070703015099	-0.9019524626714807	-1.1321147742246103	0.3014241954233505	2.8970820537920794
id76	sample0	obj76	2.146275980183281	-0.9554457800587801	-0.7395037727021021	0.27023706824952676	2.45959183070155
id77	sample0	obj77	1.9270710937655138	-0.5105922839278354	-0.9602466626548469	-0.11329645538412864	2.9643930005109156
id78	sample0	obj78	2.2695329958225776	-0.48044501742700096	-1.1531907761826854	-0.1019559210804884	2.923633426021203
id79	sample0	obj79	1.774720351521315	-0.775011368441193	-1.4156357800738828	0.23250258087610004	2.463988450496554
id80	sample0	obj80	2.7367389227844563	2.3391313299473024	0.012607467111035553	-2.939796996998535	1.8843797044435227
id81	sample0	obj81	2.1907264355468037	1.7265939678181363	0.2180540822836129	-3.099204768393043	2.3871179087865384
id82	sample0	obj82	2.097235816144086	2.3234240350205644	-0.24963676166984197	-2.6326862387374717	2.381508655234245
id83	sample0	obj83	2.2141992974133453	2.079460701451064	-0.058020134417773594	-2.5820679365257244	2.01392025396267
id84	sample0	obj84	2.193514942226043	1.732626205043393	0.06618905946126918	-2.8514032104723226	2.212860650149981
id85	sample0	obj85	2.1574841399200997	2.113080732074829	0.24591099032851804	-3.1951699225713046	1.853302799304692
id86	sample0	obj86	2.526779707646604	2.251838310692961	0.3258446005577559	-2.806709592422523	1.7520149343483493
id87	sample0	obj87	2.416341352571903	1.6905760093120896	0.20012891893608797	-3.077543407544053	2.351533886181392
id88	sample0	obj88	2.03049062413546	1.7862228847923545	-0.29736515224445703	-3.2712192447009274	2.2536938972315674
id89	sample0	obj89	2.1115095643158375	2.371715465482697	-0.04359194797936883	-3.2847601880807207	1.9702671083744416
id90	sample0	obj90	2.383967863099997	2.3613364773854273	0.3121845705706149	-3.2558160001418375	2.3503160055549737
id91	sample0	obj91	2.009742435877259	1.9260922935747642	-0.08467163323094884	-2.550984005836775	1.865833859563067
id92	sample0	obj92	2.207982738896956	1.7249151182736853	0.32052265462424845	-2.6146839981465995	1.9961874949477818
id93	sample0	obj93	2.2447669701307698	1.8368781144744828	-0.2188808462257076	-2.980160736253034	2.0173099850300087
id94	sample0	obj94	2.5658982954479184	2.2363679372098804	-0.4052607212161432	-2.693867510584007	2.00554852579252
id95	sample0	obj95	2.102738351434611	2.2880495384822988	0.2705625353290473	-2.668372451898996	1.80308769021605
id96	sample0	obj96	2.4571995610031263	2.2747652718996987	0.34125995798748354	-2.581246021633018	1.8189710160471853
id97	sample0	obj97	2.262547859620439	1.7350139918715546	-0.4192340309027405	-3.1398502585998873	2.176465586111421
id98	sample0	obj98	2.378535466499809	1.965638600759685	0.17756125043199011	-2.633779050486579	1.7458863133008167
id99	sample0	obj99	2.1321215907793354	1.6905927711653341	-0.016105092206725125	-2.834610049449932	1.8665508444164822
id100	sample0	obj100	2.5406757973509615	2.1214408174022825	-0.3910648907211071	-2.5508440278614684	2.2693023697753643
id101	sample0	obj101	2.6976288173795826	1.8153504516249677	0.30523750386463744	-2.7161435371770173	2.4315485376613974
id102	sample0	obj102	2.368067950084902	2.110046919723427	-0.06731089329247542	-3.130459001284881	2.0620512549756524
id103	sample0	obj103	2.2033002279828304	2.183291405550179	-0.4457454936647527	-2.773066099948793	2.5172946013845614
id104	sample0	obj104	2.6709590145420035	1.7102059976871238	-0.03204823248929867	-2.5881511945629807	1.7521890150309176
id105	sample0	obj105	2.405337608502221	2.3009749333211076	-0.3834505977907668	-2.7690914525882606	2.324670274376533
id106	sample0	obj106	2.1683304324899835	2.282387306257996	0.31003304025112055	-3.136200790908077	2.1884512085169887
id107	sample0	obj107	2.294177404940854	1.6901322472523819	0.27797404681852045	-2.651172185995596	2.265316907825791
id108	sample0	obj108	2.6531734779293004	2.1779934735341078	0.03407149707243906	-2.6139580105278437	2.3949487130418934
id109	sample0	obj109	2.4551524366104496	2.2008993321675194	-0.05963261947938542	-2.7561134314454607	1.8858510068198384
id110	sample0	obj110	2.429915183592856	2.229446333675789	-0.2765191703985125	-2.527900874322512	2.3675696885659905
id111	sample0	obj111	2.2383765916653187	2.1048114206450657	-0.19829485294944255	-2.561436496796339	2.3665616966505874
id112	sample0	obj112	2.517085577678452	1.8081810789679147	-0.02551035297090004	-2.7030688876107947	1.7528345923665318
id113	sample0	obj113	2.0344593990514084	2.023735665075702	-0.3882795882770873	-2.8067372129108277	1.851352355184231
id114	sample0	obj114	2.496598027795348	2.3071163172788367	-0.2711502556809947	-2.665477698581778	2.0632327369736196
id115	sample0	obj115	2.6034375948040194	1.6829500888810045	-0.2226644493546658	-2.967252972501078	1.9414712511961776
id116	sample0	obj116	2.0042964863645376	2.198698684972851	0.31256935848333856	-2.8680873773602684	1.8213498742069947
id117	sample0	obj117	2.580093227225838	2.333608113726227	-0.41947193095310187	-3.0918211685959434	2.2863557271395667
id118	sample0	obj118	2.4947036918678482	2.0391516639341916	0.10930899214245993	-2.940866912734729	2.4883775935424515
id119	sample0	obj119	2.77960811177907	2.4718590194416117	-0.21546688305319775	-2.7228803392664522	1.9306967833804767
id120	sample0	obj120	2.0761865750396207	2.1340901265224703	-0.2271411643511624	-2.888465114042121	2.220876798381823
id121	sample0	obj121	2.1532861288105103	1.7889263496678516	-0.05743235449408973	-3.1966339898788636	2.1276114606714156
id122	sample0	obj122	2.7010356482161644	2.050192619025706	-0.01610204143502969	-2.5769678057810683	2.0129482991635634
id123	sample0	obj123	2.3948562031196423	2.118476955398796	-0.11345807350799458	-3.0769662112023113	2.103592242225791
id124	sample0	obj124	2.208236868704288	2.1521552104794095	-0.21798325491915202	-2.5441893882713056	2.219245270799275
id125	sample0	obj125	2.2736498377193484	1.7046452282964517	-0.03849459535301669	-2.6071666848507493	2.3616834816186354
id126	sample0	obj126	2.0549954320105885	2.0636817576532938	-0.14523482966967183	-3.13591577406998	2.0175434020133536
id127	sample0	obj127	2.7717282836844555	1.9961078390023768	-0.015144705810783088	-2.668991015149374	1.9351163483285572
id128	sample0	obj128	2.6363524436271795	2.1957967295336793	0.2412709323552108	-3.213484431298673	2.0578657072121795
id129	sample0	obj129	2.427815992549196	1.978635786567762	0.24761753706350131	-3.219052253276671	2.1544149676946276
id130	sample0	obj130	2.680516377834497	2.255297914279902	-0.29124717803622124	-2.996056117236029	1.758440427855438
id131	sample0	obj131	2.1416778921007844	2.1905818537394923	0.3383907118643479	-2.728006789277822	1.966767793226935
id132	sample0	obj132	2.520812791145998	2.1406976845092314	0.18603524315582554	-2.793901355889628	2.2470515285313377
id133	sample0	obj133	2.468359550003939	2.2227925418827867	-0.44117461314301853	-2.578467570509974	2.2472393335854286
id134	sample0	obj134	2.6834367960156196	1.8525327725275398	-0.31104776804762746	-2.8569938985027097	1.809622529491536
id135	sample0	obj135	2.5324902146247004	2.0864652778345025	-0.1872082790327501	-3.08304603464673	2.467178629044779
id136	sample0	obj136	1.9934740921171992	2.389453491195424	-0.4516904871078774	-2.9061717086720504	2.096156003015306
id137	sample0	obj137	2.118630503054556	2.139502235616124	-0.31032968608193934	-3.1643926878123048	2.135962297130423
id138	sample0	obj138	2.089937671387987	1.8710350179388455	-0.34814523629477584	-2.7320950313571757	2.247431791632088
id139	sample0	obj139	2.444427163793543	2.293944216663721	-0.17451813773908242	-2.9945753786514824	2.0079909363754194
id140	sample0	obj140	2.6538484802920395	1.922784260784391	0.037487911157621234	-3.1401998361901953	2.144148586629898
id141	sample0	obj141	2.199118842786907	1.7840986670586607	0.11385282177939415	-2.821602741630241	1.7476393232974377
id142	sample0	obj142	2.191669719873292	2.2783470787102114	-0.2742763565260786	-2.6878135012799955	1.9434747910049153
id143	sample0	obj143	2.4307183635845986	2.2570071057255796	-0.24790460069847509	-3.016369247380466	1.9706415633256689
id144	sample0	obj144	2.0796852805094277	1.7984522578964803	0.15520043693022978	-3.302568739400143	1.7562556655114945
id145	sample0	obj145	1.990977550897215	1.7539291963587869	0.24596128710821918	-3.2537670653527933	1.7311740688673152
id146	sample0	obj146	2.763194986957572	2.4756593750943408	0.18581131169131493	-2.5892197951265143	2.3314049416168485
id147	sample0	obj147	2.098022632834734	1.6835510337591697	0.15991018306948646	-3.0971783594523763	2.39968026806252
id148	sample0	obj148	2.117679139050719	2.288509309370145	-0.4401875650792462	-3.2249347678551246	1.7522908220251825
id149	sample0	obj149	2.5523289611381745	1.9446572224871193	0.18801500999825904	-2.8860309047169688	2.2772622735513464
id150	sample0	obj150	2.617367817491483	2.188207275331724	-0.037952373339893875	-3.111105452804115	2.413206789872724
id151	sample0	obj151	2.442485324595418	2.1380369862680184	0.03390725323158189	-3.1315682204740236	2.0182458372457748
id152	sample0	obj152	2.119930085691077	2.0454994048891377	0.19620757866089644	-3.0926859058023473	2.1322995343122675
id153	sample0	obj153	2.0029792945570346	1.714426268453055	-0.1735531444363878	-2.6064544197926325	2.1833064879985424
id154	sample0	obj154	2.764280386850536	2.454935470192659	-0.3051762581761356	-2.8740388913280084	2.3706073318689453
id155	sample0	obj155	2.0370162741104267	2.137318790821139	-0.03891734335683977	-3.1693025320178796	1.8213255663332408
id156	sample0	obj156	2.0917807010925173	2.288241197058291	-0.19352107748368574	-3.0532387093768607	1.9651432341228627
id157	sample0	obj157	2.5931663074774645	2.096510212256259	-0.4548497403615184	-3.0956841780185367	2.478926519530025
id158	sample0	obj158	2.0393975453975277	1.8080550891590481	0.254496540437982	-3.164747231125442	2.1472392374241784
id159	sample0	obj159	2.1854135402371857	1.6902710372416898	0.23863594147977818	-2.6926465094848533	2.262422870837069
id160	sample0	obj160	-0.03499562278639323	-0.593710933144741	-0.8281616460330342	-1.3469194896370378	-2.587454180018261
id161	sample0	obj161	-0.179685455695498	-0.8904518515486387	-1.2450991021125122	-0.9378026160599595	-2.565411720858497
id162	sample0	obj162	-0.08514449218545356	-0.8584085670783009	-1.0250758309108219	-0.9837700337473879	-2.5259211173098475
id163	sample0	obj163	0.20730699876727587	-0.9696861429552686	-0.9936539609348187	-1.2545355791721673	-3.0438440539795764
id164	sample0	obj164	-0.32812584121677624	-0.6771419605299306	-1.3067417026373391	-1.2183814919057125	-2.8871596472087093
id165	sample0	obj165	-0.4806726945444643	-0.844850455427741	-1.3033331505820958	-0.9203071516616099	-2.572410536062219
id166	sample0	obj166	0.06945357285836229	-0.891291503195702	-0.6914537931430401	-1.3783363602151673	-2.5376027522379174
id167	sample0	obj167	0.07945139415770652	-0.5693793251045763	-0.6393520095321783	-0.9855614739763371	-2.928974369453277
id168	sample0	obj168	-0.2890236789803872	-1.266064239001827	-1.2532514207050136	-1.4214910805411929	-2.806491528572786
id169	sample0	obj169	-0.5327203557040648	-0.7294073020092606	-1.1952898789234347	-0.8861522071946936	-2.4155061705011183
id170	sample0	obj170	-0.291796975749893	-1.1344672003044927	-1.1610885526865633	-1.373398449698875	-2.6666842048585453
id171	sample0	obj171	-0.5257672581512838	-1.0302682694637602	-1.1636864654496124	-0.8327085289842822	-2.7685556566800353
id172	sample0	obj172	-0.19659180512926105	-0.7552572467023153	-0.8648105461867897	-1.005647265222545	-3.1598188870534347
id173	sample0	obj173	-0.048848223049602346	-0.892222446687122	-0.798599227197079	-1.3758182447991294	-2.4223167991936045
id174	sample0	obj174	-0.06992718512768042	-0.9173620183309461	-0.9274254983045302	-0.8887862041102675	-3.088363613962356
id175	sample0	obj175	0.1440277824339007	-0.9812656447092689	-1.272343123180024	-1.0678044720587587	-2.7933045477488627
id176	sample0	obj176	-0.26977575405442533	-0.8787364445304051	-1.1273759626281825	-1.5964675599919682	-2.908807324387325
id177	sample0	obj177	-0.5605328824592708	-0.993844120072535	-0.9903536507115555	-0.8223407946779876	-2.7048807793913188
id178	sample0	obj178	0.13479595252614318	-0.7580869992221205	-0.853735924724201	-1.355415498165147	-2.7469629297807274
id179	sample0	obj179	-0.5077195784183266	-1.28226673945182	-0.9648317912714528	-1.1286189577059746	-2.994085347873538
id180	sample0	obj180	-0.1733401644209393	-0.8033651643249691	-0.8914765794079367	-1.4287919612811026	-2.718073099796495
id181	sample0	obj181	-0.31663586740048555	-0.8505755141262188	-0.6595493602314004	-0.9072515868712389	-3.1424470524762125
id182	sample0	obj182	-0.35573377420221053	-0.5414004566501426	-1.243163284013006	-1.388502153296136	-2.871128003430315
id183	sample0	obj183	-0.2431753808314726	-1.0686037404133875	-0.8049109217739788	-0.9005613868182358	-2.8466681591242753
id184	sample0	obj184	-0.2528929727850012	-1.2685114389480991	-1.0576647051807349	-1.5749506337053616	-2.4885228088576294
id185	sample0	obj185	-0.28892343961684547	-1.1449201603418209	-1.2440881195222935	-0.8703768768490718	-2.994294744358045
id186	sample0	obj186	0.0524992234365923	-0.8724028278485659	-0.6356737629996378	-1.0607270494610073	-2.9589016478500096
id187	sample0	obj187	-0.030571933778558824	-0.7673260312927948	-1.1077603141367791	-0.9319236077812437	-2.9337038326491576
id188	sample0	obj188	-0.3335328412433303	-0.5811247209508635	-1.0560594116269677	-1.527670243602551	-2.6027536262276914
id189	sample0	obj189	0.13144671945935948	-0.9625409681067796	-1.1267145890108534	-1.082868360131512	-3.0269572742698765
id190	sample0	obj190	-0.23021711205502837	-0.5153390844398811	-0.6162859929785233	-1.434727390818743	-2.8670447618259236
id191	sample0	obj191	0.20718144109973602	-0.9446818114141571	-0.8782768271986023	-0.9920427436510502	-2.4482907418881856
id192	sample0	obj192	-0.5164943563872031	-0.8756076242578794	-0.6043566386136054	-1.096993996521093	-2.4168891129244083
id193	sample0	obj193	0.16209697963134884	-0.9151080599122176	-1.2242642013564264	-1.5928414244306828	-2.4402254444138975
id194	sample0	obj194	-0.37335747480422343	-1.026883376244706	-0.7189553029231569	-1.014289281316426	-2.8389805222732227
id195	sample0	obj195	-0.1486416030452028	-0.8441757103838782	-0.9348682683532746	-0.9817586718697054	-3.16350822325142
id196	sample0	obj196	-0.2081665471322508	-1.247857474619939	-1.1286810630713489	-1.380590276910862	-2.9332255262752187
id197	sample0	obj197	-0.40211536186574437	-1.2084101198707073	-1.3045966590403284	-1.1529958901433939	-2.676305148180716
id198	sample0	obj198	0.20324527831921313	-0.6932813181805538	-0.9104870423048071	-0.9736162983335941	-2.7057366112006425
id199	sample0	obj199	-0.2306286002764864	-1.0745777276527726	-1.0531200895498158	-1.6055416217617944	-3.0522920165105347
id200	sample0	obj200	-0.21585931234057743	-0.5728528211525014	-1.0316548224385749	-1.3668250475498471	-2.788063698798285
id201	sample0	obj201	-0.26473526823627813	-0.615104505462324	-0.765589854995469	-1.2395940174927287	-2.7965041515130413
id202	sample0	obj202	-0.25013101828563916	-1.2807245286756015	-0.9388543907025387	-1.2240493098341276	-2.8942605242497716
id203	sample0	obj203	0.13544802629157737	-1.1072583102996993	-0.7637104108761832	-1.2146646248971502	-2.5420263904427345
id204	sample0	obj204	-0.544692870692399	-0.6151599033255454	-1.1920579659656423	-0.9299728771573267	-2.8891014658524403
id205	sample0	obj205	-0.1318137158278499	-1.3114810118212945	-0.6105694792352907	-0.9721711993672105	-2.9098232930741417
id206	sample0	obj206	0.1640605524390969	-1.308332740298388	-0.8302952697080297	-1.1776124794722742	-2.477482837827958
id207	sample0	obj207	0.20565312222433207	-1.242224498582157	-1.2389478642955387	-1.0307958842108236	-2.988227970071721
id208	sample0	obj208	0.07001463387396867	-0.641733981343546	-0.8804558141370409	-1.5769415927942283	-2.8367616785173424
id209	sample0	obj209	-0.22885341544228766	-1.1376142941046148	-0.7545489992561276	-1.4433538141725315	-3.1378268856175477
id210	sample0	obj210	-0.10989121881074942	-0.5531180969893299	-1.0195637445088053	-1.2667604488029036	-2.900503642659474
id211	sample0	obj211	0.16288172076407115	-0.9022323519213503	-0.7023076173515139	-1.1593860651864953	-3.151696600735293
id212	sample0	obj212	-0.5395133896360222	-0.9463906613717592	-0.8751679624142634	-0.9048856937222619	-2.4638306206081664
id213	sample0	obj213	-0.4149711877928205	-1.0402800458712027	-0.9956554023416664	-0.9681596160211768	-3.000167503285842
id214	sample0	obj214	0.006456602634768327	-1.0963071791321684	-1.197710596218475	-1.079701611240281	-2.6172769075249627
id215	sample0	obj215	-0.2525525868038022	-0.914350602748564	-1.1953403853159883	-1.602225521350232	-2.4635077586847935
id216	sample0	obj216	-0.2800207116807961	-1.295322057982467	-0.7629542347266429	-1.3290834458364595	-2.4277821941116575
id217	sample0	obj217	-0.0786522955544311	-0.8580096350292672	-0.9861153100575791	-0.9621556193725468	-2.705140026641979
id218	sample0	obj218	-0.4333221913483897	-1.2203952099186952	-0.761768231800411	-0.9706727112944918	-2.8721679512114826
id219	sample0	obj219	-0.21110827802622067	-1.2383502203990238	-1.1363294876121675	-1.478546463341237	-2.862221932852945
id220	sample0	obj220	-0.5423498250570655	-0.9030329312378276	-1.2087923050316371	-1.4404524416753064	-2.390162471410683
id221	sample0	obj221	-0.3994713758230748	-1.2076586946315846	-0.737176692132471	-1.1578482415210696	-2.8296399811493553
id222	sample0	obj222	-0.3403568171107402	-0.6663077875495437	-1.1507148689534241	-1.0045394274298318	-3.0607590189012877
id223	sample0	obj223	0.1546389819285089	-0.6012954940916347	-0.7050710371283055	-1.4640449705576697	-2.387685708032477
id224	sample0	obj224	-0.21957183687142362	-0.7480717778736731	-0.9791222029648363	-1.352079194813726	-3.1174098295725012
id225	sample0	obj225	-0.16015535291680572	-1.0318641972228888	-0.5923411655224703	-1.0686809997913822	-2.672901166073837
id226	sample0	obj226	-0.14549878309210484	-1.1600450079964406	-0.5520930614779834	-1.2950982853231245	-3.1042777535914694
id227	sample0	obj227	-0.1688780468679411	-1.0977110251180122	-1.288151990429311	-1.4571980036557999	-3.1157997535648962
id228	sample0	obj228	-0.23248911277104212	-0.8379316980962747	-0.702932582833719	-1.1941369993199054	-2.637485747865503
id229	sample0	obj229	-0.09336304089960512	-0.966765217956311	-1.003281801871919	-1.2100145804822549	-2.9683875916425597
id230	sample0	obj230	-0.3039019295795094	-1.1181830665687338	-0.8636574846101386	-1.1964546373523173	-2.8720238269934977
id231	sample0	obj231	-0.5469967630200334	-0.6147000167420172	-0.8191014872280581	-1.2822503586238185	-3.0186284060585646
id232	sample0	obj232	-0.1968861822615655	-0.8324964406493998	-1.155063834884746	-1.3165678436184078	-2.7866909294564506
id233	sample0	obj233	-0.14755659522376663	-0.8893624218225539	-0.6428214589698119	-1.3864642962765013	-2.4382147512350425
id234	sample0	obj234	-0.2835378197470644	-0.8416081255235527	-0.9944270398812275	-1.0068518703189158	-2.886168657595468
id235	sample0	obj235	-0.4038827518146587	-0.5413886751261862	-1.047790046191102	-0.8382463928830295	-2.7342262826935353
id236	sample0	obj236	0.1330964235049693	-1.0354060602334918	-1.2461028406117813	-1.3589026392428871	-3.081042239725014
id237	sample0	obj237	-0.2563396957251002	-0.6038912358296914	-0.789346768030701	-1.154970053142243	-3.0744750974298154
id238	sample0	obj238	-0.1720218134820949	-0.7068578637879616	-0.7895162287928523	-0.8443267977717979	-3.1433029856175483
id239	sample0	obj239	-0.4502419532873523	-0.8220718296444348	-0.9734518606662182	-1.5034818754097867	-2.8305565480672077
id240	sample0	obj240	-0.10223665126325265	-2.560121379003266	-1.2616297669859846	2.1294374807486554	-1.2730184942804854
id241	sample0	obj241	1.0822098600882537	-1.379980610435045	0.4021408141142253	-0.7332866933304794	1.8492494081562811
id242	sample0	obj242	-0.33053702974811283	-2.607438820117183	-0.02167693227432954	3.031665770820755	1.3841243342827954
id243	sample0	obj243	-2.9132294766391507	2.3228720493745465	0.38313353088415103	-2.0608804562578427	-1.468515690221035
id244	sample0	obj244	-1.7794114614932608	2.028215611549675	0.8669519700056492	-0.9866304371983342	-3.2189524312756475
id245	sample0	obj245	1.5108073333740792	-1.551910557199646	-0.28539452646223895	2.3237396544146693	-1.9864634127399539
id246	sample0	obj246	-1.5129762088608176	-0.35628587301246145	2.526761672935499	-1.1961689381336125	2.311689858709404
id247	sample0	obj247	-1.0152037137861603	-3.255516615328035	1.6516246937072427	1.250157145346791	-0.9114927742997232
id248	sample0	obj248	-2.564764874232773	-2.0456136982378474	2.663323573363093	-0.7215540705253904	0.6444957987957115
id249	sample0	obj249	0.5002241734493538	1.1296402330618833	1.157221708011368	-0.881358068876952	-1.1904451863150525
id250	sample0	obj250	-0.15256358314868007	-2.4721464480119697	-0.22942572523970517	0.2347586341508453	1.6803079351294303
id251	sample0	obj251	-1.533919625087353	-1.2112929869640663	2.2341466348914065	-0.03142722195187064	-0.8097811971232497
id252	sample0	obj252	-1.7396845767122966	-0.029724754961105687	-1.0746684886624704	1.3468786736181868	0.10948102634416923
id253	sample0	obj253	-1.6196049270967106	1.786048094350778	-2.0294127624523006	1.4672012573086675	0.12888952045684277
id254	sample0	obj254	-1.8569030884752578	-0.5433649646611005	1.663660286530885	1.9605461436407254	2.909816501562332
id255	sample0	obj255	0.9457150364422177	2.5814685353038955	0.36937205151127833	2.0964116029123803	-0.696749643841842
id256	sample0	obj256	-0.8451523035356051	-0.6453738941088482	-0.8929830123681459	-0.7409264779951422	1.0433066056925233
id257	sample0	obj257	-1.7804441824626784	2.9739800730738786	-0.7113075795079824	-2.6480509695757743	-1.9915608836126357
id258	sample0	obj258	2.1156123767731465	2.720050208833682	1.6895262175232486	3.1644909174299616	-1.11697925540582
id259	sample0	obj259	0.4496308490323412	1.1835389814504835	-0.008048008600344936	-0.5198313629123772	1.1973576310294378
id260	sample0	obj260	1.906124760515874	1.1572445643622824	2.0929795273523184	-0.47599414283157276	0.6141882644188946
id261	sample0	obj261	-1.7029389597221964	2.9197415476939774	2.251781989412357	-2.5246433640681047	-0.7414432432390946
id262	sample0	obj262	-0.5973603156224258	-0.011084211203657657	1.7680900269116802	-0.21384871019627183	-0.33068680207192264
id263	sample0	obj263	1.228137897830604	2.852287134549581	1.8765882581638937	-0.2589737600020028	2.0032209592092434
id264	sample0	obj264	0.16429985210364634	0.4452127967598624	0.5353924517034443	3.241792383979889	-1.879099252426343
id265	sample0	obj265	1.6170625305167337	1.648535492152152	1.6565335678813995	-0.8425322457743172	1.0260351290585583
id266	sample0	obj266	-1.490938477727339	0.8724319549699731	0.524339901539008	2.8717759406056924	-1.8067269204903893
id267	sample0	obj267	2.1402406968663086	-0.982632814165271	-2.779863574331655	2.3526387518978846	1.8844148390360416
id268	sample0	obj268	-2.2895306934899358	0.7192436158882612	-1.7866962503450496	-2.5839979651603366	2.4744162463294934
id269	sample0	obj269	0.180201120770353	1.2157243355599596	-0.5555113261553527	0.7829145545085496	-0.33271100689313393
id270	sample0	obj270	-2.2273243176501727	2.655774161288968	-0.8537481271737023	-0.5001470763446548	-2.201501919252468
id271	sample0	obj271	-0.6516595476643484	0.6358320178213241	-2.0054871846145796	-0.2858175062611732	1.6901133557628216
id272	sample0	obj272	-1.2725449295061122	1.1225993827310994	-1.6249744811095703	1.796291502740969	2.799562509867877
id273	sample0	obj273	1.8660065307572733	-2.120390326435099	0.333977538269777	0.25343344479081076	-0.9198653319640334
id274	sample0	obj274	-1.641750962468317	-0.17177062265946041	2.4417931604423533	0.0698285486204403	-1.5418989256718958
id275	sample0	obj275	0.5297316187890554	-0.3941640541922528	1.6387297788501871	1.9988096213643396	1.2593929343300054
id276	sample0	obj276	2.087408790884732	-1.5182052883381627	-2.81191304757857	2.577505016078488	-2.492846391124407
id277	sample0	obj277	1.6767526033172189	-1.2498355304790183	-0.9324317018088706	1.2156706459630455	0.978115942439019
id278	sample0	obj278	-1.3600429526658833	-1.939567501952085	-0.45024043726350604	-2.941158118839886	1.6469670153644604
id279	sample0	obj279	1.4405987174895785	-0.8057395509660712	1.4564281329766624	2.3525667362020064	2.114790435763137
id280	sample0	obj280	0.47778393427292587	0.3976038394242801	1.4473973892504493	-0.17058512573753826	1.5319670227412483
id281	sample0	obj281	-1.6459414479418344	-0.794422776683899	-0.5236274942344183	2.0102338618800175	-2.71062953435597
id282	sample0	obj282	2.120903773571256	-0.3001918738412872	-2.533382265707807	-2.369382158453139	0.017046507084468865
id283	sample0	obj283	2.4600174012374785	-0.427730913725749	-1.9541767258392764	1.4762619305313098	-1.4879266511316205
id284	sample0	obj284	0.6571433744016686	-2.2533143644143983	-1.2190617712500713	2.0418380449654463	2.0393611731246
id285	sample0	obj285	0.0025740093529503794	0.5883864025647747	-0.9456658929261937	-0.8733766038954203	-0.07742287316985969
id286	sample0	obj286	1.0895876204187047	1.0263678708965551	0.7214429786266676	-2.277541118512473	1.005626461245728
id287	sample0	obj287	1.0957557614905735	1.153971324554238	2.4120288014284794	0.942683654842033	-1.3950262584967672
id288	sample0	obj288	3.26469096961334	-1.3415615091211959	0.14347604159186478	-0.15710092862512479	0.5732522778157689
id289	sample0	obj289	1.5406339423625428	-0.8245915025351709	-2.610074057973793	-0.5501550746212027	-1.6344255332615858
id290	sample0	obj290	2.726849807438714	0.8465610360822515	1.3634707831039077	-2.759427329933065	0.9576950635967736
id291	sample0	obj291	-2.849523330962973	1.897042791931017	0.8972673305458402	0.3839997704910331	2.4379351100001285
id292	sample0	obj292	-0.5976615477335839	-0.30150567579361554	-0.797543324336523	0.18376562881442893	-2.049411419822122
id293	sample0	obj293	1.7458144655169106	0.7605811089460643	-1.3805246491759875	-0.251820363264607	-1.4322161705965073
id294	sample0	obj294	-0.24698309997815404	-0.8990759000001817	-2.278308150035146	1.9607683927399728	-2.9428103591999872
id295	sample0	obj295	-0.47377059943030153	2.2503273805039963	0.9125266569427263	-0.6709154850328282	0.796718780040212
id296	sample0	obj296	1.865540938186986	2.819556146107318	2.09641753940446	-2.71877533308613	-1.1976167051908244
id297	sample0	obj297	1.9738707378395852	-0.0027316009520585993	0.2456371826691902	-1.1222409930352524	-1.894378907210806
id298	sample0	obj298	-1.6563843472785376	0.22181874300025972	0.9533555227414211	-2.7391470443297274	-2.8619160455548855
id299	sample0	obj299	-2.11307647519512	-2.177889161872966	3.0647637007919855	-2.422056837487913	1.4260135548137576
id300	sample0	obj300	-2.580945184266915	-1.7679165028590493	1.5849224606352141	-1.8299832754125398	-2.4812104425347967
id301	sample0	obj301	0.7025800458507446	-1.2835049082115304	1.6063278404494308	-0.7317387726029365	3.1406240779286665
id302	sample0	obj302	2.343216879703623	-2.999400980784487	0.4181554894114791	0.7028548515289342	-1.3150504840687647
id303	sample0	obj303	1.0027721798351232	-2.106064427498545	-0.7531915418243311	2.5703273420162525	-2.4350137757444923
id304	sample0	obj304	-2.7038044870533735	-2.298377420065931	1.010198775432217	0.43989057952226984	0.07562113369693363
id305	sample0	obj305	1.8875649871402	1.169999141672869	-1.416266078589278	0.20522270095203232	1.3530727994535765
id306	sample0	obj306	-2.8293690451520375	0.3090909807372061	0.7973027958762161	1.1374986417596458	-2.7662078001548767
id307	sample0	obj307	2.5674855056279373	-1.5815076913005381	1.5926644789921323	-0.9619437376216529	2.9560126435485174
id308	sample0	obj308	-2.2549056968712464	2.6963799989740247	1.7543258421942882	2.0178897800900355	2.0021471872003445
id309	sample0	obj309	1.5152148907448852	-0.6580877506559695	-2.790196628261268	-1.7618747463302664	-1.7305753168005156
id310	sample0	obj310	-2.3651470426433914	0.9683182566564549	-1.1783911476804125	1.8201528451470337	2.1476396992079985
id311	sample0	obj311	2.2082978711808043	1.516296905969796	-0.901047229671688	2.1254768510375297	0.24862168121115102
id312	sample0	obj312	2.5528724767673294	0.8879305602809264	-0.5980033685155648	-1.895572909977274	-0.4050918826762516
id313	sample0	obj313	-1.101626228834343	-1.06969647341332	-1.9460762696856917	2.519593623906659	-3.0000644157746956
id314	sample0	obj314	1.9698259867736134	1.9679516047562295	1.080124226939847	-0.3932314428012662	-2.8324731039571027
id315	sample0	obj315	1.100704752827287	-1.8754629163994498	-0.8262124713627851	-3.080075569957357	-2.7500181845200515
id316	sample0	obj316	2.648577143631809	0.7497511334185879	-1.792451666317684	-2.617748640233507	2.1897230982193103
id317	sample0	obj317	-2.8164942468713607	-0.08026057011397025	-1.1297081122424333	-0.5802887811813573	1.763380706007813
id318	sample0	obj318	-1.0527362640905646	-1.4869905648925936	-0.14920148732252975	1.6401236444142344	-0.17180215961365397
id319	sample0	obj319	1.254084267889661	-0.4473612599336071	1.1974242974655294	-1.4460396703158076	1.7650592620020968
id320	sample0	obj320	0.9181421385394488	2.2025663012368186	-1.2838758344686363	-0.4095420598271745	1.8739831730201395
id321	sample0	obj321	-1.1763997277368166	1.6484369815708606	-1.0632268187625618	-1.439369953092532	-2.701158524931693
id322	sample0	obj322	1.1404442344875414	2.8098802334816853	0.02705363453593168	-1.7590160659811924	0.9790158666612616
id323	sample0	obj323	-3.2488269024338807	0.462779329127095	-0.43543454909742135	-1.476408791597585	-2.776128487911602
id324	sample0	obj324	-1.1404406900459954	2.222289625308114	1.9025077658706697	1.4912398807690677	-2.14625844949725
id325	sample0	obj325	1.2191240151286546	0.5185094243482238	-2.3661536029605252	1.8803267013762026	0.5500668615993617
id326	sample0	obj326	-1.511939942121596	-2.698211152293305	-2.1909206428428596	-1.214408298357934	2.464242349926445
id327	sample0	obj327	1.6036677582356749	-2.5802562926358195	-1.7737461111245576	-2.1884097504321205	-0.48994317535901377
id328	sample0	obj328	1.663870182147984	0.05564142512807202	0.16733664797270364	1.7551249520403038	2.9850394121501638
id329	sample0	obj329	0.13987143057513504	-0.1947761852772777	0.09152813151116002	2.860525881337722	2.655966917259967
id330	sample0	obj330	0.24588107825801964	2.6243712386826465	1.2860843670257036	2.5801850491023295	1.8930216606924675
id331	sample0	obj331	-0.7719869787740421	2.4431926433805655	1.45983615130282	-2.587530825857841	-1.215721328470666
id332	sample0	obj332	2.5275050550804488	-0.01967941504405335	2.169078352968142	0.15098947035578797	2.1363230458795566
id333	sample0	obj333	0.31361823345379053	2.5911134754034304	-3.0260342703200243	-0.9575155660866381	1.0913422993682143
id334	sample0	obj334	-0.9848429461998235	3.2750720667658397	2.355658006887917	-2.8649479555393684	1.5680753104488203
id335	sample0	obj335	-0.3502591385956655	2.7465839659035765	-1.9314814884567417	-0.47443451799263914	-0.5622204661747217
id336	sample0	obj336	1.883923225433473	2.800903330542606	-1.6286793629739758	1.4501880086994268	-2.3312648946085215
id337	sample0	obj337	-2.696977926440723	1.8832092067481352	-0.32431352361874355	-0.5944967246583275	0.9750011538228387
id338	sample0	obj338	-2.9996378477908574	-1.1243749651221786	0.6088190946822033	0.9949176478495194	2.843286886314951
id339	sample0	obj339	1.2115189036973324	-0.33934117871558	0.44759063118819753	-1.1848640303093616	0.6156957201874446
id340	sample0	obj340	1.5874270827994041	-2.3115572964823325	-1.4513981102700457	0.43968348843642635	-1.9965225641646351
id341	sample0	obj341	-1.1097320245044997	-1.1334247032621985	-0.8297141331266357	1.8967032501244303	-0.10203941851306797
id342	sample0	obj342	-1.6249488706159985	-2.0450771909061904	1.2542508748130528	-3.000738085288413	-1.3559754969283007
id343	sample0	obj343	0.9893633234352318	1.6155778016703057	2.3524347223446136	0.7312659789121145	0.6165423598774622
id344	sample0	obj344	-1.3105542467737514	2.3510347696478004	-2.679821534891601	1.7871108453132627	-0.2096269037183459
id345	sample0	obj345	2.0494977104356957	-1.7952410831045396	0.48163621300993076	-0.22322479227945113	0.5224773463685962
id346	sample0	obj346	0.6232726745129357	1.1901319968722337	0.4626415927327872	1.3254588683631578	0.8102258452095048
id347	sample0	obj347	-2.4867312368470462	0.7944632689181771	0.9639888249312806	-1.057170791963507	-0.6964259297096571
id348	sample0	obj348	-1.682494868666395	-0.9355837597117311	2.6697981175386785	-1.9887480395980035	-0.6008293616176634
id349	sample0	obj349	-1.5898868601297742	1.5176804902147147	-1.1605070974772373	0.4850856260012284	2.063199597346067
id350	sample0	obj350	-2.424845368684542	2.416951214695775	-2.918026359871162	2.3094299405155527	-3.0890631040841576
id351	sample0	obj351	0.7428041583695101	1.472276728893244	-2.8296246545447916	0.4536507056951753	1.0555234549215955
id352	sample0	obj352	-2.5004757603867986	-0.4040420989603642	-2.2392806378147427	-1.915551519524146	0.5250583534983573
id353	sample0	obj353	0.8995881401024747	2.6499205596772244	-0.3643280426299875	-2.1713094579616468	0.3847781684088876
id354	sample0	obj354	-1.2310501265440228	-1.944536595956843	1.9070251621980387	-1.1572038497896417	-0.7698270397882864
id355	sample0	obj355	2.3650216782901357	0.5176293503796433	-0.73104333749365	-1.0445483600834788	2.3385166298602664
id356	sample0	obj356	-1.6290024433685608	0.3222093182944876	0.9688906166459298	-1.7709743619956884	-1.5677221951224078
id357	sample0	obj357	-1.397529561675789	-0.5127280847675757	0.713770944403416	1.8634835916684744	0.03582177420588398
id358	sample0	obj358	2.548000554644314	2.8960742260654726	-1.0187289956813612	1.5123134101604818	-1.662363934257124
id359	sample0	obj359	0.36132115832849826	2.261299978067634	-2.4588756898474213	-1.183926923992614	-1.7022372669844563
id360	sample1	obj0	2.0312943113455995	-1.1193097294278684	-0.7985622032403759	-0.04455700752967548	2.850208415801129
id361	sample1	obj1	1.576537668658564	-1.1870319275449541	-1.4789437869273518	0.4406059168988967	2.5522662741516684
id362	sample1	obj2	2.0981664071322585	-1.1667909214468795	-1.191238324125765	0.05651163713315349	2.6491738963600495
id363	sample1	obj3	1.6307235121109593	-0.5844308553879	-1.181859890996572	0.07660165900145577	3.0804414041051187
id364	sample1	obj4	1.7506784254077108	-0.5979398463300781	-1.352885955043953	0.23252277523926834	3.165470273439266
id365	sample1	obj5	1.6908232003641306	-0.6457339508635207	-0.9152955997757715	0.09509370747051926	2.4781267452023314
id366	sample1	obj6	1.5766775299532272	-0.8662018204258215	-1.1770437645600231	0.3923471328453042	3.102098537001258
id367	sample1	obj7	2.103150235109586	-1.1591527246013045	-1.1286659498103073	0.5841807552268025	2.8244237880450838
id368	sample1	obj8	1.926811841009317	-0.8682060905068786	-0.7628104094194044	0.3946483080402323	2.914599214833542
id369	sample1	obj9	1.7225008501017385	-0.739280401016742	-1.123882649909317	0.4706004071894737	2.700764801542044
id370	sample1	obj10	1.7558941013896598	-0.7596530610199325	-1.4040758948886722	0.4962765658981595	2.530904814497444
id371	sample1	obj11	1.731902408085337	-1.24753796550433	-0.7941730656307523	0.3170858673091178	2.896584301222
id372	sample1	obj12	1.6305868905610783	-0.9242340155971764	-1.41085675921837	-0.15577546314422008	2.7627337601406925
id373	sample1	obj13	1.9385100470447454	-0.8776036347427628	-0.9435746934820213	0.41949762735776097	2.815186462844184
id374	sample1	obj14	1.8873205840808964	-0.7724147568738544	-0.9174955261152785	0.17376613651661338	2.796342911341244
id375	sample1	obj15	2.2487033621999184	-0.6728910788091567	-0.8164753122654757	0.5323677217924847	2.9992667872669165
id376	sample1	obj16	1.9938862163862	-0.9461326415024376	-1.0504543099084338	0.38868275229936244	3.244987390128292
id377	sample1	obj17	2.0574659439790093	-0.6798606854305621	-1.522037660277853	0.12727563659679564	2.852576979714076
id378	sample1	obj18	1.9626772897771674	-1.0796759016945832	-1.1214005633735087	0.13776074322296727	2.6649675988798034
id379	sample1	obj19	1.644162329710008	-1.052666685826235	-0.7688160466522462	0.18925587301649233	2.8162537846969826
id380	sample1	obj20	1.9830850092639933	-1.1162320953959055	-1.2792520167622587	0.06502644911614447	3.1816745938916617
id381	sample1	obj21	1.948857544091441	-0.6113618569153795	-1.3303417047635984	-0.017781171469845092	2.965363318823762
id382	sample1	obj22	1.8850833204605761	-0.5038123521660381	-0.897816497560786	0.29946542571990287	2.7415761009491564
id383	sample1	obj23	1.910356332494541	-0.6176002993452018	-0.9429214795927244	0.1651475175078324	3.2232440676193295
id384	sample1	obj24	1.6155710182758425	-0.7934755252258114	-0.8936313187327726	0.16325452851275557	2.7006169208862825
id385	sample1	obj25	1.8791697019236355	-0.4684972979401092	-0.8923641259335376	-0.08338573746423378	2.948262812221904
id386	sample1	obj26	1.6035696513379258	-1.2369964883394415	-0.7615752058079468	-0.18418377852777462	3.1790385357944033
id387	sample1	obj27	2.2756484691710073	-1.0210244902218655	-1.1768166709477565	-0.07405777692626025	3.1296288280953446
id388	sample1	obj28	1.7099070052921763	-1.1303403244090346	-1.1837950167656839	0.21428609010883842	2.8571540697322977
id389	sample1	obj29	1.8455539080125902	-0.7460366518584708	-1.0383621562718806	0.03511862481115918	3.2359433229053023
id390	sample1	obj30	1.8015473464387357	-0.4735237854011678	-1.4104577547599177	0.15926545317027507	3.056146011945647
id391	sample1	obj31	1.572367529694282	-0.6727457990569213	-1.2364990136952285	0.3663471524310966	2.4921918954652122
id392	sample1	obj32	2.2602608687820256	-1.216663715352355	-1.2288075373668212	-0.09198753004689142	2.842485216120947
id393	sample1	obj33	2.137672948534693	-0.5211767539662413	-1.4920907959926244	0.34590826856175294	2.8179195426211634
id394	sample1	obj34	1.7298557813227273	-0.5362310509023432	-1.0299757055692973	-0.12449352084092757	2.5141012540440864
id395	sample1	obj35	1.57797391699546	-0.9318569764323738	-1.460844041773551	0.335778198650281	3.0413585087640733
id396	sample1	obj36	1.725728259295374	-0.8347475695652161	-1.0509610967174687	-0.09289899614509017	3.1709651533237446
id397	sample1	obj37	1.8683443554354513	-0.48871244123403346	-0.8008404723456163	0.010237400413973141	2.511310768026167
id398	sample1	obj38	2.1750159768789485	-0.8813815792332468	-1.1121661198593105	0.2947629418974909	2.5422767925649747
id399	sample1	obj39	1.7703368343565327	-0.8928599666564438	-1.3791187393605604	0.16548166589176072	2.4606182580668534
id400	sample1	obj40	2.12517290533942	-1.1101174225941803	-1.4888432670877279	0.12217590425307828	2.6369808112225765
id401	sample1	obj41	2.0136076966378944	-1.1817052382116509	-0.8177696345833694	-0.0739703976554889	3.0320849678667794
id402	sample1	obj42	1.7533139842859238	-0.7663920072291152	-0.7477752483556459	0.06226745712455234	3.1038657424434506
id403	sample1	obj43	1.737747974378357	-1.0994742721271153	-1.0104772043922976	0.1125016921773237	2.759746538039653
id404	sample1	obj44	1.8282093110664193	-0.5423110681824642	-1.4484805979317583	-0.18599897806414056	2.632032614112711
id405	sample1	obj45	2.1028407112190877	-0.612025275940261	-1.1459073445192456	-0.13887251199338596	2.705414076034811
id406	sample1	obj46	2.1213393833917507	-1.1647760213625091	-0.7512058570645982	0.5535546297855289	2.8920502343522827
id407	sample1	obj47	2.084296340412209	-1.12050600001627	-1.3548137903272712	0.23611843510414116	2.582450028206853
id408	sample1	obj48	2.1329532650314045	-0.5000711713243338	-0.9919333940638151	0.08828956492907386	3.012646058422487
id409	sample1	obj49	2.299549213977936	-0.9651411420773113	-0.7532006454460108	-0.04817444242503255	3.0557657582765847
id410	sample1	obj50	1.893603852464921	-0.7126798971041688	-1.1776033455504948	0.4401937625879243	2.6073122554166215
id411	sample1	obj51	2.071229513798402	-0.5221523535543272	-1.1843486564467067	0.4223818894180068	2.5890609068001496
id412	sample1	obj52	1.9211647201095627	-0.46531725481542463	-0.9227167622546939	-0.05123428128025498	2.7097382865063038
id413	sample1	obj53	2.0134559471371873	-0.9835328462169559	-1.3679820375662748	0.5823113062900304	2.7173565099236607
id414	sample1	obj54	1.6578648179306081	-1.0713847169238289	-1.191455367810787	0.2715857915726138	2.646512267098493
id415	sample1	obj55	2.0349262183194554	-0.5711167563685036	-1.4453206778429128	0.2723664229190563	2.854904937189423
id416	sample1	obj56	2.0814084540292423	-0.7102721367384615	-1.3274227723475305	0.4741034010649262	2.470064793275627
id417	sample1	obj57	1.5845130949865533	-0.8731027595434608	-1.4642316936922108	0.46063941836527	2.705590825784013
id418	sample1	obj58	1.8787791241618055	-0.8901504680501066	-1.2460801997087527	0.5384497728469646	3.094360231866378
id419	sample1	obj59	2.022105238911322	-0.6029094615615823	-1.179162901686244	0.3697710486279244	2.6249683900616243
id420	sample1	obj60	1.5908570765708314	-1.0921173807436717	-1.3329187309837425	-0.11563327995632156	2.5203712265990315
id421	sample1	obj61	1.7794637524586845	-0.7669596710771049	-1.446009713563743	0.1068643219753424	3.090112116145236
id422	sample1	obj62	2.0805118451888807	-0.5537769916306866	-0.9333788436040178	0.08362388997912173	2.9079043508174918
id423	sample1	obj63	1.8828955758424741	-1.1897086849726948	-1.4725353042274618	0.24349038259495953	2.5654887078894637
id424	sample1	obj64	1.7463618465316642	-1.249553355123774	-1.3384967537845334	0.0625775652972635	2.544875126173243
id425	sample1	obj65	1.6415772482193174	-0.7809508494523631	-1.2404332710797847	0.5689558356607682	2.510089555705471
id426	sample1	obj66	1.898925184357401	-0.4992565612189387	-0.8632257028687992	0.32580575187708694	2.58466230480066
id427	sample1	obj67	1.8623930642578317	-1.2421574063697596	-0.9455900410864382	0.5407812993199893	2.6530941549979214
id428	sample1	obj68	1.6354158943095176	-0.8856383373730833	-0.7823493896997041	0.4970351216526889	2.7667029253845254
id429	sample1	obj69	1.8341831304657088	-0.8953171869227847	-0.9085736726498842	0.18212305669739826	2.572366509581323
id430	sample1	obj70	1.5939724228652437	-0.4858934735002408	-0.7318730017044717	0.1618572784773205	2.8050200210655722
id431	sample1	obj71	2.131328203206656	-0.7794706097941847	-1.2878440704537564	0.3266502162838629	2.6421171153913177
id432	sample1	obj72	1.7376351284304548	-1.02128200393064	-1.1017465489343006	-0.18998775964388087	2.723906971455411
id433	sample1	obj73	1.6186291272867177	-1.096846308571886	-1.0836483418933998	0.38717143038247304	2.573095170243283
id434	sample1	obj74	2.2129219287739645	-0.6032652086469575	-0.738743765064969	0.21329900963160203	2.9395232169420646
id435	sample1	obj75	2.296470394249054	-0.9022280412423658	-1.1510342523491846	-0.17491371221983326	2.650706335293145
id436	sample1	obj76	1.5473816304898382	-0.503768319961961	-0.9462883987578756	0.43845390414612495	2.530687524807792
id437	sample1	obj77	1.8072879315019077	-1.215898848594224	-1.4458827190912424	-0.17648193862139516	2.9834826263349497
id438	sample1	obj78	1.795036252990546	-0.6014005730176707	-1.3109886711923056	0.08261878284947793	2.711686235935743
id439	sample1	obj79	2.1313934470090588	-1.102227654255708	-1.308329869128692	-0.08223490019813895	3.2063629930985824
id440	sample1	obj80	2.564808352810617	1.8748698731981333	0.1643429342598257	-2.8948140044750374	2.0880003089369925
id441	sample1	obj81	2.688891335946302	2.436869752851537	0.22453545337963343	-3.014626293303186	2.013828479440189
id442	sample1	obj82	2.264985002843993	1.8020029094693177	-0.4272287853133514	-2.6420964906949855	1.7804991006920847
id443	sample1	obj83	2.2248810877472724	1.885777970134241	-0.32132485220567275	-2.8112684128040786	1.9650809109892922
id444	sample1	obj84	2.606028153094399	1.7879347209684542	-0.12895738860427153	-2.5910412860692906	2.1928423042948983
id445	sample1	obj85	2.126895096948063	2.2224021674161953	0.19931914167720943	-2.580584522118346	2.055147033847149
id446	sample1	obj86	2.6656944872991546	2.2756325246865643	0.09242500463617265	-3.205882194785187	2.0919251619125823
id447	sample1	obj87	2.647675641574226	1.9787723525454717	-0.031900597692168464	-3.0066136607701877	2.403383785737896
id448	sample1	obj88	2.7728368251708666	1.7715172758752644	-0.14573277007232033	-2.6077982651907075	2.0401712309211257
id449	sample1	obj89	2.4213040755811326	2.4226585051971417	0.16867570437593415	-3.2271722694075167	2.1423295852594353
id450	sample1	obj90	2.5710639553359798	2.0487966196227005	0.18998972588939944	-2.570092932205003	1.9933450219101605
id451	sample1	obj91	2.7279992784440434	1.9955048262877204	0.030954883903384522	-3.239347649939006	1.9272149124984008
id452	sample1	obj92	2.2395422557149436	2.33389776635996	-0.45708340048217205	-2.605553594244611	2.036976480271296
id453	sample1	obj93	2.7415096293549714	1.7621380946477985	-0.1457949286891672	-2.5503339052317973	2.2083641613567613
id454	sample1	obj94	2.1361004098421295	1.7304195423698485	-0.4515613892697965	-2.5521199519227866	2.3304643099686353
id455	sample1	obj95	2.0434003990875977	1.9364351987200432	-0.13905556906424954	-2.613722348415483	2.0671970718795953
id456	sample1	obj96	2.597329443523313	2.435803719777841	0.21302753356388293	-2.5497074921648615	2.022456958862794
id457	sample1	obj97	2.120569215195494	2.310415511324187	0.0780158124506678	-3.01557758436772	2.0735685799018566
id458	sample1	obj98	2.2249018006657595	1.9317070104586775	-0.39434645421270836	-3.062751615378395	1.920641065679476
id459	sample1	obj99	2.1193544020131574	2.1025050705717145	0.3107896504312554	-3.0738489181547632	2.2042180719790716
id460	sample1	obj100	2.1068643679420793	1.879836457163607	0.00918880335984451	-2.6397567278576	2.0435986087616564
id461	sample1	obj101	2.2116310807854407	1.754001078746323	0.07096861195536774	-3.08888581989421	2.369129408368173
id462	sample1	obj102	2.667191519345282	1.7307922895161854	-0.16358867520924453	-2.6128529540314296	2.451925025892936
id463	sample1	obj103	2.135322240614221	2.1410461870058826	-0.36200102797721234	-2.9320446925252477	2.5246348229052806
id464	sample1	obj104	2.0064155267101422	2.054243167422571	0.09725483971537385	-3.127082513204477	2.350332027193602
id465	sample1	obj105	2.403782731163371	1.9327033150191626	-0.3213750198287735	-3.183592803964849	2.509127257057154
id466	sample1	obj106	2.4906831305196135	1.9245405642487716	-0.18901879847659275	-2.5508557616154355	1.9719898291426636
id467	sample1	obj107	2.1355451428692276	1.8140032776794235	0.018653175536506805	-3.2303345541431012	1.8192760613418866
id468	sample1	obj108	2.766117959608038	1.9466597368278555	-0.31101655379654736	-2.8557364985488425	1.800895229656721
id469	sample1	obj109	2.0379484377311554	2.2061183498465757	0.25552596481933254	-3.207603378861321	2.1516734240055553
id470	sample1	obj110	2.5199000684918045	2.0831364228210205	0.070958800010403	-2.5654341681523722	1.8575825337208052
id471	sample1	obj111	2.1852008755219567	1.7540963582784144	0.31983350664323684	-2.819481501335156	2.26686909661243
id472	sample1	obj112	2.7790049110682427	1.74344928618643	0.2792221116932623	-3.1605997745058483	2.0680263416331477
id473	sample1	obj113	2.2634603207024897	2.4158712918683496	-0.16157410020571822	-2.695329023359942	2.3897828533588967
id474	sample1	obj114	2.1320754476317183	2.22307968862499	-0.13703866531746434	-2.787740890140948	1.9551157903142198
id475	sample1	obj115	2.112546186593155	1.8745472901749354	-0.37868263316246176	-2.639921558155723	2.342515273190588
id476	sample1	obj116	2.5794320971483113	1.7302614306217035	-0.3637316288876722	-2.7572899597710925	2.0366115314981266
id477	sample1	obj117	2.6759284569167	2.0092345173095225	-0.010893623978386557	-3.1087155250490204	2.312608383788276
id478	sample1	obj118	2.1607569713906134	1.7142143595778734	-0.4291908441665475	-2.8275788834359368	1.9830277150694537
id479	sample1	obj119	2.6776706352587327	1.6979961726915362	0.17716663851325531	-2.6889780010886537	2.3918393482605786
id480	sample1	obj120	2.6795194260391524	2.009437172612286	0.28602883189718264	-2.6581913443338765	2.183412880316833
id481	sample1	obj121	2.4770346453782603	2.089747985041802	0.2973950257561858	-2.891737387724335	1.977661409559166
id482	sample1	obj122	2.1377418799970376	1.8364157160893664	-0.11318140901243023	-3.0778836707181076	1.8865341662273958
id483	sample1	obj123	2.008486723086898	2.2702317268493815	0.3078335896752794	-2.958729765297398	2.011437544838093
id484	sample1	obj124	2.514235465335356	2.3498845803253183	-0.16939786969780196	-3.1489830187580967	2.1295014713250375
id485	sample1	obj125	2.49687516919748	2.16046642387661	-0.06498524819523377	-2.862734174981828	2.2346437460550357
id486	sample1	obj126	2.6639669990929415	1.8015607929505133	-0.4371687654103747	-3.021891123716073	2.0353986549696526
id487	sample1	obj127	2.144581374737037	2.3243615848328814	-0.08659081340178681	-2.6289094505892487	2.1762496280679255
id488	sample1	obj128	2.585749308544555	1.6850500963188635	0.24191065556301916	-2.660040107948445	1.9560204007444373
id489	sample1	obj129	2.21947727569973	1.9254585269918392	0.2508876652295081	-2.5289635351510977	2.4415159952178733
id490	sample1	obj130	2.2999788472607965	2.2564068650133127	0.18160438841173876	-3.077365834988996	1.9553448856803324
id491	sample1	obj131	2.3295536642313044	2.3610466500072866	-0.10136073438884524	-2.799205140265884	2.054479604276149
id492	sample1	obj132	2.497675211548774	1.7746106584540948	-0.12899390253200266	-2.56708302218355	2.0739030225310655
id493	sample1	obj133	2.152114480920557	1.915183088718826	0.19851941665976702	-2.907746090807402	2.1134270536968485
id494	sample1	obj134	2.5666088945029584	1.6820032432407532	0.1891879898633182	-2.712265020364008	2.083736911886228
id495	sample1	obj135	2.2924641269644983	1.710425197343012	0.20033301681002447	-2.6453420073495906	2.250690527483669
id496	sample1	obj136	2.1698346336133474	2.145511317159226	0.11367387587124278	-2.5554498140314124	2.238171122747138
id497	sample1	obj137	2.079045795763328	1.701367021896292	-0.21391170198224413	-3.238577098938294	2.345130112811373
id498	sample1	obj138	2.0464787925333723	1.705261275375608	-0.1710872276770637	-2.5662129855093765	2.0401516110163285
id499	sample1	obj139	2.1590199873190588	1.841351242671504	-0.292210775083809	-2.683317927317756	2.4176977447381227
id500	sample1	obj140	2.5241609642493916	2.427973846790535	-0.32703858170627764	-2.9823664406799417	2.0974383182733614
id501	sample1	obj141	2.7403036879739813	1.8670105188433168	-0.26013525385868985	-2.770579904070064	2.2475098348430405
id502	sample1	obj142	2.3769607106661135	2.3383075080611766	-0.38238522585967216	-2.912161139460529	1.9024691139342842
id503	sample1	obj143	2.6331221129274565	2.183572427433429	-0.03313497593349368	-3.026168434065298	2.177886368954634
id504	sample1	obj144	2.132371802983543	2.0021007789324563	-0.04074492407487612	-3.271590276597912	1.869243405354367
id505	sample1	obj145	2.6761559070118506	1.697143906727893	0.17158565491158495	-2.609676191758007	1.838845989197607
id506	sample1	obj146	2.725217830618979	1.961245041752987	0.0047211967276032385	-2.5926085230148663	1.9791055287964117
id507	sample1	obj147	2.0893980433302017	2.128472382457915	-0.4416877995185433	-2.7176360309694054	2.494577304661929
id508	sample1	obj148	2.516033769357241	2.2707003136588435	-0.23146880150388977	-2.774801431680112	1.9318388871292083
id509	sample1	obj149	2.1778661111409	2.355961668999387	-0.35959109316823057	-3.209848106468934	2.231438334279376
id510	sample1	obj150	2.7359498419538566	1.863948184266268	-0.34517739678192216	-3.1647579122985	2.3680133746516825
id511	sample1	obj151	2.6173464570369074	2.274002537291788	-0.15899386045698422	-2.8271187825042103	2.434067192151347
id512	sample1	obj152	2.1896449665092477	1.87395688826478	-0.020594348305799037	-3.134117404566403	1.9230595069674674
id513	sample1	obj153	2.485378429780794	2.315958332673069	0.2000729896204071	-3.292866984959977	2.154217891528474
id514	sample1	obj154	2.142468509353483	1.7625151660772866	-0.40564363129515535	-2.7889824594603954	2.193074475608337
id515	sample1	obj155	2.057717919457189	2.1794283088152113	-0.24930772162456344	-2.990273156556506	2.45896726895773
id516	sample1	obj156	2.1373600100985763	1.7615724243771282	0.009607518130091919	-2.980105477276837	1.7368958558303642
id517	sample1	obj157	2.1725506441421687	2.404691281862983	0.22188655444220795	-2.5808640970076553	2.0519694272657074
id518	sample1	obj158	2.231728350151653	1.7060042079977724	-0.13697342976718457	-2.5949779129156494	1.808510665418447
id519	sample1	obj159	2.0717569955670014	1.6955148800417228	-0.055124821658038226	-3.279646203822681	2.393465864479112
id520	sample1	obj160	-0.1376682224916328	-0.9535235302713301	-0.8928134195679526	-1.0832389491941323	-2.6847040158154267
id521	sample1	obj161	-0.0910892770230235	-0.9567312347429874	-0.6811415580487228	-1.6096886056444568	-2.49131176246946
id522	sample1	obj162	0.0022867037172669136	-1.0024491926700243	-0.554729719799682	-1.5435458639884545	-3.0311654628760865
id523	sample1	obj163	-0.06772002908715125	-1.0557495729854196	-0.8808395588611999	-1.37328261277954	-2.4919623100240416
id524	sample1	obj164	0.009199616090129425	-0.6951087975466173	-0.5910312698884396	-1.4917485343117964	-3.0155671110037208
id525	sample1	obj165	-0.3515344202596623	-1.0086510620132372	-1.2465183261753838	-1.3060046035377495	-2.605690871953586
id526	sample1	obj166	-0.08427762138142941	-1.3053474841662724	-1.0857156691824785	-1.2169598728642708	-2.7864208828999626
id527	sample1	obj167	0.18711746001246843	-0.8371068576183434	-1.222436978701476	-1.2042582271528273	-2.9771620810977915
id528	sample1	obj168	0.17558765340218296	-0.8345262154553583	-0.6728377694046201	-1.1438023626332772	-2.470469717396624
id529	sample1	obj169	0.11142660979409125	-0.9086274048476655	-1.2599255090821047	-1.5660605196199566	-2.8211002326215153
id530	sample1	obj170	-0.4426227210094791	-0.76865647521608	-0.7504847648721387	-0.9258475615790531	-2.6391021355338036
id531	sample1	obj171	0.1607861344467495	-1.1949357683985662	-1.2323146306075923	-1.0290734198301505	-2.826126995334823
id532	sample1	obj172	0.03625298335126237	-0.8663021426556072	-1.288964292145718	-1.1169784952607846	-2.9390847477001323
id533	sample1	obj173	-0.06750888824619417	-0.5918087852185936	-1.0614004523427156	-1.1490946348903477	-2.6830126701731865
id534	sample1	obj174	-0.1699397688188431	-1.191579178325742	-0.8254664015312778	-0.9955527907103294	-3.1372956725960077
id535	sample1	obj175	-0.031970924414115975	-1.0049511830457492	-1.2223141803387376	-1.527870269264806	-2.7553825421688285
id536	sample1	obj176	-0.004252074485689539	-1.10580361443675	-0.8554288989926256	-1.6029632331266117	-2.9346098362138027
id537	sample1	obj177	-0.058455902034736384	-0.743187336500997	-0.8491357813704143	-0.9233103412438479	-2.4538894236822273
id538	sample1	obj178	-0.40342262962333575	-1.1055556529054653	-0.7238042166364107	-1.4199111803514393	-2.8845565883243975
id539	sample1	obj179	0.20508876370732543	-1.2719730091235206	-1.094059027731093	-1.4744067594637407	-2.492831619137708
id540	sample1	obj180	-0.22987454733027696	-0.8441478127621334	-1.2873948795013213	-1.3404270201224207	-3.007838273303255
id541	sample1	obj181	0.22730950345799517	-0.9669492608534084	-1.1983843895840425	-1.1473725827291785	-3.101164698809336
id542	sample1	obj182	-0.32838176263131	-0.5977027775430108	-1.2623933190837813	-1.3153905779389596	-3.0242675626563438
id543	sample1	obj183	-0.5307578624637699	-1.1689786804838662	-1.2140849611350915	-1.158739709692748	-3.0278239943238576
id544	sample1	obj184	0.03666223354133136	-1.0362658665476854	-1.2892303948345956	-1.2240232220741418	-2.929149781702677
id545	sample1	obj185	-0.027074630725798743	-1.1788231759951777	-0.8701591534325953	-0.855371043060975	-2.424243694369792
id546	sample1	obj186	0.20197205183870304	-0.63459584094164	-0.9398061317324691	-1.1935420091908222	-2.5216053346290295
id547	sample1	obj187	-0.20442802622871337	-1.0413413276967716	-0.7084529155667859	-1.5305620856403976	-2.8049268481098104
id548	sample1	obj188	-0.5577757021202574	-1.0064959970311254	-0.7601443033393782	-1.3238850817743169	-2.647796281004683
id549	sample1	obj189	-0.39593232872350537	-0.8558017916628355	-1.3191026845480853	-0.9296251970584934	-2.479889560791779
id550	sample1	obj190	-0.17430109744676425	-0.6707669827682478	-0.9844819815761294	-1.1861363095489392	-2.552489451415978
id551	sample1	obj191	-0.34840032953847266	-1.3106284711717622	-0.8862193400486531	-1.3475694327139283	-2.9207715949958293
id552	sample1	obj192	-0.5390998209861915	-0.8560808770549774	-0.774773187722077	-1.1499956943081864	-2.837857581058838
id553	sample1	obj193	0.19024812416921566	-0.9776113755318997	-0.7099019375585521	-1.0457061022847007	-2.4653737565848375
id554	sample1	obj194	-0.3991187584257684	-0.5262952504168805	-1.1325552463894057	-0.9573612252283429	-2.908888583898436
id555	sample1	obj195	-0.06959580078512717	-1.2123362138279796	-1.3011389017745445	-0.8132308605739835	-2.5833518256179104
id556	sample1	obj196	0.19152678537588697	-1.0569443681295942	-0.9980944925057564	-1.5958060108225944	-3.040241870494366
id557	sample1	obj197	0.03991084045301585	-1.2943044310054805	-0.8516228705825106	-1.2740500306769615	-3.0187652315528113
id558	sample1	obj198	-0.3054197380542066	-1.117863690363702	-0.6946973286310575	-1.237454044175974	-2.729859136406336
id559	sample1	obj199	-0.2171474216750907	-1.1019340144775525	-0.560974657064854	-1.5883390871232987	-2.693147373017471
id560	sample1	obj200	-0.014267245194229394	-0.9161224981389425	-0.994040927812246	-1.195475875906549	-2.4101062808348264
id561	sample1	obj201	-0.17004736835480339	-0.554350350639712	-0.6593398040831652	-1.322538905850085	-2.8957333141426536
id562	sample1	obj202	0.22262243271273285	-0.8276580553442145	-0.8713471045172988	-1.1121448619457417	-2.4676913521204678
id563	sample1	obj203	0.12956647086410278	-0.663595012818433	-0.993790601521009	-0.860714893570183	-2.405449635363942
id564	sample1	obj204	-0.00287571316302615	-0.5952237779902486	-1.2871909468251097	-1.5291131722976221	-3.079072338776101
id565	sample1	obj205	-0.18970767379595488	-0.7275991517027462	-0.7524349075617925	-1.4044224253257611	-2.382239165419331
id566	sample1	obj206	0.23084117008333382	-0.8944823970171834	-0.8757053038217902	-1.002285274572086	-2.9985378265449825
id567	sample1	obj207	0.09325037307877915	-1.1559869097154243	-0.88060169954303	-0.9574408623702421	-2.93326306977457
id568	sample1	obj208	-0.25776116738097476	-0.7692938213981491	-0.6369104708579649	-1.2103859290714167	-3.141611223507145
id569	sample1	obj209	0.024113814003618672	-0.8574931708861644	-1.1989425134128031	-1.3159572327202689	-2.802490885674454
id570	sample1	obj210	0.20839840003132326	-1.0114664412506897	-1.023867283541382	-1.0680377047765646	-2.386899421925597
id571	sample1	obj211	-0.2079941995612546	-1.2294983200213845	-0.9637562042913779	-1.3839994576044168	-3.050157756974536
id572	sample1	obj212	-0.43610892856467376	-1.0094591217254025	-0.9833207111073266	-0.8908825683561769	-2.874974088679671
id573	sample1	obj213	-0.5155920406608951	-1.176901961756225	-0.6153133476734084	-1.3081375482677888	-2.4815374759053337
id574	sample1	obj214	0.12381145010522443	-1.314739747473859	-0.9514696450235831	-1.372000242996662	-2.6133436797970204
id575	sample1	obj215	-0.06574290239057912	-1.2492757863917365	-0.5404256364777257	-1.5746902421107547	-2.5524481958207357
id576	sample1	obj216	-0.31246335712280476	-0.9737254090265741	-0.9244672669749343	-1.5155951050065233	-2.8020422764992596
id577	sample1	obj217	0.047438300925466304	-1.1219550633475457	-0.6309737763415216	-0.9368928670902507	-2.9218762931372733
id578	sample1	obj218	-0.4256901709552394	-1.1474476267157245	-0.9162255212831917	-1.1356420486387977	-2.374830503997799
id579	sample1	obj219	0.05591342871096694	-1.2584462700163688	-0.6505769529240482	-0.8387016068326012	-2.5400733645230162
id580	sample1	obj220	0.1612783437754869	-1.090304970340052	-0.7840652844736279	-1.06390046831792	-2.406472355718519
id581	sample1	obj221	0.12375569875088777	-1.0782479967354621	-1.127054781485562	-1.4761273541282316	-2.753449195865319
id582	sample1	obj222	-0.3608528647228451	-0.7834839926282514	-1.1457234297808607	-1.423424318214492	-3.0670204318732646
id583	sample1	obj223	-0.15960790866533853	-0.7159001934732326	-1.2688022196304867	-0.9862116696099459	-2.3755528082350885
id584	sample1	obj224	-0.22985989006120888	-0.8178485530701368	-0.529195836720334	-1.2104148496228244	-2.5095112222768337
id585	sample1	obj225	-0.4326134219731637	-0.6937961281873413	-1.0586660698034742	-1.277975966978783	-2.4164024656231176
id586	sample1	obj226	-0.1725069000721698	-0.8953158161312835	-1.1898649286630876	-0.9889816809872622	-2.8579402123606203
id587	sample1	obj227	0.16212824116234348	-0.7430099887184063	-0.809380779247145	-0.9188934506557104	-2.5803939269396023
id588	sample1	obj228	0.2152331997368475	-1.1669563596743167	-1.1973285067255603	-1.5400960362338703	-2.9178560215138543
id589	sample1	obj229	-0.31617976592006125	-0.7931116901639826	-1.0700899861313824	-1.2646525733243983	-3.1359853254458483
id590	sample1	obj230	-0.2884693939327638	-0.7502745069880532	-1.0373158227247865	-1.2177393566147563	-3.1623808715861585
id591	sample1	obj231	-0.10580418100822897	-0.6136593744285392	-1.2539487210507945	-1.0691993932157593	-2.7283255511251383
id592	sample1	obj232	-0.3515595937823448	-1.1673434852765683	-1.0920451139457708	-1.1519689037959353	-2.7519340412943043
id593	sample1	obj233	0.09741989015073882	-0.5267788789132126	-0.7122703901801481	-1.5362646114013776	-2.748962087590683
id594	sample1	obj234	-0.1646170896345086	-0.719689137328064	-0.7553461630543963	-1.5003406552718654	-2.826403157522115
id595	sample1	obj235	-0.07933502437002399	-0.8219578925174733	-1.2111508638588282	-0.9728002710893149	-2.394732520223846
id596	sample1	obj236	-0.14675752958212768	-0.9650345269589828	-1.0068395707685036	-0.8858488665799045	-2.663977472061939
id597	sample1	obj237	0.01888250106784528	-1.1909018252082573	-1.2719713776165085	-1.078969744966204	-2.740913114870091
id598	sample1	obj238	-0.10950418053039906	-0.885236288023714	-0.8124337687412937	-1.3712601249370011	-3.1313254310843295
id599	sample1	obj239	-0.4056793267913693	-0.8620162677894261	-0.6176500659419112	-1.0585531521574358	-2.6216665480028114
id600	sample1	obj240	0.5398133727079515	-2.952742356444279	-2.0422932959937867	2.76290226197887	-0.9495932147744273
id601	sample1	obj241	1.0664344697987675	-1.2424171791492857	0.6222550470856109	-0.7266977452426665	2.409788150793073
id602	sample1	obj242	-0.4111506572134075	-2.6515182391766756	-0.4583042748579751	2.798793481278027	1.3989169002869408
id603	sample1	obj243	-2.5101811737459783	1.6477339061956315	0.3076499239608922	-2.0986750622581596	-1.0758475045859641
id604	sample1	obj244	-1.791549471310452	1.7067791602635567	0.5027049311358976	-0.5493059432895785	-3.0221787063491963
id605	sample1	obj245	1.8758727285748216	-1.573248776793399	0.04046047420881793	1.9796444124026846	-1.3700975022853945
id606	sample1	obj246	-2.0808389125307247	0.21353595005942627	2.786437194635185	-1.325718927435447	2.3022574579571686
id607	sample1	obj247	-1.2844136994714646	-3.0841101959660846	1.7925779817828	1.5465140785277478	-1.4899483996794582
id608	sample1	obj248	-2.2945218110730563	-1.5933776785132183	2.5025829089337956	-0.4409360166348245	-0.04000261238312136
id609	sample1	obj249	0.08723617841476439	1.282185918281718	1.762808089507746	-0.7923758673703017	-0.918951672166147
id610	sample1	obj250	-0.16751820956989366	-2.7790482681445936	-0.03586603187410786	0.41799060941806976	1.3977131288673659
id611	sample1	obj251	-1.9920447815878808	-0.9174254376158709	2.679374157411928	-0.39428602900448884	-0.6732071301154438
id612	sample1	obj252	-2.0773843212609915	0.3527448666392661	-0.937906360692387	0.8212208224931825	-0.27161100088176193
id613	sample1	obj253	-1.7227956688539763	2.2409560886447064	-2.074754406103685	1.3328886699327525	0.1531657761080475
id614	sample1	obj254	-1.5191530932126338	-0.5360599260822171	1.0446662510319382	2.4785469602523826	2.3921633627059258
id615	sample1	obj255	0.6256793087103228	2.220914345744585	0.9888700341228394	1.8551748376418282	-1.2287782955323514
id616	sample1	obj256	-0.3485944695812253	-0.7376822879171393	-1.11658398294847	-0.8930151330168592	1.3108995980518525
id617	sample1	obj257	-1.8819854588011882	2.5820393504366965	-0.46927991486687404	-2.6030956293876426	-1.462664848844002
id618	sample1	obj258	2.1900697117842207	2.52206852903213	1.7394058230102172	2.861606454199847	-0.905509900782138
id619	sample1	obj259	0.8949464792731244	0.8044639647655395	0.35456986922306644	-0.4566855002279411	0.9488374080011394
id620	sample1	obj260	1.6436800659633826	1.2818001013461169	2.109890656350262	-0.049475601012260895	1.02296247293129
id621	sample1	obj261	-1.6153470555079736	2.8854695453272288	2.454637264887644	-2.9667947603084444	-0.5441360696269116
id622	sample1	obj262	-0.9743343970692255	0.22661455044025136	1.9418979157842395	-0.47788354335133604	-0.23718145931048118
id623	sample1	obj263	1.3993618256463942	2.786262442789636	2.0799536092028124	0.2807855999513871	2.2772673041839244
id624	sample1	obj264	0.5265151671764183	1.113477744127322	0.9254315391085627	2.758399197490054	-2.120155845245247
id625	sample1	obj265	1.5287911477467746	1.5499472283272762	2.051120566257503	-1.2806109081015513	1.004859681345184
id626	sample1	obj266	-1.6537455984520832	1.2514047268673854	0.4897294512016498	3.1184570105519756	-1.7336770961383037
id627	sample1	obj267	2.244616693125077	-0.6817538851979293	-2.6512418709995806	2.2132030434259056	1.7814554630307855
id628	sample1	obj268	-2.2917447117099394	0.14808399892721916	-1.234073692616716	-2.0331778858234433	2.2718342825590487
id629	sample1	obj269	-0.23076142554269208	1.6208085704886925	-0.7345025608738261	0.531482116501437	0.11101084947327255
id630	sample1	obj270	-2.082453315725845	2.2617207836735234	-1.2252065188754635	-0.4582916994904599	-2.441469311606565
id631	sample1	obj271	-1.1018004964757828	0.5544389406759597	-1.6963727666154442	-0.8009445471833578	1.8016245590266753
id632	sample1	obj272	-1.2491326016716027	0.9616719604734902	-1.7436419347687309	2.2463412985478657	2.2201545644458536
id633	sample1	obj273	1.5904721563646778	-2.051077633405285	0.2689964432326949	-0.015282449909423346	-0.6164086500474353
id634	sample1	obj274	-1.420055122087859	-0.5543493233226846	2.3678306548928707	-0.3061638965436726	-2.0835124538724337
id635	sample1	obj275	0.4775478076458213	0.15126424381529613	0.9503215491459678	1.503993071319515	0.6456146291848237
id636	sample1	obj276	2.285050344717183	-1.5420519810653073	-2.6926963242694577	2.4439496942541323	-2.3299053571607944
id637	sample1	obj277	1.8451080939469335	-1.1477453273545928	-0.6953219948770487	1.0146977790951455	0.6845064689676831
id638	sample1	obj278	-1.4547901458329295	-2.4934424141419407	-0.6756987291586263	-2.588366413030036	1.2200572566875194
id639	sample1	obj279	1.4955893593549994	-0.6892599735923296	1.4489750193894588	2.573858185629675	1.8902488745529684
id640	sample1	obj280	0.4082008886196141	0.8228303757088441	1.1868844883315641	-0.29308442356256037	1.8790531131646253
id641	sample1	obj281	-1.877026821115403	-1.3344847332358516	-0.930827044814606	2.2853265840844177	-2.6565096711473206
id642	sample1	obj282	2.1425676891567895	-0.7878605341271486	-2.9976869212910633	-2.781195984937027	0.028063623489300027
id643	sample1	obj283	2.170668552406917	-0.6927552492953848	-2.0793189683916484	0.9624961249317644	-1.6280744232863182
id644	sample1	obj284	0.6315082314315588	-2.2939623273606276	-0.5708320838996481	2.3494369331809266	2.020832332113795
id645	sample1	obj285	0.2787311490470815	0.6394687582091964	-1.047151952357324	-0.5951760180672548	0.21236341013562687
id646	sample1	obj286	0.44205145877723107	1.3748461512845849	0.849500555322674	-2.6633827264162173	1.552893907373249
id647	sample1	obj287	1.0683965038759218	0.595962528950232	2.0269896224344737	0.6665552027164451	-1.1953203219641386
id648	sample1	obj288	2.8311206548261647	-1.344938288148078	-0.25255775777833545	0.3025064147408585	0.25371112309472116
id649	sample1	obj289	1.4018168194940857	-0.8098315953867484	-1.9784351948846082	-0.11144411517567154	-1.6184429847731692
id650	sample1	obj290	2.852794694137469	0.6802192998786798	1.1044280947881393	-2.705880825414855	0.6426109556155212
id651	sample1	obj291	-2.9339824825211447	2.02103484664606	0.6716925362639172	0.9581583021021507	1.824505790533119
id652	sample1	obj292	-0.2905002345545534	-0.20007362003078227	-0.5092963034657642	0.6291812817243129	-2.3115126415026324
id653	sample1	obj293	1.4667264251073235	1.2995389832974562	-1.6537544487350337	-0.1726661665711664	-1.0260945689870156
id654	sample1	obj294	-0.07358238061059963	-1.3159823312587848	-1.6907481449106345	1.9519186611785244	-2.6504578883144374
id655	sample1	obj295	-0.1845774410081793	1.7238741486148084	0.6285714546921268	-0.8925010328792371	0.8817810781600336
id656	sample1	obj296	1.9867509976512845	2.7226788802180693	1.8141230290182508	-2.6082573560728712	-1.056142874844787
id657	sample1	obj297	2.2185128312385145	0.5324103340804485	-0.027993131779706193	-1.5977382678055443	-1.2149928041327738
id658	sample1	obj298	-1.4094358815238477	0.3657848349599614	0.7440598105746914	-2.4108735546756628	-2.8032686709134573
id659	sample1	obj299	-1.7710051474050958	-1.902991444085305	2.9155788950217754	-2.2489141590244617	2.1891740569403972
id660	sample1	obj300	-2.8821118509455586	-1.256390153599329	1.0291755702595007	-1.8759706475715012	-2.5098319858633875
id661	sample1	obj301	0.7276252733481383	-0.7387270864288779	1.4666665241225887	-0.16787348640355737	2.456249447099407
id662	sample1	obj302	1.8950756785828988	-2.3441832488638865	0.3694685468307631	0.9010647824810638	-1.351431257187548
id663	sample1	obj303	1.4230169034898712	-1.8637429356503614	-0.2847785536003019	3.0875339307407024	-2.3195308382547823
id664	sample1	obj304	-2.4293353792773296	-2.2832583101227635	0.7565438321519788	0.09152558614057682	0.15875522684416188
id665	sample1	obj305	2.2900363002301214	1.278699654259736	-2.001020464834112	0.4467555789782309	0.9458898513014808
id666	sample1	obj306	-2.7267951895592297	0.3442801152757632	0.2027364528643839	0.715913717783457	-2.250671628970795
id667	sample1	obj307	2.826411836394808	-1.3860494293575507	1.3827089107195527	-0.6285282126544924	2.446288966039708
id668	sample1	obj308	-2.400225115817605	3.250175767457311	1.9248221074212748	2.013580936943825	1.8327434041095725
id669	sample1	obj309	0.9528909623448851	-1.1714515751956012	-2.929996544334497	-1.8503187001134185	-2.094614636480876
id670	sample1	obj310	-2.497304542909681	1.3355319580023035	-1.146179267324969	1.7615086391851311	2.01326966661947
id671	sample1	obj311	2.198145086040088	1.028336871716587	-1.0122666903903461	2.527302874694138	0.5857383181834556
id672	sample1	obj312	2.4168996119351704	0.8524314704038226	-0.25952620665492476	-1.8235636800809611	-0.7636343268113173
id673	sample1	obj313	-1.6872861698361403	-1.1992650894312926	-1.2434603204660268	2.1658774200273996	-2.6275441912148225
id674	sample1	obj314	2.196478768849972	1.7274856169764807	1.2114788735147877	-0.5009511379572846	-2.7676208176814656
id675	sample1	obj315	0.8946542573810703	-1.3207663214419858	-1.0974662627482301	-3.2817626869122187	-2.3514571875006594
id676	sample1	obj316	2.2822427880700134	1.0539611159012539	-2.1005824343905406	-2.5174727899719014	1.9035256822477296
id677	sample1	obj317	-2.8374981486472604	0.010533650758631663	-0.9763526903721941	-0.5347459963738724	1.9591638342865925
id678	sample1	obj318	-0.8398450898690009	-1.124832513480528	-0.40431574879250204	1.2885240537880123	0.3127511512178398
id679	sample1	obj319	0.88922432630021	-0.9225903924964207	0.5782041575284292	-1.6178252161009161	2.24030211002991
id680	sample1	obj320	0.7318796384993347	2.0635688082567447	-1.0819661054536807	-0.03916730003924618	1.232500783297966
id681	sample1	obj321	-1.1441672830389078	1.9220390491056096	-0.6762301892480574	-1.789982313932042	-2.35740610230186
id682	sample1	obj322	1.1233525136984936	3.039402568244382	-0.11869685057320833	-1.6387878511988574	1.358027878593756
id683	sample1	obj323	-3.0317295256248453	0.4150996817333677	-0.35700271687152474	-1.4153014124425263	-2.875975328120354
id684	sample1	obj324	-1.0935951909557775	2.7925088599010386	2.3313132553595697	0.804834721517008	-2.577647321802256
id685	sample1	obj325	1.1104127235300654	0.4765901935072526	-2.2769372065428586	2.3939277139528583	0.5575067000794625
id686	sample1	obj326	-1.415519205107111	-2.974132183620924	-1.8508534848333942	-1.5523485717293783	2.58824034556456
id687	sample1	obj327	1.0150411434923705	-2.992519073264271	-1.389328755563412	-2.25939484896294	-1.1258436789976296
id688	sample1	obj328	1.960045856992486	-0.08541247417170794	0.0382820234503124	1.5089495742754302	2.6377889905303036
id689	sample1	obj329	0.39028317852841443	-0.3493664196492947	-0.21894090711434588	2.323899927845504	2.4446434929048215
id690	sample1	obj330	0.20331013368496087	3.1865453523423923	1.334184621764063	2.4450322613321136	2.314816174754813
id691	sample1	obj331	-0.6607042083292571	2.2598577044616786	1.6037288795492626	-3.1809269412758336	-0.7751359737864574
id692	sample1	obj332	2.405573556379669	0.02863703185325056	1.869769438053701	-0.05890986818805255	2.562885657625843
id693	sample1	obj333	0.3852071506812097	2.7936714137618948	-3.042147908159457	-0.8606695341275099	1.4251513079548468
id694	sample1	obj334	-0.8667621140656192	2.884906973119702	2.1168843163265243	-2.993995162175961	1.887437613592608
id695	sample1	obj335	-0.5779372769382227	2.82272634651653	-2.0243107226655273	-0.3262595798387632	-0.4976188309163079
id696	sample1	obj336	1.789017424592409	2.3502776194381347	-1.4890032730855103	1.4183147931788667	-2.419742045541962
id697	sample1	obj337	-2.552452351043752	1.6856141319263043	-0.7664726011685726	-1.0280630756287767	0.7508979747089087
id698	sample1	obj338	-3.0949783758453306	-0.982043195321764	0.34229996852774236	1.1914428644404436	2.285860889985783
id699	sample1	obj339	1.617627905874471	-1.0331883290636996	0.5583338554846046	-1.0723634981058872	0.3417686773356311
id700	sample1	obj340	1.489364114311106	-2.1170670174015243	-0.7686059420963637	0.2443150957511383	-2.049067633579931
id701	sample1	obj341	-0.8487479629246315	-0.7959722277682639	-0.7023821304708341	1.6188323939282996	0.5222408149849179
id702	sample1	obj342	-1.2438212938145967	-2.3574432506819596	0.9527220310628297	-3.047245906934648	-1.5502765924486577
id703	sample1	obj343	0.6904525457329869	1.0425892838092832	2.264162099276642	0.4940815867787441	0.6614927687134227
id704	sample1	obj344	-1.8979112358968508	2.9036079577496707	-1.94352801645848	2.1217919282098956	-0.2286485931878005
id705	sample1	obj345	1.8043494641407636	-2.094560573732432	0.9019053143689985	0.13397226341407087	0.8691113318028595
id706	sample1	obj346	0.0451778386614311	1.3702566059619035	0.18335702473757143	1.794869160991388	1.1217933331376686
id707	sample1	obj347	-2.437236659962733	0.9837301087777642	1.5410926062924082	-0.6716552803843723	-0.9952324263966318
id708	sample1	obj348	-1.608459067453109	-0.5530152993922111	3.261496114546151	-2.030434062511987	-0.6523908618216419
id709	sample1	obj349	-1.6243321035643146	1.301033349246171	-1.032061507058536	0.7380351520209683	2.158074751867259
id710	sample1	obj350	-2.6030333363910407	2.974144830026449	-2.8033130623073124	2.7190948424119012	-2.87496742863667
id711	sample1	obj351	0.10910740002339248	1.5713254350215826	-2.894262118214884	0.1810166351307485	1.2546563862365994
id712	sample1	obj352	-2.4141201360341347	0.08194425532315852	-2.2258656880743644	-1.4464349538166084	0.9531901244059248
id713	sample1	obj353	0.6882730080225824	2.345747362654281	-0.19881675653426978	-2.695779897493836	0.8173198460206677
id714	sample1	obj354	-0.7036958611981036	-2.2069623966748217	2.619826640617257	-1.7444418910575097	-1.1987287170378165
id715	sample1	obj355	2.4572103045398923	0.5956704375680024	-0.5266182788601496	-0.8372690027027515	2.5904734716585542
id716	sample1	obj356	-1.1605767501706872	-0.15233868139512596	1.0431704339080632	-1.81736966243782	-1.6748447949893754
id717	sample1	obj357	-1.5135726939437435	-0.5390562118816138	0.2867688000039944	1.7973654664751084	-0.03666904989180797
id718	sample1	obj358	2.977784808561677	2.822615764113534	-0.999629679515267	1.268017519816381	-1.390792175134988
id719	sample1	obj359	0.6400226934682697	1.7348100486693294	-2.5429167494686817	-1.5689638648944049	-1.623924699133502
