	-0.8239052477602646	-2.602968151732009	2.581310937032992	-1.8734988640457892	0.8834998312016911
	-2.353542629107917	1.5525081762343544	-2.3053394728860805	2.9011894660928554	2.309688779853319
	0.665219843315203	-0.36677670192610945	-2.9741922841747854	0.45570360823268174	-1.3497720188472915
