obj0	obj0
obj0	obj20
obj0	obj22
obj0	obj29
obj0	obj36
obj0	obj50
obj0	obj68
obj0	obj96
obj0	obj120
obj0	obj143
obj0	obj190
obj0	obj294
obj0	obj324
obj0	obj358
obj1	obj1
obj1	obj40
obj1	obj58
obj1	obj62
obj1	obj71
obj1	obj88
obj1	obj140
obj1	obj142
obj1	obj251
obj1	obj254
obj1	obj300
obj1	obj331
obj2	obj2
obj2	obj39
obj2	obj77
obj2	obj112
obj2	obj122
obj2	obj133
obj2	obj155
obj2	obj283
obj2	obj335
obj2	obj355
obj3	obj3
obj3	obj16
obj3	obj33
obj3	obj119
obj3	obj163
obj3	obj218
obj3	obj257
obj3	obj336
obj4	obj4
obj4	obj34
obj4	obj45
obj4	obj57
obj4	obj135
obj4	obj271
obj4	obj320
obj4	obj322
obj4	obj331
obj5	obj5
obj5	obj10
obj5	obj44
obj5	obj92
obj5	obj94
obj5	obj102
obj5	obj108
obj5	obj210
obj5	obj278
obj5	obj345
obj6	obj6
obj6	obj17
obj6	obj23
obj6	obj29
obj6	obj60
obj6	obj114
obj6	obj151
obj6	obj258
obj6	obj264
obj6	obj282
obj6	obj286
obj7	obj7
obj7	obj29
obj7	obj48
obj7	obj61
obj7	obj70
obj7	obj88
obj7	obj111
obj7	obj161
obj8	obj8
obj8	obj18
obj8	obj52
obj8	obj62
obj8	obj91
obj8	obj131
obj8	obj135
obj8	obj152
obj8	obj273
obj9	obj9
obj9	obj18
obj9	obj41
obj9	obj42
obj9	obj45
obj9	obj67
obj9	obj127
obj9	obj139
obj9	obj141
obj9	obj243
obj9	obj244
obj9	obj245
obj9	obj254
obj9	obj317
obj9	obj341
obj9	obj359
obj10	obj10
obj10	obj23
obj10	obj40
obj10	obj51
obj10	obj106
obj10	obj340
obj10	obj358
obj11	obj11
obj11	obj23
obj11	obj30
obj11	obj47
obj11	obj51
obj11	obj56
obj11	obj141
obj11	obj185
obj11	obj214
obj12	obj12
obj12	obj19
obj12	obj46
obj12	obj104
obj12	obj190
obj12	obj219
obj12	obj253
obj12	obj257
obj13	obj13
obj13	obj23
obj13	obj77
obj13	obj153
obj13	obj161
obj13	obj206
obj13	obj296
obj13	obj358
obj14	obj14
obj14	obj23
obj14	obj43
obj14	obj80
obj14	obj127
obj14	obj184
obj15	obj15
obj15	obj77
obj15	obj119
obj15	obj135
obj15	obj258
obj15	obj264
obj15	obj318
obj15	obj322
obj16	obj16
obj16	obj30
obj16	obj36
obj16	obj38
obj16	obj80
obj16	obj275
obj17	obj17
obj17	obj20
obj17	obj100
obj17	obj107
obj17	obj129
obj17	obj149
obj18	obj18
obj18	obj21
obj18	obj40
obj18	obj97
obj18	obj269
obj18	obj309
obj18	obj334
obj19	obj19
obj19	obj52
obj19	obj78
obj19	obj146
obj19	obj154
obj19	obj167
obj19	obj210
obj19	obj221
obj19	obj234
obj19	obj247
obj19	obj259
obj20	obj20
obj20	obj42
obj20	obj79
obj20	obj143
obj20	obj150
obj20	obj154
obj20	obj240
obj20	obj269
obj20	obj282
obj20	obj312
obj20	obj346
obj20	obj352
obj21	obj21
obj21	obj62
obj21	obj119
obj21	obj230
obj21	obj242
obj21	obj248
obj21	obj292
obj21	obj293
obj21	obj304
obj22	obj22
obj22	obj25
obj22	obj33
obj22	obj40
obj22	obj56
obj22	obj74
obj22	obj143
obj22	obj245
obj22	obj323
obj22	obj324
obj23	obj23
obj23	obj31
obj23	obj35
obj23	obj76
obj23	obj92
obj23	obj95
obj23	obj195
obj23	obj213
obj23	obj259
obj23	obj285
obj23	obj314
obj23	obj323
obj24	obj24
obj24	obj27
obj24	obj34
obj24	obj52
obj24	obj62
obj24	obj101
obj24	obj121
obj24	obj122
obj24	obj156
obj24	obj197
obj24	obj216
obj24	obj231
obj24	obj348
obj25	obj25
obj25	obj37
obj25	obj57
obj25	obj63
obj25	obj119
obj25	obj292
obj25	obj310
obj26	obj26
obj26	obj39
obj26	obj87
obj26	obj106
obj26	obj148
obj26	obj186
obj26	obj260
obj26	obj298
obj27	obj27
obj27	obj37
obj27	obj86
obj27	obj276
obj27	obj304
obj27	obj356
obj27	obj359
obj28	obj28
obj28	obj36
obj28	obj84
obj28	obj97
obj28	obj101
obj28	obj105
obj28	obj125
obj28	obj143
obj28	obj258
obj28	obj280
obj28	obj283
obj28	obj323
obj28	obj324
obj28	obj334
obj28	obj350
obj29	obj29
obj29	obj33
obj29	obj59
obj29	obj135
obj29	obj168
obj29	obj334
obj29	obj355
obj30	obj30
obj30	obj65
obj30	obj86
obj30	obj160
obj30	obj170
obj30	obj185
obj30	obj241
obj30	obj276
obj30	obj283
obj30	obj309
obj30	obj325
obj31	obj31
obj31	obj72
obj31	obj186
obj31	obj191
obj31	obj246
obj31	obj317
obj31	obj356
obj32	obj32
obj32	obj35
obj32	obj46
obj32	obj116
obj32	obj117
obj32	obj122
obj32	obj125
obj32	obj206
obj32	obj224
obj32	obj273
obj32	obj318
obj32	obj335
obj33	obj33
obj33	obj98
obj33	obj118
obj33	obj240
obj33	obj321
obj34	obj34
obj34	obj40
obj34	obj62
obj34	obj70
obj34	obj72
obj34	obj88
obj34	obj95
obj34	obj120
obj34	obj126
obj34	obj128
obj34	obj159
obj34	obj181
obj34	obj249
obj34	obj285
obj35	obj35
obj35	obj54
obj35	obj135
obj35	obj182
obj35	obj232
obj35	obj242
obj35	obj254
obj35	obj359
obj36	obj36
obj36	obj92
obj36	obj115
obj36	obj121
obj36	obj124
obj36	obj249
obj36	obj281
obj36	obj298
obj36	obj312
obj36	obj316
obj36	obj331
obj37	obj37
obj37	obj45
obj37	obj70
obj37	obj82
obj37	obj162
obj37	obj294
obj38	obj38
obj38	obj59
obj38	obj62
obj38	obj63
obj38	obj64
obj38	obj74
obj38	obj76
obj38	obj103
obj38	obj105
obj38	obj137
obj38	obj165
obj38	obj215
obj38	obj229
obj38	obj241
obj38	obj298
obj39	obj39
obj39	obj65
obj39	obj70
obj39	obj77
obj39	obj104
obj39	obj108
obj39	obj126
obj39	obj146
obj39	obj194
obj39	obj220
obj39	obj241
obj40	obj40
obj40	obj50
obj40	obj106
obj40	obj126
obj40	obj140
obj40	obj245
obj40	obj271
obj40	obj277
obj40	obj292
obj40	obj307
obj40	obj313
obj40	obj320
obj40	obj323
obj41	obj41
obj41	obj44
obj41	obj48
obj41	obj51
obj41	obj114
obj41	obj293
obj42	obj42
obj42	obj216
obj42	obj267
obj42	obj327
obj42	obj332
obj43	obj43
obj43	obj63
obj43	obj71
obj43	obj125
obj43	obj270
obj43	obj300
obj43	obj352
obj44	obj44
obj44	obj46
obj44	obj52
obj44	obj72
obj44	obj93
obj44	obj100
obj44	obj147
obj44	obj157
obj44	obj158
obj44	obj183
obj44	obj264
obj44	obj267
obj44	obj324
obj44	obj335
obj44	obj340
obj45	obj45
obj45	obj49
obj45	obj62
obj45	obj95
obj45	obj127
obj45	obj136
obj45	obj262
obj45	obj278
obj45	obj294
obj45	obj314
obj45	obj338
obj46	obj46
obj46	obj100
obj46	obj101
obj46	obj128
obj46	obj201
obj46	obj265
obj46	obj283
obj46	obj287
obj47	obj47
obj47	obj63
obj47	obj94
obj47	obj124
obj47	obj131
obj47	obj141
obj47	obj144
obj47	obj163
obj47	obj168
obj47	obj295
obj47	obj352
obj48	obj48
obj48	obj51
obj48	obj61
obj48	obj78
obj48	obj101
obj48	obj126
obj48	obj260
obj49	obj49
obj49	obj57
obj49	obj86
obj49	obj121
obj49	obj123
obj49	obj130
obj49	obj163
obj49	obj170
obj49	obj291
obj49	obj301
obj49	obj329
obj50	obj50
obj50	obj51
obj50	obj56
obj50	obj61
obj50	obj107
obj50	obj110
obj50	obj149
obj50	obj252
obj50	obj258
obj50	obj276
obj50	obj279
obj50	obj285
obj50	obj288
obj50	obj316
obj50	obj347
obj51	obj51
obj51	obj56
obj51	obj76
obj51	obj103
obj51	obj109
obj51	obj119
obj51	obj150
obj51	obj268
obj51	obj280
obj51	obj282
obj51	obj298
obj51	obj313
obj52	obj52
obj52	obj55
obj52	obj66
obj52	obj111
obj52	obj113
obj52	obj138
obj52	obj151
obj52	obj159
obj52	obj193
obj52	obj242
obj52	obj261
obj52	obj272
obj52	obj301
obj52	obj322
obj52	obj333
obj52	obj346
obj52	obj352
obj53	obj53
obj53	obj57
obj53	obj75
obj53	obj106
obj53	obj114
obj53	obj126
obj53	obj298
obj54	obj54
obj54	obj115
obj54	obj232
obj54	obj342
obj54	obj349
obj54	obj355
obj55	obj55
obj55	obj76
obj55	obj109
obj55	obj112
obj55	obj120
obj55	obj151
obj55	obj248
obj55	obj299
obj55	obj315
obj56	obj56
obj56	obj57
obj56	obj63
obj56	obj69
obj56	obj117
obj56	obj128
obj56	obj145
obj56	obj304
obj56	obj312
obj57	obj57
obj57	obj67
obj57	obj76
obj57	obj101
obj57	obj142
obj57	obj146
obj57	obj153
obj57	obj198
obj57	obj270
obj58	obj58
obj58	obj78
obj58	obj86
obj58	obj139
obj58	obj196
obj58	obj210
obj58	obj253
obj58	obj280
obj58	obj321
obj59	obj59
obj59	obj106
obj59	obj134
obj59	obj178
obj59	obj191
obj59	obj330
obj60	obj60
obj60	obj81
obj60	obj116
obj60	obj126
obj60	obj127
obj60	obj211
obj60	obj237
obj60	obj260
obj61	obj61
obj61	obj142
obj61	obj259
obj62	obj62
obj62	obj111
obj62	obj145
obj62	obj155
obj63	obj63
obj63	obj64
obj63	obj82
obj63	obj113
obj63	obj169
obj63	obj181
obj63	obj215
obj63	obj329
obj64	obj64
obj64	obj65
obj64	obj127
obj64	obj234
obj64	obj269
obj64	obj346
obj65	obj65
obj65	obj92
obj65	obj280
obj65	obj289
obj65	obj311
obj65	obj339
obj66	obj66
obj66	obj89
obj66	obj97
obj66	obj116
obj66	obj176
obj66	obj206
obj66	obj239
obj66	obj323
obj66	obj354
obj67	obj67
obj67	obj115
obj67	obj154
obj67	obj163
obj67	obj233
obj67	obj252
obj67	obj262
obj67	obj274
obj68	obj68
obj68	obj72
obj68	obj76
obj68	obj81
obj68	obj107
obj68	obj196
obj68	obj208
obj68	obj281
obj68	obj294
obj68	obj304
obj68	obj352
obj69	obj69
obj69	obj75
obj69	obj91
obj69	obj105
obj69	obj123
obj69	obj154
obj69	obj159
obj69	obj168
obj69	obj298
obj69	obj353
obj70	obj70
obj70	obj221
obj70	obj222
obj70	obj317
obj70	obj329
obj70	obj339
obj71	obj71
obj71	obj93
obj71	obj132
obj71	obj136
obj71	obj302
obj71	obj306
obj71	obj311
obj71	obj338
obj71	obj342
obj72	obj72
obj72	obj79
obj72	obj107
obj72	obj119
obj72	obj241
obj73	obj73
obj73	obj111
obj73	obj128
obj73	obj151
obj73	obj154
obj73	obj249
obj73	obj262
obj73	obj273
obj73	obj292
obj73	obj300
obj74	obj74
obj74	obj163
obj74	obj190
obj74	obj197
obj74	obj248
obj74	obj296
obj75	obj75
obj75	obj78
obj75	obj147
obj75	obj148
obj75	obj155
obj75	obj259
obj75	obj262
obj75	obj299
obj75	obj313
obj76	obj76
obj76	obj117
obj76	obj133
obj76	obj250
obj76	obj284
obj76	obj328
obj77	obj77
obj77	obj109
obj77	obj116
obj77	obj119
obj77	obj169
obj77	obj212
obj77	obj229
obj77	obj249
obj77	obj323
obj78	obj78
obj78	obj134
obj78	obj191
obj78	obj192
obj78	obj267
obj78	obj272
obj79	obj79
obj79	obj107
obj79	obj125
obj79	obj159
obj79	obj164
obj79	obj187
obj79	obj259
obj79	obj302
obj79	obj304
obj79	obj340
obj80	obj80
obj80	obj95
obj80	obj259
obj80	obj357
obj81	obj81
obj81	obj135
obj81	obj306
obj81	obj329
obj81	obj335
obj81	obj345
obj82	obj82
obj82	obj84
obj82	obj87
obj82	obj93
obj82	obj98
obj82	obj141
obj82	obj146
obj82	obj154
obj82	obj158
obj82	obj163
obj82	obj174
obj82	obj198
obj82	obj219
obj82	obj221
obj82	obj254
obj82	obj326
obj82	obj343
obj82	obj354
obj83	obj83
obj83	obj90
obj83	obj114
obj83	obj115
obj83	obj145
obj83	obj199
obj83	obj264
obj83	obj296
obj83	obj331
obj84	obj84
obj84	obj105
obj84	obj106
obj84	obj114
obj84	obj116
obj84	obj136
obj84	obj194
obj84	obj258
obj85	obj85
obj85	obj105
obj85	obj116
obj85	obj124
obj85	obj134
obj85	obj141
obj85	obj182
obj85	obj279
obj86	obj86
obj86	obj87
obj86	obj95
obj86	obj106
obj86	obj118
obj86	obj142
obj86	obj164
obj86	obj179
obj86	obj231
obj86	obj252
obj86	obj274
obj86	obj281
obj86	obj298
obj86	obj306
obj86	obj309
obj86	obj327
obj87	obj87
obj87	obj130
obj87	obj153
obj87	obj157
obj87	obj169
obj87	obj232
obj87	obj243
obj87	obj259
obj87	obj331
obj87	obj342
obj88	obj88
obj88	obj92
obj88	obj111
obj88	obj179
obj88	obj255
obj88	obj280
obj88	obj349
obj89	obj89
obj89	obj106
obj89	obj108
obj89	obj117
obj89	obj119
obj89	obj156
obj89	obj162
obj89	obj199
obj89	obj203
obj89	obj218
obj89	obj238
obj89	obj273
obj89	obj279
obj89	obj332
obj89	obj344
obj90	obj90
obj90	obj105
obj90	obj111
obj90	obj212
obj90	obj296
obj91	obj91
obj91	obj138
obj91	obj195
obj91	obj285
obj91	obj305
obj91	obj333
obj92	obj92
obj92	obj96
obj92	obj128
obj92	obj166
obj92	obj181
obj92	obj196
obj92	obj241
obj92	obj358
obj93	obj93
obj93	obj96
obj93	obj107
obj93	obj117
obj93	obj122
obj93	obj124
obj93	obj184
obj93	obj269
obj93	obj320
obj93	obj339
obj94	obj94
obj94	obj101
obj94	obj287
obj94	obj289
obj94	obj332
obj95	obj95
obj95	obj113
obj95	obj123
obj95	obj149
obj95	obj157
obj95	obj176
obj95	obj339
obj95	obj351
obj96	obj96
obj96	obj104
obj96	obj130
obj96	obj131
obj96	obj157
obj96	obj219
obj96	obj242
obj96	obj255
obj96	obj298
obj97	obj97
obj97	obj142
obj97	obj143
obj97	obj236
obj97	obj261
obj97	obj282
obj97	obj299
obj97	obj320
obj97	obj348
obj98	obj98
obj98	obj143
obj98	obj153
obj98	obj224
obj98	obj345
obj99	obj99
obj99	obj127
obj99	obj131
obj99	obj151
obj99	obj260
obj99	obj319
obj99	obj351
obj100	obj100
obj100	obj157
obj100	obj216
obj100	obj250
obj100	obj266
obj100	obj269
obj100	obj311
obj100	obj323
obj101	obj101
obj101	obj123
obj101	obj149
obj101	obj157
obj101	obj166
obj101	obj169
obj101	obj198
obj101	obj276
obj101	obj281
obj101	obj283
obj101	obj290
obj101	obj335
obj102	obj102
obj102	obj106
obj102	obj129
obj102	obj148
obj102	obj202
obj102	obj266
obj102	obj341
obj103	obj103
obj103	obj233
obj103	obj273
obj103	obj311
obj104	obj104
obj104	obj162
obj104	obj197
obj104	obj282
obj104	obj294
obj104	obj298
obj104	obj330
obj104	obj335
obj105	obj105
obj105	obj107
obj105	obj108
obj105	obj130
obj105	obj151
obj105	obj180
obj105	obj195
obj105	obj314
obj105	obj346
obj105	obj359
obj106	obj106
obj106	obj165
obj106	obj247
obj106	obj309
obj106	obj310
obj106	obj311
obj107	obj107
obj107	obj109
obj107	obj147
obj107	obj150
obj107	obj263
obj107	obj318
obj107	obj337
obj108	obj108
obj108	obj201
obj108	obj236
obj108	obj257
obj108	obj268
obj108	obj328
obj108	obj344
obj109	obj109
obj109	obj131
obj109	obj148
obj109	obj249
obj109	obj302
obj109	obj341
obj109	obj349
obj110	obj110
obj110	obj119
obj110	obj126
obj110	obj130
obj110	obj148
obj110	obj250
obj110	obj281
obj110	obj359
obj111	obj111
obj111	obj112
obj111	obj128
obj111	obj130
obj111	obj136
obj111	obj269
obj111	obj326
obj111	obj331
obj112	obj112
obj112	obj117
obj112	obj189
obj112	obj272
obj112	obj302
obj112	obj319
obj112	obj337
obj112	obj342
obj112	obj344
obj113	obj113
obj113	obj129
obj113	obj207
obj113	obj321
obj113	obj350
obj114	obj114
obj114	obj127
obj114	obj129
obj114	obj247
obj114	obj272
obj114	obj342
obj115	obj115
obj115	obj134
obj115	obj136
obj115	obj140
obj115	obj149
obj115	obj159
obj115	obj223
obj115	obj327
obj115	obj340
obj116	obj116
obj116	obj119
obj116	obj185
obj116	obj310
obj116	obj351
obj117	obj117
obj117	obj122
obj117	obj139
obj117	obj149
obj117	obj277
obj117	obj310
obj117	obj333
obj118	obj118
obj118	obj119
obj118	obj235
obj118	obj250
obj118	obj282
obj118	obj331
obj119	obj119
obj119	obj137
obj119	obj210
obj119	obj216
obj119	obj241
obj119	obj293
obj119	obj335
obj120	obj120
obj120	obj122
obj120	obj125
obj120	obj137
obj120	obj234
obj120	obj252
obj120	obj262
obj120	obj269
obj120	obj308
obj120	obj326
obj120	obj327
obj120	obj342
obj121	obj121
obj121	obj281
obj121	obj341
obj121	obj349
obj122	obj122
obj122	obj154
obj122	obj186
obj122	obj206
obj122	obj219
obj122	obj245
obj122	obj299
obj122	obj301
obj122	obj343
obj123	obj123
obj123	obj135
obj123	obj249
obj123	obj258
obj123	obj284
obj124	obj124
obj124	obj138
obj124	obj153
obj124	obj158
obj124	obj292
obj124	obj306
obj125	obj125
obj125	obj147
obj125	obj173
obj125	obj183
obj125	obj246
obj125	obj249
obj125	obj315
obj125	obj331
obj126	obj126
obj126	obj157
obj126	obj230
obj126	obj234
obj126	obj264
obj126	obj276
obj126	obj311
obj126	obj320
obj126	obj329
obj127	obj127
obj127	obj150
obj127	obj154
obj127	obj201
obj127	obj249
obj127	obj269
obj127	obj294
obj127	obj335
obj128	obj128
obj128	obj192
obj128	obj200
obj128	obj257
obj128	obj309
obj129	obj129
obj129	obj255
obj129	obj266
obj129	obj282
obj130	obj130
obj130	obj154
obj130	obj178
obj130	obj254
obj130	obj263
obj130	obj276
obj130	obj291
obj130	obj299
obj130	obj342
obj131	obj131
obj131	obj144
obj131	obj264
obj131	obj265
obj131	obj296
obj131	obj297
obj131	obj299
obj131	obj344
obj132	obj132
obj132	obj143
obj132	obj213
obj132	obj242
obj132	obj246
obj133	obj133
obj133	obj163
obj133	obj262
obj133	obj281
obj134	obj134
obj134	obj141
obj134	obj310
obj134	obj330
obj134	obj339
obj135	obj135
obj135	obj151
obj135	obj173
obj135	obj209
obj135	obj214
obj135	obj292
obj135	obj333
obj135	obj336
obj135	obj340
obj136	obj136
obj136	obj145
obj136	obj154
obj136	obj163
obj136	obj199
obj136	obj241
obj136	obj267
obj136	obj329
obj136	obj336
obj137	obj137
obj137	obj150
obj137	obj170
obj137	obj184
obj137	obj260
obj137	obj274
obj137	obj287
obj137	obj293
obj137	obj339
obj137	obj350
obj138	obj138
obj138	obj219
obj138	obj238
obj138	obj242
obj138	obj274
obj138	obj341
obj138	obj343
obj139	obj139
obj139	obj162
obj139	obj257
obj140	obj140
obj140	obj156
obj140	obj244
obj140	obj264
obj140	obj311
obj140	obj318
obj141	obj141
obj141	obj195
obj141	obj264
obj141	obj269
obj141	obj308
obj141	obj351
obj142	obj142
obj142	obj157
obj142	obj214
obj142	obj252
obj142	obj285
obj142	obj309
obj142	obj329
obj143	obj143
obj143	obj281
obj143	obj333
obj144	obj144
obj144	obj147
obj144	obj156
obj144	obj271
obj144	obj277
obj144	obj284
obj145	obj145
obj145	obj183
obj145	obj216
obj145	obj236
obj145	obj240
obj145	obj253
obj145	obj334
obj145	obj349
obj145	obj352
obj146	obj146
obj146	obj200
obj146	obj240
obj146	obj245
obj146	obj246
obj146	obj247
obj146	obj248
obj146	obj256
obj146	obj328
obj147	obj147
obj147	obj149
obj147	obj293
obj147	obj333
obj148	obj148
obj148	obj296
obj148	obj338
obj149	obj149
obj149	obj265
obj149	obj281
obj149	obj325
obj150	obj150
obj150	obj160
obj150	obj243
obj150	obj258
obj150	obj277
obj150	obj279
obj150	obj331
obj150	obj332
obj151	obj151
obj151	obj165
obj151	obj174
obj151	obj189
obj151	obj243
obj151	obj327
obj151	obj332
obj151	obj350
obj152	obj152
obj152	obj215
obj152	obj220
obj152	obj303
obj152	obj320
obj152	obj328
obj152	obj330
obj152	obj337
obj153	obj153
obj153	obj241
obj153	obj294
obj153	obj345
obj153	obj353
obj154	obj154
obj154	obj327
obj154	obj328
obj155	obj155
obj155	obj168
obj155	obj261
obj156	obj156
obj156	obj177
obj156	obj179
obj156	obj181
obj156	obj262
obj156	obj317
obj156	obj323
obj156	obj342
obj157	obj157
obj157	obj176
obj157	obj193
obj157	obj198
obj157	obj225
obj157	obj276
obj157	obj281
obj157	obj292
obj157	obj333
obj157	obj342
obj158	obj158
obj158	obj302
obj158	obj316
obj158	obj321
obj159	obj159
obj159	obj180
obj159	obj186
obj159	obj200
obj159	obj207
obj159	obj246
obj159	obj269
obj159	obj326
obj159	obj331
obj159	obj347
obj160	obj160
obj160	obj167
obj160	obj169
obj160	obj180
obj160	obj202
obj160	obj212
obj160	obj220
obj160	obj256
obj160	obj309
obj160	obj325
obj160	obj350
obj161	obj161
obj161	obj233
obj161	obj274
obj161	obj318
obj161	obj331
obj161	obj348
obj162	obj162
obj162	obj164
obj162	obj184
obj162	obj188
obj162	obj214
obj162	obj215
obj162	obj222
obj162	obj255
obj162	obj265
obj162	obj287
obj162	obj342
obj163	obj163
obj163	obj181
obj163	obj236
obj163	obj276
obj163	obj287
obj163	obj300
obj163	obj333
obj163	obj342
obj164	obj164
obj164	obj167
obj164	obj216
obj164	obj220
obj165	obj165
obj165	obj194
obj165	obj198
obj165	obj226
obj165	obj307
obj165	obj308
obj165	obj313
obj165	obj325
obj165	obj352
obj165	obj356
obj166	obj166
obj166	obj179
obj166	obj190
obj166	obj267
obj166	obj280
obj166	obj310
obj167	obj167
obj167	obj171
obj167	obj302
obj167	obj312
obj168	obj168
obj168	obj195
obj168	obj212
obj168	obj226
obj168	obj272
obj168	obj279
obj169	obj169
obj169	obj172
obj169	obj222
obj169	obj235
obj169	obj240
obj170	obj170
obj170	obj227
obj170	obj236
obj171	obj171
obj171	obj176
obj171	obj221
obj171	obj252
obj171	obj280
obj171	obj304
obj171	obj337
obj172	obj172
obj172	obj202
obj172	obj248
obj172	obj283
obj173	obj173
obj173	obj193
obj173	obj257
obj173	obj282
obj173	obj308
obj173	obj309
obj173	obj341
obj173	obj347
obj174	obj174
obj174	obj193
obj174	obj204
obj174	obj208
obj174	obj237
obj174	obj238
obj174	obj288
obj175	obj175
obj175	obj177
obj175	obj179
obj175	obj188
obj175	obj227
obj175	obj247
obj175	obj249
obj175	obj289
obj175	obj323
obj175	obj336
obj175	obj358
obj176	obj176
obj176	obj204
obj176	obj234
obj176	obj333
obj176	obj340
obj176	obj342
obj176	obj343
obj177	obj177
obj177	obj208
obj177	obj215
obj177	obj216
obj177	obj305
obj177	obj308
obj177	obj350
obj178	obj178
obj178	obj179
obj178	obj191
obj178	obj222
obj178	obj243
obj178	obj283
obj178	obj289
obj179	obj179
obj179	obj219
obj179	obj222
obj179	obj225
obj179	obj239
obj179	obj254
obj179	obj272
obj179	obj276
obj179	obj283
obj179	obj316
obj179	obj342
obj180	obj180
obj180	obj211
obj180	obj274
obj180	obj277
obj181	obj181
obj181	obj219
obj181	obj234
obj181	obj310
obj182	obj182
obj182	obj209
obj182	obj211
obj182	obj222
obj182	obj226
obj182	obj253
obj182	obj254
obj182	obj281
obj182	obj349
obj183	obj183
obj183	obj220
obj183	obj272
obj183	obj333
obj184	obj184
obj184	obj205
obj184	obj228
obj184	obj242
obj184	obj248
obj184	obj258
obj184	obj280
obj184	obj283
obj184	obj313
obj184	obj322
obj184	obj348
obj184	obj351
obj185	obj185
obj185	obj192
obj185	obj198
obj185	obj219
obj185	obj301
obj185	obj344
obj186	obj186
obj186	obj204
obj186	obj226
obj186	obj281
obj187	obj187
obj187	obj200
obj187	obj204
obj187	obj231
obj187	obj344
obj188	obj188
obj188	obj215
obj188	obj228
obj188	obj233
obj188	obj295
obj189	obj189
obj189	obj206
obj189	obj243
obj189	obj288
obj189	obj298
obj190	obj190
obj190	obj211
obj190	obj304
obj190	obj305
obj190	obj306
obj190	obj326
obj191	obj191
obj191	obj212
obj191	obj215
obj191	obj231
obj191	obj242
obj191	obj253
obj191	obj332
obj191	obj336
obj192	obj192
obj192	obj195
obj192	obj224
obj192	obj233
obj192	obj292
obj192	obj301
obj192	obj334
obj193	obj193
obj193	obj195
obj193	obj217
obj193	obj227
obj193	obj243
obj193	obj290
obj193	obj309
obj194	obj194
obj194	obj219
obj194	obj226
obj194	obj238
obj194	obj277
obj194	obj292
obj194	obj308
obj195	obj195
obj195	obj238
obj195	obj250
obj195	obj303
obj196	obj196
obj196	obj240
obj196	obj275
obj196	obj285
obj196	obj343
obj197	obj197
obj197	obj202
obj197	obj226
obj197	obj227
obj197	obj258
obj197	obj264
obj197	obj341
obj197	obj342
obj197	obj348
obj198	obj198
obj198	obj218
obj198	obj348
obj199	obj199
obj199	obj200
obj199	obj216
obj199	obj227
obj199	obj301
obj199	obj317
obj199	obj332
obj200	obj200
obj200	obj227
obj200	obj230
obj200	obj243
obj200	obj255
obj201	obj201
obj201	obj232
obj201	obj253
obj201	obj254
obj201	obj257
obj201	obj268
obj201	obj320
obj202	obj202
obj202	obj214
obj202	obj217
obj202	obj218
obj202	obj280
obj203	obj203
obj203	obj205
obj203	obj264
obj203	obj292
obj203	obj323
obj203	obj329
obj204	obj204
obj204	obj210
obj204	obj276
obj204	obj311
obj204	obj322
obj205	obj205
obj205	obj223
obj205	obj250
obj205	obj285
obj205	obj300
obj205	obj316
obj206	obj206
obj206	obj247
obj206	obj266
obj206	obj292
obj206	obj359
obj207	obj207
obj208	obj208
obj208	obj250
obj208	obj266
obj208	obj301
obj209	obj209
obj209	obj236
obj209	obj250
obj209	obj251
obj209	obj253
obj209	obj287
obj209	obj295
obj209	obj350
obj209	obj355
obj210	obj210
obj210	obj215
obj210	obj217
obj210	obj220
obj210	obj223
obj210	obj227
obj211	obj211
obj211	obj247
obj211	obj255
obj211	obj271
obj211	obj285
obj212	obj212
obj212	obj239
obj212	obj272
obj212	obj273
obj212	obj284
obj212	obj341
obj213	obj213
obj213	obj237
obj213	obj242
obj213	obj244
obj213	obj248
obj213	obj271
obj213	obj282
obj213	obj288
obj214	obj214
obj214	obj227
obj214	obj301
obj214	obj324
obj214	obj349
obj215	obj215
obj215	obj230
obj215	obj234
obj215	obj253
obj215	obj276
obj215	obj291
obj215	obj327
obj215	obj333
obj216	obj216
obj216	obj221
obj216	obj241
obj216	obj290
obj216	obj295
obj216	obj347
obj217	obj217
obj217	obj241
obj217	obj315
obj217	obj345
obj218	obj218
obj218	obj259
obj218	obj307
obj218	obj312
obj218	obj345
obj219	obj219
obj219	obj297
obj219	obj321
obj220	obj220
obj220	obj229
obj220	obj232
obj220	obj251
obj220	obj336
obj221	obj221
obj221	obj254
obj221	obj256
obj221	obj275
obj221	obj291
obj221	obj316
obj221	obj341
obj222	obj222
obj222	obj228
obj223	obj223
obj223	obj233
obj223	obj298
obj223	obj322
obj223	obj329
obj223	obj345
obj224	obj224
obj224	obj239
obj224	obj242
obj224	obj267
obj224	obj310
obj224	obj354
obj225	obj225
obj225	obj238
obj225	obj261
obj225	obj310
obj225	obj322
obj226	obj226
obj226	obj236
obj226	obj237
obj226	obj324
obj226	obj332
obj226	obj346
obj227	obj227
obj227	obj237
obj227	obj311
obj228	obj228
obj228	obj254
obj228	obj282
obj228	obj310
obj229	obj229
obj229	obj263
obj230	obj230
obj230	obj243
obj230	obj340
obj231	obj231
obj231	obj283
obj231	obj290
obj231	obj298
obj231	obj320
obj231	obj345
obj232	obj232
obj232	obj300
obj232	obj305
obj232	obj356
obj233	obj233
obj233	obj328
obj234	obj234
obj234	obj265
obj234	obj283
obj234	obj296
obj234	obj320
obj235	obj235
obj235	obj268
obj235	obj345
obj236	obj236
obj236	obj243
obj236	obj256
obj237	obj237
obj237	obj353
obj238	obj238
obj238	obj278
obj238	obj302
obj238	obj315
obj238	obj316
obj238	obj335
obj239	obj239
obj239	obj280
obj239	obj312
obj239	obj330
obj240	obj240
obj240	obj312
obj240	obj316
obj240	obj351
obj241	obj241
obj241	obj256
obj241	obj282
obj241	obj302
obj242	obj242
obj242	obj263
obj242	obj282
obj242	obj287
obj242	obj305
obj242	obj320
obj242	obj351
obj243	obj243
obj243	obj302
obj243	obj326
obj244	obj244
obj244	obj264
obj244	obj307
obj244	obj308
obj244	obj320
obj244	obj327
obj245	obj245
obj245	obj247
obj246	obj246
obj246	obj293
obj247	obj247
obj247	obj312
obj247	obj326
obj247	obj331
obj248	obj248
obj248	obj293
obj248	obj309
obj249	obj249
obj249	obj272
obj249	obj273
obj250	obj250
obj250	obj309
obj251	obj251
obj251	obj289
obj251	obj326
obj252	obj252
obj252	obj304
obj252	obj318
obj252	obj353
obj253	obj253
obj253	obj314
obj254	obj254
obj254	obj267
obj254	obj272
obj254	obj298
obj255	obj255
obj255	obj267
obj255	obj312
obj256	obj256
obj256	obj312
obj257	obj257
obj257	obj284
obj257	obj291
obj257	obj323
obj257	obj337
obj257	obj353
obj258	obj258
obj258	obj259
obj258	obj332
obj258	obj346
obj259	obj259
obj259	obj264
obj259	obj290
obj259	obj300
obj259	obj352
obj260	obj260
obj260	obj305
obj260	obj318
obj260	obj345
obj261	obj261
obj261	obj274
obj261	obj317
obj261	obj347
obj261	obj349
obj262	obj262
obj262	obj268
obj263	obj263
obj263	obj301
obj263	obj311
obj263	obj325
obj264	obj264
obj264	obj277
obj264	obj306
obj264	obj313
obj265	obj265
obj265	obj266
obj265	obj355
obj266	obj266
obj266	obj301
obj267	obj267
obj267	obj274
obj267	obj312
obj268	obj268
obj268	obj278
obj268	obj280
obj268	obj292
obj268	obj348
obj268	obj351
obj269	obj269
obj269	obj330
obj269	obj353
obj270	obj270
obj270	obj343
obj271	obj271
obj271	obj284
obj271	obj302
obj271	obj328
obj271	obj347
obj272	obj272
obj272	obj293
obj272	obj349
obj273	obj273
obj273	obj309
obj274	obj274
obj274	obj291
obj275	obj275
obj275	obj283
obj275	obj293
obj275	obj352
obj276	obj276
obj276	obj342
obj277	obj277
obj278	obj278
obj278	obj315
obj278	obj328
obj278	obj342
obj278	obj355
obj279	obj279
obj279	obj300
obj279	obj330
obj279	obj348
obj280	obj280
obj281	obj281
obj281	obj315
obj281	obj319
obj281	obj325
obj282	obj282
obj283	obj283
obj283	obj291
obj283	obj296
obj283	obj302
obj284	obj284
obj284	obj327
obj284	obj347
obj285	obj285
obj285	obj322
obj285	obj347
obj286	obj286
obj286	obj315
obj287	obj287
obj287	obj356
obj288	obj288
obj288	obj308
obj288	obj318
obj288	obj358
obj289	obj289
obj289	obj301
obj289	obj303
obj289	obj327
obj289	obj358
obj290	obj290
obj290	obj292
obj290	obj310
obj290	obj338
obj291	obj291
obj291	obj320
obj292	obj292
obj293	obj293
obj293	obj306
obj293	obj320
obj293	obj344
obj294	obj294
obj294	obj312
obj294	obj314
obj294	obj316
obj294	obj356
obj295	obj295
obj295	obj303
obj295	obj304
obj295	obj352
obj296	obj296
obj297	obj297
obj297	obj350
obj298	obj298
obj299	obj299
obj299	obj304
obj300	obj300
obj300	obj305
obj301	obj301
obj302	obj302
obj302	obj309
obj303	obj303
obj303	obj359
obj304	obj304
obj304	obj331
obj304	obj337
obj304	obj351
obj305	obj305
obj306	obj306
obj306	obj308
obj306	obj348
obj307	obj307
obj307	obj325
obj307	obj328
obj307	obj345
obj308	obj308
obj308	obj359
obj309	obj309
obj309	obj326
obj309	obj327
obj309	obj331
obj309	obj349
obj310	obj310
obj310	obj331
obj310	obj351
obj311	obj311
obj312	obj312
obj312	obj326
obj312	obj351
obj313	obj313
obj313	obj314
obj313	obj357
obj314	obj314
obj314	obj326
obj314	obj342
obj315	obj315
obj316	obj316
obj317	obj317
obj317	obj319
obj317	obj338
obj318	obj318
obj318	obj319
obj319	obj319
obj319	obj327
obj319	obj346
obj320	obj320
obj320	obj338
obj321	obj321
obj321	obj324
obj321	obj346
obj321	obj357
obj322	obj322
obj322	obj342
obj322	obj347
obj322	obj348
obj322	obj349
obj323	obj323
obj323	obj347
obj323	obj349
obj324	obj324
obj324	obj345
obj325	obj325
obj326	obj326
obj326	obj343
obj327	obj327
obj327	obj348
obj327	obj353
obj328	obj328
obj328	obj329
obj328	obj333
obj328	obj335
obj328	obj354
obj329	obj329
obj330	obj330
obj330	obj354
obj331	obj331
obj331	obj343
obj332	obj332
obj333	obj333
obj333	obj355
obj333	obj359
obj334	obj334
obj335	obj335
obj336	obj336
obj336	obj345
obj336	obj346
obj337	obj337
obj337	obj346
obj338	obj338
obj339	obj339
obj340	obj340
obj341	obj341
obj341	obj351
obj342	obj342
obj342	obj346
obj343	obj343
obj344	obj344
obj345	obj345
obj345	obj347
obj345	obj350
obj346	obj346
obj347	obj347
obj347	obj356
obj348	obj348
obj349	obj349
obj350	obj350
obj351	obj351
obj352	obj352
obj353	obj353
obj354	obj354
obj355	obj355
obj356	obj356
obj357	obj357
obj358	obj358
obj359	obj359
