id0	sample0	obj0	-1.2541335552284751	3.1358134643746833	-1.140253337879853	0.5107137362699292	-0.0722084031247936
id1	sample0	obj1	-0.7414378295675115	2.0847110238976283	-1.4112010491908489	0.3082562582281507	-1.0186147229760605
id2	sample0	obj2	-0.15286451132242185	2.1130605682061177	-0.010275299469997057	1.0449488312140218	-0.49196110122739745
id3	sample0	obj3	-0.7655020109782418	2.257850065385013	-0.7718623615187796	0.30383288871142544	-1.0169954661969018
id4	sample0	obj4	-0.303409659954899	3.6184646876075854	0.22635107038034108	0.17418753801961184	0.14082575588260893
id5	sample0	obj5	-1.5422625017724252	3.4489369124243794	-1.0039335433224348	2.257534385477455	0.6292792596439318
id6	sample0	obj6	-0.7521595875370723	2.656909714305252	-1.8982787395673073	2.0771099310702885	-0.8771627760094262
id7	sample0	obj7	0.3938888371683331	1.7627801140530783	-0.9964437751566855	0.7907861189234248	0.614394174764102
id8	sample0	obj8	-0.4488415249211215	1.6166779111109666	-1.236300419939441	0.7737317326512108	-1.1411376855040272
id9	sample0	obj9	-0.3678697725428144	2.5134974731353052	-1.136443009793214	2.0326940043443176	0.216098674517337
id10	sample0	obj10	0.22315478744758876	1.596588253714525	-0.7990765959183626	0.3047047405035834	0.10968678326318604
id11	sample0	obj11	-1.2386913866605425	1.8118569168231855	-0.8208133788375589	1.5156458592202158	-1.1115491946287386
id12	sample0	obj12	-1.1359893542831632	1.5328890983062105	-1.6171670902269444	0.5690141699295486	-1.1220620591990462
id13	sample0	obj13	0.07191480021434171	2.4698376665412645	-1.1237207885906404	0.31576938784686437	0.6249806517547254
id14	sample0	obj14	0.19716600431986264	3.5709271734141863	-1.977889715911303	0.7398126141851527	-1.0343403759365155
id15	sample0	obj15	-0.09707231806982874	2.3202665387605967	-0.3784317291528374	1.7455385710561833	-0.5521643006087749
id16	sample0	obj16	-0.6944804218712572	2.9186855316351306	-1.6605817816894282	1.4323999152847022	-1.1347384504019522
id17	sample0	obj17	-0.8166230747974734	3.0672836030929966	-1.2176911082965	1.3588100749883216	-0.7958723974982194
id18	sample0	obj18	0.1245349013756718	2.346240515510581	-0.02643988092189775	0.3090000755567115	-0.41337833707532945
id19	sample0	obj19	-1.5656333646411136	3.6948736596251344	-1.323379312695743	2.3900278554883942	0.8957726156455996
id20	sample0	obj20	0.09770048353311078	2.8365351997833215	-1.0584092632070696	0.6231102823315384	0.3963527565272118
id21	sample0	obj21	-0.8284452260957764	3.524812462625081	-0.5509555730232396	0.962403984041555	-1.2697326481034101
id22	sample0	obj22	-0.10859652473485615	2.374221974658173	-0.04474784355100092	0.9713895474370536	0.6515171297358557
id23	sample0	obj23	-0.8925358419947003	3.4252676000827744	0.2426462097731148	1.5957165429595626	0.6528145837192929
id24	sample0	obj24	-1.5821739530336356	3.813957250013331	-1.5236721417595653	2.262828902958725	0.08811645291818282
id25	sample0	obj25	-1.6903448713833624	3.59073382209177	-0.2235660476230248	0.6715137257130476	-0.6349518000950589
id26	sample0	obj26	-1.8769341644527373	2.7718737268548326	-0.26039781219062164	1.3547879348998282	0.7082777217485112
id27	sample0	obj27	0.2668836341799887	3.1038248544674767	-1.629554959168061	2.340855689888359	0.30669953446122444
id28	sample0	obj28	-1.0187229371335764	1.8612989633741996	-0.4067956871625924	2.4203261449219964	-0.6313498557465598
id29	sample0	obj29	-0.21353686048638387	2.2542877398197385	-0.8305439494752425	1.1620691868930617	0.3226424612415142
id30	sample0	obj30	-1.3057786293100215	2.3461337024878763	-0.5977883708734748	0.501102028442074	0.5061211712913611
id31	sample0	obj31	-1.2078588197458067	2.9304505151971116	-1.2001376951360194	1.7333355355978703	-0.8411537134069217
id32	sample0	obj32	-0.37078765482983034	1.6126471580745443	-0.9675200378774891	0.8649556277154006	0.34555373299874925
id33	sample0	obj33	-0.98710352271277	2.513155236099249	-0.24713511716794234	0.5372737508089669	0.32686226175655797
id34	sample0	obj34	0.43703046941528734	3.562789178282708	0.07776236799948477	0.7271349155619219	-0.1821591708131951
id35	sample0	obj35	-0.7508448110768979	1.7920760046928068	-1.9792996951499549	0.3420264152216712	0.6475592105246764
id36	sample0	obj36	-1.1250206852370583	3.5094639560929943	-1.5857287400916862	2.2089692916250416	-0.3248329176084288
id37	sample0	obj37	-1.6259810264739831	3.889161486113241	-0.07876153095436034	1.205698577840639	-1.0690779028441202
id38	sample0	obj38	-1.4811517342020322	2.6065533065598543	-1.9370663466398959	2.2976381617215207	-0.47603983681472195
id39	sample0	obj39	-1.7268077248987788	3.4137874198022296	-1.5701288625580814	1.6083441861627092	-0.6301830002132943
id40	sample0	obj40	-1.0188605681826148	3.273821765644194	-0.3893182164812563	1.8355254456652628	-1.295389715786477
id41	sample0	obj41	-0.8516122691522541	2.68904826984938	-1.9037955967477975	0.4880380606506285	0.32172256969580726
id42	sample0	obj42	0.16151109868605062	3.6791780620216565	-1.1117846193405694	2.407494924002612	-1.2693727043905814
id43	sample0	obj43	-0.1949150847202441	3.278459696737711	-0.44333552241580576	0.7849151280115823	-1.3764795112467914
id44	sample0	obj44	0.33898411577392706	3.718113592756799	-0.7772330382285393	0.6092655880237915	0.7585015267509891
id45	sample0	obj45	0.014789692100287244	2.496398758672372	-1.1337948900307877	2.0101087200488466	-1.230065122580331
id46	sample0	obj46	-0.8982644418309198	3.499041225955134	0.10453666277471618	0.23907154972035616	-1.0291199058610685
id47	sample0	obj47	-0.8168423636116495	2.834487994219754	-0.3718625120088519	0.9490130225474062	0.7583406727497131
id48	sample0	obj48	-0.5515904203236073	2.942452174950557	-0.25445470143767057	0.9949014609317196	-0.5510049517457742
id49	sample0	obj49	-0.9514184712852122	1.5665016918583887	-1.843817612369884	1.803906960205177	0.14611309606101575
id50	sample0	obj50	-1.1415765073791229	2.474682052674609	0.31670964362971454	0.429504610882945	-0.6424422650050159
id51	sample0	obj51	-0.46485344846855337	2.9854955844458386	-0.8901572173159824	2.091663948469984	0.45829162634200227
id52	sample0	obj52	0.44464215748065494	3.1874469333614344	-1.1105371762340308	0.36676871007105705	-0.09076870116880364
id53	sample0	obj53	0.40647865638081115	3.024866798707789	0.18494478573321937	1.018922999503145	-0.8035032409894894
id54	sample0	obj54	-0.7453512703259773	3.38570277051943	-0.12926695810942124	0.7387483751371158	-0.9419554295361379
id55	sample0	obj55	-0.15745422843519963	3.883246696988964	-1.4970955411404194	2.329002340542545	0.3144364178079906
id56	sample0	obj56	-0.2533687561892344	3.275707485660014	-0.26112696804121693	1.88819857763781	0.4006807863687998
id57	sample0	obj57	-0.5601808717797432	3.704974338902999	0.12309924713910791	0.22122796172920056	-1.322216497596864
id58	sample0	obj58	-0.103667436418029	3.8361910223692552	0.1617636867189669	2.164603632125731	0.04444948263929471
id59	sample0	obj59	-0.8742132903194182	2.407728483860646	-1.4685561696539384	0.45573775534215233	-0.582615481675545
id60	sample0	obj60	-1.6258987887157212	1.9091321245285706	-0.03301082306987846	0.29043591809183344	-0.263551328783902
id61	sample0	obj61	-0.8813471623025035	2.9324881247793613	-1.5643849525932774	1.2779167610608106	-1.0003966577532049
id62	sample0	obj62	-1.3415746102747905	2.617734728203692	0.09882435349864127	1.9829711260307472	-0.5492326487329892
id63	sample0	obj63	-1.722096567397148	3.749586814487973	0.24971400466966798	0.49271292007050804	0.5274468616091523
id64	sample0	obj64	-0.4453245594810946	3.265290487872737	-1.2633801834503913	0.3005804339537619	0.1079229904171104
id65	sample0	obj65	-0.6187412363589715	3.788218833154647	-0.5215031437606767	1.890175771834335	-0.749035465764861
id66	sample0	obj66	-1.434875591741768	1.8897073395938653	-1.435986613635646	0.3410152293001014	-0.4469276021349382
id67	sample0	obj67	-1.1716194871168344	3.065349874782089	-0.5863494197493586	2.2696544177861577	0.30525626206849976
id68	sample0	obj68	-0.6913406328087728	3.0445788887973326	0.36824017937936326	2.452791964408243	-1.2531230250025076
id69	sample0	obj69	-0.18845743849605867	3.5735771834217758	-1.268067958252204	1.5311853969025195	0.909267513165364
id70	sample0	obj70	0.31594097025094725	1.9487615428540574	-0.8863424927950321	0.8293796942304771	-0.8747511825846487
id71	sample0	obj71	-0.691680351603402	1.8460799534074481	-1.4626654385389835	0.6986946889130589	-0.35160596823667634
id72	sample0	obj72	0.42811090076504743	1.8925215892829639	-1.6265550870305283	1.8394861078805662	0.6615462968258294
id73	sample0	obj73	-1.2588092718864767	3.450392454783774	0.11678776752385756	0.31073070299606154	-1.1712373927601485
id74	sample0	obj74	-1.4955073754212602	1.9094070558408553	-0.2817172356581428	1.1053315766634189	0.11713297356963337
id75	sample0	obj75	-0.5769694808968424	3.1986649590841534	-1.7094710667999182	1.4832108615789146	0.6209921037473631
id76	sample0	obj76	-1.4753892750278272	3.0530141857683155	-1.6543915182931326	0.8785700915739764	0.252558435522793
id77	sample0	obj77	-1.1253806432141524	2.392715443426966	-1.0268723626862506	1.818170591228181	-1.2179107148045625
id78	sample0	obj78	-0.9101598144827121	2.756607511545785	-1.0641750354347255	0.7505891256069146	0.40885144986071675
id79	sample0	obj79	0.3998415220595646	2.6369410980440007	-1.1600348171798207	2.539367924611674	0.5425703731733829
id80	sample0	obj80	-0.8885818101369148	1.4929246952696575	2.2048861168341136	2.9784481775486658	2.3356039167155718
id81	sample0	obj81	-1.2373983157347546	0.7495042143641526	3.7119627933808603	3.2737647824059932	3.0610487661651327
id82	sample0	obj82	-0.5609319705813447	0.6425167718214142	1.6104486150177515	2.7501167660389583	2.0458130052076116
id83	sample0	obj83	-0.6498738988078758	0.07102290087629559	3.8138009697532373	2.408014435861607	1.3267234660417477
id84	sample0	obj84	-0.42823616500849493	0.8907216775521591	2.726301484117413	2.4409137183130505	1.5403477053301673
id85	sample0	obj85	0.2939553050854815	0.9863941102716283	3.752061498697123	1.7476314436653846	2.4641734055680864
id86	sample0	obj86	-1.7066712688502883	1.5393524131401375	2.0127861284147395	3.001877285067209	1.22097129427338
id87	sample0	obj87	-1.3419563321487116	0.21365383014437977	3.6288689656775137	3.545519197506528	3.011756707538817
id88	sample0	obj88	-0.8302084836135181	-0.21568630080684492	2.842705598544691	3.7128145596840687	3.0736999992866822
id89	sample0	obj89	-1.4172847626834426	0.32533647324617077	1.7032305788622664	1.4065355342154988	2.5252061885468793
id90	sample0	obj90	-0.30871323108606297	-0.3137108317668713	2.1302170804966023	2.5644072792690578	1.3451988155223427
id91	sample0	obj91	-0.5447584656090361	0.0498569216271898	2.219477715948297	3.452297867491299	2.8685163242399936
id92	sample0	obj92	-1.2036086949117606	0.2715346564174257	2.3667742228921016	2.840949774191685	2.7467580478011997
id93	sample0	obj93	-1.387798782951486	1.3201487483850973	3.52821780154317	2.9563559775587382	1.69489894979171
id94	sample0	obj94	-1.2834231431506167	0.9577350559293392	3.1908851932539255	3.1787044112836176	1.9989072991916292
id95	sample0	obj95	-0.10329060868964923	-0.2594773894577007	2.1141260151393326	3.4597473341397293	2.4507958581674827
id96	sample0	obj96	-0.46908306662772037	0.09797551543388905	2.9219453156458393	2.67958418707848	2.8448561062295026
id97	sample0	obj97	-1.301464741560083	-0.4498725621692603	2.4697481388190083	1.904772990931502	2.1396098920482505
id98	sample0	obj98	0.268904028804571	1.0383931445768708	3.251981806142462	2.661501078007342	1.3791094472392444
id99	sample0	obj99	-0.6902994379309944	1.342755203255536	3.4256404978776853	2.3088458690240024	1.1769669652464498
id100	sample0	obj100	-0.07985847099343535	0.3972970240223679	2.950560656027678	3.6840279180601154	2.086742988023562
id101	sample0	obj101	-1.7257545334333584	0.24257472539025549	2.33076913853895	3.577605289469661	3.1904140222460535
id102	sample0	obj102	0.24326903058584226	0.10088877258747797	2.9091967409115864	1.552865414842847	2.797414139088569
id103	sample0	obj103	0.03194177260404385	0.2502231244593136	3.6356819119921493	1.5088352237391989	2.112551734347148
id104	sample0	obj104	-1.624927229853427	0.11305789764114316	2.497705700666409	1.6464485495042078	1.7417800898501763
id105	sample0	obj105	0.15182786756258926	0.2635265933728428	3.564562361609134	2.0660692984477604	2.987694843727228
id106	sample0	obj106	0.12432783225328414	-0.025926370811830024	2.0260263073013522	3.52287157518725	1.6565880226621092
id107	sample0	obj107	0.022533264122105656	-0.3580317661156517	2.8708675183411887	2.2031072524193935	1.95824700186666
id108	sample0	obj108	-0.3064893887004869	0.21533367837062856	3.7011380048050295	2.155154019764137	2.818294977760071
id109	sample0	obj109	-1.387546320453018	1.3238614069239716	3.9548453298318087	2.298012237855455	1.5180696333411023
id110	sample0	obj110	-0.794883594201859	0.6446789283731913	3.039791161647786	3.5077135501110517	2.5936702030693466
id111	sample0	obj111	0.23393281848972802	0.8200331552817317	3.2798213386539725	3.407502792907392	2.5162198311539576
id112	sample0	obj112	-0.5820921688219736	0.5991231493697531	3.44386207950581	2.106756232673016	3.179425629754279
id113	sample0	obj113	-0.9907542570424671	0.4799273818046046	1.710828310920986	3.5463439489585795	1.3584985763910535
id114	sample0	obj114	-0.8741644962049651	-0.3558081246379252	2.546814876417476	3.3419832832200775	1.2888107110937685
id115	sample0	obj115	-1.6602062746554742	-0.3586094732363978	2.221527533741954	2.8278154523820875	0.9905365643752522
id116	sample0	obj116	-0.5741618402257667	0.7977868832203114	3.777727902387393	3.7660705561977643	1.7945475536467517
id117	sample0	obj117	0.5931097306178279	0.7002487078977868	2.9076090085031723	3.315311615004946	2.399824757952475
id118	sample0	obj118	-0.868689213280548	-0.3001619109908913	2.6782883024658974	2.340199091170987	2.1781177968104655
id119	sample0	obj119	-0.37599170370768253	1.1354581701927842	2.233059079425299	1.9411135585245938	1.4272456094274348
id120	sample0	obj120	-0.511101268503487	0.7690372200635434	2.6477099221969755	2.5373390651075893	2.415726348675538
id121	sample0	obj121	-1.0351295762487664	0.23252895076016866	3.0049784816625684	2.475293886177133	1.8132220630423572
id122	sample0	obj122	-1.4725601015626713	0.8021739758619164	3.497155529430514	2.045887050100211	0.9788398238916685
id123	sample0	obj123	-0.28777397056409404	0.507478184640449	3.562211019284571	1.733218151741618	2.8139951914736336
id124	sample0	obj124	-0.38260803811497923	0.8051782185551457	1.7903598873620847	1.5275327674887447	1.5699236003543882
id125	sample0	obj125	0.19986191551347154	0.8806601421134348	3.2999797293965107	3.3541240286694713	3.0912337700981913
id126	sample0	obj126	-0.10855141023233572	-0.06575317427587846	2.8137553901861554	2.0312001902189616	2.3780507420036843
id127	sample0	obj127	-0.8823802242250417	1.427569043515131	2.182913703961322	3.4131552167037507	3.072665427893152
id128	sample0	obj128	0.586189899467936	0.6044532072869864	1.723753927595953	3.727544734310076	2.5958312447048453
id129	sample0	obj129	0.042649670109235815	1.0266475345521295	2.122364328877867	1.7518229907562892	1.670381774465081
id130	sample0	obj130	0.5904909288611495	1.2483583556046278	3.8952830951070823	1.8081310183779418	1.9780304327948257
id131	sample0	obj131	-0.5364085590608023	-0.7464198586127835	1.918262410948558	2.6772404210479275	3.1889002378356794
id132	sample0	obj132	-0.08416837961332146	-0.2573398627882164	1.9920653189759119	1.8297361897723445	3.259858609918127
id133	sample0	obj133	-0.1495255634916175	1.1130462527143339	3.63071375864162	3.1147701162005452	2.7819459919693585
id134	sample0	obj134	-1.2742105392838796	1.254809437612163	3.4486552038856844	1.5928168923530621	2.5214291203384778
id135	sample0	obj135	-1.0912138400922773	1.3829081050109508	2.8912702265425576	3.194921351343929	1.5831256161394474
id136	sample0	obj136	-1.0419128977825454	-0.7486343498886574	3.5878421523263233	3.270521855610369	2.855979075936971
id137	sample0	obj137	0.6397575254348749	0.12315327030114909	2.8849060699365747	3.2701749269695632	1.5942566814686507
id138	sample0	obj138	-1.0563352643444064	-0.8252923610847311	3.5056217492710386	3.1069750160983727	2.9455383106777457
id139	sample0	obj139	0.28750247607408386	0.2542551610849104	3.329823402274842	3.747258386130098	1.3487120349332482
id140	sample0	obj140	-1.6266630107311935	-0.7654394002352147	2.93953104145265	2.980900045426012	1.5688273659169045
id141	sample0	obj141	0.08724720997592206	0.43695710763484774	2.9533053540131435	3.085237615438571	1.875730535748009
id142	sample0	obj142	-0.7858870952398391	0.8484770767110088	3.105007467100145	1.4725736718777702	2.8892791498430954
id143	sample0	obj143	-1.5500388121915807	1.1768419613323025	2.7893441823672065	1.490679246443882	2.716844789219592
id144	sample0	obj144	-1.4497915714256668	1.072301212254937	2.7417835753726822	1.4457237493569737	3.082534802242056
id145	sample0	obj145	0.34440667986672024	-0.21170501135723552	3.7540887221760837	2.129175094140929	3.0811835521160713
id146	sample0	obj146	-0.14734482297787244	-0.05652697815319219	2.0500667346306107	1.5758502521117543	2.8328194174531323
id147	sample0	obj147	-0.45230072725697057	0.21010503046151863	3.4589977883069496	3.578350411157995	1.4614752846218013
id148	sample0	obj148	-0.45708798309428267	-0.45178357824397475	3.728708900520078	2.424157390807024	2.864354640158851
id149	sample0	obj149	0.07128735841157408	0.95914966849367	2.6059891494057075	3.6410406790164656	2.6218803464453497
id150	sample0	obj150	-0.46688303496720307	1.3437947985737206	2.395419771533067	3.7440852508644538	2.182525731161576
id151	sample0	obj151	-0.09340638578282467	-0.27470831312248123	2.8982377238829953	3.07825485121323	3.111903374031341
id152	sample0	obj152	-1.5548472085512821	0.047053763716043084	2.5409992204479286	2.4145205624665405	2.895336436337929
id153	sample0	obj153	0.5403547598946326	-0.03866852368153717	1.9174957401104917	1.4883528754435444	1.9646350025937505
id154	sample0	obj154	-1.496784800739373	-0.291506063131727	2.319190290925493	1.7707674096963073	1.7052523618590452
id155	sample0	obj155	0.3438309492650149	0.276619853131429	1.9162928060217164	2.8172991024337293	1.6678489624728614
id156	sample0	obj156	-1.6584184628068543	0.47269916581221216	2.20441016842716	2.596978448498999	1.1100862995205945
id157	sample0	obj157	-0.4265320505593029	1.0518412141332483	1.6653318268876682	3.7201889283407423	3.0825407554448354
id158	sample0	obj158	-1.328890383858327	1.2479671406570485	2.2072970399777128	3.2072931383485743	1.0868238797235266
id159	sample0	obj159	-0.6400836817323132	0.42461828050457573	3.1398653467852773	2.202715374484089	3.2016538096963885
id160	sample0	obj160	3.272793826978416	-3.398361569272346	-3.947706297718187	-1.0505317901228797	-2.2327150927141
id161	sample0	obj161	2.62897775404317	-3.1190211276600914	-3.6959665112193156	-1.4739664993027117	-3.88550376312296
id162	sample0	obj162	3.136274061160929	-3.9378851400635684	-1.794419689572157	0.32500504414407705	-3.176040504965777
id163	sample0	obj163	1.4922974524568255	-2.7745278483583764	-2.179850821611531	-0.6704253127422868	-3.6473906719123397
id164	sample0	obj164	1.4503280361272926	-2.6578071988366765	-2.040457149806162	-1.696629087342114	-3.5745461436201493
id165	sample0	obj165	2.4222538183658955	-3.5761423741161256	-3.884713126066831	-1.7025462109936074	-3.7785558594914734
id166	sample0	obj166	2.6017361406950132	-3.90980488933268	-2.651911686290526	-1.8834915092611197	-3.949592402461614
id167	sample0	obj167	1.6623572221782212	-2.7083537736153676	-1.9068399484519405	-0.009788439505118207	-3.3608695056717415
id168	sample0	obj168	1.481737464943327	-1.7367855569019304	-2.033818877715998	-1.634082375142519	-4.038496540565614
id169	sample0	obj169	2.954797596516342	-2.922895262682622	-3.0341680746067548	-2.002777915573847	-3.196119115783932
id170	sample0	obj170	2.1023471033199552	-1.9371653864668812	-1.683712999780407	-0.8543101191931324	-1.8577143343476978
id171	sample0	obj171	2.057333707451647	-2.3791146645585117	-1.6833812952201417	-1.9763066936575193	-1.8998328181399569
id172	sample0	obj172	3.410246407857441	-1.7968650310738459	-2.908901489470572	-0.04403110041270897	-2.0810707643320896
id173	sample0	obj173	3.494657293954675	-2.0086160461060905	-2.420269023538379	-1.415219740149324	-3.439265285324322
id174	sample0	obj174	1.9585739752946465	-2.717170067149519	-3.82564634201984	-0.06545367650093992	-2.5859937861897326
id175	sample0	obj175	2.449480987756565	-1.9155256289304192	-4.017863526258552	-1.6799316242627114	-3.7860789383916953
id176	sample0	obj176	2.2805370513493886	-3.0892634287829592	-2.537347139101863	-0.15085232903353796	-2.362111515595987
id177	sample0	obj177	1.9696931727587672	-3.6588901253157715	-1.7982782919859586	-0.35597356484050424	-3.008158080557674
id178	sample0	obj178	2.167359602999893	-2.3138907183870483	-2.0927265812094644	-2.0171948380176934	-2.7429795605105447
id179	sample0	obj179	2.1140162613553404	-2.8238729785807237	-3.220577259173827	-1.0746249654093047	-1.803901883539422
id180	sample0	obj180	3.5866736019928736	-3.437276763279699	-2.1539260711171493	-0.6904415830511634	-1.913111047330985
id181	sample0	obj181	2.079698148614148	-2.0735695189476813	-2.7184089429809055	0.040656829010146334	-2.586245811755308
id182	sample0	obj182	2.6860575267126077	-1.872068337901997	-4.05832424493476	-0.8024313663463778	-1.8588888256303806
id183	sample0	obj183	2.751861356237165	-2.083418854921703	-3.257548984604946	0.1746421845566728	-2.352570094945608
id184	sample0	obj184	1.4100164914290458	-3.0947330631162018	-3.736798769992835	-0.7084252847619625	-2.1733448964635285
id185	sample0	obj185	1.4852276998000478	-2.795346153418282	-2.3748973526067836	-1.8574556376810745	-3.3305575911191783
id186	sample0	obj186	3.517294411820452	-2.25850177510542	-2.3550572192251487	-0.5835366203138062	-2.3911987591479322
id187	sample0	obj187	2.0750295997059105	-3.888925214219669	-3.576884727455009	-0.9136352258133174	-2.568971403490745
id188	sample0	obj188	2.0190017735195305	-3.33359730021051	-1.9735688574631014	-1.8914297561605868	-3.4219525731947886
id189	sample0	obj189	3.1950136602753734	-1.6520077011977394	-3.5166490235725907	-0.849969922487537	-2.846228096557684
id190	sample0	obj190	3.6666352466054057	-2.684149332323092	-3.375536415622947	-0.67882879896941	-1.965247536700465
id191	sample0	obj191	3.676535180225362	-3.5434219825926347	-2.1357479409449525	-1.5346707210615145	-2.49854862361315
id192	sample0	obj192	3.5026611239731587	-2.3138509477274396	-3.0912520582111664	-1.6345319993640648	-2.334090758819813
id193	sample0	obj193	1.673836907062606	-1.6754993958156	-2.947580717472085	-0.7169992713984039	-2.2233755943623192
id194	sample0	obj194	3.4449264531398684	-1.760068317195026	-2.151089238243962	-0.16178428544110024	-3.0779708382122033
id195	sample0	obj195	2.2066981028810764	-3.0043442889324212	-1.8560980113343424	-1.63933683611609	-2.992651490119008
id196	sample0	obj196	3.409756645746504	-3.1887726026182497	-3.8282864025791157	-0.6480170812934789	-3.1892835883386654
id197	sample0	obj197	1.3927341756450093	-2.400917710823356	-2.144785511562091	-1.2283705534143499	-3.314458912431867
id198	sample0	obj198	3.1871916018633852	-3.6403173851761013	-1.9865874991309795	0.12387982231968953	-2.4928976387927295
id199	sample0	obj199	1.8777214608002506	-1.7861637107914448	-3.737312773902434	-1.874015530805901	-1.810429641462395
id200	sample0	obj200	1.3654061587332755	-3.198743416511527	-2.4267081107158113	-0.30656700847964835	-2.2600954077577446
id201	sample0	obj201	1.3434138884053883	-3.3485607438768246	-3.7226448735569715	0.19765281735723117	-3.6302372943736096
id202	sample0	obj202	1.6599547869766091	-2.504946645175991	-4.029503095321538	-0.7698710126620398	-3.554530580306262
id203	sample0	obj203	2.1184145351609005	-2.3226390315383347	-2.8538213643904946	-0.47147429953180886	-2.2033912369659205
id204	sample0	obj204	2.637073552551949	-3.906703322762565	-2.5226188095764632	-0.3440065053603294	-2.709250528731909
id205	sample0	obj205	2.0387556397358098	-2.8921601739233678	-2.4710128403537572	-0.2669397783865759	-2.832459630790948
id206	sample0	obj206	2.828866871781008	-2.0362011361660812	-1.7513173627941188	-1.651584610139449	-2.850236782896593
id207	sample0	obj207	2.40093771299461	-3.49181074644829	-2.865871325058983	-0.4458924976275933	-2.0607530024467335
id208	sample0	obj208	2.821799612725785	-2.9283825007280067	-3.8130685093119845	0.3032698650994716	-3.923325531378125
id209	sample0	obj209	3.321269134797574	-1.9164198651150024	-3.0955978783407794	-1.3769293842729797	-3.0014063722381357
id210	sample0	obj210	1.8585094286428299	-3.5410615570265875	-2.7194093697860033	-1.271762060400229	-2.8477727295189785
id211	sample0	obj211	2.061443897704712	-3.4068647623881287	-1.6715559855768884	-1.845163255309678	-3.0937060592604295
id212	sample0	obj212	1.6265477738948497	-3.710433188884755	-3.977479829529162	-0.2989364073615579	-2.2111386557926664
id213	sample0	obj213	2.701386814288818	-1.8669861463649664	-2.588666599253232	-1.9397289525975623	-3.456410423456207
id214	sample0	obj214	3.4162513144889104	-3.7732484117847447	-3.437546972523914	-1.8326667642429035	-3.1365693152218608
id215	sample0	obj215	2.7364911676880257	-3.1759906195269516	-3.4282261630665793	-1.213595411341726	-2.1367230272439013
id216	sample0	obj216	3.1135403712867378	-2.5095869494714633	-2.1317379198411635	-1.032793190880669	-3.1949614933561135
id217	sample0	obj217	2.1474655151641895	-2.9959745719478916	-1.7581951059238243	-1.2032077897602798	-2.3074813426102074
id218	sample0	obj218	3.5520331893104737	-2.1078137565009722	-3.2331073442535647	-0.8296277820783915	-3.900901606180792
id219	sample0	obj219	2.4371022341702826	-2.7343583386278554	-3.571411933300572	-0.6181413916365188	-2.844030595637136
id220	sample0	obj220	3.582460040780939	-2.3259624783902284	-3.093071869173101	0.3633400912456446	-2.4226778938674265
id221	sample0	obj221	3.0493720970383205	-3.206178531807619	-1.843592124010575	-1.3586032205758602	-1.9161585192930504
id222	sample0	obj222	1.4259544000220967	-1.7214459052911855	-3.369149995946506	-0.7269620606285245	-1.8530682379368566
id223	sample0	obj223	2.082345006608531	-3.251339669386458	-3.2593790716967512	-1.5912749105979795	-3.8593738571277028
id224	sample0	obj224	2.461391320233138	-2.143648329909663	-1.93385160120734	-0.5744914629359335	-2.929015388998322
id225	sample0	obj225	3.277528187522222	-2.0970845348542024	-3.9461199265080156	-1.6116461521698822	-2.8437168861161934
id226	sample0	obj226	2.1555383418146907	-3.231612050642064	-1.759469053214598	-0.571641241161678	-3.8547055879279544
id227	sample0	obj227	2.7143100849915576	-3.6160985765088074	-3.471445147208546	-1.9436445455955098	-2.9371960090119553
id228	sample0	obj228	2.578377370615292	-2.831686597620824	-2.102426139840228	0.13045129297106883	-3.473973386497664
id229	sample0	obj229	3.659288708003408	-2.215818765014225	-2.0021372250052414	-1.4750236329524324	-3.864852393333671
id230	sample0	obj230	1.4545493782451653	-3.047663887286558	-2.6647488628127003	-0.24782706341400962	-3.654361955748925
id231	sample0	obj231	3.4163593979846434	-1.9046755767038512	-2.7881805293681445	-0.799627223306044	-3.093359376870211
id232	sample0	obj232	2.785467388198178	-3.2585816887290564	-2.1891278321209295	-1.30554049769386	-3.386574204537017
id233	sample0	obj233	2.994529529814212	-3.71615075255539	-2.627289301359954	-1.5353047833969444	-3.4249699608942046
id234	sample0	obj234	3.3352387375433477	-3.2870306404732417	-2.5479478514763776	-1.8754013373573737	-3.369456224617312
id235	sample0	obj235	3.356521466503221	-2.5316917109969	-3.0816191306467116	0.1910923853281974	-3.86353252704051
id236	sample0	obj236	3.3071285355672657	-2.77345939270774	-3.4155674648301853	-0.19832241597080857	-2.1420610039317447
id237	sample0	obj237	2.1323191547572184	-2.428678384940251	-3.759770608754153	-1.3474544279322584	-2.1192005115191437
id238	sample0	obj238	2.745892305446284	-3.5096258932385136	-3.867036337682028	-1.8556148009460876	-2.3407464699388747
id239	sample0	obj239	2.3779079944593686	-2.7897957105370432	-2.7436038404060077	0.11279254067223898	-3.347368153709282
id240	sample0	obj240	1.3561738686922111	-2.4033769467870627	0.2603653483126087	-1.5222130907156208	-0.8704921898169438
id241	sample0	obj241	-1.647976242745439	0.9973534419363717	-0.5229097802369129	3.6613655614152343	0.2736316914170598
id242	sample0	obj242	-0.24113313588368623	3.8945740724733904	-1.3219923729406078	3.158209202597882	-0.17500855084669298
id243	sample0	obj243	2.384816005387868	-1.8141174944968896	1.081592022853752	-0.024788747466552352	0.40881549222074054
id244	sample0	obj244	2.7524550635819485	-1.3894369479705961	0.9796802490242509	0.3981375165129709	0.7182152744918142
id245	sample0	obj245	-1.5960632663656458	3.55809370282343	1.9173862895448806	-0.39437113602195206	1.8512845732355305
id246	sample0	obj246	0.16080207756982112	1.612732905259464	-1.4795225482796455	-1.5436293290356216	1.7012625709025488
id247	sample0	obj247	0.7717152166502255	-2.08643454104949	-0.6120917938987747	-0.3263554186120019	1.3101329741036094
id248	sample0	obj248	-0.8712690851737381	2.3328043140590706	1.173840740146326	-2.0458031348291725	0.4914901071629214
id249	sample0	obj249	0.6593624467243355	-0.7280061212978464	-0.18859925447571269	0.6058515454329674	0.401152617972355
id250	sample0	obj250	1.8637411130281727	3.6199125994467733	0.2697852884376315	-0.08584845023358079	2.844371617782649
id251	sample0	obj251	-0.8981978041377046	-2.3503059751612874	-0.9659064809324593	0.7363604326695641	2.280602622781643
id252	sample0	obj252	-1.324296487878096	2.3978860327508134	-1.6157996506570036	3.522479916252327	-3.7106456339387033
id253	sample0	obj253	-1.9197106567101676	2.0157095228876667	0.11944260294830977	1.701361033020362	1.1217388624429685
id254	sample0	obj254	-3.0846483009982335	-1.433946923779643	0.9150746371369021	-2.0155349604599317	-1.7929479565662085
id255	sample0	obj255	1.9229704794972515	-1.7144442350487974	2.170519750942356	0.08657866978633155	-0.18536519264978613
id256	sample0	obj256	1.5372531702334382	-0.8863572825908401	-3.2487781415628763	-1.0085405901779394	-0.053351780276312155
id257	sample0	obj257	3.2745103209856543	-1.5475165584380166	-1.1841629215957563	0.1916711780672904	-1.4105034106388208
id258	sample0	obj258	0.15628221719370916	2.404963194662515	0.8590946300557469	0.8678978604373928	1.260952432541909
id259	sample0	obj259	-2.7328660769475737	1.1629631969207286	-0.11535770769187081	1.628530270698256	2.0984364854321194
id260	sample0	obj260	-1.1427080697258352	1.2053895433551594	-0.5227330656724372	-0.9470917017622422	0.658390612128686
id261	sample0	obj261	0.13397484724609443	-1.6481344693740387	-0.04699777421790596	1.1511989877950088	-3.6270867032877434
id262	sample0	obj262	2.204257161294353	3.120294713695144	0.32181854699419377	1.0574762910294018	2.1366032301779945
id263	sample0	obj263	3.4606014784121033	-2.4043699713805227	-1.311567496458652	0.007734898954567138	-1.407084672393638
id264	sample0	obj264	1.8372066896765629	-1.34146880290919	1.745575971914588	1.016173759162489	-1.2586168059949352
id265	sample0	obj265	-3.6276788015534454	1.4423216471182938	-0.7176977187590771	1.0067623609574818	-1.8221358662559926
id266	sample0	obj266	2.491099442659097	-1.4559387692292147	2.3024701009655244	0.47408526843996834	-2.0272973955702858
id267	sample0	obj267	-2.8935575913933373	1.29123244997076	1.0825959594897914	0.6996688412836125	4.004031489295178
id268	sample0	obj268	0.9275383954035997	2.474140947545186	3.272137615197118	1.0987942453001704	-1.1454638564564184
id269	sample0	obj269	0.025961689056309245	-0.6726914809169511	2.6360354260838728	2.673425734675347	-1.6321325578024566
id270	sample0	obj270	-2.537231742210116	-2.4099932191971645	-3.4176580283763176	-0.5169527712158863	-2.83251049092213
id271	sample0	obj271	-1.4908631251605773	-2.024458057827405	1.764855925705539	3.4735920991523406	-1.936711798808665
id272	sample0	obj272	3.108788038052756	-1.3905494083544234	2.748716813299154	-0.8116706381682017	0.7356760681663213
id273	sample0	obj273	0.4165631349950816	0.6789158538453453	2.550426434418905	-1.1380365148008604	-3.6579010781168755
id274	sample0	obj274	0.5273609643006296	1.0525226977444149	2.387007055373279	-2.768666067926878	-3.0480775161767086
id275	sample0	obj275	1.0516543881217177	1.6527977669367384	1.4607606876554706	3.330990573781525	-0.3968876630806888
id276	sample0	obj276	2.8520964499144816	1.8848444808292333	-3.1779172480790234	-0.2180908010687066	3.052521547426191
id277	sample0	obj277	-2.1025169639299284	3.4186188439620677	-2.7681957138154827	-3.5198376514677268	1.2430117196512138
id278	sample0	obj278	-0.219664029776532	2.5471704659889847	-1.1094235855049688	1.2261221078410658	1.6726561290015916
id279	sample0	obj279	-1.3175526538451376	-4.007010354609993	-2.473821575884957	-1.536744117818246	0.827204089101282
id280	sample0	obj280	0.5474396354128757	0.2907330123963914	-2.845924062865545	-1.4571535640919118	-0.8484434523356801
id281	sample0	obj281	-0.7722506933644564	-1.1475667965946503	-2.322838494564029	2.4945426216343245	-0.4789113749995304
id282	sample0	obj282	-0.0021513211485106876	-2.53767199387995	0.685602020612244	1.436125534744731	-1.194464928860953
id283	sample0	obj283	2.5285916322663744	2.8202154275426756	-1.4887409350794383	1.6316397172449635	-1.7200252620534235
id284	sample0	obj284	1.4784070530597027	1.2197807091694874	-0.583929852161005	0.5063222550962603	3.404346460856951
id285	sample0	obj285	1.8394063265293674	1.8261354921437483	1.2125119650902205	1.632324456511138	-1.8254716845930856
id286	sample0	obj286	3.0595764354569805	-1.3132138152751343	-3.457233090085567	-0.3828454874077638	-1.2028589736899584
id287	sample0	obj287	0.9207620900520934	-0.8530699678514735	-4.039017489802648	1.5969850102940122	-1.2410984789533877
id288	sample0	obj288	-0.34275583256290887	-1.6741577015076619	-0.8346179055416625	-0.12655254677072092	-0.8213319112841003
id289	sample0	obj289	-0.5275267583494835	0.06033723760249177	0.9869219677974027	-3.7788479173352014	2.957722062078848
id290	sample0	obj290	-2.4504140195737714	-0.3626905204453603	-0.6191327981273267	1.4949908012550492	2.846807358320061
id291	sample0	obj291	-0.20044035393261517	1.7244774596919075	1.0104275782337562	-2.486511457341573	1.4365786362393895
id292	sample0	obj292	3.0427342239475594	0.31811636777224406	3.228925033703349	-0.6649987264389612	-3.162544037936568
id293	sample0	obj293	-1.4784377378951261	-2.5360614044124294	1.910623062773445	-0.9402634588683496	-1.4883513201025012
id294	sample0	obj294	-1.7453176816488045	0.08256964210791451	-1.1890808478981212	0.32829130398944706	-3.708684704013622
id295	sample0	obj295	-1.0479060986498365	0.09160764433853608	2.2216912178359634	-2.6936065966814544	-0.0038520971623328126
id296	sample0	obj296	3.762421738473879	-1.8424877696212516	1.805693961260692	0.26453064891920874	2.253800774312767
id297	sample0	obj297	1.0845930784735551	0.8273694360133852	-1.357575988658226	-1.4663900397650036	2.9911107889045248
id298	sample0	obj298	2.8329613557524356	1.991716294264272	0.3861110741956095	2.2367559573204803	3.2751452304761326
id299	sample0	obj299	-0.023783255961329797	0.06903701506494242	0.3196583516985344	0.5350475874284171	3.6939467366649783
id300	sample0	obj300	-0.9328888309799248	0.30470647563620556	2.708033266133034	1.0197882518978574	1.1656199893352106
id301	sample0	obj301	-3.02981123753006	-2.4409776297181756	-1.0466683560429175	1.8989801738974752	1.6034800363248365
id302	sample0	obj302	2.5808700881011406	-2.2901409694363544	-2.9534456503669926	-1.5421491937398837	-0.541606263657697
id303	sample0	obj303	2.0644208468630767	-2.1090391070446652	-1.5801094024661255	0.8755138265582121	0.6628740867257417
id304	sample0	obj304	0.4283867580087668	-0.2572183746443968	1.0482910529105638	1.6013092086580314	2.5374414171286443
id305	sample0	obj305	-2.1698155354854154	-1.2386746630831627	0.5825709508376818	-1.3665500980813277	1.1277552859067481
id306	sample0	obj306	3.142080060751274	1.5182267949666137	-0.24408025851169146	0.1421244991617978	-1.9693490416196413
id307	sample0	obj307	-0.136620743345369	3.328605917762167	1.3873752593513544	-1.7248584117279797	2.0958319261226066
id308	sample0	obj308	-1.1650976029001856	-2.7104582939339648	0.008058502555638003	-0.7682856395001705	-1.9176364776555221
id309	sample0	obj309	0.2879370101404932	4.017644097999144	2.865390070350644	-0.9139755696987266	3.214248754037584
id310	sample0	obj310	0.6609395614144857	0.6276857239576217	0.5332611759083459	2.9736277451691304	-3.1794640763440722
id311	sample0	obj311	-2.743002834887913	2.982883255085543	0.08087224768117163	0.6038532397913696	0.4848796195489664
id312	sample0	obj312	-3.4548609177558607	0.07614564046152938	2.153505103084842	0.9027002226749621	-0.8074723090739491
id313	sample0	obj313	-2.1874641951188942	-2.424191687204124	-3.0283193323071895	1.5684754986667946	2.1863151345395133
id314	sample0	obj314	-2.0150262054169192	2.609196826094558	-0.6838929192368641	-0.13472311680590154	-0.5901103881546741
id315	sample0	obj315	-1.8513213606603958	-1.6906901095847797	0.7558776999324648	1.1286758920997333	-0.6984022408332409
id316	sample0	obj316	-1.4989655290457446	0.6532050752715393	0.6537538634810516	-1.34000829841429	-1.4345609980975265
id317	sample0	obj317	0.7362565749660606	-1.5692745052104546	-1.2563613207738287	1.8219048496149441	-1.903855046356198
id318	sample0	obj318	2.707758307104837	-0.778254764975076	1.5095260041397072	-2.193621710608575	1.6368229594014496
id319	sample0	obj319	-3.749670807428906	2.0068396236173536	1.5902070873975438	0.2696813084618366	0.3331396192262184
id320	sample0	obj320	3.1061797605462376	2.388313330237508	-0.7536132950717144	-2.8382986985871366	-1.3854650827247028
id321	sample0	obj321	-0.39676217968028127	2.9055771185705837	-2.0019726697880036	-1.003167690206628	0.872164545371735
id322	sample0	obj322	-0.44335010797095276	-0.16611083161263163	-1.1009268489854973	1.4000274056209872	1.9606950232333162
id323	sample0	obj323	-0.058207770006877824	2.057485213714701	-1.7800127902710987	-3.1331313362917483	1.436009925739286
id324	sample0	obj324	1.2338671199163953	-1.480233865693674	1.9226885442825363	-1.4369039510123893	0.8732287262461893
id325	sample0	obj325	-3.3614301116139194	-3.710890007605599	-2.3799469238139896	3.535564135143999	-2.748099193564461
id326	sample0	obj326	2.247668123100822	-0.8271370076245821	0.2714202777759652	-1.6407933006711306	1.4818425078882962
id327	sample0	obj327	0.8980391296637795	1.3247118375682547	1.6248192011731926	-1.6509534895138998	2.0773653315656304
id328	sample0	obj328	2.354699691952801	1.3300252135929111	1.6433949858552621	-0.6209913585375892	-2.553453518183348
id329	sample0	obj329	3.0172953356790746	-1.604188461261012	-1.8976703284165413	-1.6114658860640065	0.604049021316952
id330	sample0	obj330	-0.7120552254890476	1.1285763497844463	1.1470889041590848	2.7184694046428834	-3.2464485228984685
id331	sample0	obj331	3.1538593038663914	-1.7706006915989263	-0.15802747267886774	-2.4653660132097426	2.147737121554077
id332	sample0	obj332	3.298973478604489	-1.0321547314947945	0.9805500226100723	-1.49157908024387	-3.3994954495957734
id333	sample0	obj333	2.280701163467847	0.8611533568850687	2.046511376841993	1.939437609514502	-0.9113586955887014
id334	sample0	obj334	-0.34617263150596145	-1.6279550864448087	-1.8271829415946248	2.7621487463992844	2.93285304832528
id335	sample0	obj335	0.829180360499642	0.8017987894615721	-2.894101556549388	-1.689594583037874	-1.9121143775865597
id336	sample0	obj336	1.8660065786484308	-0.6135512211803782	-0.5705506086788441	0.23900533510763244	1.9414895303188506
id337	sample0	obj337	1.5678852395711578	1.7411573722415494	0.28014341367528794	-0.5117042355962871	3.49556167212783
id338	sample0	obj338	1.4669148262691234	1.8759082926076722	1.479658448925829	2.4669047937425903	1.100766276952761
id339	sample0	obj339	-1.205445640236021	-0.13702930018670445	-0.3592966211658333	0.8621181630636506	1.5351013050061784
id340	sample0	obj340	0.8292312724085549	-0.379369202667988	1.3241681713796256	0.8461098221663829	-2.3754151854068537
id341	sample0	obj341	2.7566317429417166	0.6408368023843656	0.03602734483723791	2.6755039423294225	-0.49154485384303137
id342	sample0	obj342	-2.3238355931733334	0.6394809374751469	3.232508226541002	0.8672825230655445	3.4377489677835573
id343	sample0	obj343	1.094611045603352	1.9703181953799904	0.2586171299147526	-0.2323402781749393	-1.4037008990439352
id344	sample0	obj344	1.9693127914278523	3.2120759370883976	-0.3886564180520441	2.9312602871266975	-3.2923299716566254
id345	sample0	obj345	0.3292352421644733	-1.5436459716325712	-3.315692197030902	1.8970762598045086	-2.351998887056963
id346	sample0	obj346	-1.4973442310545328	2.1797203040692232	-0.8243688322137948	0.04729600958254898	-2.6154757183707975
id347	sample0	obj347	-1.1804925463780478	-2.656938272419114	1.789196650753283	3.2652074842945407	-0.427280715192798
id348	sample0	obj348	-3.770654355988932	2.1901969136653747	1.262715897964687	1.3093130445268537	-1.7102485238568723
id349	sample0	obj349	-3.052894802555625	3.4379989958045867	2.0596759783626286	1.748769852673114	1.60630367982183
id350	sample0	obj350	-0.5532890604324263	2.7463065908033464	1.9500073488605671	-1.4437912603567673	1.3202791753523138
id351	sample0	obj351	-2.5782434351311814	-0.7401558372987418	-1.9257063079467713	0.3169918969733434	-0.36586743704670566
id352	sample0	obj352	-2.174001841808803	2.445205049251928	-1.8918849061370222	-1.6054882236422385	2.1910352037261323
id353	sample0	obj353	-1.50812499144231	-1.6362345480276326	-1.7061952321393183	-0.7599821973870944	1.1003262734201478
id354	sample0	obj354	-2.4600857305555235	0.6201900287796749	-0.7526562900677696	-0.11831514094700601	1.6554600660761376
id355	sample0	obj355	-2.0941785625598057	-3.249023252251879	-3.4375138503017277	1.0765494065696575	-2.2473843157103426
id356	sample0	obj356	1.680193102739151	3.254342811305281	3.1190284124968928	-0.17137663280505233	-1.4511449546915138
id357	sample0	obj357	-1.7902127366971434	0.4084521364052536	0.5080748533014725	-2.430717054829608	0.22432520305649817
id358	sample0	obj358	-0.06927773150080774	2.1131630449243	-0.9343668615921636	1.2952931763067759	0.8355148511912358
id359	sample0	obj359	1.3814064232080754	0.010984783078345384	2.3377718971163954	0.3964049355679651	-2.590600049957044
id360	sample1	obj0	-0.9759033839000992	2.6158954505865024	-1.4282640829829214	1.6030173986657943	0.3304891779785655
id361	sample1	obj1	-0.04064503515542306	2.867773550699501	-1.0393196401028573	2.191624937405217	0.6424958230933411
id362	sample1	obj2	-1.8728599976621525	2.889616308320954	0.1547581746556863	1.3890639736062373	-1.3348941515454995
id363	sample1	obj3	-0.556219216833097	1.7690485935670643	0.37798895660391696	0.941979163090924	-0.7279623466067372
id364	sample1	obj4	-1.3753813812286255	3.7401276179409724	0.1555634776325323	2.4986650325552264	-0.05542704741553672
id365	sample1	obj5	-0.9319126158275373	2.7239016564019005	-0.04465584105094167	1.1060034306053388	-0.9554788562467982
id366	sample1	obj6	-1.728814095138174	3.609623768989362	-1.6450203716581826	1.7863287234231733	0.5945621103477718
id367	sample1	obj7	-1.7038861699929473	3.155981517228783	0.019614215432800952	2.4738783499936203	0.5725880042251179
id368	sample1	obj8	-1.8667959257677782	2.8893938608141623	-0.8414238369524618	2.2968029840151836	0.28941273700076
id369	sample1	obj9	-1.3034307992301875	3.2089038641138763	-1.4152798871934915	2.357892033714843	-1.1326423707249678
id370	sample1	obj10	-0.5313794691039468	3.650999949361509	0.20382868691206713	2.072679479983198	-1.1636568863285592
id371	sample1	obj11	-1.8283524218824059	1.8917590756391902	-0.8963526132328274	1.9558719447189572	-0.024561807774131195
id372	sample1	obj12	-1.2155751305397622	2.8394397772779207	-1.2934369374879156	0.6250323911795919	0.17827874250465436
id373	sample1	obj13	-1.4223533711718104	2.24744067840526	-1.6399919074060967	1.0630051533762508	-0.0368684432140598
id374	sample1	obj14	-0.5889067396808334	2.9742527939934322	-1.1233067542455828	2.0239135629709066	-0.2225026753209982
id375	sample1	obj15	-1.5113385889228919	3.4577677030873506	-1.8017721666005801	2.2256304478891336	-0.9103955697500397
id376	sample1	obj16	-1.7010912825189202	2.413485746129722	-1.2215632146365545	2.3606077531183534	-0.7682835607999382
id377	sample1	obj17	-1.882171799702158	2.8977596861104953	-1.7903076684456716	1.3642430551604072	-0.7946420978521812
id378	sample1	obj18	-1.022375677811053	3.691937929041666	0.27325105372738734	1.0842925203210858	0.49919901618293583
id379	sample1	obj19	-0.7161613195541925	2.9619401761758977	-0.5595031325552768	2.0385730718841257	-0.37657618329451736
id380	sample1	obj20	-1.0481478105689241	1.6827418345135368	0.28222288592373723	1.121180453008575	-0.7364618071013747
id381	sample1	obj21	-0.22132486969831744	2.1283140725540433	0.14123905416034188	0.8970239374742627	-1.0771591177018824
id382	sample1	obj22	-0.3993888239780472	2.942100482851366	-0.4392402570306304	1.6754880676330304	-0.6352157831311829
id383	sample1	obj23	-1.4670508063054972	2.435958301026427	-1.4041992364539015	1.0288231402521757	0.6802771190793553
id384	sample1	obj24	-0.34711598554773926	3.118992616803364	-1.3867090675534564	0.7592758472266156	-1.325768500523883
id385	sample1	obj25	-0.432508592636772	3.1217087538474364	0.3423736510100348	1.8483529850844904	-0.13858645991917973
id386	sample1	obj26	-1.2116219342377716	3.232751438727386	-0.30946578278873904	0.5568004720109062	0.14252997735778883
id387	sample1	obj27	-1.815316533809485	3.170021027461873	-0.19766924158910104	1.087222689589658	-0.4564500292676458
id388	sample1	obj28	-0.034971934582490816	2.317515897357178	0.10172358472787679	0.7626118155520321	0.8781266217689525
id389	sample1	obj29	-1.1071326963560613	3.7136758306161486	-1.190112668678489	2.190737767773176	-0.8442638593874305
id390	sample1	obj30	-0.6978776638148725	3.403646749281104	-1.060959089703208	1.841222039310687	0.6153887239164797
id391	sample1	obj31	-0.8279895364039132	2.1815934006911193	-1.6121603213331266	2.5115147063645664	-0.8874241479736458
id392	sample1	obj32	0.3502779997974954	1.6522946997915022	0.3513353888890147	1.7397675735678297	0.8091023230620948
id393	sample1	obj33	-1.2213503917474609	3.8236158589198146	-0.6579868108490794	1.764084527175801	-1.4173049342369743
id394	sample1	obj34	-1.843164694398333	2.0804002546903093	-0.6809398393705879	2.343678890567683	0.8443846660227263
id395	sample1	obj35	0.05297896045326511	3.5507088296947797	-0.15060402692272334	0.2504217357560319	-0.8272903858936794
id396	sample1	obj36	-1.9124169807575382	3.7094998891278452	-0.32780206753125585	1.898966468849211	-0.7216082252365563
id397	sample1	obj37	-1.369207132712882	2.312629352886633	0.19227658283583682	1.9874281719785836	-0.47763005194484953
id398	sample1	obj38	-0.7069273631114243	2.342805647528246	-1.1422074958870496	2.333324716814703	-0.3674525096150876
id399	sample1	obj39	-1.1221628894715705	2.293698549276831	-1.456950360364976	2.263496547730447	-1.0035928532613982
id400	sample1	obj40	-0.9898784280793771	2.321120158093103	-0.2964545676325825	1.8918501203068703	-0.3686374300088475
id401	sample1	obj41	-0.5460341806185083	3.6409134197363953	0.03169548494486629	2.322371510233584	0.4234444173992
id402	sample1	obj42	-1.6335504130366492	2.1292424854191014	-1.4612175201987991	1.761763035701755	-1.263742239590661
id403	sample1	obj43	-1.520654701653438	2.247224200166314	-1.3697146662221193	1.41861873061335	-1.4278141650474765
id404	sample1	obj44	0.11660962493575089	3.8071888708788713	-0.237281695119405	0.6994029021616591	0.23053094337021185
id405	sample1	obj45	0.37405024190064906	2.682479813202379	-1.019507400546839	1.969908847837772	-1.1068747859803796
id406	sample1	obj46	-0.19740474142747066	3.6117717419552235	-0.47199450405617793	1.84821567816211	-1.4079255357330631
id407	sample1	obj47	0.322415910586175	3.538112408053891	-0.31579243713169936	1.7663342995460332	0.642228040293275
id408	sample1	obj48	-0.6190183009428982	2.867121915002901	-0.1437296520599387	0.6540249850363629	-0.4280671204129298
id409	sample1	obj49	-1.629290920061129	3.63315173194011	-1.6617231339781484	0.30747385648055414	-1.2831281686210179
id410	sample1	obj50	-0.3511992589731565	3.5294774687642203	-1.654421617973577	0.6320614444703619	-0.9068216438041983
id411	sample1	obj51	-1.6119304812559065	2.7362551634318395	-0.08643277044662856	1.5807176641385672	0.833644318998046
id412	sample1	obj52	-1.0819094672138294	3.698778288364359	-0.4271061025489691	0.7392498911058357	0.23293094020748617
id413	sample1	obj53	-0.8538625190252607	2.156238193002008	0.2414586778536052	1.642999844530111	0.20778551164783776
id414	sample1	obj54	0.07937592778163238	3.243807509585076	-0.05331054723795048	0.22882137575546135	-0.9862990845339341
id415	sample1	obj55	0.19354869551439902	2.5220268834603994	-1.362991071314371	0.4037747848429307	0.6350734362199251
id416	sample1	obj56	-0.01375478931838714	2.348276714074631	-0.32614749174154256	1.5056907566042919	-0.9659357979367562
id417	sample1	obj57	-1.920361012441347	3.0041468971397176	0.21745684508305563	0.28696911695261695	-1.1561093156792774
id418	sample1	obj58	0.05064608947955351	1.825877026441762	-1.379253625558355	0.5052309056395523	-0.8474860029413831
id419	sample1	obj59	-0.29434728504003527	2.1363186917049175	-1.4966544510586568	1.2738381176806426	-1.2425140438843159
id420	sample1	obj60	-0.2903797935435275	3.8171622521228805	-0.643120595408812	0.32041998326795973	-1.115575126190497
id421	sample1	obj61	-0.15965383174568237	2.34807206368576	-1.7143610536925993	0.8184988888987511	-1.3599610328593774
id422	sample1	obj62	-0.8297131518916006	2.2209741571483983	-1.646773398401394	0.17968021874615392	-1.0068397832325044
id423	sample1	obj63	-1.9295314398897847	2.846636001456135	-0.2867005756136882	2.2927567449857214	0.008731561247552477
id424	sample1	obj64	-0.23901885458016214	1.527963498312941	-0.8341555024959955	0.830072437511319	-0.8475540447549689
id425	sample1	obj65	-1.334802019644262	2.9887059458861724	-0.4981114370592381	0.5566844195386786	-0.12238009805704331
id426	sample1	obj66	-1.8874540112355376	1.8136044303703232	-0.9309880637740358	2.5078517229751864	0.1282296528512028
id427	sample1	obj67	-1.3827968968325015	3.5600310708149436	-1.1151543221132436	1.5662581851558934	0.5576984175584894
id428	sample1	obj68	0.2648703508157413	3.712943122504477	-0.18927549304131164	0.18073628222955662	-0.12566458131547997
id429	sample1	obj69	-1.1184044938373758	1.633111389231432	-0.37480629225147566	1.4191980415695957	-0.9288621863708592
id430	sample1	obj70	-0.7601391036750429	2.6391660982903824	-0.4530370989904271	1.8235825728902135	0.8573204865457071
id431	sample1	obj71	-0.4323693407785001	1.9006350250897885	-0.12348524781525905	0.5050034863875115	-1.1537245141520915
id432	sample1	obj72	-1.7568738796856318	1.922916538426919	-1.030249487456381	1.1415055920007542	-0.17796777790567853
id433	sample1	obj73	-0.8533898903478714	3.1846322389460924	-1.0718679119212442	1.2650192854660485	0.5435281283222593
id434	sample1	obj74	-0.9862006325502234	2.8713275872595014	-0.8187577586557127	1.9605409001356544	-0.16910273787425623
id435	sample1	obj75	-1.4029273839976084	2.219093756428163	-0.24934331128951648	0.97439490044721	0.2935556506329118
id436	sample1	obj76	-1.1265451776335644	3.0269714310600575	-0.1586674168504867	1.6883966263835852	-0.09467434209141667
id437	sample1	obj77	0.17689457512825002	3.4175477074117326	-1.0617205944315815	1.4387076468536029	-0.5980566265555672
id438	sample1	obj78	-0.5995097796405906	2.0377801672296236	0.3776476432986067	1.2517224510347003	-0.8437891480126202
id439	sample1	obj79	0.04102291869948815	2.0822620201122723	0.24756722467203995	2.3267171161306255	0.3606429872319077
id440	sample1	obj80	-0.2887785322876908	1.040172679963428	3.7561816918925075	2.490560029881475	1.668081291330615
id441	sample1	obj81	-1.3140838326667894	0.09980875947348178	2.1202119171165545	3.219943179859284	0.9360266479967645
id442	sample1	obj82	0.07642398797484051	0.03831538601263673	2.045425297619984	2.523615657576218	1.061924025646359
id443	sample1	obj83	0.41664470502126494	1.3545077844818871	3.551237920052447	2.3263469629979476	2.1776683806363426
id444	sample1	obj84	-1.0912787491866056	1.034485054068461	1.8739363465004533	2.7514524457682854	1.02589129302745
id445	sample1	obj85	-0.8276314841554795	0.17667597093383502	3.9456175367662567	1.6509765959312714	2.820799430552888
id446	sample1	obj86	-1.427887594530843	0.37764031981585755	2.421347974141791	2.590705597440633	1.3986357233812248
id447	sample1	obj87	-1.529443547848035	1.1556339894843364	2.5415808306638885	3.5991391686755145	1.366449832307906
id448	sample1	obj88	0.25430794032284054	-0.4178360779737844	3.09805636468377	3.1823742027728947	2.0415860145038733
id449	sample1	obj89	0.19425750291960076	-0.451879693982422	3.4094170063048486	2.4842180061287413	2.2118326250641074
id450	sample1	obj90	0.4699489665392955	1.1545091091730797	2.1809954692615365	3.5912026935344583	3.28154934646952
id451	sample1	obj91	-0.741602517283654	0.08289598055203184	2.9209321713806844	3.281163895533059	2.9410394532244366
id452	sample1	obj92	-1.7279993247690608	0.4241934186637206	2.4653063380245688	1.9177904939639245	1.8755432973377568
id453	sample1	obj93	-0.005886832593951397	-0.1949975672667814	3.1118484054832813	3.239828349842985	2.94991772625984
id454	sample1	obj94	0.21301210077914212	1.150705783185458	1.9211376032066636	1.5222648424187883	2.5489219799293914
id455	sample1	obj95	-1.708535417793305	1.0537419961910928	1.8495672822728753	2.8251871597933214	1.3921509550971007
id456	sample1	obj96	0.21351309515215888	1.0513139373900282	2.750881831559992	3.2089300980009927	2.7356354405968224
id457	sample1	obj97	-0.20648965224960492	0.5240466107947443	3.631337552498283	3.0839579607606606	1.4650574216487455
id458	sample1	obj98	0.5734614900362895	1.1581468081064081	2.2636200281381837	3.4705019188361	2.91200253502472
id459	sample1	obj99	-0.7805433196388547	0.10828149061861192	2.440146009992984	1.6436420151353703	1.3057849963632377
id460	sample1	obj100	0.4899978155459668	-0.5159804558346939	3.348390105379144	1.9991279962356612	2.5177241466892144
id461	sample1	obj101	-1.5905665651095338	1.2741222511925374	3.437994470804475	2.346114106892557	1.7584252018983921
id462	sample1	obj102	-0.05289256702332712	-0.3774379694943466	1.6677398536343022	1.5549922051881115	2.4352052495830296
id463	sample1	obj103	-1.0267055107212257	-0.8322601713888316	3.803570303792405	1.4889782136653185	1.8374127685367203
id464	sample1	obj104	-1.47986482632576	1.0293076389099187	2.207868072219851	3.1418909366618775	2.1505996285371856
id465	sample1	obj105	-0.10931634486639386	0.6401200293784057	3.9236602340931395	3.5940013211884505	2.2524196553820603
id466	sample1	obj106	-1.509559950853904	1.4264893332771937	3.1115006172899125	1.6727651265018393	1.8473332630075179
id467	sample1	obj107	-1.350548055184098	-0.822061494326753	2.0250026347383123	3.5430290839612493	1.4747988976599886
id468	sample1	obj108	-1.507178184854586	0.24538765929171857	3.7844937692720793	3.1167659421316856	3.185207497457287
id469	sample1	obj109	-0.2756464653413544	-0.3209941817553702	3.785615824893653	3.4178839193080766	1.1154742789773056
id470	sample1	obj110	0.5206957398693157	1.2661660168208309	3.106998580281795	3.1030237642076774	2.59552669310723
id471	sample1	obj111	-0.412206174992495	-0.45410864976012766	3.0919841912560457	2.651837427468231	1.049017554302665
id472	sample1	obj112	-1.7086664465491619	0.6362238460302194	2.5948660649309243	3.514886301412452	1.9750371533671383
id473	sample1	obj113	-0.19798396455526435	-0.260806872298741	2.9662371599888013	1.5721372668518847	2.8615141920156706
id474	sample1	obj114	-0.13310100747759823	0.8327820804960993	1.5830264591549457	2.5678975206155137	1.4565498867023474
id475	sample1	obj115	-1.4995914510130086	0.8114164913813517	3.7912259945645737	2.9680902872250003	2.9583294128781477
id476	sample1	obj116	0.23416925694292368	-0.8502740114581093	2.577472257976941	3.5571003591146866	2.2986306955055373
id477	sample1	obj117	-0.9621668149369343	-0.7671603832391456	2.4245957894313226	1.8950658925020898	1.0206330780793806
id478	sample1	obj118	-1.1697320276563903	0.5807896978472571	3.2673558597386663	2.3839500702601026	2.4056926180719342
id479	sample1	obj119	-1.5788673593505291	1.1378894864583742	3.456007568341783	2.7793488617157043	2.4425052088022623
id480	sample1	obj120	-0.6294280538680987	-0.05061277518978491	1.631558668991241	3.3122415499335416	1.3955352230624287
id481	sample1	obj121	-1.6295090550637001	0.8988782783789433	2.902544154476115	2.5142604887773703	2.7196597241865783
id482	sample1	obj122	-0.23431788042367296	0.947537703149341	2.6140859750544303	2.1220733678580235	2.3213021106461253
id483	sample1	obj123	-0.09351996510119864	-0.5085188006917183	3.4970535927115662	3.768792502267563	1.8771090474438954
id484	sample1	obj124	-1.2613658621009614	0.8923286192007687	3.6526750906226635	2.6173108831102434	1.8320462300057065
id485	sample1	obj125	-0.9943717300330702	1.4048157172216664	3.295154023051938	1.5047245063812387	1.4685244066963024
id486	sample1	obj126	-0.6826414257029421	1.1733008272455223	1.9254626391788818	2.196639259818518	1.4416709746297447
id487	sample1	obj127	-1.3455789079105396	-0.24672322648419331	3.867938035839482	2.7365209929848677	1.829777624574794
id488	sample1	obj128	-0.593384456012322	0.5446943750546838	2.0104972440269457	1.4635135691783001	1.077821986601035
id489	sample1	obj129	-1.1537653282002338	-0.04661804089006649	3.3453009330493066	1.6521648094552448	1.3493720620501466
id490	sample1	obj130	-1.442628483564744	0.5649446511199399	1.5931320501630046	3.47660453925334	2.9692322064259304
id491	sample1	obj131	-1.5845648691963545	0.6495941624088439	2.7827030716994092	1.6847615656611559	2.744472975956069
id492	sample1	obj132	-1.442587221550353	1.4312371980893224	2.4041622973210552	2.53752651776536	1.1910950491926773
id493	sample1	obj133	-0.3882540851514955	0.6521822504898951	3.4103260102432467	3.16321120853775	1.1511059868310225
id494	sample1	obj134	-0.2369073242254789	-0.06414603684431097	2.1332164000912286	3.2265659418182793	2.1313323712138263
id495	sample1	obj135	-0.8046740782425914	-0.42872423024517503	1.838425677249894	1.8288369183392401	2.78943743297017
id496	sample1	obj136	-0.4430462646859681	0.8796389982988839	3.164249038897334	2.3432217523866794	1.4804671740516273
id497	sample1	obj137	0.08534766469092303	0.7273621099724275	1.5825305418707882	3.738453851727722	2.292393204965287
id498	sample1	obj138	-0.04418978034893928	-0.7384962269275765	2.6573326377354056	3.5294625867388847	3.0626541425762666
id499	sample1	obj139	0.4222068761820792	1.3895692517336424	1.9369759980444623	2.2829554721871936	1.8882165026945958
id500	sample1	obj140	-0.5912808061172128	1.321486827521164	3.3532838513934724	3.049700551986007	1.5152664192832717
id501	sample1	obj141	-1.716308925842182	0.6756415775241278	2.194737678129426	2.48299757127193	2.4622582280613834
id502	sample1	obj142	-1.6625253398880016	0.9878324235605218	2.3079278347695693	2.8496350142535296	0.9752404331867122
id503	sample1	obj143	-1.1700262020716932	0.37257196499801726	3.835866055965095	2.6828328977242704	2.9260059256073934
id504	sample1	obj144	-0.09759413443076514	-0.7576871738016036	2.493534857700192	2.4276278701708667	3.071334955146459
id505	sample1	obj145	-0.7151883420678473	-0.7319517285165398	3.861137842502334	2.663335038505046	1.7132118341403029
id506	sample1	obj146	-0.590166974786154	0.42922510293111094	2.046477658996297	3.099224150024469	2.7461332548301733
id507	sample1	obj147	-1.011777296367426	0.062492582594756874	3.6067106115409455	3.4224136213260694	2.587521827752403
id508	sample1	obj148	-0.5868103025514619	-0.7651580824297401	3.123148075785477	1.5703906315895855	0.933917689557342
id509	sample1	obj149	-1.2368218764651027	-0.04581994615904883	2.7278749338892645	3.1844561290982094	2.131492090255637
id510	sample1	obj150	-0.29644747036800156	1.1865185749192337	2.3240316275890454	2.758510924672617	2.951479691425405
id511	sample1	obj151	0.5698422943360211	0.39112018386757197	3.2992150470643096	2.6061021707888177	1.9945592113758444
id512	sample1	obj152	-0.7474982315650296	-0.1481598664998942	2.908193625253463	2.9661418535630846	1.313655246523728
id513	sample1	obj153	-0.18533859584205037	1.2538893798981896	2.130298920360536	2.5473922814833143	3.1750121476127804
id514	sample1	obj154	-1.154712046129688	-0.44913717022254374	2.706326887135928	1.689711342654011	1.5104392324251137
id515	sample1	obj155	-1.4140281014988956	1.3743289393798326	3.128538993880561	1.5632010745476776	2.2051908792074757
id516	sample1	obj156	-0.45640583129687773	-0.6648605756468033	1.8885661006339205	2.5019224815305146	2.8316749291503474
id517	sample1	obj157	-0.5905191299406014	-0.458276186461684	3.4152714042573566	1.9040807755826563	1.6501792843796348
id518	sample1	obj158	-0.8680643583264597	1.2933340484182125	2.0790236881109276	1.5403821605594963	2.012659660951833
id519	sample1	obj159	-1.4956706174599985	1.3603386329780929	2.1089577993985045	3.398967936110748	0.9704346234438983
id520	sample1	obj160	3.129807265113258	-3.8081188716723435	-3.9645909997597037	-1.2646094074966727	-2.806325996824327
id521	sample1	obj161	2.728425220062754	-1.5693436822432274	-1.9485147889143277	-1.712610527542699	-4.147277355119584
id522	sample1	obj162	2.991965514817689	-3.7966439437077417	-2.091590533090164	-1.4605488589613822	-1.8899828185110377
id523	sample1	obj163	2.46473109221008	-3.1168387457124833	-3.3097100715260006	-0.441348781153043	-3.8072610208580127
id524	sample1	obj164	1.777119137953398	-2.4723834895496077	-3.5178631411863863	-0.07659797998147333	-3.6610252548754754
id525	sample1	obj165	1.9455777239856276	-1.5666044142603746	-2.296844125158544	-0.35466936972525964	-3.5898623760942274
id526	sample1	obj166	2.5834088742565307	-2.878625685311177	-3.3661818756972677	-0.46858087311640695	-2.1716768810851663
id527	sample1	obj167	2.317679493496671	-3.1748782421592248	-2.82308746831555	-0.666753698754065	-2.2376297619620233
id528	sample1	obj168	1.560637103791535	-3.4415566991822106	-2.181278251662623	-1.348021413976757	-3.987516059464812
id529	sample1	obj169	3.24961072099299	-3.177491668421879	-3.2934284164685277	-0.7975865234735477	-3.607255410879298
id530	sample1	obj170	2.7810098251344377	-2.392293179202418	-1.9956272932946864	-1.4482859437781759	-2.8077133944541615
id531	sample1	obj171	1.5428012673941747	-2.4354458518129105	-2.8129983653436446	-1.3091565335382216	-3.7945420258688762
id532	sample1	obj172	2.9043455519423103	-3.935957828450106	-2.266451606430227	-1.7910532019326857	-2.9575266792423673
id533	sample1	obj173	2.2488036709014696	-2.069339402256521	-3.687819988042823	-0.14961390829911214	-1.9639629658047417
id534	sample1	obj174	1.3150693878381665	-2.111768575479404	-2.3632664236113943	-0.3443471390563846	-3.1952646496897916
id535	sample1	obj175	1.9244463370086535	-1.8254470687245512	-3.5742531008722755	-0.2766978112667573	-3.333231527639218
id536	sample1	obj176	2.7606562714764538	-1.8920171147469624	-3.2954438223285845	-1.329773461242044	-3.8485884138007918
id537	sample1	obj177	2.9963337717990193	-2.4326530171327634	-3.2560690637167475	-0.9106540541535009	-2.7484496060850905
id538	sample1	obj178	3.4485298891162968	-1.8967187516286461	-3.2044280580803406	-0.9280089519895713	-2.492674374803178
id539	sample1	obj179	2.5209972203258455	-1.950848924698158	-2.475740127381423	-1.2707682758031262	-1.8955645099166405
id540	sample1	obj180	1.6607676086544656	-3.5546225752012126	-3.6053942653215656	-0.24799650319840638	-1.8054194977469995
id541	sample1	obj181	2.3168433850328833	-2.6778140130008237	-3.7191874828696263	-1.0785476342718618	-4.029016553523003
id542	sample1	obj182	1.4233062100762865	-2.0201760667048188	-2.4482950698650607	-1.5667069084096745	-3.8825262012479844
id543	sample1	obj183	2.5088922567935366	-2.9729990875950465	-2.7508869721664837	-1.9644886938518507	-2.358618342106754
id544	sample1	obj184	3.4186861341916392	-3.4599455525182243	-1.7783985170895849	-1.0127338562988935	-2.567959236550836
id545	sample1	obj185	2.967138995269649	-2.9730446542163436	-2.2188882060865005	0.2057232677393832	-3.92086166844543
id546	sample1	obj186	2.75871634112044	-3.0508997797655373	-2.911575958996117	-0.85839464348974	-3.652924972771909
id547	sample1	obj187	2.1342184591318523	-3.015267373978624	-3.196959235163247	-1.0341677334978523	-1.8710043233489475
id548	sample1	obj188	2.4357851588825623	-1.7868695820287945	-2.1997548446677673	-1.0014165468160554	-3.719177673544412
id549	sample1	obj189	1.527895554652378	-3.451757441787546	-1.9037246840725277	0.19579080914090308	-3.2674463544096803
id550	sample1	obj190	1.8488866418214802	-2.768403935966739	-3.647107793195431	-0.858692978566094	-1.950115816010492
id551	sample1	obj191	3.1687466100506585	-2.0281342345130535	-2.6363220337747317	-0.2218643502708013	-2.180059704787344
id552	sample1	obj192	2.152775339123605	-3.4551480391325526	-2.047705144612265	-0.16100232605040588	-3.805785434774874
id553	sample1	obj193	3.123242250550507	-2.117414214209819	-3.5787562296191826	-1.8175091305248192	-4.139293735104008
id554	sample1	obj194	3.50600656894897	-3.7887757981696124	-1.9505157789420984	-0.4289863076669058	-1.8555662051416728
id555	sample1	obj195	3.6672857028423334	-3.0408519059976866	-1.9927900836728412	-1.007177636527996	-3.15303343702777
id556	sample1	obj196	3.19596247976146	-2.7484150875517233	-3.617794679826903	-1.427092666427571	-3.2849694265935288
id557	sample1	obj197	2.865103384994978	-3.274020047738861	-1.7718633419507117	0.36316153328811507	-2.75334383867532
id558	sample1	obj198	1.2963083600542455	-1.7794105738203292	-4.028054938732083	-1.833591665763939	-3.6406361724532257
id559	sample1	obj199	1.6232298283267195	-2.127802305653044	-3.036189877635319	0.3336091281360034	-1.7953918205778268
id560	sample1	obj200	3.564667471822551	-2.2401751551257245	-1.6849761341763954	-0.33118444695166604	-3.85027822802139
id561	sample1	obj201	1.7191707450407585	-3.5103769749616607	-3.1698385689267736	-1.140474317296846	-3.615990121027224
id562	sample1	obj202	1.315645953027483	-2.7407870692767062	-3.3287577879808805	-0.31412430402376934	-2.851960734850933
id563	sample1	obj203	3.5191742673700466	-3.4176778085750525	-2.248260169272351	-0.6970938211055269	-4.069367510154663
id564	sample1	obj204	3.4066833473816107	-3.8008961191735966	-3.006583000392639	-0.4241815256881203	-2.489783442860034
id565	sample1	obj205	2.689381563421263	-3.266222567346693	-3.1773776968551886	-1.1939672541912807	-1.8929227593373532
id566	sample1	obj206	2.651548611153162	-2.0334093239687157	-2.544014041844743	-0.16918619907747479	-2.6806709219757767
id567	sample1	obj207	3.1694742312011064	-3.6736086084640713	-4.063015385993858	-0.786408497681435	-3.4158781758272956
id568	sample1	obj208	2.728644120903363	-2.4643307665431884	-2.4692965925841843	-1.7442909946178082	-2.4296413363854716
id569	sample1	obj209	3.4177773579718354	-2.6083778820722023	-2.1520965136442696	0.03053376169072508	-2.8089037089487214
id570	sample1	obj210	2.378624410265825	-3.628039375127382	-3.477706978546682	-1.8675016255687662	-2.468577279262666
id571	sample1	obj211	2.4516225617116363	-3.1723630707663157	-2.734696872730114	-0.5009438873190857	-4.082939076540775
id572	sample1	obj212	2.58818127550387	-3.7311917997810684	-2.9832326108064633	-0.15742918936595807	-2.5161796804894054
id573	sample1	obj213	1.896618589612293	-1.645030730765	-3.0686977025905344	-1.1508337435361788	-2.2805981144585568
id574	sample1	obj214	2.334188002530202	-3.8573459730108617	-3.59003114837834	-0.12262473484391045	-2.8044415342346594
id575	sample1	obj215	2.123320137947879	-3.010744617401661	-3.8864367159264877	-1.8766031868873865	-3.563694758224051
id576	sample1	obj216	1.714742116430653	-2.688305687679205	-2.4262718887493357	-1.198262481605807	-2.789635008293857
id577	sample1	obj217	1.3896303379587367	-3.8062782518882554	-3.7654133092266084	-0.702677498952823	-3.5855876582453594
id578	sample1	obj218	2.720988081668474	-2.5470942364297127	-3.818117145728942	-1.0573448604874256	-2.263460674874442
id579	sample1	obj219	1.9221153546244554	-3.567311570096838	-2.592759961276009	0.11362903335307828	-3.8471951512682567
id580	sample1	obj220	2.7059450097826563	-1.9213695051046058	-2.341759875132249	-1.0400079445218693	-3.40266543456166
id581	sample1	obj221	3.65925373765928	-2.819054511952589	-3.525847570983219	-0.2814229450475463	-2.6706903120878733
id582	sample1	obj222	1.7839096615331043	-3.005001444009397	-2.8765875432264383	-1.185913581615841	-3.4430896826902173
id583	sample1	obj223	1.744486436748919	-3.8475436524305398	-2.2490495276757145	-1.5642025411484612	-2.985040403388985
id584	sample1	obj224	1.7463469983480897	-2.999436721979521	-3.692700785205293	-1.8211185078607346	-2.2367637958939492
id585	sample1	obj225	1.7967781063030168	-3.204567814663285	-2.3493450335296933	-1.9665517781680018	-3.7027119857097506
id586	sample1	obj226	2.2075256451341616	-2.545383825822291	-3.0411700093257354	0.057780431382812525	-2.1483263288922947
id587	sample1	obj227	3.5012422945765573	-3.2405812736257644	-1.8810987546822007	-0.36314265305663085	-1.8770201696941242
id588	sample1	obj228	3.5954985443603285	-1.7092562830137161	-2.3755703828604537	-0.756978211514677	-3.1696961776301915
id589	sample1	obj229	1.35222927589679	-3.5263726385152316	-1.8630092978700514	-0.390131519370593	-3.464754448496625
id590	sample1	obj230	1.4813732788171763	-3.427719282606331	-3.8184913686826487	-1.6820352958926845	-2.579584544518414
id591	sample1	obj231	1.8461167737488227	-1.8156615266540233	-3.747877227056848	-0.7257974181095959	-2.9788720714800725
id592	sample1	obj232	3.392160193675548	-2.217590240682086	-3.796873204581602	0.13526791524097903	-3.147090670848846
id593	sample1	obj233	3.060888647487035	-3.0172016508483255	-1.8284968034986966	0.2572387505386129	-2.601205214914713
id594	sample1	obj234	1.6798300223446396	-3.887251129660674	-2.5051791809716795	-0.8874611277278945	-2.3762801484333678
id595	sample1	obj235	2.9744312001722433	-1.886377113093711	-3.690634295115731	-0.04528468641966432	-3.43528388328733
id596	sample1	obj236	2.221556572783845	-2.3396350519490285	-3.2155689904002256	-0.9293755627142031	-2.4113018018934653
id597	sample1	obj237	3.4633178193097054	-2.812682021500602	-2.396711188388129	-0.9340579278259449	-2.714534038098554
id598	sample1	obj238	2.703464089830714	-2.7357580608564294	-3.239394114688615	-1.3016919168520098	-3.5692549254805463
id599	sample1	obj239	3.2887002711865296	-3.370882037900302	-2.8814654516770624	-0.19478814519295673	-3.7412653935544493
id600	sample1	obj240	1.994180910890242	-3.25702538833541	0.38407386491842654	-2.093043925521587	-1.201088335097711
id601	sample1	obj241	-0.4347979586015376	2.5103298388174986	-0.08761693224970224	2.206115598150406	-1.2340984091837648
id602	sample1	obj242	0.42096487124814685	3.42546184427587	-1.2518303126527603	2.234546358401272	-1.1760828914482835
id603	sample1	obj243	1.0748086874271021	-1.8795490634085548	0.7985116220833702	-0.4034065764932778	1.758333884717894
id604	sample1	obj244	1.9519537688216126	-2.6880855366291345	0.21872347337911413	1.9560499600942258	-0.14202103403356048
id605	sample1	obj245	-2.018784204898202	3.6475385890858867	1.3812054816608264	0.8531927678782101	3.2888997452046196
id606	sample1	obj246	1.3164239296489961	1.9966435725472518	-1.1436985455136508	-1.6452261121356349	3.3708141910118377
id607	sample1	obj247	2.1980267723137117	-2.301612144909645	-0.5463295832636706	-0.11259589194899533	-0.855792728097166
id608	sample1	obj248	-0.1253455212758301	0.4826970572142969	1.3096208435643943	-2.14034632903308	0.43065320413628516
id609	sample1	obj249	0.6849331751767911	-0.43198639917317383	-0.11241302489873273	0.6750161412315361	1.1912320927386444
id610	sample1	obj250	2.3156939929488667	3.5358909994055026	0.09979975702906851	-1.7135750430306784	2.5154026134730065
id611	sample1	obj251	-1.0815104205337662	-3.7130255107316446	-1.2762282066745265	-0.22255550630327392	2.702146499652994
id612	sample1	obj252	-0.7388338547371844	1.929602961898651	-1.7364992335038167	3.566574499921151	-3.3210268783562706
id613	sample1	obj253	-1.6650111825559197	2.5361973145850696	0.8013675594481662	0.23247811786345018	0.1689594223836559
id614	sample1	obj254	-2.0931996817031315	0.19749183009727367	-0.18004981438371415	-1.927852854688668	-2.596207978630125
id615	sample1	obj255	3.1294663271454226	-0.7580259923305266	1.010138946777882	0.98551429545807	-0.8160132160196767
id616	sample1	obj256	2.2157149363271937	-1.5268501285975993	-3.1139383248941948	-2.482938802394359	1.056229448754363
id617	sample1	obj257	2.7215783146261416	-3.118542531113684	-0.9702059546136386	1.85900784778164	-3.1349712196393744
id618	sample1	obj258	0.23896620015984893	1.7426507493690848	-0.09079149708565437	0.04060237485734175	2.598456666642754
id619	sample1	obj259	-2.223083165695096	1.3358146497067056	0.769065647336479	1.6915219062346523	1.4704128297901151
id620	sample1	obj260	-1.4004470527337	1.7311353715321773	-0.10129251467264289	-0.38646566825399675	0.6032285275823465
id621	sample1	obj261	0.9206446111286455	-2.8875980000001915	0.5161924579716699	0.8126599616761996	-2.0338207903034498
id622	sample1	obj262	0.8097235524510886	2.9906619457480366	0.9145261210826532	0.516544902155744	2.390982018993709
id623	sample1	obj263	2.752977697780439	-2.525099757439758	0.284791673583086	0.06606412442607357	-2.774713006615685
id624	sample1	obj264	0.5093250403414119	-2.6083496353778517	2.9688633118337937	0.5788874063738413	-1.2508475007409143
id625	sample1	obj265	-2.6062972684910304	0.6762817566337626	-0.4930129657120238	1.1807945636343504	-0.6165392588101031
id626	sample1	obj266	2.9090837991393785	-0.7349752722016376	1.62748390941674	1.6592662925951236	-3.2131675101512833
id627	sample1	obj267	-2.6893842362942264	1.5990020188272571	1.375287511562216	2.6711107662699387	1.7663661435170415
id628	sample1	obj268	0.1645467664726119	1.285703288170069	2.3623562926609845	-0.5673203433760547	-0.547969316036581
id629	sample1	obj269	-0.4902739738448505	-0.3348121800389434	2.749145596403171	1.2045066015944532	-2.51001057791357
id630	sample1	obj270	-2.5258203073548753	-2.6905491001695316	-3.989571227101619	-0.052154435737011395	-2.604211727812215
id631	sample1	obj271	-2.302108158844252	-3.7102224691118506	0.9546805306315269	3.56726174298916	-0.23975319020154395
id632	sample1	obj272	1.054756845473196	-2.663584636109167	2.8524528728128766	0.16314658745680966	-0.7814625192852613
id633	sample1	obj273	0.22392539886316132	-0.3226601897800522	1.842432843433948	-0.8642334624900154	-1.8568608085851883
id634	sample1	obj274	0.555009678372145	0.9361635765367473	1.0838705190841333	-3.5098588536416067	-2.217465312592111
id635	sample1	obj275	0.05262870671565789	1.0552492555474529	0.1631175616643128	3.967373685216743	-2.614559378810945
id636	sample1	obj276	3.1890629416258545	1.5756918598280887	-3.648193970876154	-0.21708526341630296	3.1196460588914983
id637	sample1	obj277	-1.9545393786960075	2.559209261991455	-2.7249458484791154	-1.3546279276738706	1.9099765698941122
id638	sample1	obj278	1.12454664335323	2.82125097182982	-1.4515707033492495	-0.23434915556132208	1.7963871364013697
id639	sample1	obj279	-2.4301659440448864	-2.4738387073596035	-3.026179800676293	0.2542057286561368	0.7841381964247718
id640	sample1	obj280	-1.6849179656807998	-0.9349708412257642	-3.5788341776418653	0.4574153076151031	-1.532241212763423
id641	sample1	obj281	-0.3337354067455609	-0.13478677261407923	-1.654337774302556	0.26220835805193854	-0.0702371809602973
id642	sample1	obj282	-0.48293598482879896	-0.7409545629348571	0.7370486946823458	2.9461089477004974	0.07015948413794426
id643	sample1	obj283	2.9411522531204537	0.9992856852636267	-0.9793476747689945	2.416378607229989	-0.3741748207278843
id644	sample1	obj284	0.9220119624240782	1.0464360519908702	-0.13022592156834145	0.9779184225170711	3.5591197320948327
id645	sample1	obj285	2.664110777419443	3.144190637078903	1.226635147929305	2.41912846015136	-0.08926286400783456
id646	sample1	obj286	1.4076452974216025	-1.1727350252702406	-3.04004463957072	0.18551131306113722	-0.6082129770302194
id647	sample1	obj287	0.8112603811698698	-0.8636298300501739	-3.712411115921113	0.27049401658871286	-1.603523270907917
id648	sample1	obj288	0.18569730408805074	-2.964563711747696	-0.736632115063083	1.1638518133944702	-0.7089843413535403
id649	sample1	obj289	-0.1593839285680262	-0.6010504223447111	2.325462327806707	-3.1576651888791227	2.040532358546483
id650	sample1	obj290	-2.22473433004968	-0.3354455457289005	0.05656394835135736	0.6980712601801753	2.2363031048487385
id651	sample1	obj291	-0.11571162273828317	3.240243057962033	-0.44285220975115114	-2.069673261497897	1.5209972895974118
id652	sample1	obj292	2.9343251140675446	2.189770166616455	2.338833193002085	-1.435999919252661	-2.999054627754228
id653	sample1	obj293	-1.6546253795393364	-0.8825203005604656	2.86262739106052	-1.3510682262808107	-2.7902414874971844
id654	sample1	obj294	-0.21444758846940704	-0.7056472933926901	-1.4050574000552079	1.6725534186998847	-2.4758942456672077
id655	sample1	obj295	-0.5551140398716248	0.40311061023106	2.6960670744896427	-2.958010710483591	0.5363403126091097
id656	sample1	obj296	3.8865335233716722	-2.4657644339236358	1.7170695480109788	-0.5790332603645427	2.6001196539096902
id657	sample1	obj297	1.3991916716604773	1.745868731707789	-2.0249327108506905	-0.2550534459216711	2.9356848378877505
id658	sample1	obj298	2.5010087117179625	1.336851866985429	-0.12824057494230523	2.702119831229109	3.835231039716435
id659	sample1	obj299	1.2874104902313581	1.605090363203301	0.2769745652510809	2.597123429978916	3.4139912366295793
id660	sample1	obj300	-0.6726247548708759	1.0829760119820007	3.395929032534895	0.45257231861904024	1.4412495487200216
id661	sample1	obj301	-0.6942810410560412	-3.1755436929340335	-2.717846884771923	3.9636607039526623	1.8020517259242448
id662	sample1	obj302	1.8473742533313418	-1.7096533550982476	-3.1497474972420667	0.2743178760294298	-1.7592718215389545
id663	sample1	obj303	3.020397649467757	-1.666160527795303	-0.4778099429902165	1.9674655363892828	2.3546265489102156
id664	sample1	obj304	-1.1218994412471972	-0.45211654595657147	-0.013450810435641891	1.8021990875610212	3.067034206459585
id665	sample1	obj305	-1.4223294633339876	-2.7056042446788835	1.6754937209990757	-0.46810044823046204	1.2496969159435751
id666	sample1	obj306	3.346736624817664	3.5709695455767694	1.3099307932913822	0.49207022702117176	-1.2324616373285247
id667	sample1	obj307	-1.751127951207299	3.513770673030288	-0.22371739354394893	-1.1628091236802545	2.643063274980235
id668	sample1	obj308	-1.5809574849593448	-0.9396612662712418	0.1908194814299815	0.09885571028093043	-2.488448957145226
id669	sample1	obj309	1.5832714972670325	1.996309347437693	1.7292736844614143	-1.8137789042669428	3.0824093576000795
id670	sample1	obj310	0.8871705103037002	-1.0004052791091804	1.0840919011397663	0.8626516086283567	-2.685521072864355
id671	sample1	obj311	-2.0346779913519333	1.8414171546975966	0.9890304055081722	1.9849431235193238	-1.4355074104152155
id672	sample1	obj312	-4.1109348753426955	1.5570953863401742	0.8247096331456143	0.7693898088693916	-0.7637481068901912
id673	sample1	obj313	-3.138662183681471	-3.3518467519511748	-3.1090259522113692	2.7646162198048323	0.7666332019185891
id674	sample1	obj314	-1.3932858203468819	1.967312714080937	-0.3344616553569777	-0.364052848221456	0.261853295052076
id675	sample1	obj315	-1.7154701290887093	-2.419216690372857	2.889329238342744	-0.7277533969272545	-0.4905996208926957
id676	sample1	obj316	-0.9694813404512164	0.04819485943753654	1.9395972083609403	-2.7377582368088227	0.37562859921000036
id677	sample1	obj317	-0.06783247860831221	-2.027874401764479	-1.1586269107877902	2.7480097049234424	-1.2707480715741135
id678	sample1	obj318	1.0590488918988605	0.5821783415230097	1.4767491403761042	-2.0224777038494266	1.6663654228576932
id679	sample1	obj319	-1.7394123689287941	3.8463713339029084	1.739300780786401	0.30457125404831986	0.22411575174417053
id680	sample1	obj320	1.3749841371114586	3.1748107676898325	-0.4451774910112759	-1.9038212559721044	-1.8781870978923272
id681	sample1	obj321	0.5341907792329321	2.7753160414889018	-1.856566282266715	-0.7507082418803777	-0.4593773891398121
id682	sample1	obj322	0.04917160478305327	0.9104297765652529	-1.1329039324735506	2.542290206793642	2.171778433811226
id683	sample1	obj323	-0.35993358103595796	1.6023131544030704	-3.1403239254708346	-3.4115409248916997	1.9325309999150013
id684	sample1	obj324	1.7649142764093777	0.6815161753726138	1.4938893567168579	-0.6227651024832865	0.34913332185366175
id685	sample1	obj325	-2.7321354239639897	-2.5925768920703174	-1.4381281864041424	2.756286441670025	-1.7198557365133598
id686	sample1	obj326	3.8053053201112936	-1.5988870013473733	0.9096512783112636	-1.1058898510542676	3.5680225733420174
id687	sample1	obj327	-0.4474402077607921	1.7455496184153008	2.4922973766137666	-3.5654459366033193	1.936635579209698
id688	sample1	obj328	1.9502844606878855	0.3836679444275439	1.697882536299916	-1.7498978447676365	-1.7037996468783472
id689	sample1	obj329	3.84358765512172	-1.8710406025680222	-2.597587029408251	-0.6726707082701251	2.424380476047375
id690	sample1	obj330	-0.5945475986080119	-0.27346098246652895	1.0965655098289633	2.3647609151586915	-2.770404263965946
id691	sample1	obj331	3.3314463622303765	-3.085192439545324	0.19894024130396493	-1.7087127755263625	0.9641501994038219
id692	sample1	obj332	3.456166662655523	-0.6738035223996446	1.2748760667682673	-1.3538649501314213	-1.7259681909947104
id693	sample1	obj333	2.022482943336044	1.1717703338244163	0.2713043103509304	1.5641136579423702	-2.0399315764907406
id694	sample1	obj334	1.2388975945158007	-1.8399071743924018	-1.9275828678061182	2.7018697260937454	1.719857883652381
id695	sample1	obj335	0.8507205056094371	1.2184609131049378	-1.7142831486559136	-2.344063217237502	-1.782432665743809
id696	sample1	obj336	0.9843781572991899	-2.1462740382910903	-0.5540889350827398	-0.6110796189672492	1.8847070458731667
id697	sample1	obj337	0.754942411971607	1.8370966522898933	0.8851701032230981	-0.44745616210685557	1.4304244516151547
id698	sample1	obj338	0.6949866891548961	2.632952311909198	0.04489838328518525	3.119520424038937	1.6859514574377308
id699	sample1	obj339	-2.4865355739008725	-0.9517926346939344	-0.6996412031311685	0.4528014693616471	2.0623874146920356
id700	sample1	obj340	0.8278546209916606	-1.9696187045869595	0.07849735210944409	2.035122646153039	-0.8592358173818109
id701	sample1	obj341	1.8419381260228165	-0.8905832252563005	-0.9798331249892842	2.6497880718907427	-2.5605916899420147
id702	sample1	obj342	-2.9314473958922607	1.0477698098274806	3.754944160384377	-0.9210561016911074	2.450036822405673
id703	sample1	obj343	1.1232063480598302	3.2830171124595693	0.042153726119557255	0.07188622587889726	-1.0328724920240224
id704	sample1	obj344	0.22094642302037582	3.5051513507798147	1.0554093537922948	2.8876109030075865	-3.0264773815680597
id705	sample1	obj345	-1.046169638843202	-2.7232780080360097	-1.972453922958697	1.6545603032874516	-2.2978702117686614
id706	sample1	obj346	-0.9636249133162613	1.8996214446670123	-0.03204942771225805	-2.030523160643594	-2.1841246951169566
id707	sample1	obj347	-1.2640567608784816	-3.7638949824684547	2.9197493309368188	2.7097862670901205	-0.9259681833805664
id708	sample1	obj348	-2.281564521505312	2.488447650013331	1.3108895553587807	3.5013449991362835	-0.4479019498019079
id709	sample1	obj349	-1.7597968625977325	2.062850034599808	1.1194434272281457	1.9385704712922767	1.9249502900898066
id710	sample1	obj350	0.31475244983592954	3.25806539123863	0.6523657310788655	-0.12049521125347318	0.6201334566439591
id711	sample1	obj351	-2.0966417317072583	-1.466235412791197	-1.7425709349033534	0.31236060218105455	0.7101645428285579
id712	sample1	obj352	-1.0589548201044936	1.5266586275191698	-2.4040459550489564	-1.0049822859650326	0.506715833445557
id713	sample1	obj353	-2.230490779976373	-0.46541063336605504	-2.135221131212119	-1.4658376871719605	1.7752164885900168
id714	sample1	obj354	-2.829104803666954	0.5036807441867721	0.5759849062266256	-0.3777243117610454	1.6624100410088096
id715	sample1	obj355	-2.023648975536938	-3.4692060055408644	-3.033018641781328	1.8041604852194013	-1.698008429793294
id716	sample1	obj356	1.3466659338252713	3.477925938719901	2.0000915086945965	-0.6600867206866288	-3.396638297183852
id717	sample1	obj357	-1.8224274595551064	0.5321809067734349	0.18141511574651203	-1.363996201893245	0.11641277873487499
id718	sample1	obj358	0.19182627268969754	1.4706947819775855	-1.1043461502604628	1.7748658930613705	0.7497834110915984
id719	sample1	obj359	2.1781754404580873	-1.6740594922479939	2.39224269618541	1.244239288342927	-1.6382144057312422
