id0	sample0	obj0	-1.9772992516333079	-0.7635196542595378	-1.9323413871964863	0.6252625619225484	-2.392913173204065
id1	sample0	obj1	-1.6562517782776913	-0.7663513934002697	-2.2023636976743584	0.47075373687436767	-2.0877016236506245
id2	sample0	obj2	-1.7803645495074112	-1.0064419757061962	-1.9787765694913613	0.19716674446352278	-2.5865529661370115
id3	sample0	obj3	-1.5564860247407681	-1.1644498782479578	-1.5594578881368224	0.6716643285736033	-2.0564623222163485
id4	sample0	obj4	-2.1829715514339	-0.5709997096363033	-1.4806928388972724	0.1016207324463696	-2.012080210527874
id5	sample0	obj5	-2.0256573813739354	-0.5290070052190707	-1.6267721078255462	0.178782802051342	-2.265785271004744
id6	sample0	obj6	-1.8714677129599573	-0.8529147303803761	-1.934231864515825	0.7781165628193003	-1.965112432985538
id7	sample0	obj7	-1.674697338691003	-0.5136007783391487	-1.8345959984283975	0.8232794010023884	-2.4989550614652942
id8	sample0	obj8	-1.9534412763523183	-1.0499054535670456	-2.26404820919815	0.5589067089373145	-2.36738403918708
id9	sample0	obj9	-1.5889521317918782	-0.707407086071907	-1.7145035461094693	0.5683191813324326	-2.2309201487281527
id10	sample0	obj10	-1.946864729929493	-0.8789626514794237	-2.0135342778237706	0.4696196005528687	-2.5766257551490805
id11	sample0	obj11	-2.1317056761884507	-0.47384671226832176	-1.7435020871732596	0.2017401950333927	-2.2909183853383723
id12	sample0	obj12	-1.5978690083936158	-0.5947842906033657	-1.7235270667164964	0.12560330449790802	-2.4805190412163443
id13	sample0	obj13	-2.101760598426769	-0.754002050302471	-1.4995515525402636	0.8274506962812984	-2.3389018826925785
id14	sample0	obj14	-1.5590578893808469	-1.1473331132771696	-2.0732030571695845	0.3973618516221489	-2.358978831589934
id15	sample0	obj15	-1.8734708999119611	-0.7036267657739563	-2.14239415023042	0.8043002496155423	-2.023998460912634
id16	sample0	obj16	-1.9719900833064856	-0.5469494609985569	-1.756085623567242	0.2004795185061778	-2.5857359624086897
id17	sample0	obj17	-2.09683848370395	-1.1005404867312927	-1.5703537524805065	0.8257109364266979	-2.2174657208362714
id18	sample0	obj18	-2.084176173331765	-0.8109211426998804	-2.1383089541166185	0.1724601017847341	-2.5019096357541053
id19	sample0	obj19	-1.9595047779654893	-1.002169183233174	-2.0154828771241124	0.8028858687373214	-2.511812690409008
id20	sample0	obj20	-2.1926554663008058	-0.8458799248457087	-2.095500514934714	0.330938903563131	-2.1309796055792067
id21	sample0	obj21	-1.511687088297801	-0.5509607547358816	-1.7261540705357967	0.50894391784331	-2.2519822275597714
id22	sample0	obj22	-2.242937051308973	-0.675863823240211	-1.848863148772488	0.46475682878791486	-2.416285306779851
id23	sample0	obj23	-1.9293283203279992	-1.1183741643311491	-1.9479108653985397	0.7608602450996578	-2.713707012639057
id24	sample0	obj24	-1.7238081658704736	-0.7563528764065748	-2.1202567839901105	0.19141708213709352	-2.548899303096222
id25	sample0	obj25	-2.2399473084165025	-0.9461088737107223	-2.05011288627915	0.8606239333835924	-2.4683696739911074
id26	sample0	obj26	-1.8852312093231665	-1.1200544548332254	-2.100298044132029	0.7214762894115261	-2.7154399342026783
id27	sample0	obj27	-2.1598959768550765	-0.8862105697573553	-1.7576274749645937	0.28655511546191165	-2.0729172822061743
id28	sample0	obj28	-1.768270195360717	-0.7806835656019637	-1.7727152598626807	0.4024528366490654	-2.0321076536661584
id29	sample0	obj29	-1.4909477900967971	-0.7596575639269985	-1.6335402442624134	0.6202551710417411	-2.3975983788837163
id30	sample0	obj30	-1.6727055135747757	-0.9764517829448294	-1.8624148957086697	0.6718670351815261	-2.5429478818832174
id31	sample0	obj31	-1.7983615522444307	-0.646001064632857	-1.620574200947528	0.21419492498326437	-1.9535101168250875
id32	sample0	obj32	-1.4997151127806965	-0.8654475178867003	-1.6739341438436373	0.531058213002445	-2.1470620993874867
id33	sample0	obj33	-1.8417823507307705	-0.6846014368828334	-1.785627251633524	0.7494768004783582	-2.106161596279043
id34	sample0	obj34	-2.093718790866353	-1.1905590349381456	-2.1611732272338227	0.8584557916082918	-2.1812075535088002
id35	sample0	obj35	-1.654561024183229	-0.9109710836995112	-2.223555667061962	0.8028386954387549	-2.260477861045684
id36	sample0	obj36	-2.069200951805261	-1.012060240751973	-1.5185199140448322	0.8130123056803216	-2.7209447624948875
id37	sample0	obj37	-1.666291858512948	-0.8697034256220337	-1.9630503049401185	0.8364977882822758	-1.9768885086808092
id38	sample0	obj38	-1.8450459107078243	-0.8614480590867805	-1.8076969683027397	0.8355374718908432	-2.4752108209044215
id39	sample0	obj39	-2.0375870426033975	-0.838436415196192	-1.6791710762999443	0.24396437793693052	-2.7273630031008507
id40	sample0	obj40	-1.5206389738177877	-0.6005893233037122	-2.0338826199912052	0.7377040034811461	-2.035915123769487
id41	sample0	obj41	-2.225325244915834	-0.4652672802586585	-2.0538235715010815	0.6294869929865323	-2.624473749019434
id42	sample0	obj42	-1.814704649762565	-1.0757031195261149	-2.0588724972045434	0.27552677850139257	-2.0058729042550785
id43	sample0	obj43	-2.1208303022232986	-0.4650044715482823	-1.9371812507607789	0.3683208075323261	-2.155786842175956
id44	sample0	obj44	-1.9495726784287088	-0.5361739873574929	-1.9882703257016214	0.6361484534229471	-2.3651109083921127
id45	sample0	obj45	-1.9026548945263624	-1.1376112966714362	-2.049774337124217	0.0895433547381434	-2.130098896904773
id46	sample0	obj46	-1.5002808295809977	-0.5436598272859687	-1.993913411566051	0.4237958715286728	-2.3472979075937848
id47	sample0	obj47	-1.61986269147168	-1.0651642166490176	-2.0266862464199478	0.24267223705506114	-2.291257414994117
id48	sample0	obj48	-2.039642603649553	-0.9274269905381443	-1.5319579217487251	0.6128024205590069	-2.2847719698316773
id49	sample0	obj49	-1.470921343651359	-0.8116182526169637	-1.942016544223731	0.35387097365967746	-1.979520640666565
id50	sample0	obj50	-1.69712635728129	-0.44731398123295374	-2.1912671206401413	0.34262363468047574	-1.9423547688549283
id51	sample0	obj51	-2.1675372609606827	-0.9926397642147473	-1.6634884183658676	0.14706046622287522	-2.0196317472357848
id52	sample0	obj52	-1.511111466405929	-1.2061940053896654	-2.1559653211523973	0.16180346216770436	-2.5968621262735936
id53	sample0	obj53	-1.6719822041989403	-0.5007364748466673	-2.0737972930482496	0.1997845176510451	-2.4890008778272725
id54	sample0	obj54	-1.4908054038238734	-0.5092751136124516	-2.0902382189589632	0.1848810237843217	-2.13093884572866
id55	sample0	obj55	-1.5706799205642725	-0.9638826944787315	-1.7570161309180694	0.22320954931835793	-2.5686074088844615
id56	sample0	obj56	-2.215825037478591	-0.5980454524696712	-2.1526797410370344	0.4082578735222535	-2.0965642348988855
id57	sample0	obj57	-2.1960404528601996	-0.4838070174369231	-1.5850914452986729	0.40016947352768567	-2.703453451467175
id58	sample0	obj58	-2.1881635343137638	-0.8921402948393784	-1.8217036457757663	0.7380778796750803	-2.2652940933113124
id59	sample0	obj59	-1.9327479857549246	-0.5430779427730036	-1.7511830417997158	0.684698031931579	-2.598618361531053
id60	sample0	obj60	-1.6129834148048463	-0.6528756551339946	-2.2627575081002127	0.7152025561611607	-2.419023083009627
id61	sample0	obj61	-2.14392701997951	-1.0880921312172915	-1.9833192160954016	0.5610226166784474	-1.9511828606915118
id62	sample0	obj62	-1.8213949713332205	-1.1376625690346946	-1.4922947390272676	0.6793961015805088	-2.2467706077526985
id63	sample0	obj63	-2.026830571661885	-0.9880384801163847	-1.5335577435059964	0.2795238252206331	-2.667510082689131
id64	sample0	obj64	-2.1600979044550424	-0.9449845026019218	-1.592679988495063	0.7968657003000191	-2.5997115899276353
id65	sample0	obj65	-1.8569125856796709	-0.7378798554946482	-1.874561839930058	0.43169757672768033	-2.439589577094428
id66	sample0	obj66	-2.059482883224766	-0.7550894378661379	-1.906420896177573	0.382333972807547	-2.618392962771989
id67	sample0	obj67	-1.703365639599228	-0.6163635737930666	-1.8472191619180156	0.29568660262519597	-2.3533690087977845
id68	sample0	obj68	-1.5535084772000787	-0.4520165188100158	-2.0873389550041628	0.47885118792641973	-2.182794749650438
id69	sample0	obj69	-1.7984237739302003	-0.5280397152628394	-1.4896502859682146	0.27848035582442787	-2.4762173233109017
id70	sample0	obj70	-1.9613876697108434	-1.0680463185133338	-1.710510242738326	0.5155870057170311	-2.5476138331011744
id71	sample0	obj71	-1.916948974668858	-0.6512357824747469	-1.7396724178176688	0.8004128572879249	-2.719881299845736
id72	sample0	obj72	-2.1528367060010005	-0.9221322911868861	-2.042026093435164	0.6458719002813564	-2.711866933361196
id73	sample0	obj73	-1.9720386342436125	-1.1819046829211943	-1.8395020785359184	0.7121200406315678	-2.4995170588002398
id74	sample0	obj74	-1.6053583334654662	-0.529339755546064	-1.7438419314191398	0.6747900679873382	-2.2336283972929376
id75	sample0	obj75	-2.15660994090993	-0.9062315751986258	-1.7832002235275752	0.8036484633955525	-2.608595818281786
id76	sample0	obj76	-1.72374933711101	-1.1387874608405464	-2.1382019670764403	0.31765696143866023	-2.037436951974274
id77	sample0	obj77	-1.9601363096252191	-0.45285429828454815	-1.5340809895402745	0.1599395467563977	-2.7037027964942077
id78	sample0	obj78	-1.6287419994310985	-1.1130557476497558	-1.580345359454156	0.28774568627793273	-2.4736241510426127
id79	sample0	obj79	-1.663928929011506	-0.46852060358449255	-1.6010248243152545	0.6364438022084682	-2.6424664622359417
id80	sample0	obj80	-2.008999721789094	0.014461754545960714	-0.797413256580644	-3.1817159092681524	2.270023134575278
id81	sample0	obj81	-1.6431686504921643	0.7779817577192829	-1.209349107880576	-3.0022220404724655	2.3034854342792617
id82	sample0	obj82	-2.2882586583782514	0.41362778735206884	-0.9557351736266957	-3.1416095534096256	1.6232183188715228
id83	sample0	obj83	-1.9989641892489276	0.46712689402888063	-0.7436496364605195	-3.1405169162611175	1.7205107078581918
id84	sample0	obj84	-2.2085677054580075	0.7380169861220133	-0.8777688836069371	-2.568196633993975	1.8937335230860644
id85	sample0	obj85	-2.0303736047296885	0.0067905316732554954	-1.1366212586462061	-3.2153696702137795	1.752378733486617
id86	sample0	obj86	-1.8215620101922325	0.6878053029518814	-0.8043926757930969	-2.7576351052355887	2.366241001695908
id87	sample0	obj87	-2.2848080988589734	0.412415817615166	-1.189790869196805	-2.5553764724595416	1.7258333599429103
id88	sample0	obj88	-2.33715948683862	0.34412069771224135	-1.2472613623104767	-2.9458249952403617	1.6799847764531466
id89	sample0	obj89	-1.9201927033145088	0.05987322775513265	-1.0986086369854882	-3.239992172455121	2.0713558068159106
id90	sample0	obj90	-2.1783476616289867	0.1123446079787187	-1.340279965543761	-2.6357898404081004	1.7073595106027102
id91	sample0	obj91	-1.9490348301261666	-0.007355076011080375	-1.2561857256995983	-2.5105325797988134	1.752220014611825
id92	sample0	obj92	-2.281593448416399	0.2800748660966715	-0.918426484131077	-2.91038435063142	1.9376720489727637
id93	sample0	obj93	-2.162918150377712	0.49568468075548766	-0.9666442934558817	-2.697887298292534	1.6596314782762456
id94	sample0	obj94	-2.243535006231211	0.033036202237690104	-0.7663798703190129	-3.0757144581478584	2.313082673540345
id95	sample0	obj95	-1.8345652305462057	0.048380099280883104	-0.8507701581887217	-2.7369384828944288	1.8369623318020902
id96	sample0	obj96	-1.9263339416487377	0.34175561619308814	-0.8786278170603214	-2.6986237537449362	2.077004353923317
id97	sample0	obj97	-1.6438314258650013	0.5010751282594132	-1.0633773774629482	-3.093149057256004	1.6718765862616147
id98	sample0	obj98	-2.2207841782373703	0.22635122968390728	-1.2469482201549844	-3.0945699049439432	1.7335196127393604
id99	sample0	obj99	-2.0982107680900506	0.7766423417520987	-1.0535126590688026	-3.157253426400213	2.1959207940788588
id100	sample0	obj100	-2.2279930634621947	0.7263148166738271	-0.8403763177737216	-2.9901829061977545	2.2796559576941715
id101	sample0	obj101	-2.0176539700598837	0.780625070712252	-0.68534618310989	-3.269451540696379	1.9569363749178224
id102	sample0	obj102	-2.157168920205257	0.24669858527647204	-0.8669887579955301	-2.8277659337469676	1.6606415595679025
id103	sample0	obj103	-1.8277168768860368	0.7105015372200307	-1.0993144706860882	-2.5149769971913005	2.1804316329779123
id104	sample0	obj104	-1.7487679788644024	0.42164924152834277	-0.9060543567934469	-2.996968225833761	1.7115449806771543
id105	sample0	obj105	-1.6542768692600185	0.5866538822501627	-1.1297992700560318	-2.688377554080047	1.9118320713620107
id106	sample0	obj106	-1.818972220310399	0.030762312995320507	-0.6733199425223356	-3.171828402362383	2.0869831586162038
id107	sample0	obj107	-2.337272996629374	0.584656268274647	-0.6073454430866126	-2.754315929472334	2.3323094222251965
id108	sample0	obj108	-1.9831888231516792	0.6232622748938453	-1.2314189629199628	-2.8993550469866483	2.043863696092666
id109	sample0	obj109	-2.0801450491996434	0.23052751693144166	-1.0601396764740192	-3.138167279054516	1.8666707516193684
id110	sample0	obj110	-2.3529801387404228	0.5495439460077882	-1.3816084065281866	-2.8287802718818407	2.0304082960743988
id111	sample0	obj111	-2.1258645426009264	0.12762529547325274	-1.1911902633126097	-3.2601582882002362	2.0525703647019173
id112	sample0	obj112	-1.812552202292241	0.4691431990611806	-1.372259388213907	-2.6885910611768513	2.0479859864977903
id113	sample0	obj113	-1.9996706930494457	0.41588965662671623	-0.6443671547687654	-3.2822618613027297	1.6160883627032534
id114	sample0	obj114	-1.96764864357982	0.698734991314726	-0.9337443792408685	-3.1114111438009626	2.290565311634257
id115	sample0	obj115	-1.682841551438858	0.02117511190649235	-0.5841804086030684	-3.2675301220445965	2.399501303004094
id116	sample0	obj116	-2.0214150805870044	0.5832891323852142	-0.7985839845409413	-2.8747759128869292	2.0298766696855024
id117	sample0	obj117	-1.7810509554728906	0.3344420326341229	-1.1008934173455927	-2.6570168291446543	1.7128509381381984
id118	sample0	obj118	-1.6685185239388345	0.4180444900048624	-0.6899337342947743	-2.668810636407888	1.9026566587814475
id119	sample0	obj119	-1.7250791739799227	0.6676088934196985	-1.0142865529957872	-2.549909566840127	2.1316993910582482
id120	sample0	obj120	-2.2105244020134247	0.5184944126278486	-1.0607112962655827	-2.719791921684101	1.8696277782130997
id121	sample0	obj121	-1.8908649697122037	0.6648984043682691	-1.28610543633943	-2.7279604713620826	2.1392389995217864
id122	sample0	obj122	-1.682253242444161	0.23010659914726864	-0.6398819896390833	-3.2915402662374875	1.7541481051670498
id123	sample0	obj123	-2.2501049808511704	0.005541895572627964	-1.3629465353177816	-3.0957731986914734	1.7117075818118774
id124	sample0	obj124	-1.8405571091846067	0.3890326772373358	-1.0916406044857907	-2.654561030108616	2.2317467605689267
id125	sample0	obj125	-1.7618251774597677	0.21573736094496487	-0.7580519574459822	-2.8139722282167994	1.9718402350690432
id126	sample0	obj126	-1.8036750511451451	0.38959333506687965	-0.6174449747237639	-2.9558192007407147	1.830042222020302
id127	sample0	obj127	-2.3895680673544506	0.014787969931135514	-0.842203874361376	-3.0827500766406004	2.1858706121604294
id128	sample0	obj128	-1.7410458050012325	0.38385650165712254	-0.9300765949362024	-2.9400028949524786	1.911821741859701
id129	sample0	obj129	-2.178057912923024	0.7523790190965087	-0.950627693601676	-2.888755848628794	2.2553753225655795
id130	sample0	obj130	-1.900173869364848	0.6331573227050303	-1.1031214137662295	-3.2660984227942382	1.9523415344331327
id131	sample0	obj131	-1.6474248935221585	0.5509826143621626	-0.9245318498258625	-3.058757993915206	2.0560369560340357
id132	sample0	obj132	-2.2188649414657355	0.05093953126327083	-0.9484834624378332	-3.2310691557820985	2.085188579569393
id133	sample0	obj133	-2.0622883125618845	0.3494105269395396	-0.6926310083439272	-2.6689825880218527	1.70118195787081
id134	sample0	obj134	-1.8078644680868439	0.12082967292856772	-0.9987621821631523	-3.055398857974219	1.6793259443877855
id135	sample0	obj135	-2.107216982977295	0.15056717628140692	-0.8597180930988092	-3.239497192893988	1.8587312062685337
id136	sample0	obj136	-1.700652512515357	0.2433863077701705	-1.0705432372709536	-2.7032289234991467	2.0232250847300848
id137	sample0	obj137	-1.9493045474718624	0.6084853576232726	-1.3060692625357766	-2.998479265368321	2.225982093488166
id138	sample0	obj138	-2.053866524972228	0.5594979338173939	-0.7588714908107237	-3.3027879277333403	1.6302697089511151
id139	sample0	obj139	-2.1928154105158155	0.44675951027622735	-1.1131847839429398	-2.631676605209479	2.367422397907295
id140	sample0	obj140	-2.0435423320388475	0.4179345766919714	-1.0623933900489915	-2.6007803141769306	2.242896935439505
id141	sample0	obj141	-2.2300763128012373	0.48252146331267165	-1.1180874852748244	-2.53783631684969	2.346557418541297
id142	sample0	obj142	-1.839082814455874	0.49908904109867247	-0.6628747494374078	-2.727369942314267	2.3012228537277672
id143	sample0	obj143	-1.9670070411117988	0.6371359176694065	-0.8601192958347686	-3.291347389326657	1.7335128944909215
id144	sample0	obj144	-1.6485818679729816	0.17647527073898786	-1.1820188282957178	-3.266363279582816	1.6551808020772694
id145	sample0	obj145	-1.650902565214999	0.04682327949484166	-0.6208948943379154	-2.5688106587043285	2.245957947582509
id146	sample0	obj146	-1.7158504844466034	0.19208249389938536	-0.612728274305505	-3.2181650289967627	2.237481988091199
id147	sample0	obj147	-2.152297646958741	0.6434494012254229	-1.0697905231115958	-2.826718940266871	1.8816729506302128
id148	sample0	obj148	-2.111210552711108	0.5412149497760408	-0.6711730850035882	-2.7110486132682015	1.877989193273141
id149	sample0	obj149	-2.1519637110147922	0.1577525129725089	-0.9140646349187482	-2.922898550323196	2.126868946267755
id150	sample0	obj150	-2.1948401774408293	0.6069784366064265	-1.2402458357646176	-3.2592518843418894	1.6283756466637995
id151	sample0	obj151	-2.0583067281568233	0.6043092592601851	-1.3144256432660821	-2.854832352431538	1.8751461744263753
id152	sample0	obj152	-1.9431737731780196	0.6541059339452375	-0.9742038779406106	-2.7843779604435888	1.6792224644932938
id153	sample0	obj153	-1.9296529557857716	0.13957276909798177	-1.063581351416823	-3.0434533714927623	2.067760912312807
id154	sample0	obj154	-2.1155784661347483	0.3863459981756748	-1.1085169666342907	-2.9095490162281807	2.389989081841816
id155	sample0	obj155	-2.20012921730363	0.5413470225535544	-0.6370224462171102	-2.5214662538951935	1.7666504248688235
id156	sample0	obj156	-1.900247264108038	0.19116892846155142	-1.1681579055487215	-3.203730252922522	2.3155726473095086
id157	sample0	obj157	-2.4070619526144803	0.640093052939359	-0.6120121219674469	-2.790723308150627	2.1974478934091217
id158	sample0	obj158	-2.014968152728383	0.34007655179784074	-0.5917919732547389	-2.8966098418292696	2.4014533755363723
id159	sample0	obj159	-1.9920389234005038	0.23949369276050161	-0.612472252117053	-2.7936500348455873	2.250499647916377
id160	sample0	obj160	1.7687511034664873	-2.181493027989037	0.4877729946238448	0.30115525805173216	-0.5398075479543326
id161	sample0	obj161	2.2219024058914782	-1.9680913477915114	0.10213796845596973	0.004360377618086442	-0.668832835266947
id162	sample0	obj162	1.6907165477591115	-2.099359206093927	0.15810406540943303	0.41973800236888037	-1.1120875313058831
id163	sample0	obj163	2.117989470987154	-2.1818330116641538	0.03994465827280225	-0.030615305341332888	-1.2409405213096956
id164	sample0	obj164	2.303897842913196	-1.8364064282923827	0.34121142230574364	-0.15214209314181515	-0.680074847259472
id165	sample0	obj165	1.8770057599042018	-1.917177320095523	0.5236317876097041	-0.1929965558976659	-1.0811240808919682
id166	sample0	obj166	1.9625956400894653	-2.2860674036211357	0.3165756180684425	0.03326790822079362	-0.5491367710593911
id167	sample0	obj167	2.37517536031171	-1.9830483908044108	0.5004379707455158	-0.16382631423359573	-0.6457675747385112
id168	sample0	obj168	1.9961471076919413	-1.8649349207693628	0.2342797134583665	0.2589469471947684	-1.1799562795494096
id169	sample0	obj169	1.9038771081343095	-1.8213220047278065	0.3685884026394451	-0.2902327241714102	-0.5662864220125993
id170	sample0	obj170	2.2838082424998305	-1.901070437120743	0.42259924064971804	-0.07946563895769529	-0.8761824741327169
id171	sample0	obj171	2.2053428255321785	-2.02099752733748	0.05928099083221122	0.05770057068308321	-1.1580787265081627
id172	sample0	obj172	2.2170212070418382	-1.841830968147328	0.47937596929616894	-0.2126169445290092	-0.7276404690462058
id173	sample0	obj173	1.9515630965644397	-1.8842487754473098	0.6608181124491209	-0.0520758809479519	-0.9335100661653604
id174	sample0	obj174	1.6796570832081799	-2.5566780748744202	0.4359693142630886	0.28309588064549884	-0.6308537339964101
id175	sample0	obj175	2.3005070452959973	-2.1506774576647696	0.23344338602285147	-0.22347350328894272	-0.9246694981961854
id176	sample0	obj176	2.2651065392499343	-2.4409016717935748	0.2833606421960401	-0.29655930864211105	-0.5953507308221635
id177	sample0	obj177	2.014543883785789	-2.054060833630898	0.7267244420356167	0.44273917910640026	-0.9458523692592277
id178	sample0	obj178	2.062371229683165	-2.531659962139738	0.07576686354762446	0.29657092523225337	-1.0059458873838922
id179	sample0	obj179	2.0017350232832922	-2.028854505509024	0.6996036298848823	0.23415911416232615	-0.5249451241804405
id180	sample0	obj180	1.9815909806844347	-2.228205564468377	0.6779010142638453	0.0625095770753405	-1.0479045587311424
id181	sample0	obj181	2.241446910948226	-2.2016798555539023	0.256520140259583	0.3420383277151562	-0.7071053398195686
id182	sample0	obj182	1.7527223333725006	-2.4636368835738915	0.5977987866979155	-0.21411411451609097	-0.5136195363269646
id183	sample0	obj183	1.8815164068910826	-2.2959941601452627	0.6512878512935855	-0.05398026669803152	-0.8833496053783014
id184	sample0	obj184	1.8193654584434564	-2.3059820105445055	0.447911245920326	0.1979453073772548	-0.6961459920725851
id185	sample0	obj185	1.8449809025886423	-2.346110713630931	0.5736950767165293	0.3522309889154912	-1.2208799683690787
id186	sample0	obj186	1.7630180311820296	-1.9718919257882224	0.2029450866151193	0.07088438955593102	-0.6366602081809483
id187	sample0	obj187	1.7601674581493463	-2.0597044177413024	0.6220730157307758	-0.06182186894361941	-0.9711990892171447
id188	sample0	obj188	2.2313152453428504	-2.1166878072174984	0.7737131882680225	0.4795936689508786	-1.2296262267651965
id189	sample0	obj189	1.8287159984142571	-2.185907391897243	0.47836118751144296	0.45241312578261195	-1.1062823625276452
id190	sample0	obj190	2.0070972034936316	-2.4199764479723083	0.49203943552524343	-0.17707713722775537	-0.8011735232077345
id191	sample0	obj191	2.171893154563768	-2.2390680324236087	0.24047977471959506	-0.26352011055881397	-1.1822944893628482
id192	sample0	obj192	2.043425469905123	-2.3165163878738846	0.10254288179974314	0.4786137396847674	-0.5629071304921797
id193	sample0	obj193	2.04633426208867	-2.196215093821473	0.630099217408813	0.18117514583451744	-1.054556593907256
id194	sample0	obj194	1.6029521848810342	-2.027486099332155	0.7829079077083355	0.37307752721273846	-0.8050908674350007
id195	sample0	obj195	2.2961326270578764	-2.5292381789505933	0.3821795714248598	0.1986913056159858	-0.4666884345666934
id196	sample0	obj196	2.078326290666029	-2.4277743582322957	0.16502776235677563	0.0792248889239236	-1.2298627951368497
id197	sample0	obj197	1.7089761154299723	-1.9507634302719157	0.23593258101476894	0.08674011818184307	-0.8110695294466357
id198	sample0	obj198	1.633602907453522	-2.1403817018742965	0.5051908848554973	-0.08741239978578133	-0.6368606608970541
id199	sample0	obj199	1.969812668330357	-1.9456730749369973	0.7851413206053225	-0.11971305970478544	-0.7069814541969099
id200	sample0	obj200	2.094902388393409	-2.3794904743619223	0.25225958630433265	-0.12199739984495661	-0.6603542806890841
id201	sample0	obj201	2.256307295736122	-2.328185894343399	0.4090530487399645	-0.0689431598391689	-0.4670122015943259
id202	sample0	obj202	1.7318480908679974	-2.4692300644268625	0.4885732011555146	0.2261599663852769	-1.0187001414895227
id203	sample0	obj203	1.9961345366816303	-2.307383951262654	0.3933424357217027	-0.175495340352125	-1.221522579222228
id204	sample0	obj204	1.7095918738674336	-2.4456320733350734	0.26908794682081316	-0.18865191177123974	-0.9736522845903102
id205	sample0	obj205	2.10693167603063	-2.0620404929855587	0.7639234431092299	-0.16152688328820403	-0.8451931986011482
id206	sample0	obj206	2.054518309927775	-2.1047397192828945	0.5600475028256932	0.1987600285111728	-0.6087827366619615
id207	sample0	obj207	1.9655189614789568	-1.8185719841743797	0.6946694558217381	-0.13270669701947854	-0.4788891529648489
id208	sample0	obj208	1.764999842981895	-2.290303809318318	0.47925973301484986	-0.04824323034749123	-0.5229828132114488
id209	sample0	obj209	1.8037747187972397	-2.0939064381558676	0.013382367071242296	0.37961415382945807	-0.7642987664214465
id210	sample0	obj210	1.6118559763225233	-2.1199665937127867	0.6658357282561538	0.13651401790966033	-0.7967359491410563
id211	sample0	obj211	2.2043342594095425	-2.5080286909631093	0.5186329913619301	0.14777795650602182	-1.1080208932995204
id212	sample0	obj212	2.0114511940180733	-2.0293039979217378	0.45802904017838764	0.4135105640213631	-1.225571107991926
id213	sample0	obj213	2.2700625990129475	-2.188932154868417	0.33337569091847447	0.18109083926153346	-0.7659946206864293
id214	sample0	obj214	1.717647405174215	-2.1685645660078827	0.13359392786122004	0.3423475351789663	-0.826824811027101
id215	sample0	obj215	2.267032759753663	-2.285675206029699	0.5595221760221275	0.11486773303435316	-0.4883833880463142
id216	sample0	obj216	2.3671079686531398	-2.4174132368363628	0.7678629246130176	-0.09158100428649477	-0.7125583724528308
id217	sample0	obj217	2.291522047189887	-2.0732093717711164	0.26094011153342755	0.251663342263291	-1.0892447980187048
id218	sample0	obj218	1.9257316870388796	-2.488455948104427	0.2905251211908939	-0.013014475587186991	-0.9831958384168975
id219	sample0	obj219	2.1873203941831028	-2.1756149332610533	0.09062357613073613	0.32063119882050173	-1.004535808933821
id220	sample0	obj220	1.6222761713011136	-1.870790456567709	0.6728678153214992	-0.10776587243814095	-0.5331667135448762
id221	sample0	obj221	2.340425989958678	-2.352348402610702	0.2910637668713818	0.4154845969682057	-0.6762219789072027
id222	sample0	obj222	1.618511649277845	-2.5202969815405787	0.6530255355658083	0.11593835049579793	-0.971556582619
id223	sample0	obj223	1.7039844883843793	-2.2850752239881036	0.5351295480613685	0.4910643176033992	-1.049477864947821
id224	sample0	obj224	2.0535270005227724	-2.233851540172185	0.6075616600970762	-0.157635626885418	-0.6474870640814232
id225	sample0	obj225	2.0571097229991295	-1.8706296166763385	0.738048569705045	-0.1569510120664016	-0.5941848915534106
id226	sample0	obj226	2.2130916334087263	-2.3501131205748003	0.7034888939863283	0.43309960574699813	-1.231665727995851
id227	sample0	obj227	1.6770046646562415	-2.268612391672901	0.35936106078383423	0.3648760113477154	-0.4611511917141934
id228	sample0	obj228	2.2132575126676506	-2.2000050995601614	0.7156166957885589	-0.19248789405287425	-0.6422651480498204
id229	sample0	obj229	2.1045829382299623	-2.370106057569581	0.4269996786552362	0.2704710348795023	-0.6576973302360112
id230	sample0	obj230	1.9506673544684552	-1.785479326308994	0.2698939952512947	-0.29842021495622384	-1.115008731170833
id231	sample0	obj231	1.7095722206064468	-1.8469556947149623	0.35392992028610176	0.39091634481312176	-1.0764698937474335
id232	sample0	obj232	1.9603158720217095	-1.8956209823863757	0.5741980692853896	0.16986004707344965	-0.704060523772225
id233	sample0	obj233	2.1118623937076073	-2.3090322858775303	0.18106685993995403	0.2977191984843185	-1.035564105542089
id234	sample0	obj234	1.83479262264279	-2.074620235051677	0.5238004745742673	0.20240160470526614	-0.46203390991153115
id235	sample0	obj235	1.7916423268531834	-2.3398646998520207	0.16846551437803006	0.37487217716287347	-0.48725547793679225
id236	sample0	obj236	1.5973158321145537	-1.936605936158923	0.6195230261471952	-0.03956846630650457	-0.7841536773021863
id237	sample0	obj237	1.821650279924841	-2.2989942680062643	0.07006279427763262	-0.24357024673288347	-1.2268586686282517
id238	sample0	obj238	2.284148079945771	-2.277805287673884	0.6123777432537163	0.09168156322328064	-0.5133242923318505
id239	sample0	obj239	2.380644772444484	-1.9723756158220707	0.7655309847911782	-0.03414458709391993	-0.8824511156385941
id240	sample0	obj240	0.36636557256928814	2.0722007432058094	-0.02749563545459166	-0.06572071851377503	1.030891061924228
id241	sample0	obj241	-0.6080900396647996	-0.8125660637738438	0.3610067534767702	1.3242246602881196	-1.0960116188827502
id242	sample0	obj242	-2.5702945332791636	0.7807722661341705	-0.8467256589559208	-1.0868099450588744	1.509074008533391
id243	sample0	obj243	0.5491745961508991	-1.7672226857884037	-1.466753188661213	1.426633796590245	-2.673365623329755
id244	sample0	obj244	2.2309995512390213	-1.3436266238480066	0.8925911862020178	1.1198526941317777	2.3550819539192958
id245	sample0	obj245	1.4219728708319022	-0.7355824114900387	2.051588766697374	2.438344879039303	-2.596291773465132
id246	sample0	obj246	-0.9165372214507153	1.9743056038234141	-0.6935855933227595	-1.3760909467903657	-0.12112214798133103
id247	sample0	obj247	0.9160034327194543	-2.9885509603729137	1.2526103435929523	-0.9712885746757235	0.9369380968582532
id248	sample0	obj248	-1.0628163092377014	-1.4463710162729997	-2.2097300290399913	1.4961000126466484	-2.102513659142083
id249	sample0	obj249	-0.6972328962290063	-2.4148772922617514	-1.9972278900283196	-2.9752392251617676	-1.2075146752643464
id250	sample0	obj250	1.0018548667989922	-2.22593480734726	-0.8209242155957748	-1.9252046414810229	-2.8646482509208786
id251	sample0	obj251	-2.2863423737504442	-1.7450067413943149	-1.5292236344855858	0.360293318749906	2.078810097395155
id252	sample0	obj252	0.6368421331056174	0.5690703181350181	-2.389426448529611	0.6531164751814817	-1.2818399418060173
id253	sample0	obj253	0.6041346577298533	2.306769402658542	2.555785526418257	2.7018725263135788	0.5555227972520491
id254	sample0	obj254	0.37530773669057355	-0.21973534946970708	1.2163712459424671	-2.1363805456822376	1.8780702645025167
id255	sample0	obj255	-1.562669201009241	1.9048922911037764	-2.374404139895874	-2.6826220671063634	0.9810070901615056
id256	sample0	obj256	-1.4269004081208099	1.628002534971355	-2.6597565872926796	0.31635661888703603	-2.6770003085890823
id257	sample0	obj257	0.5422972740747471	-1.822235856929527	-2.2672061868019817	-1.0162993148560862	1.4891696923880244
id258	sample0	obj258	0.48220881852055564	2.3686795713456896	-0.9758650290873472	0.9794004294909993	-1.516204643505188
id259	sample0	obj259	2.0678300607743387	0.4391634236312765	-1.5223002777718746	1.5918627296194308	1.513268490330338
id260	sample0	obj260	0.17518823510016956	0.6757002709474006	-1.7405517176347474	-0.8483477260152805	2.810715775034093
id261	sample0	obj261	0.6639943142063831	0.7381186403242912	-0.2711897275629439	-1.5985018538674232	0.3704727463330181
id262	sample0	obj262	2.9046932083519237	1.3334105664998357	-2.292918998959341	2.370252874413371	-2.404166648991692
id263	sample0	obj263	-3.203129809331306	1.3550585909391002	2.2800511197641113	2.504669247413165	1.238888659718537
id264	sample0	obj264	-1.7338280022616508	-1.5614519082052414	-0.8420005587103512	1.1547184538791022	-0.5168490817377168
id265	sample0	obj265	-1.3142741912279137	1.2793185325406349	0.9362248646409073	-0.7549172768424632	1.1848010371620206
id266	sample0	obj266	1.617872813836182	0.8598987304240895	2.331791947951315	-1.2161591225897754	-2.4929141488652977
id267	sample0	obj267	-1.674917590228346	-2.061754219427647	-1.5783517153343034	2.6478288678308206	-2.0513648833381724
id268	sample0	obj268	-2.241840097059231	0.9432006949132432	-2.930164360633378	-1.7725432756312058	-0.33256083713599555
id269	sample0	obj269	0.5275200577830954	-1.7913759618867353	-2.2185980259369913	1.0729771184578454	1.2216634295461573
id270	sample0	obj270	0.0043306643248904875	-0.8745750990790397	-2.970166504741423	-1.0572952567865281	1.981196072743395
id271	sample0	obj271	-1.2616334312649669	1.3156041722551308	-2.4995824527863433	1.3211379063753523	2.321092629986298
id272	sample0	obj272	2.9796011770896342	-2.467801104373717	-2.531779971644278	0.7539085723743979	-0.39407230290217826
id273	sample0	obj273	0.5036872018192632	-0.8172918719006181	1.6446027235310967	1.6791095164720484	-0.29061544667791595
id274	sample0	obj274	2.5968684468736476	-0.10263472668917528	-1.8737877310708881	1.6585262955141271	2.1448551967335434
id275	sample0	obj275	1.4225097651912573	-1.910065639671744	0.6033874250551791	-0.831088753337865	-1.9536886959809205
id276	sample0	obj276	2.4116753188074425	-2.281216712673874	-2.2847336577121684	-0.63824120064326	1.23970346727018
id277	sample0	obj277	-0.4814301014586821	-0.24204247161125025	0.2887795536895075	2.2050064102338016	-2.617645100419966
id278	sample0	obj278	2.9661717360391417	1.9350294017150615	-0.5891847024529195	-1.806305378926755	-0.16448632277306874
id279	sample0	obj279	-2.307205794680482	-1.5814378896118295	0.35777576175529346	1.9047864161569816	0.003932625065584283
id280	sample0	obj280	2.305713670183746	-1.2095661886545273	2.6730810228769113	-0.609160948089383	-1.456012059729952
id281	sample0	obj281	-3.23665228940554	-2.4503125327489106	-2.6604109109232033	0.7500752833028054	-2.939888438855223
id282	sample0	obj282	0.4462255306499405	-1.4010524141865877	-2.534607335182213	-1.3546692016769648	0.002405538628911741
id283	sample0	obj283	1.794610394844157	2.4239785860850245	-0.3353237627916632	0.5574519989078291	0.7037647384334524
id284	sample0	obj284	2.811010456911263	-2.400029488624664	-0.6400196070835414	-1.511875950307819	-1.231411824481608
id285	sample0	obj285	2.2204999488546555	-1.6000627556002347	-1.3617325293959581	-1.8412494811932534	3.1655609830572793
id286	sample0	obj286	-1.4710108825981654	-2.3679744200457975	-0.9839337039149633	-0.8437724352672129	-2.365025759488862
id287	sample0	obj287	0.6728926558247754	-2.486660363583759	-0.26243247319660706	-0.1224052270026782	-2.4239244954489902
id288	sample0	obj288	-0.5376975349383577	0.2748393253696098	-3.226084248713779	0.40926285155872033	-1.105990928563367
id289	sample0	obj289	-1.544423256849509	0.02344260488793129	-2.0691928599397125	-0.9480545429292452	-1.4798059972863435
id290	sample0	obj290	1.9610052988953837	-1.5999696600489701	1.0012696400778314	-0.251044643937229	0.23145411378411085
id291	sample0	obj291	-0.587512742113059	-1.6651884591007153	-1.0590720018143172	-0.5837154671261706	-1.1593326570499702
id292	sample0	obj292	2.3676509245784527	2.0436045588685725	-2.105752062595179	1.478670270452378	-0.260757108712268
id293	sample0	obj293	-1.2782509859878517	-2.0749430858773343	0.5539132625981658	0.6978685523117519	-1.9525219454716807
id294	sample0	obj294	-0.41710123372831365	-1.691298541017589	0.47353942366862534	2.823634736872446	-2.7256060426821103
id295	sample0	obj295	2.065894948171226	3.015138965980785	-3.2710699680043325	1.2802003678515492	-1.169380228490818
id296	sample0	obj296	-1.7371836107264897	1.6876460974648593	-2.5130759847513353	-2.6122527457279414	1.1912278273881771
id297	sample0	obj297	-2.8988514139189525	-1.2592500385654444	-2.392332677174948	0.7810872633347136	-0.13757620625011147
id298	sample0	obj298	0.29548873430792943	-0.20279595329463124	2.872652158904258	-1.4058398383716157	-0.780812217064257
id299	sample0	obj299	-2.572601938536648	-1.37979505780868	-1.2560386814239113	2.3671728470289137	-1.499377439024962
id300	sample0	obj300	0.19797123140377593	-1.4754296460382548	2.7630545348449234	-1.9266911729902447	1.5454621773223345
id301	sample0	obj301	1.166228113861612	-2.6908404700115245	-1.1245965481304023	0.16626061276879528	0.38634953124340754
id302	sample0	obj302	-2.4748767620512506	-1.8255425598260315	0.24500586135035257	1.59247099516138	0.452535132347988
id303	sample0	obj303	2.691908408504148	-0.4298957022911879	-0.2685640621527209	0.9169596139062397	2.1390143891202227
id304	sample0	obj304	0.6819659190157548	0.9207435052137292	-1.408961658976153	0.7786133589460477	1.0779888078874444
id305	sample0	obj305	0.849013284557331	-1.469243909384665	-2.7371788484091635	0.9912801690512181	1.6827977610223916
id306	sample0	obj306	1.1334712519150532	-0.675482756128438	2.847829065313557	0.15549674824802756	2.0873543814833666
id307	sample0	obj307	2.0991055591958125	-2.2951953091831583	-1.3363431150504606	2.5636890546769187	-0.006135516104776084
id308	sample0	obj308	-0.647236284848112	2.2349346001890673	-1.5696124810568097	1.8833638596307654	-2.259390794531216
id309	sample0	obj309	-0.06439444587338106	2.144575717206564	0.859151761389908	2.2451242982291486	-1.7184170595111472
id310	sample0	obj310	-2.9195157075763802	-1.7509152278824982	0.8903901680944394	-1.0859640733324767	0.4363144429153844
id311	sample0	obj311	-0.7722071626343748	0.34158102621309777	1.230245380084185	2.1196209789611222	-2.960999971498588
id312	sample0	obj312	0.12319649503110436	2.63259512168705	2.363174460517345	-1.3148004363689807	-1.389443845985428
id313	sample0	obj313	1.443620900468364	-2.223661121735809	2.15039660046778	0.42190886616456036	2.196864160483804
id314	sample0	obj314	0.6171333217516436	0.48577344611601836	0.3885821061734638	0.8356164982465359	-0.9917853119154296
id315	sample0	obj315	1.3297293214359147	0.513156683951639	-0.737726390332541	-1.3347032793760887	1.8021517739702912
id316	sample0	obj316	-0.9735410089859425	0.9037567569907666	-2.4339436498232034	2.5197348906158967	2.9703130119231353
id317	sample0	obj317	-1.299995288132883	0.6899711070752668	0.5957038439500321	-1.459731095847513	2.3581286199779243
id318	sample0	obj318	2.214974691519262	1.9776794551647143	-0.25467981405663764	1.5587651745549773	-0.08679730980272965
id319	sample0	obj319	0.8368179670461354	-1.7997548419978946	1.8273805026909566	2.206666518815757	1.581532203829322
id320	sample0	obj320	-0.8094950627027396	-2.7971306473592152	-1.8469838417255409	-1.1599910833094826	-0.1856791152331544
id321	sample0	obj321	1.5084438645494718	-1.883000940125014	-1.9569805157243092	-0.5714718247494189	0.7577638672920328
id322	sample0	obj322	-1.4830170252327974	-2.58371014892498	-2.623460168557009	2.252636908129547	1.3475963516194707
id323	sample0	obj323	1.050208795144213	-1.6367638142059788	0.45071455398253324	1.264290079080526	1.64260460256204
id324	sample0	obj324	0.6466785256602565	-0.5730515512944107	-1.6861192067762976	0.5430026044415495	-0.007014721341904617
id325	sample0	obj325	-1.0251045299398505	1.8644692723786962	-0.7918050837656392	-1.278975993506559	2.035688620525332
id326	sample0	obj326	-0.848493239489016	0.609060016675804	1.4787541978906624	0.9339953126100692	-0.4760056791465098
id327	sample0	obj327	-1.5695833070951895	-0.1147997518043683	2.995849028214261	-2.3141142700128188	1.8348533334388983
id328	sample0	obj328	2.8165881888417896	3.1089492515146695	-0.46890003546828485	-0.1398197673220241	-0.9194346530936719
id329	sample0	obj329	2.301545758173436	0.3907089977303928	0.35227977001354827	2.4183886614768553	-0.39919051416541695
id330	sample0	obj330	2.2711274451907677	-2.485213888331679	0.6728042141395791	-3.1659112384131975	2.569784275390047
id331	sample0	obj331	1.4806104908356552	0.9083019122352057	-1.2183923658346876	2.7621693199844524	1.6789048016440473
id332	sample0	obj332	-2.277599819526679	-1.5736695249831167	1.7771906038117757	-2.47919289932847	2.992206879472247
id333	sample0	obj333	0.9638115277071213	-3.310580324221668	-2.0352244791441656	0.3344995997753699	-0.6691296004151758
id334	sample0	obj334	1.9606249656959456	2.444198453795355	-2.040398161173466	0.8310085563989658	-2.662922730130062
id335	sample0	obj335	-0.8492348135545265	-1.1218633155100521	-2.084962270130461	-0.2228990836010153	-1.2525940639744462
id336	sample0	obj336	-2.1620483015785275	-2.649300903302795	-2.003896425913829	0.6211959656544757	0.20219505297926832
id337	sample0	obj337	-1.7885309016172588	-2.1402800961876673	0.009390425210171471	-2.3218747688352765	-2.076780651769278
id338	sample0	obj338	0.8037443716226502	-2.887499346676067	-0.9484566452961637	1.2120390202339626	-1.1807320773256575
id339	sample0	obj339	-2.2568346776061237	0.214016403464041	2.57514550122973	1.9998712184255778	-0.9403757035834481
id340	sample0	obj340	-2.310231939437622	2.018789089418707	0.7808372788789322	2.1773271064952935	-2.0781867105179543
id341	sample0	obj341	0.976568840994582	2.968611703577896	-0.8803406653655428	-1.8649419368426348	2.7265859679711886
id342	sample0	obj342	-0.834452034529231	-1.3456689202748342	1.0411117551560478	2.0450593089596367	-1.4076268047120466
id343	sample0	obj343	2.4090651997278796	-1.6971463102131998	1.9641201518572007	-2.103159287772924	-0.6296552614631544
id344	sample0	obj344	0.8033861166446361	-2.51295695601853	-2.6736653441002822	-0.5918640093149442	-2.499787814728941
id345	sample0	obj345	-2.03470705329638	-1.894445482378549	-0.508678343844649	0.5273550879524311	-1.588819744277162
id346	sample0	obj346	-0.428771746286287	1.3810512781891597	0.8159051550132181	1.6283169300944467	-2.218863432703233
id347	sample0	obj347	0.06627717753390927	-2.427679411388424	0.35275943927623066	-2.3488765656670574	-0.6212733210239694
id348	sample0	obj348	1.2937917901948663	-0.05983874538368317	-2.8233282240535065	2.639190001084075	1.691740268868196
id349	sample0	obj349	-3.0254903346036874	2.3090977091471947	3.153409894437855	-1.4328571282572193	-1.5459432499841008
id350	sample0	obj350	2.409261781140908	3.1524397529418953	-2.258554722096666	2.3181401347289676	0.9621031865115061
id351	sample0	obj351	1.581101308953416	-0.7222048523434569	1.2896440474042066	-2.842428397534124	3.053627192490115
id352	sample0	obj352	-2.4738018936520576	2.8073730316307004	2.916236838773525	-1.3721690728856812	-3.1874866103878055
id353	sample0	obj353	-0.9276622243216949	2.6571491494267754	1.9123876238269442	1.6894255434460423	2.3009703799992876
id354	sample0	obj354	-1.3212328780498868	2.7647852787586857	-0.7592842483988732	-2.604729833776697	-1.5573792784635136
id355	sample0	obj355	-2.7920888728988165	-0.6639536732723943	-0.19311873060479828	2.2679204784823814	2.1454736024198784
id356	sample0	obj356	1.5735751325371736	-1.1482001008856468	-0.5039801717032794	-2.2977051607620282	0.468613068991449
id357	sample0	obj357	-1.424517222907951	-0.15710544675957633	-3.0453579539167985	1.6703253626370327	-2.8451182528723122
id358	sample0	obj358	-2.7649838159613553	0.6142783078545134	2.7066376437241573	-2.0122889230764915	-1.1701785497011643
id359	sample0	obj359	0.7509594130344064	0.7101091912537542	-0.9138463879416044	-0.21701686277368137	-1.0383037586011283
id360	sample1	obj0	-2.2528336260259034	-0.6942069612297235	-1.9973224822335682	0.35654666722231426	-2.089456491287467
id361	sample1	obj1	-2.0020603898878693	-0.623863275042972	-1.9048140639418785	0.5731591896276357	-2.0449394379364736
id362	sample1	obj2	-1.8863728737590608	-0.8087771496232288	-2.0492410900213955	0.22669027903464345	-2.4627435895548615
id363	sample1	obj3	-1.6086698358840024	-0.6190215802404088	-2.247866117841042	0.17684777852877864	-2.6702406273615304
id364	sample1	obj4	-2.2232989352063863	-0.5051603124919263	-1.7459888311346585	0.31233812387569787	-2.428726304968357
id365	sample1	obj5	-2.081306563458708	-0.6531495997359826	-1.7563894227840549	0.3453024403209089	-2.4130600054052884
id366	sample1	obj6	-1.7031122223302422	-0.7508245272559506	-1.697122157584003	0.5771436959514002	-2.258721906456874
id367	sample1	obj7	-1.858694083185272	-0.49603054137719005	-2.03858991730303	0.20611500312746467	-1.9404742805101391
id368	sample1	obj8	-2.0121506345259452	-0.6929613777632463	-2.0456069583012786	0.16574331075746512	-2.6000576332808527
id369	sample1	obj9	-1.5339614899264573	-0.5909275086981655	-1.7219566596966729	0.7896106307601015	-2.455461709938321
id370	sample1	obj10	-2.0621226305351392	-0.8990732485528857	-1.4829891862543745	0.3242394928584148	-2.638004475761749
id371	sample1	obj11	-1.6018008626819884	-0.6794539082717304	-1.782802677420738	0.1523589104224603	-1.9899481562633974
id372	sample1	obj12	-1.8289543815671845	-1.1348462471553182	-2.130726617296684	0.4006960267023082	-2.426399178007695
id373	sample1	obj13	-1.5807218049663803	-0.6596644529913083	-1.6088984015863281	0.809175678106037	-2.369995947994765
id374	sample1	obj14	-2.1860089614416767	-0.7428584866888959	-1.6479117243419465	0.31404809395130595	-2.092105796652816
id375	sample1	obj15	-2.1628197487425225	-0.9686511013435921	-2.267536392782792	0.2905344440159968	-2.164146233067332
id376	sample1	obj16	-2.071203340733841	-1.0598925237850632	-2.2185834398309296	0.5181120482112178	-2.1989368798254665
id377	sample1	obj17	-1.886443878979713	-0.8926467124510888	-1.7818351425818508	0.5430878788307621	-2.3438944570265803
id378	sample1	obj18	-1.8080190336376343	-0.7598387870554587	-2.2397950135477487	0.45066068761289946	-2.212123352448619
id379	sample1	obj19	-1.5451193046593321	-1.1943582052337385	-2.22355809163072	0.7167805114668753	-2.6782470517067276
id380	sample1	obj20	-1.9558695679268676	-0.9333966503211508	-2.1745737840183645	0.34581101980691187	-2.1348903512237483
id381	sample1	obj21	-1.5390463459124528	-1.1089695503398875	-2.1111932495298027	0.23281546571772205	-2.052276291027143
id382	sample1	obj22	-1.4957580055408237	-1.114997385304267	-1.5518770660283394	0.30125290173367447	-2.394165857918009
id383	sample1	obj23	-2.04346946905282	-0.6969738895986554	-1.5575070978919698	0.5025192723078478	-2.1425593913266323
id384	sample1	obj24	-1.8626252887389307	-0.7415929692581523	-1.4886179209009258	0.6301280415826247	-2.5329167546078053
id385	sample1	obj25	-2.0111760960219214	-0.9537127186296537	-1.841255355816261	0.6679297848933164	-2.4003558262214257
id386	sample1	obj26	-1.516260207407365	-1.0771728213075846	-1.9768020418245187	0.3906503640695254	-2.622076540976188
id387	sample1	obj27	-2.244355128413248	-0.7622185150423125	-1.9832022692465168	0.8607136470730292	-2.6863466016731836
id388	sample1	obj28	-1.7981091032758276	-0.8610896196898318	-1.9217872651331724	0.17483951813185716	-2.135497157203206
id389	sample1	obj29	-2.064013185167309	-0.9376767586679207	-1.687068100627485	0.5268013045328928	-2.1687271168535753
id390	sample1	obj30	-1.9517935539843627	-0.4374939085934375	-2.135644695267716	0.7510212318749667	-2.1368262802737252
id391	sample1	obj31	-1.6731158321482509	-0.4485410866280971	-2.261494148968149	0.5399079445638936	-2.4394145702730365
id392	sample1	obj32	-1.7906120881284804	-1.0973962154007122	-1.9825699222332942	0.5930286228082331	-2.4076802721912482
id393	sample1	obj33	-1.5525891923086483	-1.2110546687720212	-2.0695824538841237	0.5278912526319492	-2.0210992981592217
id394	sample1	obj34	-1.7757710836475278	-0.8140938178102621	-1.9412611566757525	0.6923207184254958	-2.4019516913917216
id395	sample1	obj35	-2.147286746574397	-0.8406495250557902	-1.858037013984997	0.6616767579021514	-2.130838336053225
id396	sample1	obj36	-1.8245588584063321	-0.4769183057194659	-1.7921502284937287	0.3375150309100297	-2.041558659416855
id397	sample1	obj37	-2.091994376462514	-1.005414151046482	-1.5984012561360101	0.5072639822367784	-2.5338581955458497
id398	sample1	obj38	-1.5981452636095215	-0.5274786735255649	-2.2553407047020517	0.7591124801300542	-2.574413096403962
id399	sample1	obj39	-1.6955157148133733	-0.5635386974085309	-1.8283558820701542	0.41710705640038165	-1.9642025009742108
id400	sample1	obj40	-1.9241585782371902	-0.9767936295183788	-1.4980766811253683	0.6754743651454937	-2.5958522056908433
id401	sample1	obj41	-1.9438484807035257	-0.6783654679244128	-2.111509446110324	0.5379450582206522	-2.7068291529731803
id402	sample1	obj42	-1.7896594222651714	-0.5309252977434623	-2.1985338135313857	0.8393920647007718	-2.690247535084338
id403	sample1	obj43	-1.5014314773079849	-1.1913917192780932	-1.9395833831209053	0.43793852247081755	-2.3287301352733296
id404	sample1	obj44	-1.9956007978699493	-0.576945288972187	-1.7956937737964456	0.07287178643632702	-1.9799742381700516
id405	sample1	obj45	-1.4824101708716144	-0.895289804823253	-1.581361348900188	0.606749943462593	-2.014615959415063
id406	sample1	obj46	-1.8943317992477242	-1.0802833265921847	-1.7730313031397094	0.5910372304367542	-2.3743915081413456
id407	sample1	obj47	-2.131838200060385	-0.9857291907106033	-1.6382416468443872	0.45798694735433826	-2.5056755245867146
id408	sample1	obj48	-1.6371712905596318	-0.8187264779512773	-2.1167123079935593	0.8543352985852055	-2.691954917983773
id409	sample1	obj49	-1.7997002128740975	-0.48250311577151084	-1.596700777628309	0.7642085586566646	-2.4578909400390097
id410	sample1	obj50	-2.2395468901669005	-0.6275566494710294	-2.0569697874041943	0.5515102119193454	-2.6840488074532542
id411	sample1	obj51	-1.9086109301938123	-0.79718150227176	-1.8734439866384471	0.4804759911900356	-2.5293554247445944
id412	sample1	obj52	-1.5266627852525816	-1.0545322433299535	-2.244293558275236	0.2040933607972561	-2.3195970947365008
id413	sample1	obj53	-2.009013227230919	-0.6862306881433324	-1.5294882798494869	0.6632104207553533	-2.0740113592057665
id414	sample1	obj54	-2.0531293322238735	-1.0226389381520833	-2.2300381350321925	0.09643707000116969	-2.4949781654090204
id415	sample1	obj55	-2.0836675372123015	-0.9652591538155199	-2.184891621392478	0.466902079484156	-1.9621942023103573
id416	sample1	obj56	-2.1954556311605518	-0.972752896203364	-1.7140219631733922	0.17360200107209572	-2.4142395730391244
id417	sample1	obj57	-2.2061932380009157	-0.971767051690132	-1.696310906017331	0.801995497184294	-2.36633681449487
id418	sample1	obj58	-1.7967751209227654	-0.5075788528958998	-2.0896602036603555	0.6126888020352662	-2.2400759173959877
id419	sample1	obj59	-1.676391479417818	-0.6504962639785582	-1.6650402328783969	0.16305750904067517	-1.9431573776466715
id420	sample1	obj60	-2.198643355806644	-0.7824442711519671	-1.5601415588805478	0.36148635228190107	-2.0465028584497538
id421	sample1	obj61	-2.048047753409579	-0.8971965812549458	-1.6236493856022083	0.7871157967365272	-2.3116228940283357
id422	sample1	obj62	-2.0252152312203076	-0.5877491149113928	-1.717128770708889	0.851589570763807	-2.009628475104558
id423	sample1	obj63	-2.232881067108102	-0.4333418851589209	-1.8048115348914413	0.07783670826577188	-2.268949085669739
id424	sample1	obj64	-1.490578230117875	-1.042089837977314	-1.5664310718572012	0.3314217264660751	-2.1533921611228473
id425	sample1	obj65	-1.507275672802205	-0.7960495554494239	-1.7263777722811462	0.5319926852719289	-2.604866044519321
id426	sample1	obj66	-2.0804867850006654	-0.664295216993536	-1.7530654743073337	0.42787675761503186	-2.422609834493209
id427	sample1	obj67	-1.7663996514216425	-0.8141745702220814	-1.8322246935341904	0.8304507785526417	-2.6673480604819315
id428	sample1	obj68	-2.015211593531066	-0.7168295004596992	-1.98109267888096	0.6335789882254397	-2.5861331000570806
id429	sample1	obj69	-2.1632837155196514	-1.003268847825653	-2.1088704259053146	0.10669481003931924	-2.0009744752830887
id430	sample1	obj70	-1.7306864746287438	-0.5122382894946733	-1.9415821468326244	0.43003809749999655	-2.0783989101235623
id431	sample1	obj71	-1.738402118390309	-1.0488149427835012	-1.7533226377128077	0.6816752318565934	-2.022057343139281
id432	sample1	obj72	-2.1206042613030918	-0.648530223652137	-1.65502946392066	0.29525953944184624	-2.368114510731363
id433	sample1	obj73	-1.5882666126764184	-0.7588620903087613	-1.5980914463099998	0.5545618532050032	-2.612640409225432
id434	sample1	obj74	-1.4625815930852242	-0.8886071603258976	-1.8025181576804814	0.70765061873916	-1.9982918660647053
id435	sample1	obj75	-1.9395125641008946	-0.9539112225923532	-1.7047683913016787	0.8647558425506111	-2.708442658490538
id436	sample1	obj76	-2.006981808715437	-1.0230735328774725	-1.9628864790291747	0.8463447060084576	-2.2723139241892016
id437	sample1	obj77	-1.9879259898963848	-0.9236143960155322	-1.5180416352889448	0.19129884939363895	-2.4237883570342773
id438	sample1	obj78	-1.7374532910296878	-1.1549749784907268	-1.4911289630364895	0.8013466988545886	-2.466184312562512
id439	sample1	obj79	-1.9298280000447579	-0.9165728810584883	-2.0274863170338127	0.5315978326550157	-2.1995344517280118
id440	sample1	obj80	-2.1933021733764413	0.7877209449726706	-0.7762246852060538	-2.630188993343465	2.117979237846241
id441	sample1	obj81	-2.2317952652354687	0.36571897709083145	-0.8249317523194304	-3.073207139003285	1.6675849306406458
id442	sample1	obj82	-2.2951398640934295	0.6081807933286606	-0.6145950119381283	-2.894341538496244	2.067761129478052
id443	sample1	obj83	-2.073515870350482	0.46432829444522916	-0.9807172209876642	-3.2455103567156454	1.643890970671284
id444	sample1	obj84	-1.958155957504728	0.5834267517499963	-1.1882379222324428	-3.104822587486193	1.682410098730919
id445	sample1	obj85	-1.7789910656191739	0.12563118929213557	-0.8524929305314564	-2.622482317465373	1.9444464876335623
id446	sample1	obj86	-1.9621001348907203	0.06918562815660373	-1.2047612217052013	-2.517393440884979	2.1377293816829477
id447	sample1	obj87	-2.1735253284141884	0.2290808786962792	-1.0458981409503625	-3.1487725878775343	2.166418714627119
id448	sample1	obj88	-1.7982612046137292	0.011556780857828741	-0.799299722071047	-3.0300928339112803	1.644793195069624
id449	sample1	obj89	-2.0926527715570997	0.009453355935362118	-0.626710378335083	-2.745450591247614	1.8276577180590705
id450	sample1	obj90	-2.1067587444015676	0.31490254633718306	-1.356393603383194	-2.5389438084489724	2.041168519189343
id451	sample1	obj91	-2.3996742805506033	0.6702399597428093	-0.6796527935696848	-2.7813371439948273	1.618309745828976
id452	sample1	obj92	-2.0020785204503357	0.0398359669055785	-0.72283265963847	-2.818141058711405	2.0417690158212665
id453	sample1	obj93	-2.3905962887202694	0.5718270613684412	-1.0594735276646672	-2.549712360138658	1.7242331135346594
id454	sample1	obj94	-1.7396594297051418	0.4990058103853543	-0.9904462480771871	-2.7050652673738687	1.9254394827355306
id455	sample1	obj95	-1.6576381209071314	0.13442872618465074	-0.925386191430795	-2.802230958549633	1.892455849907868
id456	sample1	obj96	-1.7818083662517668	0.14416054137125725	-1.3207868946101504	-3.1321901047153853	1.852901174809387
id457	sample1	obj97	-2.125443650182897	0.08401945988349269	-0.9804290940005235	-3.291095121534868	2.2909456090685287
id458	sample1	obj98	-2.2016879417843804	0.48875367432101424	-1.051624724339518	-2.7846659408168657	1.9562187664133264
id459	sample1	obj99	-1.6921017659129118	0.08279519140397906	-0.9427694347723957	-3.044752894196739	1.9219937512270455
id460	sample1	obj100	-1.919591001571586	0.5861347916314434	-1.368138351283572	-3.074083148011091	2.0094814443331184
id461	sample1	obj101	-1.9000489049728304	0.5239723100638132	-0.8564475689544373	-3.151609912520939	1.980546220305267
id462	sample1	obj102	-1.8961848586253889	0.5841510607704066	-0.7396567553397285	-3.105636789943098	2.2849217930658883
id463	sample1	obj103	-2.129895555665804	0.7340153013041116	-0.6045255130432239	-2.9504604041875258	1.9058460761975113
id464	sample1	obj104	-2.112876011238763	0.2027660156693046	-1.3157754846253373	-2.9776331590703737	1.9182273847590774
id465	sample1	obj105	-1.9531876469622635	0.013665364389140122	-1.218071893124003	-2.9255619462134175	1.9567824801979712
id466	sample1	obj106	-1.7499160075062745	0.03208308017277656	-1.3436389615197333	-3.088997012368967	2.351331111694651
id467	sample1	obj107	-2.2980821900243793	0.6624229859917751	-1.0798849757625706	-2.8784980552990453	1.9483736031910137
id468	sample1	obj108	-2.228337069446612	0.3239427842659527	-0.8111498615608951	-2.5421579912931263	2.3904976815269294
id469	sample1	obj109	-1.7748853028889182	0.36941933691811857	-1.102323838532971	-3.298190564510071	1.7188408081462352
id470	sample1	obj110	-1.7122750929799133	0.25104414179933376	-1.13883483073777	-2.8154123541696494	2.112054929149348
id471	sample1	obj111	-2.076369965716613	0.3168921353328399	-0.6140864819514823	-2.874642776621102	1.7537638680149423
id472	sample1	obj112	-2.0737064942627317	0.033321196307196266	-1.2360651517762375	-3.240575838388746	1.6676498629072318
id473	sample1	obj113	-1.8107588900060687	0.2307631384053252	-0.8212425898737356	-3.0012135906450443	1.7758375184662296
id474	sample1	obj114	-2.0020938870143605	0.4820878503461824	-0.805298788822167	-2.8584616177812228	2.3854404661554494
id475	sample1	obj115	-1.8432271128805056	0.02609551705454005	-0.9132972821047909	-3.2844408147832778	1.8157809942380148
id476	sample1	obj116	-2.096904667391716	0.18824457875744088	-0.6209801206786915	-2.9364363593167297	1.8331657543233515
id477	sample1	obj117	-2.414747713819008	0.43349073876246164	-1.165530881015685	-2.929650899709081	1.9119838694532023
id478	sample1	obj118	-1.811434798332587	0.18162253913617582	-1.0277015027361656	-3.019026132547664	1.7035676201506806
id479	sample1	obj119	-2.1750723244948493	0.05576571865207364	-0.9443287194566641	-2.5948116831677464	1.9435020378683658
id480	sample1	obj120	-2.421839534093317	0.21432121560490555	-0.895200010169865	-3.24426236121629	2.3021694558248798
id481	sample1	obj121	-2.2096075077900803	0.49253239986524755	-1.3526834680583015	-2.7043022249696196	2.18304978241658
id482	sample1	obj122	-2.37574087343157	0.27167754428438834	-0.9357313786818022	-2.795177333152485	1.6619475501546859
id483	sample1	obj123	-2.1579163546014137	0.08358298276098713	-1.1585214766842813	-2.888493841310746	1.9636644236101652
id484	sample1	obj124	-2.2302508706576414	0.6902853606345785	-0.8323317747081155	-2.767576927774668	2.0789628349360108
id485	sample1	obj125	-1.814543384141977	0.4602653942365844	-1.028973074855542	-3.164254393659311	1.9847514829363935
id486	sample1	obj126	-1.9197181834130996	0.3632652079528415	-1.0444471191231854	-3.0219373259340805	1.7575513979226103
id487	sample1	obj127	-2.1708300589185954	0.4573149636090614	-0.9491759111022966	-2.695707004608378	1.6402499827375652
id488	sample1	obj128	-2.098974528379599	0.13876641039584026	-0.6503778861391519	-2.7489912112895762	2.2732037685011424
id489	sample1	obj129	-1.8993563777832527	0.22588908969820387	-1.0346687532229364	-3.273792789530585	2.3336878904165337
id490	sample1	obj130	-1.7883257385132927	0.4684634945119942	-1.3539566288827172	-3.1152875108385176	1.7057941122740747
id491	sample1	obj131	-2.400613282871106	0.6018335305090744	-0.7519022342950161	-3.2274064940620875	1.851930020800489
id492	sample1	obj132	-2.102001693101585	0.23859136705142292	-0.8258438588675163	-2.6667276983894177	2.1653517144791152
id493	sample1	obj133	-1.9244787557904317	0.5214896287701942	-0.6418616566632486	-2.9280920749122665	2.3014508830138025
id494	sample1	obj134	-2.0722476043213542	0.7168443686671742	-1.0677968422278374	-2.554800276099528	2.227098274943686
id495	sample1	obj135	-1.747040107726435	0.5406334731526876	-0.7972656110180523	-2.5745042698795126	2.067997026528959
id496	sample1	obj136	-1.8867078507062054	0.27424535422580704	-0.6812344413056725	-3.1119540067341656	2.3120061036083213
id497	sample1	obj137	-1.7262728089055495	0.5004189458199388	-0.774273211545384	-2.942061285470489	2.342534424950813
id498	sample1	obj138	-1.637222749004764	0.7918729326162854	-0.5893900650855267	-3.0392687678343107	1.8936631273026778
id499	sample1	obj139	-2.3780553068974966	0.4974781094970784	-1.1251011538535638	-2.6574317069986666	2.163407420348153
id500	sample1	obj140	-2.3336269208210068	0.23811546455133958	-1.3053134761618368	-2.6813023266442384	1.9817621974592095
id501	sample1	obj141	-2.3069685895462633	0.5536132970956774	-0.91842078590029	-2.906718241002935	1.8566674627545101
id502	sample1	obj142	-2.0666070273105244	0.20290216731328037	-0.6559510526347442	-2.749709554949595	2.227063475760644
id503	sample1	obj143	-1.7942967780441252	0.14379697883010997	-0.8698740016996743	-3.1104192749115365	2.413560792938344
id504	sample1	obj144	-1.8091451120263355	0.2011427795162115	-1.1655024053055993	-2.618949320601218	2.4122094557615825
id505	sample1	obj145	-1.9886151041711149	0.0294762194996952	-1.2355157026778496	-2.9974680695640425	1.7261956310725566
id506	sample1	obj146	-2.026542753173615	0.7083884239153437	-1.26922074423958	-2.754113626660465	2.23730396725971
id507	sample1	obj147	-2.0623193573560448	0.05746034066383365	-1.0264590353851961	-3.284867983159741	2.1094404912076814
id508	sample1	obj148	-2.220489847579467	0.5675075840126047	-1.371792475416652	-3.1426315647654155	1.9786976138464059
id509	sample1	obj149	-2.290420239722685	0.5229509680665972	-1.18346865590526	-2.8186613068106054	1.9691369070674607
id510	sample1	obj150	-1.9631106541324737	0.40595257605338525	-1.2824007269616882	-2.9883200721397123	2.1939530967654925
id511	sample1	obj151	-1.6758946564802057	0.15855572760722064	-1.1057157820785872	-2.9561875343411472	2.233740435867843
id512	sample1	obj152	-2.2823884997205206	0.0289727055961152	-1.3515456857207795	-3.187971613675036	2.3654953283151285
id513	sample1	obj153	-1.6888544147888431	-5.92681800652084E-4	-0.9583776924955176	-2.9688060042770807	1.6485359262151444
id514	sample1	obj154	-2.040839212347822	0.4049119849642544	-0.9026642125240963	-2.6473881835838964	2.2199826229415947
id515	sample1	obj155	-1.704762203305368	0.4877914218795324	-0.6892331154264469	-2.5184763976674893	1.8386032842804825
id516	sample1	obj156	-2.404772144482621	0.23451025715473559	-0.6945591823510282	-3.1054895278929084	1.829966240108832
id517	sample1	obj157	-2.419892788169996	0.01896801508665047	-0.664873454558164	-2.810809421718858	1.9787422594403787
id518	sample1	obj158	-1.6319464894083378	0.3969080152708031	-1.1686179625532915	-2.8218422308859865	2.2989368075561543
id519	sample1	obj159	-1.6902065926319376	0.29315187115711205	-0.6926188798975033	-3.2514186793467816	1.965595019459834
id520	sample1	obj160	1.8079991243543214	-1.7729900254602469	0.24854439958673097	-0.24113068375250962	-0.6221239416163882
id521	sample1	obj161	2.336126945515033	-2.0369269224997577	0.651616136338389	0.07192059630579895	-1.1032742717605433
id522	sample1	obj162	1.953208974283379	-2.123571936647808	0.7142225588485047	0.3903796962587447	-1.1864548509179087
id523	sample1	obj163	1.872062247644372	-2.1733962886019405	0.02960352972032998	-0.2402282759013168	-0.5239710221931474
id524	sample1	obj164	2.1236246097031657	-2.1543472335136924	0.5973480479496137	-0.15595078368683313	-1.2244740665706657
id525	sample1	obj165	1.6142670545327182	-2.4881345302632223	0.14342854445618264	0.027873036889494718	-1.1258757735521492
id526	sample1	obj166	1.8717034328483717	-2.4901951471450516	0.662691689836345	0.0406323326968418	-0.558526161504953
id527	sample1	obj167	1.68896163515944	-2.200564523214332	0.47023868296312993	0.24571822198740823	-0.9326649341354178
id528	sample1	obj168	1.5881640331779436	-2.3478212758261625	0.6874129216640704	0.23383201570656165	-1.1983392527114605
id529	sample1	obj169	2.293470820100167	-2.2193722972760255	0.40537730607654454	0.06712034862311417	-1.1770269792185966
id530	sample1	obj170	1.863748470274302	-2.089076853784744	0.0152862470014688	0.3737152443313223	-1.088835164363189
id531	sample1	obj171	2.291119654127805	-1.7955391367159002	0.0821226860170885	-0.01564954211252151	-1.171577247716777
id532	sample1	obj172	2.1848111536024613	-1.9267979434111466	0.44515699119972474	0.39115591817307904	-0.7199872918865873
id533	sample1	obj173	1.656422732475645	-2.1425785830537674	0.7899748541084091	0.013032372712790674	-1.1140247655391626
id534	sample1	obj174	1.791176424596977	-2.1842145005804587	0.0558966909367104	0.45420822880341927	-1.141377409916062
id535	sample1	obj175	1.6806504235798296	-1.8527627040320525	0.2816519499770992	-0.012787084733979215	-0.9751020956168608
id536	sample1	obj176	1.9192387121830072	-2.2831977115527624	0.27716022445655575	0.48559559594876356	-0.7045713793823776
id537	sample1	obj177	1.8048859768774874	-2.4498405215929155	0.7284881345825992	-0.15519239170578178	-1.0357375079914006
id538	sample1	obj178	2.372809855767422	-1.8858330116633422	0.7472773012894829	0.39378045693863206	-0.5119030467780569
id539	sample1	obj179	1.829719156754393	-2.005470232052947	0.4784567788340433	0.3094033957297796	-0.5329178312469006
id540	sample1	obj180	2.0087501706960467	-1.9380248408101257	0.056642956831743696	0.35836232735763696	-1.0807234580654606
id541	sample1	obj181	1.8577531859470613	-2.0083058032394243	0.2905738184562178	-0.07481907897209289	-0.8416589253335071
id542	sample1	obj182	1.8939501137734511	-2.56305789775346	0.15700217441224318	0.3238322889520421	-0.7376420374756221
id543	sample1	obj183	1.6571329004459112	-2.0113969451306803	0.3639673510049556	-0.12249948976715219	-0.6634695445614134
id544	sample1	obj184	1.9847616027236346	-2.0272583887007	0.0240557013659477	0.3939935533232106	-0.9377549730628776
id545	sample1	obj185	1.7913334470045335	-2.3952803477270326	0.24943099284294545	0.23247689743032351	-1.20966302101091
id546	sample1	obj186	1.9995086606013435	-1.9491177997364035	0.09284494933291892	0.282638911988482	-1.0593241712480546
id547	sample1	obj187	1.642480081135252	-1.8708592359702743	0.42580950913529253	0.1546492024222122	-0.9608401696416925
id548	sample1	obj188	2.2992385736978127	-2.5474599248899197	0.6424051579892992	-0.03564298697177826	-1.2548400805198578
id549	sample1	obj189	2.3625006360421117	-2.307886192571012	0.3430965295287277	0.31263391353282155	-1.0518351790825191
id550	sample1	obj190	2.2614058938820354	-2.4234512666427905	0.6882074934323898	-0.017378949871311555	-1.0448691365147398
id551	sample1	obj191	2.218443925378853	-2.3115836708542474	0.278655801901942	0.058429618582177656	-0.47438544887267164
id552	sample1	obj192	2.2257130988349907	-2.545473121203878	0.24794167262571482	-0.2894058310584253	-1.1215563152315626
id553	sample1	obj193	1.755328117616877	-2.2816552174041584	0.2225079143800494	0.2668239536777197	-0.7077546005120514
id554	sample1	obj194	1.8108625210696976	-2.55509281268759	0.47822228151733537	0.023367559898432255	-0.6841215311451915
id555	sample1	obj195	2.281914669938529	-2.2746588397928895	0.20215652119103886	0.14713403365159616	-0.48050735990341253
id556	sample1	obj196	1.8455058306261976	-2.0365900629365434	0.7368329349781352	-0.27137174569999517	-0.5591575401509513
id557	sample1	obj197	1.7918347097344038	-1.8524332132152093	0.576958753385673	0.09029305134810273	-0.734602678564105
id558	sample1	obj198	1.7262085955854478	-2.3917132950459457	0.3071537413987923	-0.08396501044171059	-0.5640056618462417
id559	sample1	obj199	1.9645255516402471	-1.8359855783097228	0.2765759101583269	-0.10992284626456961	-0.7059414311453307
id560	sample1	obj200	1.9097781298502958	-2.435559434886913	0.528449088267253	0.32386163538205504	-1.2519544746318299
id561	sample1	obj201	2.3474670303713205	-2.2959696250137145	0.5275718998715779	0.4780475249313838	-1.1534727435294423
id562	sample1	obj202	2.066835067078732	-2.3786895795363847	0.007723341387983473	0.4847491119063718	-0.5334753863120826
id563	sample1	obj203	2.0032377249024598	-1.9975998567357136	0.5067582080600926	0.037564474782253554	-0.9619325102751574
id564	sample1	obj204	1.9680393088667274	-2.0848114583998862	0.6458841172323775	0.2006877322549131	-1.0981775826859839
id565	sample1	obj205	2.0119431783721877	-2.279567745102444	0.3794149239114285	0.4130108266690272	-1.0112558410842616
id566	sample1	obj206	2.043912963199593	-1.9925785776113434	0.1929834365197906	0.010633407543786	-0.66763383157012
id567	sample1	obj207	1.8515989479106663	-2.183244131942623	0.725049166318175	-0.09385608347868013	-0.7486743578525724
id568	sample1	obj208	2.1537339574548584	-2.4642746195974317	0.35433850289259816	-0.047557732182260726	-0.6896973022088434
id569	sample1	obj209	1.636082716357242	-2.3601705483906783	0.6228834704792184	-0.14772386403078414	-1.117477765891664
id570	sample1	obj210	1.6185050133111107	-2.373370365525919	0.10136515555491293	0.08408944277002994	-0.9403980216311548
id571	sample1	obj211	2.0723011078927596	-2.472561344140232	0.06379726659316975	0.3947656318679934	-1.189387862977621
id572	sample1	obj212	2.2175343121309394	-2.067159178322676	0.5979883501233716	-0.28258085753378737	-1.2299768911711284
id573	sample1	obj213	2.00524791433684	-2.0632569409690014	0.2749769710664463	0.027079700109262195	-0.6154622233663486
id574	sample1	obj214	2.217695075914272	-1.8398959161196178	0.23552492237810563	-0.2690456842465765	-0.6150834326512472
id575	sample1	obj215	2.3516615754834334	-2.208287276181799	0.7880602216851551	-0.2525249619623006	-0.6534129252723014
id576	sample1	obj216	1.998962799746942	-1.926082635074153	0.07596573216764901	0.06657556711124146	-1.1996324843007344
id577	sample1	obj217	2.28002148989005	-1.8769237147068374	0.25109204669421487	0.47211978528364595	-1.047195204120062
id578	sample1	obj218	2.059359959677372	-1.7727638143355373	0.3356148759621466	-0.22184006963061675	-0.5622835265951784
id579	sample1	obj219	1.8766533692252416	-2.4108157262233734	0.6791414847546045	0.4782640589841528	-0.8276889968067667
id580	sample1	obj220	2.1269694361604534	-1.7739116507342927	0.19807541641341755	0.18855182936260662	-0.4789756779755564
id581	sample1	obj221	2.044745535382331	-2.295527961211955	0.05795841871001162	0.0998464257988747	-0.9712654857320857
id582	sample1	obj222	1.7762088389096578	-2.5492015286349954	0.22760211034047317	0.4245193249958187	-1.114419108755393
id583	sample1	obj223	1.8151091857597006	-2.434511942960433	0.7595819125689095	0.47370552407413324	-0.5959993580568469
id584	sample1	obj224	2.3400895982100804	-2.4236961745344545	0.16087284072652855	0.43763037925466053	-1.2369135885189175
id585	sample1	obj225	2.0045468025146387	-2.247265053138787	0.2983424328414495	0.2353467807268721	-0.7932563165599646
id586	sample1	obj226	1.8297154076945248	-1.8141757822855178	0.08726177822094994	-0.01773513069735977	-0.666332649523301
id587	sample1	obj227	1.8397242588746214	-1.9001488994572215	0.15023142151600383	-0.11100417413661579	-0.485353984422655
id588	sample1	obj228	2.21680661732743	-2.5520700783652432	0.38472854639393417	-0.28974057544954546	-1.0955811830578877
id589	sample1	obj229	1.7714733863462895	-2.2400570832754685	0.47814322151298044	-0.2725487201423758	-0.4679633214045166
id590	sample1	obj230	2.204567359594124	-2.3721673403802304	0.060468937960458824	-0.2450365211613818	-0.8313026243830841
id591	sample1	obj231	2.0364829658703876	-1.9378417653852795	0.4500256688416835	0.45303075208358445	-1.0388861429600906
id592	sample1	obj232	2.106744623613154	-1.870493665444227	0.7525038237173838	-0.08423398593582451	-1.0800811798035643
id593	sample1	obj233	2.180367567811887	-2.160127030328981	0.2065062701513879	0.4516854338278975	-0.5328134512862075
id594	sample1	obj234	2.274258700729027	-2.3839750367083883	0.1804143484653129	0.21743380946419388	-0.5618525654900461
id595	sample1	obj235	1.738134364948552	-1.9748553742237411	0.629093056807882	0.398139505298003	-0.6746376056573254
id596	sample1	obj236	2.2533164046127405	-2.468713036903211	0.2904627226685186	0.4068834712127182	-1.0627062632694222
id597	sample1	obj237	2.1751002323838997	-1.8576333093801936	0.07957976415347384	0.1206923174132914	-0.7318603449724812
id598	sample1	obj238	2.1284494295006278	-1.952924147718838	0.12236897848836092	0.26329024168700776	-0.6447302662338443
id599	sample1	obj239	2.2233415284412814	-2.5026596697286174	0.42581651406343973	0.43010197434739617	-0.7896076248685532
id600	sample1	obj240	0.4258975557973905	2.366896325505883	0.026542214593209768	-0.16351335911592174	1.2514922940349107
id601	sample1	obj241	-0.820808907606082	-1.0970063182769043	0.1575369542609517	1.5130408906049995	-0.9863635428047629
id602	sample1	obj242	-2.32628636062402	1.3496791854787342	-0.787767848574704	-1.1569640395609344	1.1428760425397313
id603	sample1	obj243	0.49733946952441543	-1.997005303565726	-1.5860081422283079	1.6235823590617722	-1.9560848346221706
id604	sample1	obj244	2.6955782520276115	-1.346295220233066	0.5973671770352174	0.3688566054613123	2.1050336162307905
id605	sample1	obj245	1.9306120967857008	-1.129195821446803	2.0776453491909104	2.370793165828859	-2.5507440060176414
id606	sample1	obj246	-0.3945387689990453	1.7671672877450437	-0.010530709380364378	-1.547416403278094	0.1075884333242606
id607	sample1	obj247	0.7816296393607243	-2.901173003791543	1.3901359382791891	-0.22513789256745131	1.2434170572196783
id608	sample1	obj248	-1.6161739735870595	-1.6696633609318008	-2.094088792572001	1.450095245767964	-2.146030345949494
id609	sample1	obj249	-1.3375257514097998	-2.758726947680371	-1.743341105230031	-2.9804002613094323	-1.1352259319354903
id610	sample1	obj250	0.9271061005448351	-1.9068720208464895	-0.8278460965550551	-2.2683691476186154	-2.739088302223689
id611	sample1	obj251	-2.571969841521072	-1.8467445368128335	-1.4539059059334862	0.8681351535809898	1.698524621588172
id612	sample1	obj252	1.067365300630915	0.7310233382716562	-2.3602938510272873	0.9477496807736612	-1.8866326179057282
id613	sample1	obj253	1.0714382604559254	2.1767542666968147	2.4036995950750457	2.1778809985599348	0.866907765836934
id614	sample1	obj254	0.09669018372149293	-0.7206642946199321	1.3982360609435536	-1.6743569457193974	1.6235330516172441
id615	sample1	obj255	-1.4404447186533331	2.0516076559067784	-2.327737703699059	-1.9349549054810404	0.36863729298549075
id616	sample1	obj256	-1.537889587816374	0.9392545074805182	-2.4010757344019904	0.03540510284997023	-2.559584799298127
id617	sample1	obj257	0.5749974326438341	-1.5150329377016392	-2.1664942650342978	-0.8299854033502222	1.1586830988985573
id618	sample1	obj258	0.8159186655589868	2.335887330838358	-0.5395525642490607	1.379236483864325	-1.6091771421819905
id619	sample1	obj259	1.9232822798612688	0.6213753755224316	-1.1785803088801585	1.0032672779926033	1.54535944966891
id620	sample1	obj260	0.20182170101417485	1.0791599612222345	-1.3976491776359954	-1.2154948805340782	2.910012060986665
id621	sample1	obj261	0.45056364847390906	0.45646019832559154	-0.7164711396443058	-1.7355184821268332	0.2727182342215794
id622	sample1	obj262	2.799327283405002	0.9347483949264431	-2.668324312966635	2.1346542585412305	-2.3521187934745376
id623	sample1	obj263	-3.1774743375953443	1.2501070089451305	2.1667741078644274	2.863895733590925	1.4130208708358594
id624	sample1	obj264	-1.9116746825802708	-1.2727441151454273	-0.8325214327898884	1.391935886437908	-0.5967315636013765
id625	sample1	obj265	-1.907542163156992	1.7210531587605495	0.7046679366299549	-0.44536041154291695	1.2083859417238243
id626	sample1	obj266	2.1653851785996876	0.8758820136979997	1.9754781478791799	-1.0740981852626676	-2.48553400195482
id627	sample1	obj267	-1.678072564464653	-2.3734445708865843	-1.263980489924762	2.8088809580878333	-1.80437278082302
id628	sample1	obj268	-2.1434769052667146	1.0394432151997972	-2.266073232832326	-1.634199634911491	-0.3302801142730069
id629	sample1	obj269	0.22759102194815306	-1.9882082082195336	-2.021662695046857	1.3216400785373632	0.9780934035605523
id630	sample1	obj270	0.523034791418601	-1.1104407148385051	-3.12441546742677	-1.1209491498703814	2.0296339509244525
id631	sample1	obj271	-1.4394158530600627	1.7988927456313093	-2.4721873507156706	1.5676817103122187	2.5585629285491427
id632	sample1	obj272	2.7235900295192974	-2.2638132316175206	-2.055693069000829	0.8086026418138805	0.38772883808719516
id633	sample1	obj273	0.059915073498021665	-0.6988715914153921	1.0106152197101326	1.9139213390023153	0.2347115282431298
id634	sample1	obj274	2.7345870355723134	-0.07225948438303265	-1.8555885554078482	1.4772686114717435	1.7308388541771342
id635	sample1	obj275	1.3688765127695532	-1.7987766804735719	0.14637642718280347	-0.7715350526586733	-2.068583393345066
id636	sample1	obj276	3.0804269074738793	-2.8006410521593574	-2.695917916597552	-0.6836405583998457	1.673722118143385
id637	sample1	obj277	-0.5944791525047299	-0.7872936076728044	0.5147627808133817	2.5351397714906914	-2.918513187603367
id638	sample1	obj278	2.9058153879940165	1.9392209123430912	-0.34071859949087413	-2.240322322539002	-0.010338640412764943
id639	sample1	obj279	-1.6922841038690215	-1.1804468519973408	0.4817297468411748	2.0278602025926142	-0.021154749334197753
id640	sample1	obj280	2.4346097513748717	-1.9927311812778377	3.0118858099620054	-1.0460437715944673	-1.820418045258545
id641	sample1	obj281	-3.0654417930499904	-2.486695147675362	-2.1835481175268145	0.3523161923043288	-2.94244026856685
id642	sample1	obj282	-0.013488177218377917	-1.0724754177148241	-1.8737876664480904	-1.9038038956668928	0.33625849683577796
id643	sample1	obj283	1.5344664945208728	2.6507879152942895	-0.682653155092594	0.7344471912600016	0.5694406932854831
id644	sample1	obj284	2.327748311607873	-1.9300463923375764	-1.1158096671933284	-1.7286424058625562	-1.3313165936961409
id645	sample1	obj285	2.852949203898085	-1.3468349251562153	-1.9984118567100264	-1.5815997652117986	2.7465177442444215
id646	sample1	obj286	-1.1403074813729885	-1.942667728202602	-0.9151840749678314	-0.38394338337572764	-2.362949310006537
id647	sample1	obj287	0.7478522239580687	-2.3467374811207495	0.06383688692925615	-0.11517422620924583	-2.121891098567227
id648	sample1	obj288	-0.37366223512948843	-0.07515120473813913	-3.106864377146601	-0.007918770849386192	-1.4252622206055654
id649	sample1	obj289	-1.6638380177926557	0.5490996127060274	-2.3253399288928684	-0.9516245142238771	-1.7277993724672798
id650	sample1	obj290	1.5550588459590673	-1.2954765845521465	0.6440134461248256	-0.1342518482374475	0.28508051602248796
id651	sample1	obj291	-0.5016105220185676	-1.5313885342226108	-0.7557937081473157	-0.6104300313435361	-1.7696773459506432
id652	sample1	obj292	2.221370474198464	2.073510770384858	-2.0562464066900925	1.6949449551656108	-0.15408767554377978
id653	sample1	obj293	-1.5033047643274966	-2.5607935506786568	0.5226337183681176	0.5311501848120522	-1.6696990928732667
id654	sample1	obj294	-0.8638970509541696	-1.7102193211739636	0.43442881148130963	2.614783325220922	-1.9613947409790753
id655	sample1	obj295	2.1674382914075743	3.3196428772796516	-2.9196824973493523	1.6467021107091282	-0.7178310717865728
id656	sample1	obj296	-1.981451890035271	1.380008863077705	-1.824721729721536	-3.0097949926101717	0.7010163588855179
id657	sample1	obj297	-2.909820180142304	-1.3164192212883572	-2.984564283023925	0.6479739799321588	-0.047806210697910856
id658	sample1	obj298	0.1296546721193798	-0.3254448503308186	2.7651351988860107	-1.0295286165343285	-0.6772473249727028
id659	sample1	obj299	-2.4216748221563495	-1.4492088719175429	-1.4252397563635277	2.238359674963086	-1.8081851634058304
id660	sample1	obj300	-0.12677559089116003	-1.7454532017230542	2.9748406109738514	-1.5900940573966145	1.3470931604691054
id661	sample1	obj301	1.28443844635364	-2.0454516463814665	-0.953788042883745	0.41401557753586093	-0.12213505578137573
id662	sample1	obj302	-2.216853289927868	-2.1990127644020427	0.5559727691460304	1.08852456332425	0.6755819640217415
id663	sample1	obj303	2.5540806142972783	-1.0310437604832254	-0.8490351334422499	1.059159066617253	1.6346917381620132
id664	sample1	obj304	0.8096345274725228	0.393637398772564	-1.1900933949499777	0.9226561489184426	0.9074914159553689
id665	sample1	obj305	0.7845488855621503	-1.1867619649651973	-2.9446289794594356	0.974907405444945	1.8614683868526631
id666	sample1	obj306	1.2094869913769175	-0.44614782325044555	2.308966325913843	0.4180654826318779	2.0628975294961247
id667	sample1	obj307	1.8994537752847012	-1.9295025063471043	-1.6361578357028996	2.7700114009608425	0.014827260968348271
id668	sample1	obj308	-0.39909754784778995	2.3270344496246205	-1.3900231082185603	1.3764846028109292	-1.950385451293186
id669	sample1	obj309	0.3338932195202779	2.26610850175103	0.6308914824629499	2.9268918177303767	-2.20969801958177
id670	sample1	obj310	-2.7324595436585497	-1.2745905907216624	1.0353116946093248	-1.6058905538490327	0.7308207530722169
id671	sample1	obj311	-0.9914473180518861	-0.05716666611583748	0.9717921993846517	2.2933361858463686	-3.0006988788270683
id672	sample1	obj312	0.2843035812660351	3.167221705850776	2.7312580905481516	-1.4769172245343962	-1.0357008187835546
id673	sample1	obj313	0.9023951900377833	-2.0090523899958797	2.1735422273170446	0.3027046786188352	1.63701233929252
id674	sample1	obj314	0.7648541391612023	0.6522556017407893	0.043090138924479215	0.6710542531291036	-1.1705139421618695
id675	sample1	obj315	1.7920215602752665	0.9682103799675577	-0.9409132378330527	-0.8615347452797881	1.497542713793296
id676	sample1	obj316	-0.9443826185586184	0.8350847306010346	-2.6531701568791246	3.187631259916907	3.3298869994745544
id677	sample1	obj317	-1.078180761611336	0.18390692168903527	0.01733699634420033	-1.6415109778373622	1.9637791209916742
id678	sample1	obj318	1.9616216474337569	2.257198740572275	0.30671007056470123	1.459206119244953	0.032055387693268045
id679	sample1	obj319	0.944474960530161	-2.4879354788192707	1.8899829448075778	2.7882193443164343	1.2602194346695856
id680	sample1	obj320	-0.694086572610274	-2.5310449354393127	-1.4764989248823592	-1.3341834445315788	-0.26433835274380996
id681	sample1	obj321	1.5993448247648296	-2.3887758669094454	-1.7547735198040575	-1.0317490412530541	0.917898862485852
id682	sample1	obj322	-1.9023701883533644	-2.2648208043202516	-2.7779571062815793	2.7371600694051024	0.7008726182917928
id683	sample1	obj323	0.9808649848711557	-1.9869769760293146	0.5414044032470873	0.9709331867446345	1.4033418824817419
id684	sample1	obj324	0.5965340946031823	-0.2714872304449575	-2.102278655550409	0.20268728196239783	-0.19075885780500804
id685	sample1	obj325	-1.5738224256188784	2.2317107511768373	-0.8056728384681926	-1.1664702054499776	1.7812303666515115
id686	sample1	obj326	-0.9224021231381171	0.35781127364085064	1.883642252596296	0.8171429215492241	-0.4962537810222929
id687	sample1	obj327	-1.112752008941521	-0.1447242115004369	2.7465776259380714	-1.875365876710008	1.8175126052832256
id688	sample1	obj328	3.0629602335619235	3.071831748199979	-0.8234151981289253	0.14354844170494507	-0.4750603273782321
id689	sample1	obj329	2.046002918939289	0.6010039846342948	-0.2382169419111862	2.3796378658304955	-0.5784888764774754
id690	sample1	obj330	2.526494277829184	-2.3308364572757063	0.8153591016132258	-2.792769242936518	2.597024617220847
id691	sample1	obj331	1.61072464777779	1.0302113803570463	-0.8699464720676484	2.304995108082546	1.2390361110817336
id692	sample1	obj332	-2.504332609539233	-1.5868514394699251	2.0661369475909934	-1.9548617990691133	3.26503847801804
id693	sample1	obj333	0.8586368238271677	-2.8239969830654394	-1.4983472126421982	-0.06401214107724096	-1.1583961644141612
id694	sample1	obj334	1.765089450296041	2.305945927611773	-2.0569169061307204	1.1436442272607046	-2.8317028932777464
id695	sample1	obj335	-1.0838171685762343	-1.1777664329925346	-1.9190591792922624	-0.841252265832226	-1.495718207060985
id696	sample1	obj336	-2.339314918229744	-3.154518947855974	-2.2908336024021705	0.6285610187348677	0.5200646805810707
id697	sample1	obj337	-1.5881241640190964	-2.6611388337913944	-0.19912548372477057	-2.326803092740311	-1.8544593428164626
id698	sample1	obj338	0.9747698914644456	-3.0875275853524675	-1.0145553913292158	0.8372986948228669	-1.3882571754514719
id699	sample1	obj339	-2.0569800647061287	0.5348965264766877	2.4585916426207897	1.7621561084444468	-0.9706582013649891
id700	sample1	obj340	-2.4990147775405642	1.7327370020747017	1.0269479426150496	1.440475556662537	-2.20976409809591
id701	sample1	obj341	0.5633877250876346	2.9817538858047015	-0.7408831010603893	-1.84811854991017	2.573773405010688
id702	sample1	obj342	-0.3463853535853497	-1.8489696273823686	0.4559660907679892	2.102663918354419	-1.1455896249075015
id703	sample1	obj343	2.685385301103073	-1.2267967015485082	1.868734470281741	-2.587804087994992	-1.246974856745208
id704	sample1	obj344	0.3795220436154819	-1.951412572715406	-2.6738860415759143	-0.7825895688101084	-2.9467843822697706
id705	sample1	obj345	-2.1172601886348192	-1.2625861959460871	-0.9062898337608711	0.28554155425220307	-1.4243133996096233
id706	sample1	obj346	-0.5863020923119918	0.9597390734139665	1.411451347779662	1.1856574908021738	-2.027519655904647
id707	sample1	obj347	-0.4372361351767924	-2.3594769823735815	0.27841918267350074	-2.1986820869900994	-0.5307069169993482
id708	sample1	obj348	1.1737365357497769	-0.7464421024836438	-2.7886720158973475	2.5150891162893316	1.496959765549484
id709	sample1	obj349	-3.128500539891163	2.1226701641577983	3.1327807499726594	-1.5920876919883087	-1.770496083664538
id710	sample1	obj350	2.7346363322469647	3.18879639758722	-1.609887313740631	2.6961683955964406	0.5681175637181517
id711	sample1	obj351	1.0866228822695863	-1.3634412273121808	1.714316147863928	-2.511579275003372	2.5139627218485336
id712	sample1	obj352	-2.2832614472232766	2.892766081981182	2.633357133433827	-1.3074521563547932	-3.041708960370122
id713	sample1	obj353	-1.0845672039356564	2.9381242937263194	1.9815569568524563	1.8359090193946028	1.7261983025039154
id714	sample1	obj354	-1.429463491313342	2.616887752800364	-0.6554552601516695	-2.801031456600951	-1.285799136407835
id715	sample1	obj355	-2.6395950424577688	-0.34148737765949316	-0.1477424538248503	2.1447485048577866	1.9493818337140807
id716	sample1	obj356	1.4443066963353686	-0.9779140097583534	-0.610088679793399	-2.3738607627583233	0.9165375469373864
id717	sample1	obj357	-1.3873659215942329	0.5081236375464531	-3.0694165340099846	2.236611740067957	-2.6392137278172982
id718	sample1	obj358	-2.602936168686492	0.3659322811473201	2.3147146613982135	-2.2919196797704497	-0.5818813090964
id719	sample1	obj359	0.6351477747944563	0.49999419524036526	-0.8179226131223968	-0.375064665992515	-0.5259496904626269
