	0.6195264897558275	1.005355634764797	1.0664929775141123	-2.948271510917527	-0.8268685092670149
	-0.6130708732725978	0.41151127314538627	-1.7742223039784797	1.67832416475181	1.8795689594286276
	1.363495911203126	1.286485996943625	-0.3194536787000928	2.045522127450731	-2.7179948886793213
