id0	sample0	obj0	-1.7455324830222574	-0.18932367962409613	-0.9396097228429963	2.1693353346443827	-2.332823974529808
id1	sample0	obj1	-2.3547823933508254	-0.8070752967626369	-0.8279396895144382	1.7020790391826504	-2.667057129420538
id2	sample0	obj2	-2.980821885156904	-0.009089678434041515	-1.711853456900487	2.31453965666817	-2.602521384532819
id3	sample0	obj3	-1.6680631618127062	0.6166675901012635	-0.9488941584361392	1.3056842852754371	-3.1103309067907112
id4	sample0	obj4	-2.5781987182337565	0.6041658148182225	-1.0675368609553653	2.1494517997558047	-2.9799933968120875
id5	sample0	obj5	-3.0907209322581695	-0.0032055573512088653	-1.1724416670446112	1.3168492044958657	-3.435684615394877
id6	sample0	obj6	-1.586752747235871	-0.5401357281401153	-2.0314372444940263	2.236941060009476	-2.2527834162243763
id7	sample0	obj7	-1.709981145632408	-0.5344028205923084	-0.8313540686458352	1.922798647686432	-2.406189269670123
id8	sample0	obj8	-2.372744579535736	-0.008753880749068799	-1.0913351084331995	1.4708064884678103	-2.471636981701776
id9	sample0	obj9	-1.9451946738944086	0.0755834834356579	-1.0740511371496753	1.3932920424402784	-3.2708933612010673
id10	sample0	obj10	-1.5543605395690325	0.03408077754601846	-1.0357801232877997	1.9293135665651024	-3.174811755150991
id11	sample0	obj11	-2.5263356459006223	0.4027358746326364	-1.6790077573558633	2.3856746700442963	-2.1031640430750294
id12	sample0	obj12	-2.1021151396780513	0.1537547816185384	-0.9645119466387124	2.2038912542360665	-2.1104086146427936
id13	sample0	obj13	-1.6942750007651275	0.11721634982700524	-1.2272404854007601	1.7679846524573095	-2.9205211117885232
id14	sample0	obj14	-2.65114189507104	-0.10948689126898115	-2.020119626164709	2.4266709701736335	-2.5451511371996185
id15	sample0	obj15	-2.755789073707442	0.5858227035274135	-2.055676573014302	0.9908286341639884	-3.1361099311989884
id16	sample0	obj16	-2.5825497606617693	-0.1558081774538248	-1.275461227404396	1.39711151971906	-2.908979362784106
id17	sample0	obj17	-2.712199248520189	0.6470664407984212	-1.7751452288112182	0.9403013020661724	-2.627897545278716
id18	sample0	obj18	-1.69196103510537	0.1213424977794142	-1.447302788417309	2.4345165915919917	-2.335759892850686
id19	sample0	obj19	-1.8164770365692524	0.42630304259956886	-1.2476693448886138	1.5557870648787921	-2.3976133504296953
id20	sample0	obj20	-2.0742825573116477	-0.28078897309206585	-2.2925726650924174	1.4598141286276305	-2.021353076994428
id21	sample0	obj21	-1.9995858367629686	-0.16509051030908373	-1.9786725235609803	1.0980436461320642	-2.4273933220538826
id22	sample0	obj22	-2.814701492769348	-0.6774034567914682	-2.2795657698815432	1.9365290915160036	-2.8312145114447222
id23	sample0	obj23	-2.3427684545382186	-0.7759347335040871	-2.2906544780448885	1.2045313472213595	-2.128024079478057
id24	sample0	obj24	-1.5868325086527106	-0.2588220131062363	-0.8123687853545252	1.8774437842251541	-3.0506468433589338
id25	sample0	obj25	-2.958426756256661	0.7402559380266012	-1.805824676709324	1.3705123485266442	-1.9086213871919613
id26	sample0	obj26	-2.919882273457798	0.21645910659340073	-0.7227155615679317	0.9500023277638351	-2.5817536044968166
id27	sample0	obj27	-2.778177752892972	0.6561813667632186	-2.0761223141568363	1.446008861527606	-2.483513738496359
id28	sample0	obj28	-1.507633551528857	-0.12095562487259459	-0.7294191509403436	1.5900785797208792	-2.052086329513366
id29	sample0	obj29	-1.8326070600220592	0.12731211483581872	-2.0599874390305644	1.540269951301856	-2.768040719124659
id30	sample0	obj30	-2.892989296762972	-0.26147842259499243	-2.1014642498089335	2.160288918459061	-3.2109119184014734
id31	sample0	obj31	-1.843179431575763	0.4509013269931115	-1.7561867335965768	0.9769602342252377	-2.8009122049937276
id32	sample0	obj32	-1.572754579629389	-0.2602113285540728	-1.6467819650437554	1.7655942734524812	-1.849965898317502
id33	sample0	obj33	-2.732702048902498	0.18082045255686574	-0.865933017039717	2.044845510030634	-2.6667124491746526
id34	sample0	obj34	-2.0282713365616	0.02122555355875233	-1.1846654228320177	0.9654978465826349	-2.6964941826030597
id35	sample0	obj35	-2.596675257897174	-0.621848547370275	-1.4654773048008647	1.0403134524383357	-3.078070898787566
id36	sample0	obj36	-2.9984590505521607	-0.43832661782299653	-1.445722979823616	2.298707682970124	-2.8873235699861612
id37	sample0	obj37	-2.363801691802006	0.05402845200902073	-1.532288046258869	0.8996300894170275	-2.1129580799326053
id38	sample0	obj38	-3.072751029165353	-0.2952529847477269	-1.0792030854888195	1.2626959703863272	-1.9436386925558737
id39	sample0	obj39	-1.8098633693946822	0.28778666894430116	-2.1788705391322782	1.770393903727975	-3.1885036265666375
id40	sample0	obj40	-1.5923547081947576	0.6005684867664036	-1.9334617986675713	1.767148791313454	-3.22708086015177
id41	sample0	obj41	-1.975112339363125	-0.21996328905348417	-1.609216475712235	1.3732143411640898	-2.488670215888082
id42	sample0	obj42	-2.109200583618068	0.6065717180044106	-2.01128284586384	1.3068633816462232	-2.6687209499908517
id43	sample0	obj43	-2.7712600459661147	-0.4731532887260567	-1.923811688359231	1.956201244072377	-3.3490547646904334
id44	sample0	obj44	-1.862882944288471	0.14059149629878065	-1.487695511756144	1.3762117846217334	-3.1233975392139035
id45	sample0	obj45	-2.850085760048519	-0.12222418785932698	-1.3600671407844085	1.4464168171276954	-3.338025927665699
id46	sample0	obj46	-2.6968324421509475	-0.4189878195022999	-1.3138755129954165	1.5738526312209355	-3.0128468664222754
id47	sample0	obj47	-2.8416237838712375	-0.5329338624177993	-1.9659758694719838	2.2540022388530776	-2.5593447197819827
id48	sample0	obj48	-1.7458981752362548	0.7603137276340075	-1.4166495508400758	1.0229351508103397	-2.7819909947428654
id49	sample0	obj49	-2.0558256646811994	-0.4161379602091	-2.2657362724530086	2.0862542755074234	-3.4373517446900554
id50	sample0	obj50	-2.088454751376737	-0.20008409031033714	-0.7390628813533595	2.158602061916352	-3.303686007383572
id51	sample0	obj51	-2.6775314651272604	0.4738883616200562	-1.3870192983074225	1.0804905395552526	-2.5317428152875285
id52	sample0	obj52	-2.7670868176740813	-0.5142169534280736	-1.153406191546175	1.6111605458538958	-2.3281708264182495
id53	sample0	obj53	-1.5705214027005463	0.24158204207685174	-0.9804948273185905	1.3661028596003093	-3.36489179237946
id54	sample0	obj54	-2.5428415465271454	-0.7141847731256479	-0.8140360439617635	2.4398528270471918	-1.984394633665086
id55	sample0	obj55	-2.0423572204867493	-0.15176658975265622	-1.2731702154020266	1.6177623382928927	-3.4306173885881597
id56	sample0	obj56	-2.4589764177308133	-0.3383867797904323	-1.8032600049991372	0.9487205931720497	-3.0013377234603125
id57	sample0	obj57	-1.9076591988447498	-0.0217434840591888	-1.3580306837872296	1.0633011088453932	-2.0892276037757727
id58	sample0	obj58	-2.751068045756322	-0.2712316747614999	-1.5594959025230335	1.742619870459979	-2.9283785998103955
id59	sample0	obj59	-2.723403433816794	0.07226994890011229	-0.9334098444714114	2.361358779420466	-2.9396134018088906
id60	sample0	obj60	-2.2512843624339296	0.7713892616758888	-1.962851032781528	1.3580055253139514	-3.394697862002469
id61	sample0	obj61	-2.15576043470291	-0.19776738531991733	-1.1664555292240029	1.5654441466010869	-2.0951007760034424
id62	sample0	obj62	-2.3955605872658503	0.6181418153053586	-1.2892061568269906	1.7296668874820855	-2.1586460687998414
id63	sample0	obj63	-1.8739340926772603	0.29044069463843925	-1.7659930742242367	1.6426246306254224	-3.3757073151475034
id64	sample0	obj64	-2.8533566209478716	0.23863949153360564	-1.3298249750984696	1.1311589168839504	-3.3589415504976667
id65	sample0	obj65	-2.352397641870642	0.050755357094242504	-0.9110270198745793	1.3166193964159112	-1.9653877047998587
id66	sample0	obj66	-2.8606113559345725	0.12058468683380175	-0.8094485014057411	2.053235173012651	-3.1905000435732074
id67	sample0	obj67	-1.8988605170424975	-0.24300770279798467	-1.9920587866763513	2.156633413270223	-2.368789227845407
id68	sample0	obj68	-1.9474461705899844	0.039624092423827806	-1.6217708919878502	1.5611521437232039	-2.188637110267443
id69	sample0	obj69	-2.1112375084966444	0.1199679891065486	-1.7833351443034733	1.4348335407834314	-2.937976625756718
id70	sample0	obj70	-2.7131082309109393	0.5354435501751362	-0.7371302521135299	1.9982762450898033	-2.61632075776671
id71	sample0	obj71	-1.8028294683085349	-0.8187414189896466	-1.8750805836356383	1.926928863927051	-3.0255224766972075
id72	sample0	obj72	-2.211581352655036	0.15918970107109698	-1.9231863869355508	0.8799878292106362	-2.910089351095646
id73	sample0	obj73	-1.8208615301912803	0.40829111168812715	-0.955704003955405	2.1318811099047172	-2.756297232635339
id74	sample0	obj74	-2.1722291975163897	0.5588695744132617	-1.6552942855643324	2.048438638908094	-2.3511879859208893
id75	sample0	obj75	-1.719463587083638	0.7019482166140143	-1.844906702035187	1.7383329149529592	-2.2962305422491727
id76	sample0	obj76	-2.090774182542089	-0.2790593632313566	-1.1792198071412632	1.235282139195596	-2.089413092533829
id77	sample0	obj77	-2.734113690531129	-0.5955691044469686	-1.6395580727185417	1.966904259477089	-2.5322524219026787
id78	sample0	obj78	-1.586851714522105	0.18786649653254783	-2.0247814068180543	1.306058223178753	-2.1580931844043434
id79	sample0	obj79	-2.340504078457755	-0.3783142020197957	-1.1451402631759042	1.8690700302858179	-2.263561321453049
id80	sample0	obj80	-0.4251953100887714	1.8456693670125455	-1.2812351458089855	-0.6715017625302906	0.9889222202276816
id81	sample0	obj81	-0.15660287289295227	2.073958728483009	-2.4527986968596185	-1.3430838477653286	2.0281910679318633
id82	sample0	obj82	-0.82930412311461	1.7182229132297266	-1.4970900290069449	-1.61057499062839	1.8970022168915373
id83	sample0	obj83	-1.253482997797117	1.8557499738330687	-1.3489041956777854	-1.7545200792238411	2.0968149325411285
id84	sample0	obj84	-0.014803575739382957	1.3331394833770371	-1.5051785443454027	-1.7060521032577225	1.3433650226938902
id85	sample0	obj85	-1.113846761620939	1.9395562672386746	-1.55716954694964	-2.0765945536653136	1.907041978209514
id86	sample0	obj86	-0.4849460269174546	2.13142242946549	-1.78941257240515	-1.6135571085004146	2.0305508421774414
id87	sample0	obj87	-1.3674121662689975	2.4901016185485068	-2.0039705540572723	-0.9015634614802599	1.3537623021804788
id88	sample0	obj88	-0.4873363855670295	2.7388625388199745	-2.3159235805803307	-0.8698567427612613	2.025025248989194
id89	sample0	obj89	-0.7639646997944046	1.3265667520176678	-1.4787883554158339	-0.8133973257751506	1.572606939852617
id90	sample0	obj90	0.1955148375097977	2.242172314590239	-2.1350257303125604	-1.2237353665894026	1.8758989103733676
id91	sample0	obj91	-0.6933957869929172	1.3203431777256913	-1.320430812567617	-0.8669460420075161	2.2651444333411264
id92	sample0	obj92	0.10913120085980865	1.2232640080879729	-2.330442430208189	-0.8256937139068976	1.7672670730104518
id93	sample0	obj93	-0.8771261861219284	1.4512476618450285	-1.5046922221240293	-0.7017824730333271	2.205475003301144
id94	sample0	obj94	-1.0402374234592113	1.9839464671355254	-1.7018815548414739	-1.990290471392203	1.9782407219080675
id95	sample0	obj95	-0.20137393012213134	1.6490048300844071	-1.393754974009851	-0.9975119930292382	0.9405765596849143
id96	sample0	obj96	-0.9778480420120126	1.7448791621265711	-2.4529799564344597	-1.6683821299507673	1.463804917165928
id97	sample0	obj97	-0.6486626093593179	2.0233662006655955	-1.1685732136597589	-1.6757721604290305	2.3608178801790025
id98	sample0	obj98	0.06676219195905797	1.6041831841335503	-1.9925765457400073	-1.1399543915113965	2.358700725089801
id99	sample0	obj99	0.18009567269951932	1.8127978974755818	-1.2764157036024815	-1.7025851608358105	1.331118192226349
id100	sample0	obj100	-0.8600908639378663	1.2926727494759631	-1.543210436333509	-2.1616765112483898	2.2455910646802364
id101	sample0	obj101	-0.8253291451482818	1.5582307993138265	-2.2866839454429564	-2.143162076509368	1.737293703679057
id102	sample0	obj102	-0.030688504069286582	2.464231928948721	-1.3866780782296175	-2.07674628118781	1.517832538129602
id103	sample0	obj103	-0.9584690993880309	1.2349297759651652	-1.9590576389807821	-0.8696964625974017	2.5161946774695885
id104	sample0	obj104	-0.7433704744890285	1.4114250972419229	-1.8624209999664518	-1.8180320406529888	2.1062381232764817
id105	sample0	obj105	-0.153344147460442	2.552101634870957	-2.0889579186091467	-2.2211217562362955	2.302299172254043
id106	sample0	obj106	-0.9423725449073683	1.2979911767493122	-1.4704529939436897	-1.5089547213958476	2.2282778080596692
id107	sample0	obj107	-0.7609337824226887	1.3564225222536992	-1.206256371096979	-0.7622445726566376	2.0374917883480603
id108	sample0	obj108	-0.1603436050771203	1.451434443980415	-1.8164731046439764	-1.6899910291417068	2.0572270578196346
id109	sample0	obj109	-1.2669554675643717	1.6522299633567274	-1.2640945318427845	-0.6881034518117704	1.8548187393272721
id110	sample0	obj110	0.04521836083319264	2.1604879039564926	-2.472748804144075	-2.072115925250997	1.697835400613502
id111	sample0	obj111	0.1910907857565065	2.5776853592752653	-1.865617168198833	-1.367840419748417	0.9610724070515257
id112	sample0	obj112	-0.5205672390854781	1.7737859903668856	-1.1142906189449295	-1.3419404142527633	1.1941499419030182
id113	sample0	obj113	-1.136284701035496	1.3527764252912333	-2.337359111541376	-1.4208095811803083	1.1071216873065928
id114	sample0	obj114	-1.221709203066511	1.8976484356615508	-1.5257769232320944	-1.3167379538299653	1.6841907296810015
id115	sample0	obj115	0.20623502142408956	1.9415912515706684	-2.4689636998385147	-2.1660852238526154	1.5489664151856197
id116	sample0	obj116	-0.7963552849407407	1.742436919705069	-1.460625946163949	-1.87099029869101	2.0552383247759027
id117	sample0	obj117	0.006801883766403449	1.7478581081531923	-2.1998478208913927	-1.4849688017995386	0.9665570241549156
id118	sample0	obj118	-0.7500582593166631	1.3685105855393438	-2.2695484890192548	-1.929521197120183	0.9425552316470694
id119	sample0	obj119	-0.8760458392326366	1.4893072778367387	-2.544366511224193	-1.8845320576853724	1.6214829814789025
id120	sample0	obj120	-1.3632249841603294	1.7343682436950978	-1.5018530598221647	-2.045723697391863	1.6534264231987201
id121	sample0	obj121	0.14604438952530674	1.672974799451552	-1.4079672309509517	-1.4486706797832947	2.2986957891032045
id122	sample0	obj122	0.2003860918631477	2.2511272910068953	-2.3187123904299876	-1.2568247966503336	1.5874659481989908
id123	sample0	obj123	-0.051040230779042295	2.420128867800114	-1.8577614214197247	-1.4115810072416464	1.2914954445709328
id124	sample0	obj124	-1.2136832696044615	1.199052856645973	-1.9435378914771486	-1.4315673931127084	1.563199498182088
id125	sample0	obj125	-0.15738643540111497	2.1660638687297973	-1.271878903078357	-1.2870088947194671	1.653071003782483
id126	sample0	obj126	-1.3155309760474059	2.4634117139179494	-1.510545737236564	-0.9991293002814272	2.14999525867393
id127	sample0	obj127	-1.0392511773540876	2.186568024208034	-1.202907607625807	-1.8350580952086704	1.351949042059066
id128	sample0	obj128	-0.5631029732567295	1.1984899502173727	-1.1585364335822605	-1.571533651609252	2.043477615633268
id129	sample0	obj129	-0.8373425967021655	2.379434247982659	-2.5516587300386897	-0.8467831052392405	2.4327656302211413
id130	sample0	obj130	-1.2122862738614986	2.0301735684680393	-1.4528465951543055	-0.7452453091565869	1.711621023555053
id131	sample0	obj131	-1.0205193854887789	2.45594546595429	-2.358435727861905	-1.9752276005886136	1.7978410992119729
id132	sample0	obj132	-1.2664386576875222	2.659056018261812	-1.2043696028828776	-0.691083375958853	1.5777842567965652
id133	sample0	obj133	-0.34817961144257925	2.473829079934806	-1.579921182471754	-1.040009403719007	2.189097639495825
id134	sample0	obj134	-0.3278457238101695	1.2275971115171025	-1.6904790182414393	-1.0150182761588433	1.4960064291690682
id135	sample0	obj135	-0.7305490137432317	2.669736562793358	-1.2307357846776692	-0.9809879264291625	1.363924083499655
id136	sample0	obj136	-0.26453269770098164	1.5664220197266125	-2.168626025801894	-0.9958599623302329	1.2129503947438216
id137	sample0	obj137	-1.3620142287699184	1.2258676824751618	-1.6296582915000617	-1.5349893779032182	1.9226533035007325
id138	sample0	obj138	-0.06679649056261794	2.0364101874553997	-2.209320595322373	-1.079279299321611	1.8999403316355106
id139	sample0	obj139	-0.8385854477718849	2.331921271842221	-1.4014349033992348	-1.5580014715444184	0.9593811025851708
id140	sample0	obj140	-1.278760778352399	1.9347872272099234	-2.361141803222912	-0.8310447824685296	2.2776033955131334
id141	sample0	obj141	-1.2565100251137906	2.0801159576220436	-2.546043526081096	-1.5136876482248247	2.071917610967807
id142	sample0	obj142	-0.3511937919483963	1.9349951562104426	-2.3963622443555246	-2.0257921529876395	1.344687688143788
id143	sample0	obj143	0.07500433291556141	1.9575880536112722	-1.2982147394600299	-0.9975074541110021	1.4807242161650565
id144	sample0	obj144	-0.7727675192832415	2.1816791980000243	-2.271707641263125	-1.171083090278867	2.461691372072881
id145	sample0	obj145	-0.11194003857366375	1.7770358813918476	-1.6609506700639074	-1.6641681012673581	1.4707528605979925
id146	sample0	obj146	-0.49787255990665735	1.4636907269718697	-2.1747103164923924	-1.1399462928727604	2.129000074906066
id147	sample0	obj147	-0.9775006870841378	2.6130414413219967	-2.207719010186576	-1.5745689417240034	1.2841653419594499
id148	sample0	obj148	0.1999580958393401	2.139570335587514	-1.8120536332999964	-1.1085316473262048	2.0382925285231486
id149	sample0	obj149	-0.936276626431493	1.6880642162254378	-1.808937297270607	-1.9768388192755197	1.555974439724419
id150	sample0	obj150	-0.04097399701787219	2.591535466627337	-2.6322409940885207	-1.6689461135930044	1.6650364401456748
id151	sample0	obj151	-0.9248106984137574	2.7786637300109156	-2.34930073445869	-1.0845031192441668	2.198709756690109
id152	sample0	obj152	-0.15608233109900316	1.5355608957121327	-2.360860923513629	-1.4107769480811403	2.0089597293209396
id153	sample0	obj153	-0.43705912907648303	2.389069520703261	-1.0634431522186198	-0.7132553181909567	2.5062746148700237
id154	sample0	obj154	-0.9184371156966724	2.5167027803467557	-1.4626572947525454	-0.8382459683137589	2.278443936497044
id155	sample0	obj155	-1.3264122560606961	1.265780661833281	-2.6283593060657653	-0.6862451311094244	1.3612224372635484
id156	sample0	obj156	-0.4539018569198502	2.770378249282715	-2.3305511451763015	-1.21337499402249	1.9538501289645094
id157	sample0	obj157	-0.25878822489694264	1.6034386114823174	-2.4119535474042006	-1.1162326305618933	2.3937436883274126
id158	sample0	obj158	-0.8412047451175696	2.3318771200289614	-2.137698057726601	-1.7889818132050639	1.1538489930977667
id159	sample0	obj159	-1.1372579137538827	2.5187805607870453	-1.2880174729366412	-1.221395852665279	0.9547168019231341
id160	sample0	obj160	2.0506136233220973	-1.8995798884638826	2.9140521710485645	-0.2042393257148427	1.6598312380738325
id161	sample0	obj161	1.9876382752470267	-2.681480854770354	3.499777641650449	-0.5154936264081045	1.9211802021717905
id162	sample0	obj162	2.128341813246944	-1.9417007597547447	2.1594053334781997	-0.7906259563433504	3.0989494460064066
id163	sample0	obj163	2.1261283931464	-2.493784373909156	2.410766901511635	-0.8631804918572052	1.8230574761565292
id164	sample0	obj164	3.1113240910916176	-1.580773495888309	2.334509508959373	-0.4545623293615899	2.956166474003499
id165	sample0	obj165	2.831279759499628	-1.8281964761670655	2.603764931537905	0.11526258715987958	1.6747930903217683
id166	sample0	obj166	2.8165504226468823	-2.9551349790028913	2.7885454900256392	0.3152497535550176	3.1568118628671056
id167	sample0	obj167	2.3459605569199438	-2.3027313764764368	2.1299743107540374	0.04879715145917296	1.691680070400053
id168	sample0	obj168	2.287230483587139	-1.643206193632933	3.3060741902190944	-0.6473839176191059	2.3181468923825017
id169	sample0	obj169	2.748095784472671	-2.4747328471214165	2.7371634848030126	-0.1010432160699406	1.752662542097711
id170	sample0	obj170	2.6620672396157916	-2.1493085807501804	2.3065022072838492	-0.910811500213813	1.8267391041865508
id171	sample0	obj171	3.054713317272757	-2.85800045450412	3.1272569117374265	0.13709059578876404	1.6546944856303374
id172	sample0	obj172	2.217163922243417	-2.1215709141805523	2.421673660492754	0.33699517096462506	1.7810971372039335
id173	sample0	obj173	1.9049954153689472	-2.890439890961119	2.4691264714521957	-0.9658060052097946	2.6113874673791724
id174	sample0	obj174	2.259324299335381	-2.007151983712078	3.2280045889982665	-0.27315646929046733	2.2361380572542675
id175	sample0	obj175	1.6143767438445131	-1.6629294525428524	2.668782395526862	-0.5809608217908719	2.370800152524997
id176	sample0	obj176	2.0385679288965655	-1.6984404696875761	2.2236386270617174	0.12784081765946098	2.3251221270451117
id177	sample0	obj177	2.0057924143993455	-2.5435345271437253	2.338222517094712	-0.4381191542078714	1.7912863387320095
id178	sample0	obj178	2.5867460084832437	-2.722331979122654	2.705164601044654	0.399838435823886	1.6237522155229924
id179	sample0	obj179	2.8882416978139966	-3.104637758708091	3.2932627483076224	-0.6074248733052523	2.428379326892057
id180	sample0	obj180	1.778204341304527	-2.0731202779730205	3.4124996957040032	-1.0928308014108583	1.760197501712574
id181	sample0	obj181	2.3668966509304292	-2.783991089682966	2.549733405555596	-0.13648803040361712	2.2497542634362766
id182	sample0	obj182	3.1475036032278743	-1.8879771816017994	2.8746042446894995	0.34860945140927413	2.563863811574795
id183	sample0	obj183	2.7330458503172577	-2.2841331738517696	3.1764883239024293	-0.2806758372790318	2.0093716906701067
id184	sample0	obj184	3.0882691971585468	-3.0124338087627835	2.502756703610983	0.035059801161792636	1.9847955271140536
id185	sample0	obj185	2.896227664241684	-2.438052553471628	2.80273698984174	-0.5631021769654575	2.0759680025884983
id186	sample0	obj186	1.7963050961843008	-1.7017117210267447	3.0421797252062714	-0.626998555491982	2.6046559050740132
id187	sample0	obj187	2.184967848547047	-1.74241534407281	3.4662718151167415	0.2507730308276659	2.6251220859414053
id188	sample0	obj188	1.9091692535057443	-2.4521922491528882	3.0068707849414555	-0.6116530003229338	2.99929607921601
id189	sample0	obj189	1.6566014704956245	-1.7831132017071956	2.8282250098057204	-0.619415934145732	2.268188434457289
id190	sample0	obj190	1.6334703212680002	-2.655747753479797	2.7865536925495507	0.05186771391911993	2.3019846336713563
id191	sample0	obj191	1.8207188286892357	-2.3513248489926375	2.5690527908322247	0.42875309990912225	3.005450536410154
id192	sample0	obj192	2.640207954798431	-2.818097401741685	2.228728949314088	-0.456059227161548	3.0554326915336354
id193	sample0	obj193	2.2948396849264925	-2.3717221457312534	2.619506355277487	0.4182119941008089	2.454910775854871
id194	sample0	obj194	1.9475410728149252	-2.280786719653596	2.2628648486101968	-0.577076080266658	1.6298117215746641
id195	sample0	obj195	2.9749816729053085	-2.0378887727170047	2.1694120412174724	-0.30850950174076375	2.8221949565352666
id196	sample0	obj196	2.1994321482994983	-1.9348283726413151	2.5478315078624356	-1.061973873340133	2.323023823453715
id197	sample0	obj197	2.217851252148493	-2.573458032465645	3.3361453180364546	-0.9059291134650395	2.8411125713033933
id198	sample0	obj198	1.7876763651378162	-2.7124786770882596	2.387745437469911	-1.1458941609914617	3.148546893467003
id199	sample0	obj199	2.8954481035863173	-2.010912147933511	2.1637461476365747	-0.283527417210356	2.328476692206962
id200	sample0	obj200	3.153888681924599	-2.4920616707858017	2.075451876814031	-0.6676084210025893	3.055239250390752
id201	sample0	obj201	3.196937107286846	-2.7034249110400492	2.2626850256871625	-0.8289087550588145	2.260848988898241
id202	sample0	obj202	1.9470830592261432	-1.6491907909518395	3.1869363780945776	0.43768079419640826	2.312550872613115
id203	sample0	obj203	1.7167029988084117	-2.1585654444150295	2.0893524136942836	0.13138102563594223	2.3949386375053976
id204	sample0	obj204	1.9015412653389356	-1.636175049248423	3.164019415082827	0.1191365433767595	2.833651673472097
id205	sample0	obj205	1.681567214446642	-2.8061190096684534	2.8034060895691377	-0.33747022519502	1.8174461836657376
id206	sample0	obj206	2.738731322476182	-1.669834130924513	2.1867496618150755	0.23836351288291024	1.6980480982349555
id207	sample0	obj207	2.734206844759433	-2.08571838644809	3.0301736799287005	-1.075659146346641	1.8242058449330405
id208	sample0	obj208	2.2860972896730254	-1.8563849841671012	2.4509745516551256	-0.40499249656914316	1.8743235808827077
id209	sample0	obj209	2.903880484036711	-2.9634166923924004	3.2943703140571863	-0.27140432866128084	3.192542040819802
id210	sample0	obj210	1.7446056092329465	-2.0804990125119747	3.1306290972580593	0.32668522833269176	3.1326998290764028
id211	sample0	obj211	2.259625601778327	-3.0597696624890665	2.78045340892974	-0.41526357264812663	2.024819100835648
id212	sample0	obj212	3.0259950939636138	-2.3340674663393606	3.318346799653625	-0.26338688635840357	2.57617880291419
id213	sample0	obj213	2.455157194277434	-2.795433668613576	2.413999630512963	0.26926818710725064	2.30522471400801
id214	sample0	obj214	2.5197404253746924	-2.658649138994861	2.502058059480157	-0.4711327080002883	2.50808737620525
id215	sample0	obj215	2.538758053390914	-2.533722775804426	3.047551028310525	0.20584356364191136	2.325890966171043
id216	sample0	obj216	2.1388011710283266	-3.1240128474715543	2.4493053300922396	0.20776841572338167	2.292909877653275
id217	sample0	obj217	2.615514096544618	-2.8230050932243853	3.3734402582161263	0.04455589261841686	1.8025187358678467
id218	sample0	obj218	2.432291600484491	-1.8636241743722788	3.3350652902052893	0.024448357833918966	2.8563554763214825
id219	sample0	obj219	1.6133113335743088	-2.9152580166303945	3.0751672388170226	-0.6194720812871974	1.6137343371080448
id220	sample0	obj220	2.742267693591864	-2.9363636889672446	3.3629322372900887	-0.26978234930883715	3.109670132912586
id221	sample0	obj221	3.1180722947945965	-1.9605367137055714	2.66796179061969	-1.0465528826283013	2.2624687941185417
id222	sample0	obj222	1.8208923904442362	-2.0822009439016322	2.1935781569370856	0.12291549163464377	2.472265751275727
id223	sample0	obj223	2.407773545303421	-3.050550578110655	2.468229644551865	-0.2787398890454721	3.171714015051843
id224	sample0	obj224	1.8132999129769665	-2.887986820155659	3.0084684192968174	-0.6510137983422244	2.005800945687758
id225	sample0	obj225	2.4288475184390146	-2.6079773814924874	2.3706416503322636	-0.8971982199256378	2.791071248532467
id226	sample0	obj226	1.8505450505490928	-2.077963309825334	2.8008737383531574	-0.04941074528234357	1.6619106107738255
id227	sample0	obj227	2.1226344159513406	-2.891584546207927	2.8006883768348843	-0.1643030269317265	2.4045706849270814
id228	sample0	obj228	3.0860841092011926	-2.5920284942404708	3.5002822410604395	-0.676388673782881	1.9848444794924414
id229	sample0	obj229	2.823613415356263	-2.410662404486127	2.1495846946182837	-0.5025651296213173	2.0943032078301425
id230	sample0	obj230	2.0482973569498095	-2.813230501654083	3.0003773940927045	-0.8209872544022407	1.6993367452691768
id231	sample0	obj231	1.815203391355125	-1.8157133938154026	2.7874720805972286	-0.4109205986446103	3.128467588659149
id232	sample0	obj232	2.8706254182950786	-1.7544034554791657	2.274810605666629	-0.6234981322489468	1.9530911329995808
id233	sample0	obj233	1.7429872102266573	-2.555778117615157	2.7899277830096976	-0.21735910322003638	2.7064993252893292
id234	sample0	obj234	2.4999542039209643	-2.812294175094939	2.9290590790558544	-0.07390555370192464	1.972329412404757
id235	sample0	obj235	2.849275482309555	-2.66621605361282	3.001853803701377	-0.9153035344883554	2.90800980528489
id236	sample0	obj236	1.9729457984502088	-2.445967461524335	2.35072297092946	-0.37032314514393183	1.9279124414148734
id237	sample0	obj237	1.9069880568550968	-2.8741975178738635	2.2018797683131552	0.07041033788929796	2.256326239400609
id238	sample0	obj238	1.689074744199675	-2.0347140147566654	2.6846773345075805	-0.4387450118818874	1.698606461350669
id239	sample0	obj239	2.0948947779003224	-2.7825994979163564	2.9194774084234254	-0.6063339557394309	1.9214864603960138
id240	sample0	obj240	-1.763841102954308	-1.3565540096378488	-0.7934740316693041	-0.8694800544814978	-2.320588362220481
id241	sample0	obj241	1.2959589165346528	1.1358873181319151	-0.04177287257524487	-2.3579409660434143	2.206159482807936
id242	sample0	obj242	-1.489841786430692	-0.06287219250578446	-0.09852101674760605	-2.5306552994454243	2.5072486605248816
id243	sample0	obj243	-0.3664009897793268	2.3569564881106553	2.570576880564237	0.10172443743660609	-2.4986191391070056
id244	sample0	obj244	1.783069344301465	2.175991670146582	2.6028003322344944	1.812507161212285	0.38578736418628967
id245	sample0	obj245	1.0599588300403173	-0.17892330922683475	-2.9901598000951632	-1.5522589208206574	-1.2650502675832813
id246	sample0	obj246	-3.5671556856822026	1.0388597974187113	-0.7750105383708654	-3.125279682274613	-1.0405122786184222
id247	sample0	obj247	1.6357550900260869	3.113469738872382	-0.09787303510864515	-2.0329904609694496	2.0481224952210195
id248	sample0	obj248	2.139908865126893	-2.768137567813167	-1.2006157971392484	-0.009450141287570824	0.37456137093259056
id249	sample0	obj249	-0.7294842489338396	-1.3306775040757899	1.4946370870094303	2.5109579107859665	1.176953302582957
id250	sample0	obj250	-2.0855855669609795	1.0159898420828692	2.2214422982648503	2.183994060536956	3.3700662133722816
id251	sample0	obj251	-0.0736538008207861	-2.9077576916849655	-1.8439013571173803	-2.44114704047296	-1.6007870985552684
id252	sample0	obj252	0.06115197232160585	-1.3983698730533038	1.2745688167144649	-1.2187638771868914	3.3549384603745986
id253	sample0	obj253	-2.4429708232625296	0.8255712798666459	0.026450231070541452	-1.6968810570601178	0.12411919782200442
id254	sample0	obj254	1.2588493251784523	-1.0347273089994666	2.8152203417195665	-1.9865624003935898	2.238270192562543
id255	sample0	obj255	-0.39096830933530646	2.5907780898449375	-2.077895723363647	1.5454675073406934	-0.12019326328012359
id256	sample0	obj256	2.689508134192821	-2.1917511401916534	-1.2264154123825481	2.3176119097477885	-1.2764558498815362
id257	sample0	obj257	1.829611153436374	0.9383887883429585	-1.6603524573980697	2.2154020175071025	-0.28704933611939176
id258	sample0	obj258	-0.7836181805040268	2.7313545588296533	2.167283861547804	-2.468896852028235	1.3528402454980721
id259	sample0	obj259	1.9162299070716229	1.3661457814477114	-0.6848394019290401	1.0027168286225547	1.5784383340566714
id260	sample0	obj260	-2.9510251197626447	-2.0920642431303875	2.806073062408923	-2.8251204948508932	1.3290010258609077
id261	sample0	obj261	-2.11904955175032	-1.0454665864929726	3.2498032963232006	0.1724338916185464	3.107005611046948
id262	sample0	obj262	-0.7229951608679486	-1.4684079706799273	0.041609918718222616	0.24403810437988582	1.1418498210475003
id263	sample0	obj263	2.7922577675016913	2.328405365059257	0.38498405293808236	1.8123830458510881	-2.043323823223113
id264	sample0	obj264	1.6983195772704613	-1.7581047052642582	1.415019073729937	-1.1993062637277148	-2.1630136750907605
id265	sample0	obj265	3.2123831434647583	1.0209146259826392	-1.7988454127851692	2.4273133414531674	-0.540283996588427
id266	sample0	obj266	2.872752420088986	-1.5399927478816646	2.0718416182014683	-0.1563787578707032	0.5194059690664657
id267	sample0	obj267	-2.192957666621789	-2.19327489985273	-2.259394309096491	-3.115282545339408	2.569488902869422
id268	sample0	obj268	1.3380286948179863	0.9821391565524977	-1.7864610370857983	0.778209133611036	3.1748932819984947
id269	sample0	obj269	1.8216069915580935	-0.031217495033959652	-0.9470712718913366	-1.8490949244672754	1.4086415894986593
id270	sample0	obj270	-0.1729281777714049	-1.3124926979490923	1.370175456830692	0.11579662201726815	2.484286414853088
id271	sample0	obj271	-1.2330556490998852	1.018691197079161	0.8871180519702607	-2.785512430568067	1.057783279189393
id272	sample0	obj272	-2.2009167401441316	1.6426320283449132	1.0122140803270758	-1.9016217174565173	-0.36749990208095307
id273	sample0	obj273	0.6320573406652968	1.225687352408601	-2.7195404150024465	0.8302860203901524	1.3573426465464733
id274	sample0	obj274	-1.7209441310338425	-0.6319287484170314	-3.0587806488797282	1.2968081284654347	-0.2224189803004113
id275	sample0	obj275	-1.849438095421075	-1.687229165783233	0.21394727157566917	2.650443211128651	2.798406253901197
id276	sample0	obj276	-1.5998806833958046	0.3383180545862935	1.9491203094411338	-0.8894182772030442	3.315754019481181
id277	sample0	obj277	0.7240396733666645	0.20896233984291013	2.6283340074440193	-1.8693254417708367	2.1436415890466707
id278	sample0	obj278	-2.3627377939698446	-2.00931203600646	1.021755674048404	1.5663662151900422	-2.2041398567898796
id279	sample0	obj279	0.9962118535134784	-0.26916098118846543	2.3541191265345796	-1.6336791275588256	-0.4417712814038224
id280	sample0	obj280	-0.544761155241789	-0.07658848152989561	-1.1383516255588153	-1.1492528266245068	2.808979902244024
id281	sample0	obj281	-1.6547070732710352	-0.8998246183278567	0.45164281718826116	2.752132038750041	1.9731178100058686
id282	sample0	obj282	2.4822945788181685	-0.015593467956868556	-1.2369532119367688	0.21900442783757668	3.0833407832280764
id283	sample0	obj283	0.5041134517090056	-1.1478656709627544	-0.6484294517959193	-0.2327843136788571	-1.2022411985967296
id284	sample0	obj284	-0.45206620689759736	0.42666700186060835	-1.0963294825499035	0.6136931401916061	-1.3034737419429394
id285	sample0	obj285	-0.5662674438130098	-1.6167928962988865	-1.0822666946529624	1.9267744238823608	0.7142584706588715
id286	sample0	obj286	1.5392780694209804	-1.4110646210368458	-1.3944727502749283	-1.1592842035350261	-0.10901863746023654
id287	sample0	obj287	-1.8098735842991263	-3.0680381654550857	0.9286276920903176	-1.8516540854990573	-2.693941947049943
id288	sample0	obj288	-0.7427038801031975	0.825165919872033	1.3135558238275804	0.941512339516662	-1.1719330169711155
id289	sample0	obj289	-1.3222937056785278	-0.3506898385279744	-0.0853065000966402	-3.045811375108951	0.006768581320303113
id290	sample0	obj290	-0.12795636712922343	-2.0888161913919716	-2.880106501521216	0.971650571790625	-1.83858601584901
id291	sample0	obj291	-0.9300223828731708	-1.3732451498769098	-1.661620966043002	1.1121899514255185	0.8540434807901411
id292	sample0	obj292	1.958247281473554	2.5498682231099146	1.770706336998587	-0.5359345477938713	-2.698677458309726
id293	sample0	obj293	1.3709037532036097	0.8574362749381947	0.016552850379355943	-0.22198338386911354	1.2376065532620175
id294	sample0	obj294	-2.5643321961558945	1.6672417257539025	-0.47122265251983186	0.35949555978529035	-1.6436405598012183
id295	sample0	obj295	0.3301008550478738	1.3219920327497445	-2.4627469304208236	-2.55609251581044	-0.4606996911216308
id296	sample0	obj296	2.2133160784492674	-2.05335347358422	2.8331806418834997	1.150902701240536	1.4707185564470286
id297	sample0	obj297	0.1836670722374676	-1.4744468250534748	-0.7251214512190023	-1.0629408019005218	-2.9633827212091974
id298	sample0	obj298	0.6613088482286098	1.6709114931485725	2.3436430304554747	-1.107857699432021	0.7951007340500258
id299	sample0	obj299	-0.9291245125673765	2.520059376749865	-1.603533607069037	0.5979797940716247	0.3966883679111153
id300	sample0	obj300	1.1963719318631822	1.3968989706090538	1.4456029558247319	-1.0003688221610942	0.5833612353003219
id301	sample0	obj301	-1.0450447671281753	2.508187857045128	-1.2618045336616799	0.10117265321001057	-0.8800264690196198
id302	sample0	obj302	-2.0451131366831055	0.41962640455267053	-2.837476517310228	0.47345418153056185	-1.9215517753430036
id303	sample0	obj303	1.4852181669987494	-0.47353360783642073	0.39739173272484574	0.07438826867974024	1.2509594448738306
id304	sample0	obj304	0.4305994599853673	-2.6540150166922074	-1.8737604248422943	0.06663444190943757	-1.9542614157942455
id305	sample0	obj305	0.8738692617645237	-1.1552143702468334	-2.1861993827401665	3.0044642765469627	1.538924244960251
id306	sample0	obj306	0.9522709600057923	-2.9938901088953553	1.9823343468179737	-1.702728064226972	-0.06627303651853245
id307	sample0	obj307	1.377931458511246	0.38428846062336475	-0.6849007718269873	2.3262237975046163	2.1315928574939247
id308	sample0	obj308	-3.1400497800204414	1.8751021157980037	-1.736088724689467	-0.7823822904041604	-0.3423077294910636
id309	sample0	obj309	-1.5082602664000344	0.9899874030636564	-1.8012080065767713	2.5638639420355274	2.2470404019225674
id310	sample0	obj310	2.44974370136026	-0.9702710543736397	-2.022531212400196	-0.1711315126157923	2.2165366089894176
id311	sample0	obj311	-1.942141281242191	-2.108987875407566	-1.4635117736631398	0.6055962620596053	1.4464537279471057
id312	sample0	obj312	1.0572986591563696	1.863428495618173	-0.14850501668276106	1.331231322699192	2.0902892521100704
id313	sample0	obj313	-0.7477378811551498	1.451454058250245	-2.8934651408940764	0.8345526985684881	-0.056962455429403036
id314	sample0	obj314	0.8197661499834563	-2.963417775307037	-3.0368117344264407	-1.6349263591310876	-1.5316176588438197
id315	sample0	obj315	-2.9798786679310245	-1.211573232765057	0.5452907808638943	-1.2765106742267016	-0.7800864840551116
id316	sample0	obj316	0.8936021838811088	1.3245763240001167	-1.2385375977402409	-0.9610513557815328	1.48803922975531
id317	sample0	obj317	1.7273120957777333	-0.3399678647028498	3.282917544538287	-0.6423241341386035	2.350491313077631
id318	sample0	obj318	1.5287810483217839	-0.11065897270477854	-2.956057963734089	1.430918264237297	1.9980836400915405
id319	sample0	obj319	-2.3858183569940117	1.771984581318709	-0.5078515502551453	-0.6716179459065345	0.8454680466416438
id320	sample0	obj320	-0.05484748831771302	-1.2447138578212416	-1.9604275509235445	1.6365904008545509	0.10496811238688186
id321	sample0	obj321	0.22546605854701995	2.7040358143505188	0.2925132589340447	-0.993862002595774	2.087019341003703
id322	sample0	obj322	-0.12113267686043905	-2.298944758551726	2.2330782903581827	-1.4649004723039125	2.022447310646438
id323	sample0	obj323	0.4454197791617227	-2.27886872497754	0.6511650534334743	-0.15521122349163402	2.517342452905411
id324	sample0	obj324	2.039832573356341	-1.463759820137932	-1.5020988870444856	-0.06391557878510734	2.470383120969916
id325	sample0	obj325	0.6609619857064819	1.9332474603188692	3.006714976787502	0.6893568003345496	-2.7412899627858116
id326	sample0	obj326	-3.2623624590467015	-0.7621531382946835	2.054237328458401	1.3085235912563453	-0.4932322234952635
id327	sample0	obj327	-1.5526252126196625	0.24468706367596726	3.0850428628563735	-2.313307441449092	1.8575272836168013
id328	sample0	obj328	1.4046239390083823	0.06432917309800557	2.8309789920971005	-1.0032429394165294	0.503995651947905
id329	sample0	obj329	-0.17096701752063415	0.3495699341372227	0.915364868908727	-1.7295689429498362	1.736278546966642
id330	sample0	obj330	8.495954996241561E-4	-0.5963891818391776	0.4960464541722334	2.189633548924981	-1.8117016888290696
id331	sample0	obj331	2.1887458195871474	-0.5345645055186092	-0.8008875063865	-0.027819272465091638	-1.3558598129001167
id332	sample0	obj332	-3.32456363995194	0.3726592307821861	2.5588813798493657	1.8836515840205363	-0.33860285984082295
id333	sample0	obj333	0.3292542313463237	-0.8499122785820765	0.2103519483802786	1.9792536497777742	3.127635586397279
id334	sample0	obj334	-0.7502197903525885	1.965551231933455	-1.0094383450808062	1.1971836021998898	1.0459120422992119
id335	sample0	obj335	1.2437079458839913	0.135655896457209	-0.539730033744477	-0.2855837475312599	1.3739641718537683
id336	sample0	obj336	-0.6333411887357909	2.3090381213873843	-2.8813080868824987	1.2460772031359348	-2.810293418663118
id337	sample0	obj337	1.1117423813712906	-0.825374451321019	2.754105789450154	-0.7273178407191371	-0.8427408020343241
id338	sample0	obj338	-3.2795126728563413	2.262581076284898	-1.4777682590860342	-2.054424094335332	0.19675132719544508
id339	sample0	obj339	0.5560461537444963	1.4804134243074394	-0.8099643954992659	-1.2495942019289699	-1.143537793908262
id340	sample0	obj340	2.471659942157405	-1.9043652842803793	-0.21915493525383956	-2.8072112070194266	0.5095426841874774
id341	sample0	obj341	0.9917535848942172	-2.466280498388765	-0.35213430079717867	-1.9020446198584013	-2.5040434904030797
id342	sample0	obj342	-0.9053352234928733	-0.9406839556088642	-0.052010920326393206	-0.8901734221836582	-2.3442568418310596
id343	sample0	obj343	-1.5303522328359915	1.1125085872953555	-1.3995779488678737	1.085510282954902	1.1649825551201303
id344	sample0	obj344	-0.9735541868343831	-2.514521619312205	-1.5998507288396073	0.23585060315966178	-1.8639647116315712
id345	sample0	obj345	1.1884927187149452	1.6598974998099874	-0.18634610111250072	0.6319565037913004	-2.360247487054441
id346	sample0	obj346	-1.10713610369124	-2.930193690610915	-2.4397978808561183	-0.3412437004729523	0.6427881738750398
id347	sample0	obj347	1.7571279680383844	-1.7072614495996823	-2.2109685604398086	-1.192326346638914	1.144396766016227
id348	sample0	obj348	-2.583243490585234	1.9160234375900882	2.924574844927185	-1.563025749238089	-2.3515800768829656
id349	sample0	obj349	3.0596769727931763	1.60073833748194	-2.010113986824029	0.6955349388557663	0.7123410842730374
id350	sample0	obj350	-1.8834292643632984	2.44087510180645	-0.9485738834642239	2.1796598670378398	-2.0048069930959045
id351	sample0	obj351	-0.4688726220851862	1.2676849923671505	-1.6174253280493347	-2.248562356872051	-0.10099609670976711
id352	sample0	obj352	-2.0066016318214643	0.8801606782427218	3.3132684842810276	0.6710758389440972	3.088793532710164
id353	sample0	obj353	0.11773728480480206	1.238776628998201	1.1828499485487034	0.46076364796254593	2.4820062723792358
id354	sample0	obj354	0.9425914273045719	-1.4324090615511689	1.600432286935234	-0.04536192540594297	2.8240285153529747
id355	sample0	obj355	-1.5641955390317575	2.0854067967856613	-0.2671083060186008	0.23877762610052122	0.7787454125978787
id356	sample0	obj356	1.8618933291527973	1.2851043417313914	-0.9940828957143907	0.8458012490552913	-2.0416578201373485
id357	sample0	obj357	-0.6500170464431207	-3.425076906367821	0.1815928420194265	0.7467211926822805	-1.006417686169773
id358	sample0	obj358	-1.9683996326028184	-1.5288590688137533	-0.11325741488474894	-1.0939883896899174	-1.4911722284762599
id359	sample0	obj359	1.4683267411189935	0.07296633608323466	-0.33441689669759556	-2.6397167893629265	0.2804885962882364
id360	sample1	obj0	-2.7971366815529892	0.3411009514936343	-1.7282360498754867	1.7258208204465892	-2.9714292635577184
id361	sample1	obj1	-3.0125922569991155	0.46786450669572655	-2.18297683015533	1.4505731594982372	-2.203571476839004
id362	sample1	obj2	-2.8505232599351613	0.5727802667805786	-0.8491500165528298	1.7230387259156217	-2.0458330535227214
id363	sample1	obj3	-3.050802569768553	0.7089321690972858	-1.953532617026887	1.501057930520472	-2.0777662880065835
id364	sample1	obj4	-2.479097979808814	0.32692646558292116	-1.6991895546330658	1.6859032679171686	-2.7205848206431447
id365	sample1	obj5	-1.527059810397194	-0.7777537228919185	-1.0431492576236134	2.2135604012358803	-2.101603069600848
id366	sample1	obj6	-2.7557772426060536	-0.6796345684432139	-0.8962328834147926	1.4565590514408073	-3.153057177818415
id367	sample1	obj7	-1.7906354002110123	-0.1695661628530949	-1.1298468586006714	1.8190521376905573	-2.7539633823352343
id368	sample1	obj8	-2.602649926563766	0.5845344094194076	-1.6842097227954098	1.1589712328907693	-2.76448447642965
id369	sample1	obj9	-1.7862547202857775	-0.018968194583382614	-1.2222834540808836	1.4578588701367525	-2.250412149010983
id370	sample1	obj10	-1.8772988810892308	0.5189469439388537	-1.549552077172209	0.8579604711349297	-2.2117746257126605
id371	sample1	obj11	-2.233618225018255	-0.5778367219725086	-1.882674562409665	1.3989074563489516	-1.9501772649453912
id372	sample1	obj12	-1.6849141233996214	-0.5908390210209222	-1.9358733427778785	1.2394064757410792	-1.945220265410666
id373	sample1	obj13	-1.884741203076101	0.09244863082779897	-1.1136395793397313	1.694325859458736	-2.747148486755422
id374	sample1	obj14	-2.376110373647204	0.34347911213072235	-0.9378816463233046	1.4310046555853297	-1.9917089031880943
id375	sample1	obj15	-1.7994924181576508	-0.2898387291295732	-0.9579492588448357	1.7520623285722425	-3.3399643818776785
id376	sample1	obj16	-1.6887979833601197	0.22667190266542625	-1.028971018095643	0.8720235983105771	-3.1514689968539784
id377	sample1	obj17	-2.0531505511753085	0.4357005266391636	-2.1085868237107674	2.0232519255405004	-2.699692625132932
id378	sample1	obj18	-2.44089471473633	-0.1969225135009275	-1.6003709282896872	1.5795724914071028	-2.694827050481669
id379	sample1	obj19	-2.3132337591348837	0.3205160329774046	-2.2249720660210377	2.3651221183507594	-3.0270477862090615
id380	sample1	obj20	-3.0791029011073445	-0.13450600930911316	-1.5631728025261826	0.8479516112519054	-2.693887171151497
id381	sample1	obj21	-1.8962961987035318	-0.5553186898158358	-0.999635383778736	0.8542901168454468	-2.8145265987222525
id382	sample1	obj22	-2.8374141929292773	0.14034281066178933	-0.8879893546739217	2.356719601446304	-2.322483157032923
id383	sample1	obj23	-2.438821885757698	-0.5156240998415065	-0.9180668157663712	1.4893686819005243	-2.3022797602476306
id384	sample1	obj24	-3.0574410576593247	-0.29635589866928846	-0.9304399097594114	2.2521758510505743	-2.806190100114307
id385	sample1	obj25	-2.389784781511726	0.13959867211822918	-1.1029018273097868	0.9358583581840668	-2.039975789815625
id386	sample1	obj26	-1.771112816179964	-0.4035922130160781	-0.9140927183883607	1.2060168798074546	-2.402620096109263
id387	sample1	obj27	-2.7558804103480634	-0.8085031147305186	-1.4320435351685168	1.6303676606939903	-3.4403503702814535
id388	sample1	obj28	-2.3447103768180955	-0.8278938641649014	-0.815932728410304	1.7439897990422364	-2.040664149295555
id389	sample1	obj29	-2.703873011103079	-0.65224186831753	-1.268758404500196	1.5752641803297505	-2.9335719965016573
id390	sample1	obj30	-2.431651856694891	-0.7770435274550759	-1.122860284163904	1.8764264910684958	-2.4457799558522844
id391	sample1	obj31	-2.1479384100950005	0.07357542722095634	-2.040220492201171	1.6189232506884712	-3.0049923993330845
id392	sample1	obj32	-3.079878741841489	0.2958051777087849	-1.501164771261968	0.8516073382144129	-2.726862659551478
id393	sample1	obj33	-2.323321272825809	0.6947571113326534	-1.5494155693560434	1.7308021117708374	-3.222287452534067
id394	sample1	obj34	-2.7881296090629837	0.2224660799177176	-1.7443531193449413	1.8919625969138896	-2.8986731130078165
id395	sample1	obj35	-2.1710629472381253	0.5986166248501952	-1.1037552464118214	2.3446309224473922	-3.13143209605282
id396	sample1	obj36	-2.403826286133083	-0.446570194623585	-1.03815273000939	2.0621849881849745	-2.2622357176206656
id397	sample1	obj37	-2.5319925400844907	0.5473394638675158	-1.492188375702502	1.257073983776622	-3.4243899851576884
id398	sample1	obj38	-2.403734112833486	-0.30207808326510277	-1.2049434437116628	0.957387581414108	-2.3640557942744853
id399	sample1	obj39	-2.0716126502812076	-0.4424129122436524	-2.141033637654584	2.433277452242607	-3.2548361971232227
id400	sample1	obj40	-1.8969964492710587	-0.2626482941361685	-1.3633128008136093	1.6885043322821787	-3.4034431050761844
id401	sample1	obj41	-2.5309479798539476	0.4891597421092251	-1.827196333477326	2.384781571450437	-2.4016692288422288
id402	sample1	obj42	-3.038579945114953	0.09325441583852445	-2.1618650772127648	2.081193288521713	-3.2556663933985615
id403	sample1	obj43	-1.921862405316449	-0.375396574333349	-1.1258680002353052	2.149338917646843	-3.1535049593312157
id404	sample1	obj44	-3.039605744638655	-0.30510679871891255	-2.2198526532343013	1.0935645228255082	-3.12710120339804
id405	sample1	obj45	-2.658788449210231	-0.4892921100229833	-0.7182469248909682	1.116242072287032	-1.910784116857928
id406	sample1	obj46	-1.809478346984825	0.00574940722133821	-2.030635106214817	1.5971174827286028	-2.8569701862940935
id407	sample1	obj47	-2.142249224421576	0.571905615722528	-1.3832534758480026	2.2048262203603204	-2.975561289131485
id408	sample1	obj48	-1.663161869014287	0.23219208991868756	-1.7574101734457754	2.2543352573460425	-2.4287133394926625
id409	sample1	obj49	-2.7829920303070446	-0.5053559854444046	-0.945652640289272	1.8178762144561738	-2.4224811752529694
id410	sample1	obj50	-2.4753909667385363	0.05168042858375377	-1.0740965014443835	1.465445344477859	-2.352462771920739
id411	sample1	obj51	-1.6789889468197814	-0.07913438639779424	-1.8514333431210457	2.155728086445785	-3.11788598003885
id412	sample1	obj52	-1.9620406368258254	-0.7380854312850623	-1.4776876271276973	2.045919384668943	-2.228533717597674
id413	sample1	obj53	-2.7309977214236536	0.3777933577156749	-0.789731697538389	2.290919079097164	-2.4774341153481574
id414	sample1	obj54	-2.817317425521034	0.26641428531912625	-1.5218317963082324	2.4353462708794096	-2.000282060012231
id415	sample1	obj55	-1.5058143762064249	0.01028112736166431	-1.6790226067009544	1.8673021199949762	-3.226049133752408
id416	sample1	obj56	-3.033871405189881	-0.7239345160661655	-1.5948323133308993	1.6273762369315956	-2.9531149106567027
id417	sample1	obj57	-1.6297851334894242	0.17105132954404056	-1.7837421974795058	1.001603321557848	-2.2474544996482093
id418	sample1	obj58	-2.0813661181418306	-0.4797611405925629	-1.1886980475258093	1.0494956621927265	-3.014878954573953
id419	sample1	obj59	-2.1185842834348736	0.06320459804546474	-1.3259402749341271	1.9294632047496691	-2.383987525009618
id420	sample1	obj60	-1.717481079049949	-0.5748536927374266	-1.2793133441466915	1.310454619962334	-2.5612891167071488
id421	sample1	obj61	-2.222700560050538	-0.5815512182548519	-2.1050001534543883	1.7520655315138987	-1.9708234408433856
id422	sample1	obj62	-1.6537588956908549	-0.16883630146306727	-2.2612327456849477	1.072232143439704	-2.7284963992704867
id423	sample1	obj63	-2.491513627625879	0.23355710329347668	-0.73690041546033	0.9035196032026611	-2.162178069519613
id424	sample1	obj64	-2.2971467559249024	-0.7150890217622182	-1.8540441313639184	1.2924864031212138	-3.3833327838168716
id425	sample1	obj65	-1.8322786859585016	0.4766273951925748	-1.5729308017424022	1.0732246181997085	-3.130494430665877
id426	sample1	obj66	-2.13651919772829	-0.344056673312738	-1.1206808380503355	2.322499579745859	-2.8002072078029685
id427	sample1	obj67	-2.7637747467579645	0.21377776443686125	-1.1562115713923058	2.0815067987203717	-2.5930575245227243
id428	sample1	obj68	-2.441906944609612	0.19196906845616502	-1.0115013951141396	1.8346897721579856	-2.5420650117684898
id429	sample1	obj69	-2.4378108391878115	0.3959752763458295	-2.2228037620402246	1.6208834017610476	-2.2439171986700375
id430	sample1	obj70	-2.7925938157494365	0.6405731041588305	-1.4713928292589444	2.292824513586929	-3.4412605003692036
id431	sample1	obj71	-2.9252197635148462	-0.6152419485557623	-0.7526347823674089	1.2393689891380502	-3.1424381879348346
id432	sample1	obj72	-2.7486813577345544	0.02948682571118899	-0.920590144558957	1.6671332411608046	-2.724629465157485
id433	sample1	obj73	-1.536409039141451	0.5846726009480605	-0.8239015144295532	0.8563027141933339	-1.9332328049892387
id434	sample1	obj74	-2.5291582967721635	-0.08849212369485693	-1.443344110311007	1.5355787282459548	-2.6254866328645603
id435	sample1	obj75	-2.169973897842726	-0.5106886364443911	-1.0230504011130028	0.8652380747134703	-2.7456696898607635
id436	sample1	obj76	-2.057949343656376	0.14423592306028166	-1.4920044561827734	1.8016092368113186	-2.873709812712151
id437	sample1	obj77	-1.856316280935362	-0.7631023976240521	-1.3108718215686765	2.292497819968842	-2.7445897121663534
id438	sample1	obj78	-2.787855775357327	-0.4111469398610799	-0.9375252073093814	0.997776790797534	-2.8535107140979634
id439	sample1	obj79	-1.5866502538585583	0.010427649513764847	-2.1436832703185775	2.3440606568574807	-2.177296868932959
id440	sample1	obj80	-1.0006139806649654	2.298932311580513	-1.1971300025408989	-1.5743097648292728	1.2015645974441171
id441	sample1	obj81	-0.6810899281456777	2.12913517972011	-1.4233085633120623	-2.1204698917347655	1.5831626762489164
id442	sample1	obj82	-1.0005968620348349	2.0254714169361296	-1.8092482680077548	-0.8223189309340109	2.3289687610506817
id443	sample1	obj83	-1.143812318803636	1.2582561203121014	-2.163931832684899	-1.528155726000673	2.345529769890592
id444	sample1	obj84	0.19446077593480893	1.4049592970360074	-1.1514665431477522	-2.092915291033357	2.1153119322132987
id445	sample1	obj85	0.08585423598066821	1.6296822890326357	-1.1645406661873108	-2.142089333435268	1.3206912651046856
id446	sample1	obj86	-0.4404070339599082	1.5170984777113143	-1.2003491988860207	-1.6676686476227118	2.0791248777463283
id447	sample1	obj87	0.09982767096976519	2.010909183754886	-1.0537799595296422	-1.9713586172359974	2.4461797625763766
id448	sample1	obj88	-0.8846667516014394	1.8571157274749255	-1.825748117197468	-1.9301262423219805	1.653842860832688
id449	sample1	obj89	-0.1005691245888547	1.4429906188195165	-2.3428059301387494	-2.0583025859259783	1.2799614754873931
id450	sample1	obj90	-0.38422930277569156	2.105108310264529	-2.3834619377673705	-0.7024195837015452	1.6298244007421827
id451	sample1	obj91	-0.856431863877264	2.2307291896925077	-1.067968857662203	-1.9281485573311645	1.2168577661321485
id452	sample1	obj92	-1.3669203706679625	2.0977840892543655	-1.9276078874801317	-1.3165626666799906	2.4452363547769185
id453	sample1	obj93	-1.0774011365768055	1.4162421534291378	-1.43765705207818	-1.9279059164919077	1.036962436793329
id454	sample1	obj94	-1.1588889591823082	1.4993243448319564	-1.2612126070623315	-1.5385558746185324	1.348705541275434
id455	sample1	obj95	-1.3199721747401836	2.183412650809715	-2.269776267641473	-0.8093499723280195	0.9534872205378855
id456	sample1	obj96	-1.2978043347499413	1.6321603164225502	-2.4169647195348665	-1.074349006169344	1.7081999267935606
id457	sample1	obj97	-0.46930644776786745	1.5297985426471106	-1.8547770658845684	-1.3968676637025659	1.7040289162325584
id458	sample1	obj98	0.012872367253295769	1.9425166251754362	-2.4835104975705207	-0.7476531700201368	2.4421649850742453
id459	sample1	obj99	0.20069873415776907	1.2816335397503087	-1.4775796813200452	-2.21687402156889	1.6558153353935339
id460	sample1	obj100	-0.7341835556998804	2.6396382654305137	-1.7661108282918352	-1.15052948644517	2.1005024848649705
id461	sample1	obj101	-0.759110119058505	2.1166179640969034	-1.9801830468169959	-0.9514456399144755	2.3720487888967847
id462	sample1	obj102	-0.2631938041917201	2.761678904979586	-1.493915009456153	-2.228619954735231	1.7245428490069998
id463	sample1	obj103	-1.1577452618063888	2.6982589110836086	-2.045183341570464	-1.714755826382889	2.413028863046424
id464	sample1	obj104	-0.9928719361326341	2.4852920764753508	-2.459545431774116	-1.0738229908150814	2.466723532450234
id465	sample1	obj105	-0.8918304910633328	1.5145820515478257	-2.12886346545656	-1.636831874431408	1.1222990957817207
id466	sample1	obj106	-1.3166169332208266	1.510028587341147	-1.9001234273833907	-0.7581538441314137	2.4522487881079496
id467	sample1	obj107	-0.5850102639596505	2.753099746059558	-2.1709535837848826	-1.8750943169174994	1.574623339020349
id468	sample1	obj108	-1.0217796980342042	2.2127060080609278	-1.6023045950506019	-1.5534680334215	2.516569105510772
id469	sample1	obj109	-0.880958130983318	1.9329829719249272	-2.356599319234072	-0.7600745534329978	1.939161469187818
id470	sample1	obj110	-1.032915157081925	1.780979108837629	-2.4373301749386753	-0.9426625475316963	1.8540799683281248
id471	sample1	obj111	-0.25536585905713927	1.6544467602203257	-2.304512894564248	-0.717644013804065	2.0377764648620422
id472	sample1	obj112	-0.26236898031451683	2.0994019572107376	-2.1055368933078857	-1.2389076533849912	1.465003817583732
id473	sample1	obj113	-1.0857310071641748	2.714420882827011	-1.1037186152772176	-1.4960276267102415	2.0549658273769227
id474	sample1	obj114	-0.09998653295497739	2.1753351624040924	-2.5932069238882662	-1.3903999742003967	1.1889797904977915
id475	sample1	obj115	-0.1411994592789665	2.1766416828361983	-1.4197426278992402	-1.661809390529391	1.1824754800162223
id476	sample1	obj116	-1.3721683072179538	2.156114692993184	-2.11807563751593	-1.459063807367553	1.465449415327653
id477	sample1	obj117	0.1718444201824485	2.173361126170665	-2.6395344399223815	-1.1150773531930225	1.8582137020342238
id478	sample1	obj118	-1.0489340535482203	2.1029602770586466	-1.9632538338493237	-1.5225667821955997	1.3624887365004135
id479	sample1	obj119	-0.050691647750282565	1.6549334740522659	-1.122844003240575	-1.509791574276456	1.3856482799334136
id480	sample1	obj120	-0.9760954506613495	1.851164741612599	-1.5727567551136836	-0.9599518572542312	1.4672996807207594
id481	sample1	obj121	-0.6185241341473064	2.3926019023664513	-2.476216987327052	-2.151396553331392	1.4964298023898337
id482	sample1	obj122	-1.2580739917552295	1.300167542096152	-1.6052719058901375	-1.6421262379876882	1.9331360204886014
id483	sample1	obj123	0.04163696833947794	2.278869571481172	-2.5642081244631254	-2.1796373992972056	2.2455484488867974
id484	sample1	obj124	-1.0153390142318681	1.7411788911216401	-1.9162329619010878	-2.2593849807515225	1.129001879680581
id485	sample1	obj125	0.14182191988373916	2.158902197877671	-1.1208487215653264	-0.8304758522366742	1.5048930007354415
id486	sample1	obj126	-1.0888780540970886	2.3440824811907617	-2.4617064276146188	-1.6790844368017845	0.9400231181187882
id487	sample1	obj127	-1.2972416209021866	2.665472716932968	-1.5228442984145327	-1.9069406301850664	1.6476441911999418
id488	sample1	obj128	-0.8625485360958361	2.08940836129673	-1.8910340447402962	-1.2375181836894042	1.217954533680608
id489	sample1	obj129	-0.6882675570166542	2.019019387344732	-1.7344132949819324	-1.0746827174069162	1.1924959034740321
id490	sample1	obj130	0.07740101775156538	1.8452289474732992	-1.918611600535012	-2.0309857873464	1.3828482977094854
id491	sample1	obj131	-0.28140167537953653	1.2934525609476748	-2.632117094029549	-1.2339458340263896	1.203261412808176
id492	sample1	obj132	-0.3720831405277194	1.9528946424949725	-1.4386231640758866	-1.5819822544253925	1.728471439951313
id493	sample1	obj133	-0.653256769056463	2.6374074871393596	-1.2664682674151122	-1.2055972769195218	1.7159834652614494
id494	sample1	obj134	-0.4663299989251273	1.1995874145728922	-1.969985910055437	-1.5173730373837828	1.785622809067343
id495	sample1	obj135	-0.7276236468749152	2.7797025123750867	-1.3155418140914235	-1.1048042300403689	2.3922302096787904
id496	sample1	obj136	-0.4340690002265507	2.61973301327142	-1.3921992939001095	-0.9063577086862735	0.9490624201760574
id497	sample1	obj137	-1.2479258788828977	2.03682535040146	-1.8342511165755302	-0.8618760437806763	1.9738205137126026
id498	sample1	obj138	-1.2972474394090954	2.581376117456357	-2.056229222939882	-1.4669623265717422	1.47532853337882
id499	sample1	obj139	0.15507499770703403	2.379331877053372	-1.6013887848587967	-1.985732269868009	0.9407858852406333
id500	sample1	obj140	-0.0010150550034786487	2.0776835617611926	-2.22799579161946	-2.1607382903855235	2.3102802821948405
id501	sample1	obj141	-0.6166185157064445	2.503105005562496	-1.5149689537403435	-1.6513925442353303	1.4509380342637197
id502	sample1	obj142	-0.4137873345369043	2.657804787603548	-2.0454703262013103	-2.1562829841068187	2.0067666889490123
id503	sample1	obj143	-0.8607123767145641	1.2904830018124875	-1.5848460998766243	-1.3288222413569075	1.7659733122739296
id504	sample1	obj144	-0.9557376900821144	1.195380185521557	-1.5438249174253897	-1.1531346131938645	1.0443841050776144
id505	sample1	obj145	-0.6734857607095466	1.535330131742989	-1.7200220191751194	-1.856405606178546	2.1456086667889656
id506	sample1	obj146	-0.16250539371595374	1.7070509714359354	-2.0265159042064225	-1.4185321880497763	0.9648484094644019
id507	sample1	obj147	-0.3523045688993576	1.7451836466678978	-1.1064910920593765	-0.6982553271373346	2.017805511071371
id508	sample1	obj148	0.21065631153487208	2.6973868583966496	-2.3336186651742428	-1.4004674011126108	1.488069106940506
id509	sample1	obj149	-0.31247605979395177	2.4226749326326567	-2.319910429689355	-1.1105047465463538	2.109700703279165
id510	sample1	obj150	-0.3093707127204861	1.420709189136574	-1.1821706573698476	-1.6413945734120812	1.9755763008029927
id511	sample1	obj151	-0.15257686343152588	1.6674844564026807	-2.6158200630766784	-1.4776671141711941	2.150426177232835
id512	sample1	obj152	-0.6580220771622685	2.014351913281337	-2.126715378672297	-1.5279007578551798	1.0595129078434407
id513	sample1	obj153	-0.37582119917415646	2.0291526750641298	-1.6885747176545014	-1.766083068119975	2.333561455413463
id514	sample1	obj154	-0.8242430005382474	1.871962434020634	-2.411678259851043	-2.1725765124936953	1.1569678049895211
id515	sample1	obj155	-0.49847639480344463	2.680131694798876	-1.3885871044132898	-1.2774153299182482	1.3535257792072484
id516	sample1	obj156	-0.7873941459704751	1.4895096651096698	-1.460642908761645	-0.8352651259422121	2.140987982226278
id517	sample1	obj157	-0.849768401838343	1.7675250002747176	-2.4359199795971995	-1.2710874503285063	1.1067789356247253
id518	sample1	obj158	-0.3472833281549017	2.1307266868271766	-1.771033610646201	-1.751805309522918	1.8411695369238523
id519	sample1	obj159	-1.091158405822627	2.4410250292696563	-2.4667011457429417	-1.160499884747696	1.2752620199066236
id520	sample1	obj160	1.7990639813839175	-2.9047424985886496	2.1325076313665643	0.06520211633995632	2.190231921944595
id521	sample1	obj161	2.235927964912505	-2.5839015620426387	2.2913812666145974	-0.3592736052004172	2.278014219267989
id522	sample1	obj162	3.086188046438123	-2.9205046287580188	2.488738840301896	-0.47352090906084976	1.6909544205797147
id523	sample1	obj163	1.8557427667206652	-2.4368118539613297	2.599223375323297	-0.2913630391047336	3.0598748752936613
id524	sample1	obj164	2.105357633553364	-2.493807376267678	2.4254366545263313	0.033914548771199815	2.360178445537642
id525	sample1	obj165	1.782585725170923	-1.8752065059805496	3.440128191216899	-0.059850637219942326	1.7935067872448989
id526	sample1	obj166	2.7402170334749716	-3.1237311451606917	2.084660753762638	0.21385562007283587	2.290204932835334
id527	sample1	obj167	2.7575385291406294	-1.9353635865646477	2.503982006248968	-0.41345358018942024	2.2796004315456635
id528	sample1	obj168	1.8568671393326863	-3.1029777142516037	2.541794946215319	-0.8891217443183235	1.8374157376191511
id529	sample1	obj169	2.4860441855093276	-2.3211004426383943	3.1729463910688787	-0.7274288052877408	2.224619726527708
id530	sample1	obj170	3.006924048619803	-2.9670179067667863	2.1273044841565363	-0.8288371395773583	2.218748004686061
id531	sample1	obj171	3.0044062614638714	-2.583444121280646	3.399637472353104	0.4435302118284765	2.871249197204725
id532	sample1	obj172	1.84931673835465	-2.902954197852333	2.507296377847678	0.43532001988841373	2.8918003534544248
id533	sample1	obj173	2.875501037378295	-3.0477857470902903	3.1409094795962074	-0.5014687123905832	2.776853078780531
id534	sample1	obj174	1.755912208745483	-1.8588706021707904	2.9668763592218186	-0.01494941126702276	2.0039712603150477
id535	sample1	obj175	1.9983218256098314	-2.6785087846313473	2.2232681138394765	-0.9824784966543483	2.569877719933944
id536	sample1	obj176	1.6676179382154932	-1.9303777662847363	2.9668595839655345	-0.12291254292358955	2.647592903065572
id537	sample1	obj177	2.9425367008628918	-1.7820192872900602	3.0675021085125636	-0.7961457999933828	2.4906915827121954
id538	sample1	obj178	2.519175128415824	-2.3870005154284715	3.320954102520183	-0.5630709133380528	1.9595853212279648
id539	sample1	obj179	2.295804506035132	-3.110043010309007	3.1016827106921734	0.028175723607298142	2.149919458470989
id540	sample1	obj180	1.8524176311174283	-2.6369918296648556	2.467098436737822	-0.1260632098754526	2.25571916575318
id541	sample1	obj181	2.938155262083623	-2.3359923885153986	2.343244309762311	0.17348552403451478	1.8138899678205052
id542	sample1	obj182	2.1893346450595335	-2.5150940206005488	2.283198080098553	-0.0815693536856763	2.9911371525433785
id543	sample1	obj183	2.6343039314992955	-1.6381435595143996	2.532421765674644	0.345286037833644	3.0533782969167373
id544	sample1	obj184	2.5378377227063638	-1.9137070832917615	2.1240666046688483	-0.6295189099130551	2.1903475050770056
id545	sample1	obj185	2.6613299803055765	-1.8343008283897124	3.350882046745726	0.22480004020847355	2.568387511486142
id546	sample1	obj186	2.8546947158944214	-2.3638598244077116	3.032941506237383	-0.5108434824829132	1.6914642634989487
id547	sample1	obj187	2.7657159437166903	-2.773564626912423	3.060950363971484	0.3072971964811917	1.6282762613253505
id548	sample1	obj188	2.791656136107292	-2.3083183551109863	3.2075057500650153	-0.9599517022755711	1.7010327602225441
id549	sample1	obj189	3.17030230537633	-2.901754588952196	2.9523945381838037	-1.1183670097636402	2.8431010414355846
id550	sample1	obj190	2.6023619128681994	-1.8951032587844472	2.376909344628089	-1.0420410644224916	2.757340525206029
id551	sample1	obj191	3.0282775605093235	-1.8779788775604245	2.0852919956382583	0.0711663697083953	2.3086049931442023
id552	sample1	obj192	2.089178964752831	-2.5556239891805794	2.7728478556010216	-1.0293002240472968	1.6516764380128848
id553	sample1	obj193	2.047884973320001	-2.830777300862956	2.169067803372806	-0.42971616908652344	2.943847455059663
id554	sample1	obj194	2.120682161061369	-2.2175780397260016	3.454316434063967	0.16900847027066646	1.758563540180698
id555	sample1	obj195	2.78809061483099	-2.503203001208899	3.619354258864008	0.07482220468034106	2.0670309691659785
id556	sample1	obj196	2.5520545310770344	-2.3386974752190786	2.4722215087153288	-0.003341328660899645	2.377553512622921
id557	sample1	obj197	2.552018847884675	-2.5471459525997044	2.0858844557437797	0.41874238649632467	2.1316444965327683
id558	sample1	obj198	1.9322441348976158	-2.0333654975507485	2.936594205438369	-1.1261038917012942	2.090733098828121
id559	sample1	obj199	2.2815245629843464	-2.388138413455481	3.6461956752396745	-0.5065289395108907	2.8716050119784633
id560	sample1	obj200	2.983278445177004	-3.000061433665789	2.8757117877902707	-0.5436012245901358	2.9916553353902557
id561	sample1	obj201	2.9828338970566493	-2.592819881821301	2.411480206756168	-0.25961191415319984	3.0806409943495474
id562	sample1	obj202	2.2886987549514064	-2.743530753218902	2.0529966025810076	-0.028979034380163693	2.3429712415337836
id563	sample1	obj203	3.1897477215363192	-3.1321768689658183	2.4924840462790043	-0.2289987112244104	2.0777253057139493
id564	sample1	obj204	1.729640217858635	-3.121514059723319	2.4341242583395357	-0.241356824179233	2.571599307486796
id565	sample1	obj205	1.7974638888922292	-2.544610205880186	3.5249165705989416	-0.5165883823870063	2.9869255744054715
id566	sample1	obj206	2.1586452831447147	-1.7318067160576587	3.173334657172661	0.09351291075915791	2.711833854929157
id567	sample1	obj207	2.0766381534301	-2.1638204599121362	2.055396142668809	-0.0922650202543509	2.286604616055869
id568	sample1	obj208	1.80286115397826	-1.8913577901058227	3.0145030688653423	-1.0624765522423427	2.4583546390314517
id569	sample1	obj209	1.60386504070844	-2.2874385060031948	3.640520076756298	-0.07279077517803101	1.8594645386381652
id570	sample1	obj210	2.13983378098765	-2.5450551271941992	2.079090103771494	-0.2730596124680733	2.6926632838645213
id571	sample1	obj211	1.6213226879387483	-2.0232670642243376	2.113208857471941	-0.6142227570358093	2.6014912511696546
id572	sample1	obj212	2.4906739970500134	-1.977780284041974	3.539652402910489	-0.021851407826760205	2.8980346209102814
id573	sample1	obj213	1.9648886232159035	-1.5609358148344274	2.322037826618285	0.1069997470110704	2.924418627690686
id574	sample1	obj214	2.1269339637386837	-3.0892549876048343	2.4541578785819302	0.23805339778430867	2.6796327340424515
id575	sample1	obj215	2.5765953545632936	-2.77771010883707	2.35083169820635	-0.5867864964173208	2.412893949915487
id576	sample1	obj216	2.089093562272603	-1.6271378756467751	2.0629125286651537	-0.7061654691686732	2.0580054362193065
id577	sample1	obj217	1.7438574794538715	-1.7981312583014746	2.777359474695759	-0.3520857859593759	2.8740885827532656
id578	sample1	obj218	2.5661204893206255	-2.5597683937839593	2.7264675661342035	-0.8041884369665695	1.7057318633981966
id579	sample1	obj219	2.184464514222607	-2.1881035337136776	2.731530760944512	-0.03159591531857364	2.8440607942936063
id580	sample1	obj220	3.1871289123918074	-2.105891315029853	3.0094390946862335	-0.06375648026305769	2.6485613057871022
id581	sample1	obj221	1.7228962336130231	-2.674980531270854	2.5650556017502506	-0.3101916499459104	2.091739666119074
id582	sample1	obj222	2.5277245837378075	-1.82463375039231	3.3917336017427395	-0.6340524286812823	3.153943919947946
id583	sample1	obj223	2.7800790260845427	-2.246141405955979	3.2460940255938153	0.12562661598686442	2.587961819879885
id584	sample1	obj224	2.7351871360964894	-1.8049437049148498	2.7152368534844635	-0.48031629320200575	2.981415792036592
id585	sample1	obj225	1.8252658290989632	-2.9894842374469124	2.7439825484772125	-0.6159527208714197	2.9835550675314435
id586	sample1	obj226	2.6282021491190033	-1.9796361563905345	3.350584544251002	-0.8396845367699022	2.2708640983725736
id587	sample1	obj227	2.7152830790925564	-2.700202414129696	2.8706882466324037	-0.05668378086195691	2.867025695383715
id588	sample1	obj228	2.3284183654529094	-2.325131177314216	3.595196926453334	-0.759181053684576	2.4962599258709757
id589	sample1	obj229	2.072951539112795	-2.2891460703242545	3.4972035697648627	-0.7564866009508109	1.7489683439371841
id590	sample1	obj230	2.0326682442106074	-2.193905327408219	2.190321167326312	-0.07772556702614053	1.7140095088206408
id591	sample1	obj231	2.9330502530349536	-1.7890093477655764	2.764656885070413	-0.6038469558326591	3.046880300057987
id592	sample1	obj232	2.5362520324704856	-1.8626153468062083	2.0713882792950904	-0.8249612495593899	2.586636468243266
id593	sample1	obj233	2.410755148706354	-2.4655209252525996	2.6614766046647587	-0.972913535589473	1.7206244978583476
id594	sample1	obj234	3.1692480238399527	-2.364790695882321	3.3425536003657683	0.22935732426037636	2.564070465961044
id595	sample1	obj235	2.1240462832389	-1.6017531841986525	3.1395098685110407	-0.16775226082114436	2.435347176702542
id596	sample1	obj236	3.1093749430571735	-2.0129287167676266	2.9928527955992195	-0.16926156940771564	3.1563805538618466
id597	sample1	obj237	1.7281408926628345	-1.734602645242757	2.7935579856544996	-0.9601532856513064	3.2052203307551634
id598	sample1	obj238	2.986493919884938	-2.900764087477922	2.247967040779134	-1.0055252051022872	1.8333530268528462
id599	sample1	obj239	1.796570676503833	-2.2834321380451863	2.8303544462674584	-0.5633255601896077	1.7979397724373918
id600	sample1	obj240	-2.649155994098065	-0.6659340926733985	-1.6670553849205527	-1.0819889435601437	-2.501992073305428
id601	sample1	obj241	1.4703051096575934	0.1975895565528979	-1.0309460733112692	-2.439563526556654	2.140081319138341
id602	sample1	obj242	-2.913268900779531	0.13887546485342828	-0.31267021794219985	-1.5565074275912265	2.579968404677693
id603	sample1	obj243	-0.5318917174766311	2.202835796934365	2.558971134576609	-0.3238392359357358	-1.238504554284852
id604	sample1	obj244	2.022482607738767	1.6770423818305136	1.9372535138607179	1.1146003552606638	-1.030508671572293
id605	sample1	obj245	2.0277947575252746	-1.2072276413699585	-2.2684904972365816	-2.356042104933769	-0.36928810727964967
id606	sample1	obj246	-2.2274100270934842	1.149951279357673	-0.6314651250066925	-2.925496737264578	-0.8509001315200664
id607	sample1	obj247	1.8781475759187247	1.8525288899609338	-0.18553466843998656	-2.0319124377759694	1.631368525660536
id608	sample1	obj248	3.2209018154467204	-2.7122760673022297	-1.8846226509606971	0.804530121460116	0.0745193027109936
id609	sample1	obj249	-0.30317387552588715	-2.4802538433906465	1.7593075167596122	3.004585952228039	0.6524181975597246
id610	sample1	obj250	-2.5040844667129507	0.7875341770785547	1.1971532366384046	1.1882615512094583	1.9617201013318328
id611	sample1	obj251	0.3364817624761869	-1.8094372440125182	-1.7628077353552034	-1.8386353014137224	-1.200253374961727
id612	sample1	obj252	0.5144638829674454	-2.337291912624548	1.77695334801587	-2.6165077757406774	2.084622887343028
id613	sample1	obj253	-1.976404587018341	1.3155501654909205	-0.6716491273604006	-1.8769402093442973	0.3585515288133643
id614	sample1	obj254	1.4316083012618812	-0.7776993326434538	2.32790224773966	-3.1221977334895517	1.7823313598397488
id615	sample1	obj255	-1.2308945574011159	2.3041823277887694	-1.5505837710987485	2.070705113707484	0.5495915619061327
id616	sample1	obj256	3.0399353753451535	-2.80249931888843	-0.8157355868575309	3.40173878302839	-1.1200146049230493
id617	sample1	obj257	1.8899717969489949	0.9654513171197999	-2.30798985918396	2.198879694138951	-0.5625816296047245
id618	sample1	obj258	-0.7110984537695111	2.7828954479289765	2.281550135731614	-2.490416124232551	1.1186940834409196
id619	sample1	obj259	2.145510208264601	1.7922201220651501	0.11419430758712545	0.9033184967268009	2.216919225304388
id620	sample1	obj260	-2.195381105710426	-2.9587133402777157	2.647351841348449	-2.552426464627394	1.3285138937370167
id621	sample1	obj261	-2.3658123882534783	-1.6314253388003808	3.4080261542780104	1.5720497394199042	2.6809772728473185
id622	sample1	obj262	-0.7780227163096525	-2.4270351239658017	-0.8367773232817701	-0.26295752551560936	1.1660470038116295
id623	sample1	obj263	3.5869552386090584	1.5322220167768932	1.7540248299198054	1.583606904498094	-3.069349371832156
id624	sample1	obj264	2.402456261378571	-1.464545209218349	0.21698904282257048	-1.452110065740586	-2.854365274855815
id625	sample1	obj265	3.1621531033436128	0.016106375127212136	-1.6218126790128935	1.8862342617207715	-0.7774611986749743
id626	sample1	obj266	2.2793473803529736	-1.5021922757097625	2.912670137213954	-0.7126815580659548	0.6597828909004385
id627	sample1	obj267	-2.2565922362939683	-2.3481806793996545	-3.720640976960193	-2.1395435977207913	3.167288876086197
id628	sample1	obj268	0.8930844904481043	0.7233792642559257	-2.321371188451611	1.0600661084570786	3.4185690378602076
id629	sample1	obj269	1.4333183172097004	-0.7622245897899154	0.1431007271046285	-1.5191349067936644	0.128568472565056
id630	sample1	obj270	-0.13257154204645105	-2.0857445933850256	1.2593822935470358	0.768166839875503	2.5163030470696177
id631	sample1	obj271	-0.5915718179785762	-0.17804264672686315	1.0702723879022273	-2.4128030299957786	1.6721153310777135
id632	sample1	obj272	-1.6844379758732597	1.65542172960587	0.8071227992494896	-1.8717985145428546	-0.8976494758491467
id633	sample1	obj273	1.2600830219715753	1.055511960604126	-3.289290109037456	0.814190589653558	0.04726119862718581
id634	sample1	obj274	-1.2943119986216258	-0.2775304004234933	-2.011356594445876	0.5283880440941855	-1.093771319856121
id635	sample1	obj275	-0.48489803660797226	-2.3584478989867392	0.5096735890895103	2.9475138002491166	2.1349332582781995
id636	sample1	obj276	-2.8208164885201334	1.036943548892225	1.5439737269056906	-1.7182403530616086	3.228052181871357
id637	sample1	obj277	-0.3476643617602445	0.8038951133838176	2.2710344700922795	-1.3287931074600936	1.1716422323569369
id638	sample1	obj278	-2.0098015293412597	-2.739075138615647	1.0953206889605818	2.32894528405326	-1.5938996691087073
id639	sample1	obj279	0.967450974613174	-0.6274067481998203	2.8590039630460127	-2.9787123044805015	-1.0177905510798584
id640	sample1	obj280	-0.8179917550089497	-0.4715537612620958	-1.101676139782454	-0.802740564071531	3.434391753523306
id641	sample1	obj281	-1.231221784193248	-0.9648049898363424	-0.23905926557684298	2.49986926124499	1.8675223207892326
id642	sample1	obj282	2.3593832645058113	0.045921932943752464	-0.7896166881086422	-0.15673947843424008	2.1141457766948464
id643	sample1	obj283	0.61058219608355	-1.5883306407727544	-0.9025369954834179	-0.4574465507559001	-1.4412031224490773
id644	sample1	obj284	0.5534238226240547	0.5057891519973001	-2.0501547082611102	1.0237341860629758	-2.457912649934107
id645	sample1	obj285	0.7042719131480417	-0.9774736329950848	-2.2084258855646626	2.2459319188185907	0.5467155989738264
id646	sample1	obj286	1.3701967186304858	-1.5854469355082563	-0.8691444355236189	-1.3959865799816484	0.692657134391908
id647	sample1	obj287	-2.5708386448974485	-3.351658105461719	1.2133665115947507	-1.8025392600535766	-2.7787539533143097
id648	sample1	obj288	-0.5997222817679176	1.324756499048052	0.7461432792324549	0.9902583590208878	-0.9639591980123037
id649	sample1	obj289	-0.7536919446528583	-1.11891496523066	-0.6816113405399908	-2.6796902547316988	-0.8140428044194893
id650	sample1	obj290	-0.26962397871018706	-1.6328962552647608	-2.033524517554449	1.77099080656668	-1.3372083206354792
id651	sample1	obj291	-0.9358879738757477	-0.08730954197673024	-1.7225212709521642	1.7358496546808324	-0.0421788793493072
id652	sample1	obj292	1.0519043092416165	2.460119945126226	2.5477105786140846	-1.0646161765785231	-3.073643566934465
id653	sample1	obj293	2.915379179424341	0.6260031302947262	-0.5786497988206689	-0.32567056311971443	0.5643238590912173
id654	sample1	obj294	-2.3653892187681387	1.9524893579041072	-0.532977026923436	0.8130771063771766	-1.3154214746161672
id655	sample1	obj295	0.9183997445268217	1.6631597492982562	-1.4906227367597655	-1.13203015586324	-0.5056990526012612
id656	sample1	obj296	2.0334809048244793	-1.2064209894891214	1.8327595715606733	1.4228272217019742	2.1204514415823894
id657	sample1	obj297	-0.7648133772756636	-2.390383335252608	-1.011347820646031	-1.4525427972864438	-2.698361865311382
id658	sample1	obj298	-0.0932238730522782	1.1949506272617774	1.457713268150952	-0.9918647863998643	0.828339035052079
id659	sample1	obj299	-1.0036314759472122	3.4899514640880804	-1.8079176843477032	0.540055486200874	-0.010999801609511195
id660	sample1	obj300	1.515506389681602	1.7583834259933875	2.203325118077342	-1.3195402825419653	0.15354980242906047
id661	sample1	obj301	-1.3925822738438398	2.112066191128176	-0.6298008735066081	-0.8948722580103399	-2.081690605770314
id662	sample1	obj302	-2.1738401745900617	1.3704605656423445	-1.994744379140449	1.1988258660759443	-1.9876379720446906
id663	sample1	obj303	0.4684726575240723	-0.9657580104998813	0.3131387713373033	0.7613099556936114	1.1595095714097057
id664	sample1	obj304	0.5202698633835725	-2.89558345830618	-2.7682628409644003	1.098072856350745	-1.7753744781561152
id665	sample1	obj305	1.7815045742538125	-1.7097927027117528	-1.2369069734662599	1.7092248083501613	2.6438024386395815
id666	sample1	obj306	1.2555799717287177	-1.8801786955220188	2.4711331486915507	-1.2571609928650578	-1.480003193299102
id667	sample1	obj307	1.1392369691117863	0.6714107313646689	-1.133164657652181	2.6371189343034276	2.292434200211154
id668	sample1	obj308	-3.000800305381783	2.1051376825769372	-1.1429816998781208	-1.4419086620900177	0.6258312392565875
id669	sample1	obj309	-2.4107195012694693	0.848549662377525	-0.6688394335992573	2.7815392916181705	3.1152383264889583
id670	sample1	obj310	2.0183000480701354	-0.6496024591608884	-1.7458286069850004	-0.3159602909140762	2.3273435507098954
id671	sample1	obj311	-2.853649185942609	-2.1788379439353562	-1.8455356006874832	0.5874785205639523	2.3789595395089593
id672	sample1	obj312	0.24240790582068805	2.219193104243586	-1.1977618238360015	1.3068226918882762	3.2451832316467706
id673	sample1	obj313	-1.344111188142292	1.6385770789004765	-2.382832442403705	1.9773768261266647	-0.33290815247644
id674	sample1	obj314	-0.004196609789420491	-1.7684607164358177	-2.9807179501871883	-1.2216302314679623	-1.6428608350148353
id675	sample1	obj315	-2.56664704517277	-1.1196848616170652	0.09297058318757578	-0.28018940587922736	-0.9074715569379965
id676	sample1	obj316	0.35022705050390024	0.7614089164220338	-1.2024108904033917	-0.3199591634839176	2.8730968096764604
id677	sample1	obj317	1.4231223113515754	0.080459917896746	2.8314559340470815	0.02919620056212091	2.6524224815559876
id678	sample1	obj318	1.2971493274888175	0.9530693869072151	-2.70975094542688	2.4944650674850637	0.94823055672476
id679	sample1	obj319	-1.6837401904757272	1.9086679523243097	-1.1314526570494106	0.6887209422289524	0.4707737878014929
id680	sample1	obj320	0.7340617174313142	-1.1042950679060484	-1.280716211542424	1.8866533223316986	0.9000162633253628
id681	sample1	obj321	1.3830777338274958	2.279169662610869	0.5217292797223329	-0.6499389573423839	1.06657277460934
id682	sample1	obj322	-0.03179143512418908	-2.5380906634935054	0.9832549574843964	-1.5141010119897906	1.2101049224947238
id683	sample1	obj323	-0.271065254520072	-2.0340773621839046	0.2674449534663812	0.5240865474096936	3.3908060849933825
id684	sample1	obj324	2.550202969612465	-0.6230828039642904	-0.828056832333792	-0.7000985442455054	1.7912099122996592
id685	sample1	obj325	0.3532194820842246	1.293331978170873	2.2931637222814554	0.754265370602699	-3.3600270072855905
id686	sample1	obj326	-2.2358465825117193	-1.2248762158975501	1.2941713606678422	1.6464177305968075	-1.150474089755732
id687	sample1	obj327	-1.5660423125490444	1.102735491984891	3.049455754266184	-2.004818607382639	1.791409151446183
id688	sample1	obj328	0.44408534959521917	1.4204728157965734	2.1972294354199913	-1.0112504941570095	0.6611300748639817
id689	sample1	obj329	-0.6053547126537688	0.5389859302201989	1.6499748843611814	-2.5424268332031903	2.099892589164363
id690	sample1	obj330	-0.2988404972982144	-0.11163641804496272	0.7264682161399737	2.511485072935308	-2.688597709148966
id691	sample1	obj331	1.8252012002065263	-0.3484659469370315	-0.19975296476783488	0.10238383230117587	-2.5023524420765977
id692	sample1	obj332	-2.2062078334123516	-0.931686728318325	2.684053028332291	2.74281581320603	0.543568290557247
id693	sample1	obj333	0.5835525414446516	-0.6282591730018554	0.06902338142431819	1.4620868085456404	2.871682915029705
id694	sample1	obj334	-1.1666507314401158	0.7568949783316022	-1.4420789134314933	0.8589062972289825	0.46859328482241763
id695	sample1	obj335	0.9252757797288418	0.642821536616953	-1.193086215052073	0.6493334719471209	1.4428468126264336
id696	sample1	obj336	-0.40955715631067213	1.8464146242333987	-2.3142407744197047	2.2024113480012906	-1.4348417205747943
id697	sample1	obj337	1.6916050784417878	0.08965352495332635	2.8929971382788326	-0.8891579382554126	-1.1017393158285436
id698	sample1	obj338	-2.43140927161123	2.522101862763888	-1.3068735144484067	-2.1117420396088566	-0.9745668130121778
id699	sample1	obj339	1.5954583969225553	2.4902659331661443	-0.15317409540542726	-1.4527671873508434	-1.340145149506274
id700	sample1	obj340	2.179424893249208	-2.4262917954577667	-0.3827163860646041	-2.299057285632917	0.37861389165223275
id701	sample1	obj341	1.1141048132713758	-1.8645238523939796	-0.4548415494710998	-1.5851989612831432	-2.0977205625231745
id702	sample1	obj342	-0.2700348524079683	-1.3778541675862999	-0.593283710671144	-1.0126516417014593	-3.0623218221758286
id703	sample1	obj343	-2.055345721619361	1.284917724673406	-1.7125520390220401	1.3983016890853897	1.0412148054729033
id704	sample1	obj344	-0.6575272751429371	-1.3870493636668486	-2.451943010602615	0.4569568771738544	-3.2637571031077393
id705	sample1	obj345	1.0861861785646594	1.903737548899415	-0.008631672289605818	1.0431121462639674	-1.517412188243033
id706	sample1	obj346	-0.8224087594852498	-2.846359546898168	-2.9750301627153477	0.853810909522952	0.7971550062709978
id707	sample1	obj347	2.0671753698613893	-1.8258487755374069	-1.7966924333212082	-0.8486375198691924	2.2760756671660967
id708	sample1	obj348	-3.1018634851586384	1.6502081175695225	1.9482466297970837	-0.616156524938906	-3.151480542221565
id709	sample1	obj349	2.5618632775194814	2.0187404088494714	-3.063417787888856	0.9550174077224762	0.10493221222636034
id710	sample1	obj350	-1.6085379414222556	2.8976623758343716	-0.5211062969495441	1.6459401755438954	-0.9349002059618887
id711	sample1	obj351	-0.3411638860104922	1.1096666257815364	-1.222221985240434	-2.5868044314089436	-0.027687776087016114
id712	sample1	obj352	-2.439742819167491	0.62429963411276	2.50482552523104	0.3379365616553457	1.7802301211615699
id713	sample1	obj353	0.9451479403633292	1.3943790456154985	2.0160231233294708	0.3394390929270492	2.2672792074675145
id714	sample1	obj354	0.7797757527596221	-1.2457866654034289	0.9895557722607607	-0.15664744225225302	2.5175353570120516
id715	sample1	obj355	-1.691995447992209	2.098717297903037	-0.5088851695799106	-0.06366653823665569	0.5594248158139884
id716	sample1	obj356	0.6580028730475316	0.8529199691192149	-1.2091190103361458	2.016296565563679	-1.988809473001512
id717	sample1	obj357	-1.6621191350176105	-3.528981924464705	-0.4699335043605066	-0.5695664884889345	-0.8048233421348797
id718	sample1	obj358	-1.2796569541007587	-2.1022253553716266	-0.024559310646419474	-2.183029582157004	-2.221907811894836
id719	sample1	obj359	2.099074488533548	0.27732617818440986	-0.32076754070988334	-2.2253066235765853	-0.387107525852904
