obj0	obj0
obj0	obj16
obj0	obj309
obj1	obj1
obj1	obj14
obj1	obj74
obj1	obj188
obj1	obj235
obj2	obj2
obj2	obj27
obj2	obj94
obj2	obj107
obj2	obj221
obj2	obj222
obj3	obj3
obj3	obj11
obj3	obj121
obj4	obj4
obj4	obj7
obj4	obj16
obj4	obj18
obj4	obj91
obj4	obj108
obj4	obj218
obj5	obj5
obj5	obj32
obj5	obj129
obj6	obj6
obj6	obj32
obj6	obj75
obj6	obj130
obj7	obj7
obj7	obj34
obj7	obj122
obj7	obj128
obj7	obj296
obj8	obj8
obj8	obj120
obj8	obj222
obj8	obj245
obj9	obj9
obj9	obj66
obj9	obj109
obj9	obj238
obj9	obj345
obj10	obj10
obj11	obj11
obj11	obj41
obj11	obj262
obj11	obj292
obj11	obj350
obj12	obj12
obj12	obj34
obj12	obj133
obj12	obj321
obj13	obj13
obj14	obj14
obj14	obj94
obj14	obj119
obj14	obj305
obj15	obj15
obj15	obj82
obj15	obj115
obj15	obj144
obj15	obj196
obj16	obj16
obj16	obj72
obj16	obj140
obj17	obj17
obj17	obj298
obj18	obj18
obj18	obj51
obj18	obj127
obj18	obj323
obj19	obj19
obj19	obj95
obj20	obj20
obj20	obj165
obj20	obj263
obj20	obj303
obj21	obj21
obj21	obj114
obj21	obj136
obj21	obj160
obj21	obj322
obj22	obj22
obj22	obj115
obj22	obj125
obj22	obj189
obj22	obj202
obj23	obj23
obj23	obj33
obj23	obj53
obj23	obj152
obj23	obj278
obj24	obj24
obj24	obj55
obj24	obj289
obj25	obj25
obj25	obj73
obj25	obj87
obj25	obj325
obj26	obj26
obj26	obj65
obj26	obj77
obj26	obj79
obj26	obj120
obj26	obj195
obj27	obj27
obj27	obj95
obj28	obj28
obj28	obj101
obj28	obj129
obj28	obj215
obj28	obj234
obj29	obj29
obj29	obj42
obj29	obj114
obj29	obj184
obj29	obj216
obj29	obj322
obj30	obj30
obj30	obj110
obj30	obj220
obj30	obj268
obj30	obj326
obj31	obj31
obj31	obj68
obj31	obj75
obj31	obj109
obj31	obj128
obj31	obj143
obj31	obj271
obj32	obj32
obj32	obj33
obj32	obj127
obj32	obj167
obj32	obj196
obj32	obj308
obj33	obj33
obj33	obj57
obj33	obj76
obj33	obj121
obj33	obj153
obj33	obj352
obj34	obj34
obj34	obj124
obj34	obj336
obj35	obj35
obj35	obj190
obj36	obj36
obj36	obj111
obj36	obj126
obj37	obj37
obj37	obj38
obj37	obj53
obj37	obj145
obj37	obj147
obj37	obj151
obj37	obj196
obj38	obj38
obj38	obj88
obj38	obj125
obj38	obj316
obj39	obj39
obj39	obj79
obj39	obj359
obj40	obj40
obj40	obj169
obj41	obj41
obj41	obj42
obj41	obj60
obj41	obj87
obj41	obj89
obj41	obj152
obj42	obj42
obj42	obj80
obj43	obj43
obj43	obj49
obj43	obj208
obj43	obj343
obj44	obj44
obj44	obj72
obj44	obj105
obj45	obj45
obj45	obj155
obj46	obj46
obj46	obj226
obj47	obj47
obj47	obj203
obj48	obj48
obj48	obj52
obj48	obj104
obj49	obj49
obj49	obj51
obj50	obj50
obj50	obj150
obj50	obj155
obj51	obj51
obj51	obj52
obj51	obj114
obj52	obj52
obj52	obj92
obj53	obj53
obj53	obj144
obj53	obj182
obj53	obj255
obj54	obj54
obj54	obj145
obj55	obj55
obj55	obj186
obj56	obj56
obj56	obj90
obj56	obj243
obj57	obj57
obj57	obj163
obj57	obj208
obj58	obj58
obj58	obj70
obj58	obj121
obj58	obj145
obj59	obj59
obj59	obj71
obj59	obj111
obj59	obj156
obj59	obj349
obj60	obj60
obj60	obj159
obj61	obj61
obj61	obj64
obj61	obj172
obj62	obj62
obj62	obj77
obj62	obj171
obj63	obj63
obj63	obj168
obj63	obj221
obj64	obj64
obj64	obj277
obj65	obj65
obj65	obj127
obj65	obj133
obj66	obj66
obj66	obj94
obj66	obj127
obj66	obj231
obj67	obj67
obj67	obj90
obj67	obj99
obj67	obj104
obj67	obj137
obj67	obj239
obj68	obj68
obj68	obj99
obj68	obj131
obj68	obj174
obj69	obj69
obj69	obj73
obj69	obj148
obj69	obj224
obj70	obj70
obj70	obj208
obj71	obj71
obj71	obj263
obj71	obj343
obj72	obj72
obj72	obj337
obj73	obj73
obj74	obj74
obj75	obj75
obj75	obj228
obj76	obj76
obj76	obj134
obj76	obj221
obj76	obj246
obj77	obj77
obj77	obj133
obj77	obj168
obj77	obj223
obj77	obj347
obj78	obj78
obj78	obj95
obj79	obj79
obj79	obj107
obj79	obj139
obj79	obj150
obj80	obj80
obj80	obj113
obj80	obj129
obj80	obj138
obj80	obj139
obj80	obj194
obj81	obj81
obj81	obj261
obj82	obj82
obj82	obj96
obj82	obj108
obj82	obj110
obj82	obj205
obj83	obj83
obj83	obj127
obj83	obj131
obj83	obj139
obj83	obj157
obj84	obj84
obj84	obj98
obj84	obj155
obj85	obj85
obj85	obj266
obj86	obj86
obj87	obj87
obj88	obj88
obj88	obj130
obj88	obj172
obj88	obj282
obj89	obj89
obj89	obj169
obj90	obj90
obj90	obj219
obj90	obj283
obj90	obj305
obj91	obj91
obj91	obj124
obj91	obj126
obj91	obj135
obj91	obj172
obj92	obj92
obj92	obj133
obj92	obj164
obj93	obj93
obj94	obj94
obj94	obj319
obj95	obj95
obj95	obj114
obj95	obj205
obj96	obj96
obj96	obj99
obj96	obj119
obj97	obj97
obj97	obj209
obj97	obj291
obj97	obj354
obj98	obj98
obj98	obj268
obj99	obj99
obj99	obj106
obj99	obj125
obj99	obj275
obj100	obj100
obj100	obj153
obj100	obj319
obj101	obj101
obj101	obj140
obj101	obj152
obj101	obj174
obj102	obj102
obj102	obj112
obj103	obj103
obj103	obj117
obj103	obj121
obj104	obj104
obj104	obj224
obj104	obj258
obj104	obj334
obj105	obj105
obj105	obj115
obj106	obj106
obj106	obj144
obj106	obj148
obj106	obj301
obj106	obj337
obj107	obj107
obj107	obj113
obj107	obj115
obj108	obj108
obj108	obj154
obj108	obj285
obj109	obj109
obj109	obj121
obj109	obj321
obj109	obj333
obj110	obj110
obj110	obj269
obj110	obj348
obj111	obj111
obj111	obj115
obj111	obj119
obj112	obj112
obj112	obj240
obj112	obj354
obj113	obj113
obj114	obj114
obj114	obj116
obj114	obj342
obj115	obj115
obj115	obj139
obj115	obj236
obj115	obj255
obj116	obj116
obj117	obj117
obj117	obj121
obj117	obj131
obj117	obj139
obj118	obj118
obj119	obj119
obj119	obj137
obj120	obj120
obj120	obj128
obj120	obj141
obj120	obj220
obj120	obj238
obj121	obj121
obj121	obj148
obj121	obj238
obj122	obj122
obj122	obj154
obj122	obj191
obj123	obj123
obj123	obj129
obj124	obj124
obj124	obj148
obj125	obj125
obj126	obj126
obj126	obj127
obj126	obj128
obj126	obj151
obj127	obj127
obj127	obj133
obj127	obj337
obj128	obj128
obj128	obj224
obj129	obj129
obj129	obj159
obj129	obj342
obj130	obj130
obj130	obj144
obj130	obj213
obj130	obj222
obj131	obj131
obj131	obj142
obj131	obj203
obj131	obj253
obj132	obj132
obj132	obj182
obj132	obj197
obj133	obj133
obj133	obj213
obj134	obj134
obj134	obj261
obj134	obj290
obj135	obj135
obj135	obj325
obj136	obj136
obj136	obj181
obj137	obj137
obj137	obj139
obj137	obj141
obj137	obj229
obj138	obj138
obj138	obj172
obj139	obj139
obj140	obj140
obj141	obj141
obj142	obj142
obj142	obj199
obj142	obj309
obj143	obj143
obj143	obj203
obj144	obj144
obj144	obj349
obj145	obj145
obj146	obj146
obj147	obj147
obj147	obj151
obj147	obj157
obj147	obj164
obj148	obj148
obj149	obj149
obj150	obj150
obj150	obj155
obj150	obj316
obj151	obj151
obj151	obj157
obj152	obj152
obj152	obj192
obj153	obj153
obj154	obj154
obj154	obj157
obj154	obj309
obj155	obj155
obj155	obj269
obj155	obj338
obj156	obj156
obj157	obj157
obj158	obj158
obj158	obj209
obj159	obj159
obj159	obj339
obj160	obj160
obj160	obj205
obj161	obj161
obj161	obj173
obj161	obj192
obj162	obj162
obj162	obj228
obj163	obj163
obj163	obj348
obj164	obj164
obj164	obj200
obj164	obj204
obj165	obj165
obj165	obj179
obj166	obj166
obj166	obj189
obj167	obj167
obj167	obj239
obj167	obj256
obj168	obj168
obj168	obj170
obj169	obj169
obj169	obj171
obj170	obj170
obj170	obj195
obj170	obj200
obj171	obj171
obj171	obj178
obj171	obj180
obj171	obj206
obj171	obj237
obj172	obj172
obj172	obj223
obj172	obj228
obj172	obj302
obj173	obj173
obj173	obj181
obj173	obj210
obj174	obj174
obj174	obj202
obj175	obj175
obj175	obj302
obj175	obj310
obj176	obj176
obj176	obj177
obj177	obj177
obj178	obj178
obj178	obj201
obj178	obj256
obj179	obj179
obj180	obj180
obj180	obj208
obj180	obj221
obj180	obj223
obj180	obj238
obj181	obj181
obj181	obj207
obj182	obj182
obj183	obj183
obj183	obj196
obj183	obj238
obj184	obj184
obj185	obj185
obj185	obj216
obj185	obj321
obj185	obj336
obj186	obj186
obj186	obj190
obj186	obj226
obj187	obj187
obj188	obj188
obj188	obj227
obj188	obj231
obj189	obj189
obj190	obj190
obj190	obj208
obj191	obj191
obj192	obj192
obj192	obj223
obj192	obj224
obj192	obj236
obj193	obj193
obj193	obj239
obj194	obj194
obj194	obj235
obj195	obj195
obj196	obj196
obj197	obj197
obj198	obj198
obj198	obj263
obj199	obj199
obj199	obj236
obj200	obj200
obj201	obj201
obj201	obj219
obj201	obj277
obj202	obj202
obj202	obj227
obj202	obj248
obj203	obj203
obj203	obj212
obj204	obj204
obj205	obj205
obj205	obj344
obj206	obj206
obj207	obj207
obj207	obj325
obj208	obj208
obj208	obj351
obj209	obj209
obj209	obj291
obj210	obj210
obj210	obj213
obj210	obj218
obj211	obj211
obj212	obj212
obj212	obj227
obj212	obj297
obj213	obj213
obj214	obj214
obj214	obj231
obj214	obj232
obj215	obj215
obj215	obj256
obj215	obj323
obj216	obj216
obj217	obj217
obj217	obj237
obj218	obj218
obj218	obj234
obj219	obj219
obj219	obj224
obj219	obj225
obj219	obj287
obj220	obj220
obj220	obj329
obj221	obj221
obj222	obj222
obj222	obj226
obj223	obj223
obj223	obj289
obj224	obj224
obj224	obj276
obj225	obj225
obj225	obj309
obj226	obj226
obj226	obj337
obj226	obj354
obj227	obj227
obj228	obj228
obj228	obj263
obj228	obj288
obj229	obj229
obj230	obj230
obj231	obj231
obj232	obj232
obj232	obj244
obj233	obj233
obj234	obj234
obj235	obj235
obj235	obj252
obj236	obj236
obj237	obj237
obj238	obj238
obj239	obj239
obj239	obj355
obj240	obj240
obj241	obj241
obj242	obj242
obj243	obj243
obj244	obj244
obj245	obj245
obj245	obj260
obj245	obj332
obj246	obj246
obj247	obj247
obj247	obj322
obj248	obj248
obj249	obj249
obj250	obj250
obj251	obj251
obj252	obj252
obj252	obj342
obj253	obj253
obj253	obj332
obj254	obj254
obj255	obj255
obj255	obj290
obj256	obj256
obj257	obj257
obj258	obj258
obj259	obj259
obj260	obj260
obj260	obj279
obj261	obj261
obj262	obj262
obj263	obj263
obj264	obj264
obj265	obj265
obj266	obj266
obj267	obj267
obj268	obj268
obj268	obj278
obj269	obj269
obj269	obj299
obj270	obj270
obj270	obj315
obj270	obj343
obj271	obj271
obj272	obj272
obj273	obj273
obj274	obj274
obj275	obj275
obj276	obj276
obj277	obj277
obj278	obj278
obj279	obj279
obj279	obj334
obj280	obj280
obj281	obj281
obj281	obj325
obj282	obj282
obj282	obj318
obj283	obj283
obj284	obj284
obj285	obj285
obj286	obj286
obj287	obj287
obj288	obj288
obj289	obj289
obj290	obj290
obj290	obj297
obj291	obj291
obj292	obj292
obj293	obj293
obj294	obj294
obj294	obj350
obj295	obj295
obj296	obj296
obj296	obj349
obj297	obj297
obj298	obj298
obj299	obj299
obj300	obj300
obj301	obj301
obj301	obj357
obj302	obj302
obj303	obj303
obj303	obj328
obj304	obj304
obj305	obj305
obj306	obj306
obj307	obj307
obj308	obj308
obj309	obj309
obj310	obj310
obj310	obj315
obj311	obj311
obj312	obj312
obj313	obj313
obj313	obj321
obj314	obj314
obj315	obj315
obj316	obj316
obj317	obj317
obj318	obj318
obj318	obj324
obj319	obj319
obj319	obj353
obj320	obj320
obj321	obj321
obj322	obj322
obj323	obj323
obj324	obj324
obj324	obj329
obj325	obj325
obj326	obj326
obj327	obj327
obj328	obj328
obj328	obj351
obj329	obj329
obj330	obj330
obj331	obj331
obj332	obj332
obj333	obj333
obj334	obj334
obj335	obj335
obj336	obj336
obj337	obj337
obj338	obj338
obj339	obj339
obj340	obj340
obj341	obj341
obj342	obj342
obj343	obj343
obj344	obj344
obj345	obj345
obj346	obj346
obj347	obj347
obj348	obj348
obj349	obj349
obj350	obj350
obj351	obj351
obj352	obj352
obj353	obj353
obj354	obj354
obj355	obj355
obj356	obj356
obj357	obj357
obj358	obj358
obj359	obj359
