	1.168472658567288	-1.631063027536249	1.3218535938252007	1.5183086232085619	-2.278986364145828
	1.0396887801864838	-1.5889261822138687	-1.2606759675707702	1.6862974046672587	0.9174475540396356
	-0.7579092803876422	-2.1331605446179474	-0.7571169311992425	-1.6934098840798715	0.3058549475330925
