	1.229057834629103	2.1324065466427955	0.13749613961286133	0.8571807657997557	-0.7949109459420698
	-0.881500425207077	-0.7066353268900447	2.90214029804563	1.8703376171216881	1.7413267130446743
	2.41998369071775	-1.970784323099405	-2.2517058290466965	1.7461158511769086	1.3405623157056838
