id0	sample0	obj0	1.023332471638169	1.20783331416373	-3.3353661568852564	-0.8560067424698807	0.7642175145110943
id1	sample0	obj1	-0.6292108308603739	1.5386668461671138	-2.9037081463688805	0.7955578142238604	-0.18436278700597986
id2	sample0	obj2	2.4454250743987513	1.8716389500801425	-1.938289207154723	0.47389306393911146	0.8180522100726912
id3	sample0	obj3	2.309457591117825	2.83200904049551	-2.71807417573956	0.22602040495444475	0.8473128090088962
id4	sample0	obj4	1.714247478433813	2.3469614899726277	-2.3429983289058818	0.401576130003116	0.9972743721670654
id5	sample0	obj5	-0.47577701367429026	0.3432139423726073	-3.3318360489461165	0.8777871600058063	-0.2329477030816387
id6	sample0	obj6	2.179187994297636	2.266569976918789	-1.2786544840478784	0.3649394362176708	0.45941692640521015
id7	sample0	obj7	1.8196610949165766	0.015601161891388493	-3.9156295396124854	0.795498194216588	0.24742989636537183
id8	sample0	obj8	1.093457312022035	1.776728012012974	-3.5246841394211454	1.357302090691374	0.44325304431732326
id9	sample0	obj9	1.3047165174225326	0.7798281708408271	-3.576249120687391	0.4748590448865755	1.0783800975596571
id10	sample0	obj10	0.031060913421223524	1.5238628886213021	-2.4613472457345194	1.7677434513519776	0.6160734493237336
id11	sample0	obj11	2.1424156122034406	2.159422248493902	-3.483949191421222	0.7371286133493355	-0.5942151289339144
id12	sample0	obj12	0.36322016327015594	1.3163831710017089	-1.4688030511194576	-0.3277376539433172	0.3243631923670136
id13	sample0	obj13	1.1902775202974363	1.1660221803569744	-2.879659172769416	0.6406277456639873	-0.10689936760547236
id14	sample0	obj14	-0.7975418780547261	2.947386761457567	-3.009218578122293	1.4041105600120651	-1.1903067142168324
id15	sample0	obj15	1.8083839853769572	1.9699723575781571	-4.103106878366328	0.43981783181587697	0.6622693965046833
id16	sample0	obj16	-0.7943249499495961	0.36642680924226156	-3.6216112572200854	-0.0394081844014853	0.06535295358752191
id17	sample0	obj17	-0.4411157121868572	1.9889893801983152	-3.212086861005159	1.538647495565031	-1.8395484840808989
id18	sample0	obj18	1.0539097191735534	2.4541500884033827	-0.8353481666153797	1.0967661760843377	-1.110879993897079
id19	sample0	obj19	0.5763954560860332	0.4070910329646551	-3.517333668364616	2.2453623834811713	0.02429262799709453
id20	sample0	obj20	-0.1282965550591162	2.589046853157462	-2.8891455261513332	0.1656636282698456	1.1568821184290765
id21	sample0	obj21	2.032983475601018	0.5729437873818133	-3.6443181505946516	0.6179901893097166	-1.3462861682398866
id22	sample0	obj22	1.4122319816987396	0.6232151971832466	-2.6764901288560727	1.3160639249502488	1.2464822227194603
id23	sample0	obj23	2.580518322511301	1.9457687221677564	-2.237629385168332	0.3838510547586622	1.23496823295441
id24	sample0	obj24	2.6035879096192325	-0.18861653511312482	-3.8508842048688443	2.0539487990569656	-2.2035963887975254
id25	sample0	obj25	0.04475276076396684	3.1590448106014515	-3.064728194810323	0.3341865426345243	-1.705063789254633
id26	sample0	obj26	0.25094019076062213	1.1986335211336174	-3.834032466525286	0.923929764461527	-2.0277329754555553
id27	sample0	obj27	0.9819348497729652	0.6134293381765666	-2.8503581228014725	2.513386397011092	-0.7551723564645325
id28	sample0	obj28	1.7898101009808232	3.3783214981958647	-0.7143903346348084	0.7392834240099326	0.22293041703419791
id29	sample0	obj29	1.4715449333284767	3.2106838276538228	-3.263987089202406	2.0795979739266715	0.7442972375946828
id30	sample0	obj30	0.19152558586490587	2.0606080586159856	-2.2732433240013066	1.2783328651542296	-1.4248071888144727
id31	sample0	obj31	0.5731183375604945	0.3015431640284958	-2.676326318469419	2.432288015524418	-0.355330071671232
id32	sample0	obj32	0.5605717474694973	1.0045730643773472	-3.885368047181417	-0.5758743129186779	-1.1696351891716124
id33	sample0	obj33	0.5108843098010085	-0.05684957943821223	-3.2585724515284955	-0.15161076732501833	-2.001975787265943
id34	sample0	obj34	2.579363547893988	2.356384158953753	-3.077948865891817	1.7033744662648347	-0.6876023534087963
id35	sample0	obj35	2.1279949384816392	0.7544428825463249	-3.8677393140169043	0.6648430538388843	-0.2359120921279334
id36	sample0	obj36	1.1438370438626206	1.2787022811374542	-0.8468017929779215	2.4073601992030307	-0.4229261986129642
id37	sample0	obj37	1.1542455701069165	1.4147719936146341	-1.6733472926997306	2.511755856201959	1.0668164852962134
id38	sample0	obj38	-0.5114474197653094	-0.042080936998706964	-1.5042198556996833	-0.38202412053903556	-0.9731516586263929
id39	sample0	obj39	0.44269334352372636	1.7458742515242598	-3.7732082982853576	0.1659034695026358	-1.6275694366094926
id40	sample0	obj40	1.3718042360531777	0.8844235126713849	-2.4019030792140055	-0.026816715436869587	-1.3091562485649249
id41	sample0	obj41	0.9492413132197222	1.870872872451013	-2.579378845816132	0.9320988080495205	-1.7498758304700586
id42	sample0	obj42	0.6539719004637237	1.2099053056249909	-1.0387621510342255	-0.16956806083401	-0.6941677750439277
id43	sample0	obj43	2.6367777580733778	1.9455015854029587	-2.892848567154479	2.1828693617859436	-0.892762794233122
id44	sample0	obj44	2.2260593111470284	2.576925267431068	-0.8948499386387556	0.6899459730284943	-1.5971558707678348
id45	sample0	obj45	2.1899242209755636	2.8571666238666387	-2.932084532032206	-0.4727987539660974	0.9855558155166719
id46	sample0	obj46	1.4048924595181365	3.1610819007954967	-2.5071260532840083	-0.12396362524172078	1.2813065797515406
id47	sample0	obj47	2.7867137527496917	1.3019861091736442	-3.9400111564581843	0.09527252506202855	0.6372785949222568
id48	sample0	obj48	0.7332991569311247	2.407400928073023	-3.098507405471513	2.233104535656846	-1.6811960230192526
id49	sample0	obj49	0.7238309254074133	2.3770055095109623	-2.685987116520531	0.019539427226584194	-2.0676503511596245
id50	sample0	obj50	0.6306539079021147	2.6374849213344267	-1.9781099183116353	2.323120593042253	-0.06549765676518038
id51	sample0	obj51	2.723107767201679	1.5101002711911256	-2.103471670702721	0.015174139348458238	-1.8189432940354204
id52	sample0	obj52	-0.4972058515397051	2.824970047065448	-2.5292233487790097	-0.3866176824264671	-2.0303139924359366
id53	sample0	obj53	2.1223613332945623	2.8632972805797188	-2.822689835497776	0.5830454848264266	-2.1971807837129242
id54	sample0	obj54	0.30094669252412953	2.0094325423185015	-4.008416127323054	0.2999668457291713	-1.8758703161415549
id55	sample0	obj55	0.6855785707216433	2.880247271864897	-1.7930634742064273	-0.24580108963017278	-1.1751364607840877
id56	sample0	obj56	2.552460000484861	1.5238386885813102	-1.5280276704678248	2.0643912668456954	-0.36149178211243016
id57	sample0	obj57	2.463640747067986	0.8699421147441064	-3.63391353313992	1.1590467889406806	-0.5181264455014054
id58	sample0	obj58	0.5462938662722112	2.0913215710464543	-1.9825544841760039	-0.6349939814506673	-2.0455146602553045
id59	sample0	obj59	1.24173426600887	0.5338837837321859	-3.431720256825443	0.12816304219794872	0.6626684446143141
id60	sample0	obj60	1.8075621789050829	3.07229395108711	-1.720154435919923	0.451220998502712	-0.39501724395782833
id61	sample0	obj61	0.963659067473001	1.7443191461321117	-0.7691953425393743	0.9596698198788844	0.21265263764030906
id62	sample0	obj62	0.2584737304986351	1.2515850480402058	-3.1795356716955463	2.47287955610976	-0.5108133492604849
id63	sample0	obj63	0.04157296416875622	3.203596379773123	-2.4295236403249683	0.7520938811514668	-0.8662866133010434
id64	sample0	obj64	1.9448353216431078	1.8014350276724804	-1.7449469694512827	1.6995915691047074	-0.043324332316152736
id65	sample0	obj65	0.5643673380552856	2.7962510162261527	-4.054679844209843	0.30689528793066745	0.7054332786719095
id66	sample0	obj66	0.9417701207336397	0.9276012035194658	-2.120270031454205	0.9301991447237361	-0.023086234048985466
id67	sample0	obj67	1.3373121440655955	3.208512834873921	-3.651581902405853	1.287611012690747	0.8649894017249824
id68	sample0	obj68	1.1705174702553287	2.5708443088814574	-1.6263792367584105	2.159879331196904	0.5106116757341594
id69	sample0	obj69	1.4677506014623976	2.982219750149367	-3.537735162812788	0.9828799919285436	-0.44798907187453496
id70	sample0	obj70	0.30234821716967897	2.306262457572683	-2.221492169562749	1.7863750839261654	0.9763999062440021
id71	sample0	obj71	1.6736431268087724	1.270634138746783	-3.1772725682144074	0.8717282622347649	-1.5853564774057933
id72	sample0	obj72	2.786178422435203	0.8610397925436744	-3.8790883482712797	-0.4732998014547065	-0.7729208833114065
id73	sample0	obj73	1.3435079990567094	1.988944499244523	-1.6744750753004476	0.4018753986646906	-1.9431280040504793
id74	sample0	obj74	1.8016590559626395	3.311680035546787	-4.105505233539557	0.8847039586008727	-2.0149217943209186
id75	sample0	obj75	0.07879715660876818	2.380197014476498	-2.852044673429745	0.6939903388885797	0.40953905935558343
id76	sample0	obj76	2.062148609683141	1.5597072378401633	-3.2041726686256617	-0.35132994744492496	0.16165597557968092
id77	sample0	obj77	1.358224708452336	2.8764727476180827	-1.9987167365146694	1.567825833428915	-1.0252510281840836
id78	sample0	obj78	2.188050466570508	2.6767311516870262	-2.237802632141933	1.7517253637074381	-1.2205974052323842
id79	sample0	obj79	1.708499125943655	2.176290871108011	-2.43217610978338	0.19871921829014716	-1.7635098193879175
id80	sample0	obj80	1.1629610931845438	-1.572457785865986	-1.2488091650215454	-1.8384394729796796	-4.051388760452315
id81	sample0	obj81	1.686532997786452	0.22330861787688172	1.5559962272246775	0.5354581325184051	-2.3375675091284167
id82	sample0	obj82	1.5186165558237354	-0.3066608224394207	-0.09567303727089826	0.2881305304883288	-1.59377057670375
id83	sample0	obj83	2.804940509916907	-1.4489249353124485	-1.148635740086045	0.21324353166045973	-3.2954229954098286
id84	sample0	obj84	3.119052780267104	0.6315887480203897	-0.25940794167796977	-2.5390568420921795	-3.39676257131731
id85	sample0	obj85	3.7042571059897442	0.30894517067559835	-0.11262911257951891	-1.109394387458882	-4.439940883608741
id86	sample0	obj86	1.9134684576492813	0.3058739110547972	-0.9764298095191751	-1.314897558410655	-4.482060388262808
id87	sample0	obj87	2.2471563690420417	-0.3016403171986306	-1.4398494467307374	0.5289610250357903	-1.9444342029416533
id88	sample0	obj88	3.0295446811643423	-1.9250775336103836	1.4853895747564938	-0.4830382607119448	-4.3596691966277135
id89	sample0	obj89	2.6839644018354747	1.1347141328344643	-1.4931212741372815	-1.7516923548549	-3.3780748749055194
id90	sample0	obj90	1.4807010482592469	1.3507108121892542	-0.24744183723677016	0.7703040762645339	-3.234765239015143
id91	sample0	obj91	2.546679624472991	0.6650223076936992	0.29275375278959204	-2.3821322462258583	-3.871058571190601
id92	sample0	obj92	0.5959394308823003	-0.24989190398416716	0.7328895960230535	-0.18297105582202966	-3.959627200177135
id93	sample0	obj93	3.6701778613699787	1.4578528833340234	1.1190721958523369	-0.7832085229112229	-2.4577521411321257
id94	sample0	obj94	0.6279159437164119	0.21044594244293635	-1.6089107612338687	-2.6711869299175124	-3.4514768241674956
id95	sample0	obj95	3.0367738633146812	1.0562624301941221	0.6420827672582099	0.0404490111757243	-2.5576189961875118
id96	sample0	obj96	1.4632908087469154	-1.2630262982686826	1.6414838314280316	0.11443518256542462	-3.557811055533681
id97	sample0	obj97	2.3971804698668544	1.0916900226812503	1.5136729819347787	-0.4597805034774767	-3.321334071038643
id98	sample0	obj98	3.142190236038343	-1.8978663392575186	-0.6361078810610454	-1.6512614114687805	-3.0361011039230763
id99	sample0	obj99	1.7676043317664232	1.1980306624399788	-1.0796912678483808	-0.47529201943729915	-2.775489648358274
id100	sample0	obj100	1.2285637680789208	1.3652851710213902	0.26115482628504183	-0.24352974151257656	-3.7851096050859896
id101	sample0	obj101	2.594300552813367	1.133553439534462	1.1108248847911402	-0.4325927811076762	-1.4682499474186577
id102	sample0	obj102	3.4169352978013974	0.6089523016085858	-1.2735234524391874	-0.7114935821328643	-1.5133904185663927
id103	sample0	obj103	3.249161546657909	1.5634640861416222	0.1440054004500546	0.052625489381501245	-2.684134146946141
id104	sample0	obj104	2.401939101146499	-1.3109906798576834	1.6574480628982184	-1.9401474212435317	-4.166459628271292
id105	sample0	obj105	1.3679857169195286	1.6286009749710033	-0.3739302128775819	-0.2272273017370121	-3.3566199083214467
id106	sample0	obj106	2.4221443476449043	1.5238467558991216	-1.825727121403823	-0.96953330268348	-4.212672942361229
id107	sample0	obj107	1.9055579849351472	1.5809194290733168	-0.9438449558004162	-0.1655470895120279	-4.290872032752952
id108	sample0	obj108	2.409692249079127	-1.4069395507050513	-0.23991008589426976	-1.1004562070280148	-1.9621902743468753
id109	sample0	obj109	1.5318089271550812	0.15764295721221688	-1.796295131021485	-2.298954623651272	-3.0663356290858603
id110	sample0	obj110	2.4745000517433304	-1.6717602593966026	1.1048177072754	-0.6138109449210407	-3.084614494766931
id111	sample0	obj111	2.7973600466092208	0.5189464988891788	-0.23386788919330415	-2.446107701923587	-3.3531127008480848
id112	sample0	obj112	3.4034966059759224	1.5148495443089869	-1.3077822511708326	0.2714979477546138	-3.8112586200883776
id113	sample0	obj113	1.0768812307325617	0.6071485076629355	1.1790216008777221	-0.5105804000975012	-4.11741436249811
id114	sample0	obj114	1.5462912460642917	-0.6040997985782934	-1.3111621134707914	0.34836872785627526	-3.7717850454312107
id115	sample0	obj115	1.6395863297529505	0.5876520262283165	0.676327762059304	-1.7460352134033914	-2.634325572178128
id116	sample0	obj116	3.387424291056729	1.2163597695896724	0.29344097173709627	-1.839585669862737	-1.6665667296909257
id117	sample0	obj117	0.7392603970842269	0.6932493054898468	1.0065225669426845	-0.9452149859826575	-1.9431910439218922
id118	sample0	obj118	1.2558950861905886	0.4317191915645344	0.9724444787297808	-0.8290470767969675	-3.8172438338163825
id119	sample0	obj119	2.014359431332571	0.18892917581599034	-0.47893160945817637	-1.1292030681631058	-2.353506538059972
id120	sample0	obj120	3.0305307832296142	-0.42510566949334105	1.3064472097285298	-0.9660703974811817	-2.1563320574065807
id121	sample0	obj121	1.04757988877134	0.04029305024642316	-1.374257452522219	-0.8472310815036457	-2.781644923399668
id122	sample0	obj122	1.8687527832837707	-1.2671385400813948	-1.1139227454031868	-2.7100270721777093	-2.3570707137012255
id123	sample0	obj123	3.351412455263751	1.1973811216028933	1.615859124481229	-1.4966374685015316	-2.537356117057562
id124	sample0	obj124	2.911962142313759	1.3579115773192518	-1.0543325617617438	0.1312776997348648	-1.4666529324595754
id125	sample0	obj125	3.214093239054617	-0.31885254491727455	0.016722983311595163	-1.2605056097856582	-2.562570177609521
id126	sample0	obj126	2.0273139351976295	0.12049567643653147	1.5020389876519207	-2.644128427535317	-2.54555193175365
id127	sample0	obj127	1.9533619162785674	0.8956553315184064	1.6360194732161772	-1.1365187437294562	-3.270353175442059
id128	sample0	obj128	3.232765609013887	1.55728115392495	-1.3748836002840248	0.5646134834871364	-1.9610374729022932
id129	sample0	obj129	3.0885836524059744	-0.35604799205588056	0.9693227134511047	-1.2474375168753256	-2.273550125723986
id130	sample0	obj130	1.495365695772062	-0.41375621081249414	0.8387233242124938	-1.219251372974902	-1.2023721133059102
id131	sample0	obj131	2.4472911742522196	-0.8049435060834151	-1.1346183118184827	-1.3126197004626035	-3.906266544558697
id132	sample0	obj132	3.84974055151645	0.06604165373571425	-0.9899260330141889	0.519424381920863	-3.0663841832050607
id133	sample0	obj133	3.5179601669665885	-0.8136972672754299	0.6379257280103647	-2.18255700239646	-1.6632440841357587
id134	sample0	obj134	0.9710578747955001	0.7398254284584367	0.2738630731483458	0.34551100154419	-2.5467230724657437
id135	sample0	obj135	1.3159175799089826	-1.094644046076245	0.9244669297083143	-1.0411482483652992	-1.5039003408595717
id136	sample0	obj136	1.248778723572697	-0.7055504212463692	1.0894870807472892	-0.5305209265471731	-3.7760268953502605
id137	sample0	obj137	3.832527953478013	-0.5520561115322007	-0.05809629336059219	-2.5360132850612893	-2.3995428458015553
id138	sample0	obj138	2.9806706372209284	0.19180841020626205	1.5190716645463913	-0.6746284683931323	-1.8531816662765752
id139	sample0	obj139	0.9720616885658226	-1.7587533393314345	0.22608977198863411	-1.6838636212097808	-4.07119171392336
id140	sample0	obj140	2.4304004286488397	-0.4247460731384609	1.518184893730069	-1.1611151416918912	-2.483835209498941
id141	sample0	obj141	2.9657483334854877	-0.46568044739350256	-0.6975593266290443	-2.014707854538836	-4.398846414975634
id142	sample0	obj142	2.4476540763697736	-0.8062136552910986	-1.0984879747967429	-0.9837831527997201	-2.9537319614577466
id143	sample0	obj143	3.539720327867326	-0.8864277017773676	1.5613379841637312	-1.365357693043667	-3.0405378694004392
id144	sample0	obj144	3.6881872245487983	-1.686846746541514	1.6648028745924581	-0.14546467883169734	-4.311086592967886
id145	sample0	obj145	3.383684564975572	-0.2545976771957472	1.3719741694235583	-1.1788277165054326	-2.547887876087379
id146	sample0	obj146	3.601375504252651	-1.8806248662270655	-0.37703897060500746	0.5458981239511445	-2.5669571468179244
id147	sample0	obj147	3.5173541616636044	0.0952033346393859	-1.7428755609736273	-0.5086115453207933	-1.640751440942225
id148	sample0	obj148	2.489275709105349	-0.37771311097510396	0.8378002298166083	0.3797125531708103	-3.8034600925070974
id149	sample0	obj149	1.9048256787436915	-0.4178884683229396	-1.3166314363226266	-0.6752544177113478	-3.593923423048368
id150	sample0	obj150	2.1412414845213164	0.30951157833212073	0.8468025445543368	-1.66802573692602	-1.1504797153458746
id151	sample0	obj151	3.64710918158322	-1.7884174123555059	-0.19984990203686426	-1.616363506177501	-1.5677811639813253
id152	sample0	obj152	1.6868665988743428	-1.68236897057751	-0.1806139898549557	-2.6926300484038324	-3.692219811984276
id153	sample0	obj153	2.6898593353280518	1.5013598692966557	1.31435851265735	-0.742713277899016	-2.3653237237478946
id154	sample0	obj154	1.7763220344992074	-0.2569954851837062	-1.73728141886729	-0.3520504230769801	-2.6467415727095935
id155	sample0	obj155	1.964514616541763	1.0110350295792954	1.0292337124419195	0.07431751958283273	-2.391131874099057
id156	sample0	obj156	0.8826604640351838	0.03775675200894146	-1.683346256374388	0.1441960147573027	-3.072194462277369
id157	sample0	obj157	1.1913471607436215	-0.03682709779783	1.5022898560943012	-0.553958270214882	-3.386132089987664
id158	sample0	obj158	2.9433651662736207	0.12188745802739853	1.5054982917211295	-1.7812607914439629	-2.6739076112132123
id159	sample0	obj159	2.3003830097374394	-1.625507275807597	-0.9960138668224292	-2.2480340537401684	-1.8330618320634835
id160	sample0	obj160	-0.3474567137080953	1.7619390471505778	-2.1619498306870932	3.6651089467373215	2.9462269486904438
id161	sample0	obj161	-1.439081777893503	1.1900940591661158	-1.9723538229297632	0.43407245622301627	3.0101853157105776
id162	sample0	obj162	-2.4762508085636092	0.7207618440733028	0.9214875076222457	1.5962423788171165	1.8639998301658052
id163	sample0	obj163	-2.1557904642979446	3.0658148878760505	-1.228130004505682	0.1361407768492826	3.2230649212650313
id164	sample0	obj164	-2.7252004538847534	-0.195157061070103	-0.2142261277633779	2.805886434013372	1.7053476944908237
id165	sample0	obj165	-0.3321480070737681	2.7541736574389546	-1.3194405173340589	2.9243592880293505	2.5324054988957876
id166	sample0	obj166	-3.230931889437391	-0.35611858598569346	-1.4941310847415437	3.0137171111915686	3.218625050689109
id167	sample0	obj167	-0.8012953398686034	1.946383024036699	0.05856966271087072	2.193158083434926	2.5291907374312457
id168	sample0	obj168	-2.968963213905025	2.164317865502203	-0.5365950161662554	1.404421619469195	1.9241067303026091
id169	sample0	obj169	-3.2233467936693354	2.404250139717524	-1.8862114515179793	3.405550195920436	4.464771537458223
id170	sample0	obj170	-0.09952436224554506	0.9516651623197874	-1.6724487127499907	1.3862563732317335	3.6927069948350244
id171	sample0	obj171	-2.642594808677677	0.17831282491085032	-1.1591068193266854	3.019967404856847	2.5909024168842425
id172	sample0	obj172	-0.47526077604094685	-0.19886050599845428	-1.436853968671508	0.9517933517628826	2.5601231763559626
id173	sample0	obj173	-1.0170056935739538	3.1247065661254627	-0.5090580479291156	2.592526505344038	3.3831363917611306
id174	sample0	obj174	-3.5133534685116183	0.7879113520999135	-0.30307893537479	1.776960981802421	1.5771300607423613
id175	sample0	obj175	-1.0607442925932118	1.2595189800168962	-0.7392073722782657	2.16323180802748	3.5615563671385653
id176	sample0	obj176	-0.6469854711063185	1.3429830166020595	0.08397447513191625	1.2928197239967807	2.818816854746075
id177	sample0	obj177	-2.457509828515093	0.3431438548208856	-0.1349636008451196	1.9893521390894369	2.0990942787455875
id178	sample0	obj178	-1.648999798784116	2.033863787388177	0.28711968515273534	3.2698820499246093	4.481610717381241
id179	sample0	obj179	-1.5945510644916558	-0.02773632252942626	-2.217839829650865	2.7575846952503325	4.024333564705234
id180	sample0	obj180	-0.9202274714683571	2.294714287146938	-1.5046391888153834	1.6496673387837044	4.255624202842461
id181	sample0	obj181	-0.210513747597193	0.2589822295196007	0.19572542807084736	3.1673630704513416	2.5161224222654313
id182	sample0	obj182	-1.689486452315793	1.6735371421189538	-1.489702004152295	1.4494943821355895	2.577965433210686
id183	sample0	obj183	-2.338207063756027	-0.2927652442182309	-0.5892049424941812	3.4773305313938785	1.7583645105580374
id184	sample0	obj184	-1.3201661573949324	-0.12007115800606849	-1.088258000255273	0.5944396005434909	1.9296357236082458
id185	sample0	obj185	-3.1239813277926105	0.10755949184154812	-2.3859493772469946	3.4118662888390476	2.0323449786434638
id186	sample0	obj186	-3.2913619533756844	0.09272601642529565	-2.25372574377323	0.6457417042298284	2.7364622594055494
id187	sample0	obj187	-1.8477926009032108	1.9105820756572356	-0.351177377249958	2.3145893205022956	1.4772670845414968
id188	sample0	obj188	0.012651757898020533	1.3682372535045895	0.43371555145392304	2.69783637349342	4.58009548998673
id189	sample0	obj189	-1.0857044419541981	1.297050053462064	-0.1984504443913726	0.33042169928366927	1.8765432259546901
id190	sample0	obj190	0.03987671639260726	2.2092506372732057	-2.0724845578966997	2.845522181369681	3.7444912644468413
id191	sample0	obj191	-2.8941547347435628	-0.1769644982221863	-0.6367963634251199	0.1287533852550642	3.563320770542603
id192	sample0	obj192	-2.782577025189926	1.7908602532689726	-0.001902756989883292	1.5773774610588318	3.5539332447562346
id193	sample0	obj193	-2.241266337664108	1.1253737608233274	0.37398248522536615	2.522876108773051	3.920788337878152
id194	sample0	obj194	-1.829116975876596	1.8187782594942619	-1.9036086186889078	2.239941051752254	2.6511268215718866
id195	sample0	obj195	-3.4144609976174025	2.9342140968249044	-0.9823697116281433	2.5197280573219922	3.8597660129269036
id196	sample0	obj196	-2.330166796338215	1.554496517926777	0.14848458249583252	0.7369590127327541	3.4817806588146922
id197	sample0	obj197	-3.0200381449627254	2.823867945205416	-0.8471120808033574	3.3875991491523205	3.114841855138776
id198	sample0	obj198	-0.19179178006081954	2.9713769620890256	0.006514256738215485	2.7329829199336455	2.0767626277126614
id199	sample0	obj199	-2.473447427140879	2.2297215667743435	-1.9690872929442556	0.9560157160659976	1.2891994673852807
id200	sample0	obj200	-1.518923237313315	0.8178469071198218	0.041216435674462426	1.6498664111565315	4.103048586024565
id201	sample0	obj201	-1.5064754575654369	1.9282331639467276	0.3716121452814425	2.0690404492659797	1.399226889864087
id202	sample0	obj202	-2.5442950057347367	2.435629182040053	-0.3743369912426544	3.259266143505794	3.0680389676810425
id203	sample0	obj203	-0.5198860941348797	0.9182514707194243	-1.3494986463084004	0.8283774749613202	3.057534003705321
id204	sample0	obj204	-1.1884967766647623	1.0317769976944073	-1.216925039333529	0.48457270982826595	3.9959517924011294
id205	sample0	obj205	-3.268021690252467	-0.4243531489953889	0.22559989651502188	1.4484689710242353	2.67795351394344
id206	sample0	obj206	-1.6323623772183087	0.8651989321624973	-1.7305140948232944	0.9754280290598777	1.8703629017071202
id207	sample0	obj207	-1.6201747615246116	-0.4119618477086797	-2.5413281419586617	1.3990399244972984	4.318460696408273
id208	sample0	obj208	-2.4912061470899904	2.171924067898429	-1.9151934592868494	1.7825976436093487	3.988806526523767
id209	sample0	obj209	-2.736981800914764	-0.25306928028716724	0.3543013644454096	1.9432720802137817	3.694504936156636
id210	sample0	obj210	-1.3179390039570815	3.047946510603931	-0.8827679600154563	3.0682520506868647	1.6284111942016155
id211	sample0	obj211	-1.3395851119208084	1.4464799120012002	-2.516856301303152	0.18743843582445252	3.365813454855167
id212	sample0	obj212	-2.3029497723066177	1.10821061522248	-0.4219892059384349	1.9874691707949292	3.9291031999458914
id213	sample0	obj213	-3.478766267968245	1.9037679492704946	0.3314996192715094	1.7170337379817433	4.087777576734585
id214	sample0	obj214	-0.7949386815760293	1.8665893509256912	0.32298331850468	0.5934447843681894	4.464996398123574
id215	sample0	obj215	-3.499844695250474	0.6198260508542046	0.31401076824962826	1.7075506412057835	1.6293439775888157
id216	sample0	obj216	-0.2513295123698789	1.4933412476582204	0.07256783470872974	3.2891459696718703	2.49365038484207
id217	sample0	obj217	-2.0416559683831954	2.7754680461189194	-0.8067816100942933	1.4576294276924537	1.5905295813764238
id218	sample0	obj218	-2.2760991398881307	1.2213922320551573	0.3166919039382068	3.373024151125965	3.009223158275657
id219	sample0	obj219	-2.076063591046423	2.298562303315946	-2.4568120158374196	2.337485691875024	1.5374230451936155
id220	sample0	obj220	-0.6236547131157553	1.4603590943344584	-1.9022071561872482	1.7668961537998398	4.247453938035053
id221	sample0	obj221	-0.5781062709435474	3.0287534222339296	-1.6537258394294454	0.607696010355828	3.2170828637603615
id222	sample0	obj222	0.008446537253382624	1.5243493705639988	-0.7881244475195808	3.5935126473991774	4.517677629490011
id223	sample0	obj223	-0.756894340707279	0.6084957250609195	-1.9530131015984815	0.2237113541927218	2.6745481114885914
id224	sample0	obj224	-2.4651839807358744	1.5346464549553787	-1.6680183338997745	1.5384843303380342	1.7160834518303243
id225	sample0	obj225	-2.066120350560638	2.8304357583544624	-1.651346120467346	2.215521596113966	1.794094601076988
id226	sample0	obj226	-3.1482640984803876	2.3782067647985405	0.6293477557151188	2.112057987544061	3.38305189949737
id227	sample0	obj227	-1.3240918763967853	2.4738433673465723	0.7455572985848418	2.2675616651495565	2.041743851889321
id228	sample0	obj228	-1.4292738779468295	2.9747405770144866	-0.7456289906314999	3.3708396913203966	4.534362589605045
id229	sample0	obj229	-0.7205595084788479	0.6701436028496226	-2.248703786085575	1.9794913748815697	2.18297642203159
id230	sample0	obj230	-3.5017543688874397	0.49519191400011653	-2.286080760340502	0.7882902266717688	2.1917921410495405
id231	sample0	obj231	-3.4960125509302995	2.091295835078662	-1.154078632422195	1.3021025387205085	2.8665513866135868
id232	sample0	obj232	-3.522187497530161	2.288176010925101	-0.5638607527405617	1.77486896642628	3.3115634651285397
id233	sample0	obj233	-2.828591557824447	2.4258907293612157	-1.3760942343177367	0.623172557878636	1.638384962483999
id234	sample0	obj234	-1.8476313351406903	2.1200293663837515	0.27987421216195485	1.2789346986727133	2.360882534865227
id235	sample0	obj235	-2.785878361011605	1.0757217731163593	-1.249222204742288	0.956306104110743	1.0859018020617384
id236	sample0	obj236	-1.4912324713591179	0.4178385912368481	-2.2705169223293504	1.6387294463734343	1.5261200172946021
id237	sample0	obj237	-2.7716159241279956	0.42723847115759994	-1.2154268314008363	3.460710849582618	3.9041028133259346
id238	sample0	obj238	-2.5481323732477645	1.1697412940848637	-0.20872073588408457	2.5645204828173185	4.139231504523293
id239	sample0	obj239	-2.8128430396414372	0.24083010446995035	-0.6326576125502026	2.0169698302766728	3.7178679299022326
id240	sample0	obj240	-1.5704284583821868	0.2787526396405664	-2.3776893350911656	-4.105529831641076	-1.2467151668350347
id241	sample0	obj241	-2.098853986311201	2.4367148798768774	2.206216856490035	-1.2113420913981858	-1.082850919136449
id242	sample0	obj242	-4.075693003994189	0.8880515400754221	2.7391682013592966	0.1570946152868331	-1.283088982354772
id243	sample0	obj243	0.5395201072428513	-0.05493720300571203	1.678037190226792	1.0031189158189433	-1.1755295815098223
id244	sample0	obj244	0.7734596001434719	-1.2580674678560295	-2.8585957293240805	0.8737422375775494	1.1722356915505856
id245	sample0	obj245	4.592740181576268	2.8215518420400527	-1.4438893046497594	2.1342909632843035	3.1562380958576117
id246	sample0	obj246	-1.77475797162882	-1.3136827485251068	-3.522573545600923	2.5216844430648404	2.012343585924583
id247	sample0	obj247	-1.2182708387264005	-1.5550314139692412	-2.913783893691689	-1.700100260925617	2.5414455206301385
id248	sample0	obj248	-0.7731094919726174	3.7462238898487525	-1.0295678097695022	-2.972764213833066	-1.5646567457595095
id249	sample0	obj249	-0.9454940917921741	2.0448587379627305	-1.6592359879641554	2.7564376061108717	0.3348532469742376
id250	sample0	obj250	2.5780638638392332	1.2179820963922376	0.9227354308963283	0.5056559701270443	0.16738732439767912
id251	sample0	obj251	-0.38700830200296443	-1.9877591527037852	0.13863803545717857	-0.7530777473554264	0.05259159519883272
id252	sample0	obj252	0.9338371716034557	-3.1334626051887797	-2.349752055321967	0.367491829016672	-2.2616501630677206
id253	sample0	obj253	1.9725433895911824	2.4023389389750065	-1.6404497526799886	1.7315923397782942	2.1016143307631836
id254	sample0	obj254	-2.330344847956308	2.6617062298157745	-0.04317454666717446	-3.0130181370199822	2.7949941117808175
id255	sample0	obj255	0.6040539701399994	1.2462996662811263	-1.8691056093899079	-1.9471313403785693	-1.54998077153673
id256	sample0	obj256	2.3644253701001974	2.7768014241066528	-1.272375869182361	-2.95010456039278	-0.5221687532277898
id257	sample0	obj257	3.7368219512997927	-0.5690804550151318	-2.1185720528870235	0.812688866412612	-0.3282815246206996
id258	sample0	obj258	-0.023220346412718973	-2.9480200491650876	0.9315643502462794	-0.21208230050588095	2.7537336265376853
id259	sample0	obj259	1.7704098517398006	1.270087102725793	-0.5733490197524735	1.130894318453813	3.5264496145071504
id260	sample0	obj260	1.67123330119734	-1.7416925712186955	1.059393005060776	3.0679007987623175	-2.2912582927325724
id261	sample0	obj261	-0.6527594395997858	-2.45630809199684	-1.8472949507278582	-3.1647106283735518	1.9660027403526237
id262	sample0	obj262	-3.0613801606622433	1.3667842650982134	-1.5608194750275894	-0.7318951332461294	0.8174542289888511
id263	sample0	obj263	-0.6674947420842494	-0.2110886436652344	1.1323758544908002	2.0352522091581924	0.32923040929301206
id264	sample0	obj264	0.18677019458866195	-1.9143140624423465	-1.7903353145676006	2.2894064852592084	-1.6844657371679241
id265	sample0	obj265	0.59884976200466	2.6223038538006205	-0.7142534294723182	-2.6240014743455653	-2.971861023035262
id266	sample0	obj266	-0.2756461423619563	1.7033700417355828	1.3131969204218674	0.7702016138489982	3.1697465465509795
id267	sample0	obj267	-2.2569366836087514	3.5762647230296647	-2.7798061287879055	0.60722350664397	2.590494738828239
id268	sample0	obj268	0.7443898500689137	1.1457571588754156	-2.916905618496689	2.2720676591127806	-0.18399602130108805
id269	sample0	obj269	1.8074264685778691	-1.5501604128788549	-0.3444671219634541	0.6131069353061773	0.5585653074136943
id270	sample0	obj270	-0.11861547169386455	-1.7201473973507757	0.40289044084469006	-3.637368439413149	0.9898897566947109
id271	sample0	obj271	2.372816440765301	-1.6916416153146454	-0.9754380805356473	0.07649747544002738	-0.8149609573586398
id272	sample0	obj272	1.223130267301895	1.1812262217759775	-1.4632300295891447	-1.7032695183165005	-1.5943290828255685
id273	sample0	obj273	-2.1738076291469004	0.5466089485775538	-3.069599669798487	0.6574732261708667	-2.0840907384623932
id274	sample0	obj274	3.7087450155144293	-2.8564999555842965	0.9199737251509801	-2.5338277046842794	0.6251272733934592
id275	sample0	obj275	-1.9527654702380017	-1.558127389719753	-0.7988271132229989	-0.5560886988424549	2.041470430086145
id276	sample0	obj276	-2.3914918221447907	3.482018494177856	1.742563559909894	0.9802556568085072	0.04336325586113943
id277	sample0	obj277	1.3082905517385877	2.696975500417336	-2.213411748981942	-0.9232494222860124	-1.1006469157817846
id278	sample0	obj278	-0.7803685190265581	4.348258605133081	0.2343191841564276	-2.3588691181349457	-1.1899615045035516
id279	sample0	obj279	3.051726967508081	2.8963680418864444	-1.7180269401782804	1.7377597465950425	-1.8771907027945518
id280	sample0	obj280	2.2246889066517888	0.062028180500181884	3.6900056350150887	2.543915036176122	0.009433081288500622
id281	sample0	obj281	-4.5132278097105845	0.015769751734895587	-0.4814143826097863	-1.671679089313243	0.1935127872730401
id282	sample0	obj282	-0.1114677613296633	1.877946481698619	4.0054788195685695	1.0175136441091408	-2.1848837053532053
id283	sample0	obj283	1.848030742126329	-1.3848268539655746	1.1492729900230778	2.2504844782950038	-2.297284888291557
id284	sample0	obj284	0.8343876341850369	0.25619679160183106	-1.649394899316357	3.1775948884986294	-3.0682335920886965
id285	sample0	obj285	1.882480812791425	-0.1267479944408485	-2.5661897636101605	1.872955733133947	3.9322892642815104
id286	sample0	obj286	-2.763710879039696	0.15827051311203788	-0.38830332591967953	-0.4930204976964687	-1.232470370653455
id287	sample0	obj287	3.0259138860541395	-3.837179425404827	-3.4523544666938295	-0.7227066000812865	4.051287602642566
id288	sample0	obj288	0.3995824787685909	-3.5452576195332854	-1.1534583294913485	1.078142321615207	2.882268094660043
id289	sample0	obj289	-2.1524301484071113	0.39171778410381	1.0480655139315342	2.745069752899429	3.4793049960349665
id290	sample0	obj290	-2.3595352767170503	0.9321117144884623	-3.886701581498291	3.9654838375515613	-3.1723062538941686
id291	sample0	obj291	-3.263568920773962	2.672920256772234	-1.883121037682848	2.6956433502079733	-1.3690651905131241
id292	sample0	obj292	3.8626594949942694	1.2943388075400064	2.0449095661355035	-0.26730951075929643	1.0557630223950183
id293	sample0	obj293	-0.09881148408060159	-4.645220531643916	1.045804258983375	4.25088274282607	-0.2025952606962862
id294	sample0	obj294	-0.597953268932572	-1.0601009001082942	1.5811097278697883	3.6297153223643948	1.661774202574439
id295	sample0	obj295	1.1563804705902965	-2.285919660846603	-1.9964056389363085	-0.14393907631242575	-3.8896245265455285
id296	sample0	obj296	0.43910220597677374	-2.3622242992942395	-2.176233632021426	-0.6893757351671312	-3.0014504381285176
id297	sample0	obj297	1.7722161070355775	-1.2202190655236433	0.044992665507510576	3.4436800121053244	2.060985892073358
id298	sample0	obj298	1.51508335745343	1.166506592820607	-0.4694039529374956	-0.7008041146877475	-3.576341396888612
id299	sample0	obj299	-0.4782561971226058	-2.526349885262758	-1.097315605607436	-0.649785429131245	3.7915985073933705
id300	sample0	obj300	3.1198601691120134	0.13413227489141555	1.674067215326764	1.0941829370603342	0.9083195183130576
id301	sample0	obj301	1.9184403098434168	-4.702412148001475	3.5068326770219906	1.3713193540893849	1.0409479233543089
id302	sample0	obj302	-1.142609671257348	1.0741949342801576	-0.6455948828457492	1.2858088229270879	2.0794030087894746
id303	sample0	obj303	3.425882195086591	0.30954649471540185	-1.7577697118604232	-0.7020744119080717	-0.027209355665112067
id304	sample0	obj304	-1.326212259916866	-0.39971894073018777	-2.498469067401069	-2.7664376125317407	2.201760780857968
id305	sample0	obj305	-1.7642512358499827	-1.0538314888962372	-1.8966557517876033	-0.32002029030058	3.805259052471916
id306	sample0	obj306	-4.13165935288383	0.8167894944030056	-1.5830684745933086	-0.6679254856195296	4.132271163075965
id307	sample0	obj307	1.903469090839028	2.3019216677295793	-0.36181355417753225	-4.458567005331097	-3.4798324362601702
id308	sample0	obj308	0.9761275544744987	3.5808235116160256	-2.5692788863838167	-2.9818507130941896	-3.9173947203079287
id309	sample0	obj309	-0.6389747133317929	-0.8444191051899597	-1.541708915073923	-1.8559085736102665	-0.20745567344366767
id310	sample0	obj310	-0.06522289118994018	1.2077599670016004	-1.6438169614780616	4.314219293060465	3.050259372308628
id311	sample0	obj311	-2.5829821563957354	-2.2412758717818533	-1.2257737807447193	2.5572564049266857	-0.15318287799453345
id312	sample0	obj312	-0.4005201308239752	2.52525509645424	2.5423712878005404	2.1648769526995855	1.1067648564217245
id313	sample0	obj313	0.670811427629439	-1.3577810604365967	-1.0461349107784461	-2.5902351323138255	4.377606390644938
id314	sample0	obj314	-2.830213857099027	-1.7862312889377243	0.6709286880620415	1.607210715452011	-2.1833009792010545
id315	sample0	obj315	-1.2975078815942782	-1.4005308607760998	-1.0995330096033018	2.3534196638568576	2.1564581965585097
id316	sample0	obj316	1.0375522468832676	-0.3016884664116988	-1.8726307996130578	1.6726752120861572	-3.947589402476679
id317	sample0	obj317	2.119122637364753	-1.3473705808778655	-1.7686516663321872	1.9479971902654687	-1.0459283263456418
id318	sample0	obj318	3.909464212874207	0.9547973991898089	1.6134238495639428	-1.1797540090373402	-1.6830213247868995
id319	sample0	obj319	0.639092919261566	3.3903944070310583	-2.2935055237535216	-1.5451976378188252	-0.4422189766686242
id320	sample0	obj320	-0.13805987127137387	-1.465953777220171	-0.1203331455992862	-0.8259159184749001	0.5418728459518989
id321	sample0	obj321	-1.333945642491002	-1.6377386484528846	1.5146801163531698	2.296000784226914	2.2382144129725625
id322	sample0	obj322	2.6058466607568374	-2.984854260566867	0.3978246069669389	0.5433048600666626	3.9563123628676857
id323	sample0	obj323	-0.22770730709329534	1.742029084889314	-1.6655283171595707	1.911556972601916	0.988474812268316
id324	sample0	obj324	-0.04575238411278204	-0.7884558543827593	2.1250614830460126	3.4603563626991125	-1.1532917272555325
id325	sample0	obj325	1.5246707760778528	2.3244306465914777	3.4413922170994042	0.5264762305515898	3.828574093976348
id326	sample0	obj326	1.1043900049222821	2.235392394256749	0.6096343082600746	1.9560794848817065	-3.5206480159469606
id327	sample0	obj327	0.28206992604046177	-3.6603094697121765	0.8965399226856015	-1.2517980146925378	1.332549549813721
id328	sample0	obj328	-1.2715286792079452	0.9013436136376101	-2.198104031895344	-1.3855336226153638	0.4809203065020997
id329	sample0	obj329	2.4656862903325907	2.885151408998155	-3.9577529338958577	0.9288266918043095	-1.785277203053687
id330	sample0	obj330	-0.29402465341508566	-0.5105363324089442	2.803911900426497	-0.7109263428858401	-0.33622087008584844
id331	sample0	obj331	3.428420734517201	-0.6010637436202803	-1.565821488686746	2.6673799944413625	-2.411466654439092
id332	sample0	obj332	-0.7319338333917507	-2.6864029943251353	-1.9013471320933608	-0.5553418968962789	0.9273036824316867
id333	sample0	obj333	1.5599899214839656	-1.3262078148727632	-0.7297860548495092	2.314610595550435	-2.036255094876602
id334	sample0	obj334	-1.2020316066941577	-2.1998941970752925	1.6348548605983624	-1.081784614300851	-2.883860177479271
id335	sample0	obj335	0.43618762797052746	-3.437526684352721	-2.7185954954665004	0.6679490575439131	-2.585407989677096
id336	sample0	obj336	0.617399513123168	1.1653922092396516	-0.8834882597297766	0.7948080557882171	-1.5863730535021725
id337	sample0	obj337	-2.160160537802369	1.3497155065362314	1.9370574245835963	-1.823994904616225	1.7846669701438886
id338	sample0	obj338	2.3341592794538064	-0.5111135108288931	2.2662449673495546	-1.2813228226324098	0.6559778454839222
id339	sample0	obj339	-2.9233251305719445	-2.3685068025266816	-2.004128207521422	-1.9762051170306738	2.4180524084457966
id340	sample0	obj340	1.1586440733984007	0.5843037040561108	-1.9682264380397514	-3.5313908318123604	0.8855443688585865
id341	sample0	obj341	-2.584723630348039	2.889900658521352	-1.9517948643171852	3.144867165019547	1.7627469634903805
id342	sample0	obj342	-1.407808389589362	2.6497461685286465	0.3058205095773274	-0.7766287217590484	1.751203019259754
id343	sample0	obj343	-2.8715277908996573	1.7139401760910336	3.1493310092547455	-2.307710473843801	-1.43010734155317
id344	sample0	obj344	-2.0083143721312604	0.041078767246646386	1.8238647770645848	1.2038349173581124	-0.36225097018134433
id345	sample0	obj345	-0.7283967010871264	3.626307772629551	2.7716094186524423	-0.19173975451790226	-0.6837067207896799
id346	sample0	obj346	-1.3322497558026287	-2.815094693870715	1.5036291262762038	-1.2945718589414332	-3.50357178995376
id347	sample0	obj347	-3.016836555127417	-2.43715258970059	-1.7894932155705034	-1.3980009647574698	0.2747741986632095
id348	sample0	obj348	-0.26440113629416495	-0.9530130877684841	-1.6991463422253863	-0.08960379658769058	2.778002562476667
id349	sample0	obj349	1.555598794561299	-1.7750320998867621	1.3789348493675886	-3.9042143752469194	1.1920255533748352
id350	sample0	obj350	0.8494241077015059	0.7949337033154469	-3.779473278476937	-1.5620760707910413	2.1683522321555584
id351	sample0	obj351	0.03635467745930776	2.6913138592666646	-2.4988381505290507	3.5880860247498445	-1.83641403888769
id352	sample0	obj352	2.331595870495359	-0.7629073878164696	3.181000712742466	1.2395585547996426	3.6872936528849545
id353	sample0	obj353	0.8694238955697358	1.7724779451303945	3.2089238077502165	-0.3601210404286872	-2.5484320311070583
id354	sample0	obj354	2.0894749135933983	-2.2232526734163702	1.2924645477127568	0.7944292497945977	1.9743029972037158
id355	sample0	obj355	-0.7217618987006837	0.7133389116399005	0.2719330360248846	-3.0547893355750966	1.9466676215559848
id356	sample0	obj356	-0.3841628468522418	0.8513128309550064	1.637779772015857	0.7934864366767598	-2.2047588285400472
id357	sample0	obj357	-1.9616566888185447	-0.1693043696342762	3.9094826456558778	-0.9125486584932228	-3.7228406450429956
id358	sample0	obj358	0.0032068469146582235	1.3855643601819787	-1.4407316364519713	1.6041393893499334	-1.1794868149903026
id359	sample0	obj359	-3.6515981241694124	1.1778417936158188	-1.2537352550077918	2.930482752442769	-1.430877548089976
id360	sample1	obj0	-0.10003137694302544	2.612301237976889	-2.801503500318764	0.19964100428434306	-1.3362014755950131
id361	sample1	obj1	0.9111676769780177	1.5799585006209604	-4.1447683245783296	1.8377778927885855	1.3536991968116843
id362	sample1	obj2	-0.524639340022045	2.6088173106284454	-2.219001159321836	1.6185154611354438	-0.006352667847328464
id363	sample1	obj3	2.387383809506572	1.8726411962789307	-3.0863611854415014	-0.4600584376429402	-1.238500481717539
id364	sample1	obj4	1.8125330147565688	0.21217072908961065	-4.14555682866445	1.9289667510277082	-0.699069937432661
id365	sample1	obj5	0.4634847163669069	0.40417215590546207	-2.8233244873001557	-0.388559923942037	-0.9388644865951399
id366	sample1	obj6	0.7654335914595254	0.36458178000726904	-3.664705523645167	1.6242845370424048	-1.8448397065749507
id367	sample1	obj7	0.3228539321730939	0.9170310237258537	-2.8460703112634875	0.6416182374125703	-1.9710218823857844
id368	sample1	obj8	2.0941606867206977	2.6877079328606026	-1.8612746001597638	-0.06123907780333371	0.3859393177406705
id369	sample1	obj9	1.705767277360861	0.1431482349526252	-3.127230983699044	0.34693120349577655	-1.676641300428014
id370	sample1	obj10	1.239135832078542	3.122476486786043	-2.8593369842547602	0.8705107888262578	-1.9304349480258247
id371	sample1	obj11	2.486900791591827	2.013733245703043	-1.294982405757591	-0.08418214160585058	0.6230037824681027
id372	sample1	obj12	2.353717093131875	1.421833572827046	-2.7064746194070715	0.06651004514533465	-0.9922043503321676
id373	sample1	obj13	2.0592407037109624	3.1134841550630634	-1.7006769142413638	0.42022584984786415	-0.28784202840779116
id374	sample1	obj14	2.7143623277768594	2.96176973738322	-2.446673692273161	0.6292742522470913	-0.8359136587135161
id375	sample1	obj15	-0.3937550004102959	2.288468083023014	-2.2205082877075717	-0.01984478763955655	-2.173385413393325
id376	sample1	obj16	1.2777419743095548	1.4691143291337827	-1.5833853473050563	2.527122279889366	0.85456739667533
id377	sample1	obj17	0.06798899158426763	3.003559326091069	-1.2825918538234087	1.4171217916544963	0.5063005415533655
id378	sample1	obj18	0.04032774171588749	2.1856158159534798	-2.226283939753767	2.640317029646945	-1.313185686133918
id379	sample1	obj19	1.6592541096141595	0.22428283147698047	-2.7637640648894477	-0.058621386871468784	-0.7737081176971496
id380	sample1	obj20	-0.5529803761538492	1.1773562045367307	-2.7392196169292546	0.7775228156491805	-0.979597729073642
id381	sample1	obj21	-0.009627901041002973	0.4314891937713423	-3.1549818165519983	-0.8366654071116879	-1.827287805500792
id382	sample1	obj22	2.2448816326318815	1.427626990123628	-1.7619880188326127	2.142034547381658	0.5821334253856982
id383	sample1	obj23	1.7108430739047884	1.3289496255829298	-3.6241301274143263	1.917196579208314	0.04874023950679818
id384	sample1	obj24	2.040711753930103	2.7338592937765585	-4.045121611476117	-0.9565081339074344	-0.48427942171154537
id385	sample1	obj25	0.5268955589249058	-0.1047197901655148	-3.1263333421038952	0.9591056275511658	-1.8835864996802782
id386	sample1	obj26	0.39908526373468667	3.2465509413356175	-3.5477878564564937	-0.6787567528292495	-0.8529125051207593
id387	sample1	obj27	1.290417489468641	2.1383430660374496	-2.7254941192699453	0.9009490685796573	0.06645964463546838
id388	sample1	obj28	-0.05164406147922995	1.0390279563313292	-3.3699239117279465	-0.04028836235884625	-0.6506619648516447
id389	sample1	obj29	1.3175057884323509	2.0172877883529194	-3.0504735849044793	0.7269939517277206	-0.1986936383060598
id390	sample1	obj30	0.4496217454871152	1.8880698432762952	-3.5002033921430686	2.210359496608688	1.2824917071180526
id391	sample1	obj31	2.5504277357929217	2.4173986337311426	-3.8162763784379052	-0.6292048015078655	-1.460465235782435
id392	sample1	obj32	2.450722123784254	1.000547448047779	-2.959409234216878	-0.2606422431521218	0.4163418387315059
id393	sample1	obj33	0.13676886504650831	2.954145095443867	-1.3703796677008782	2.432632064349665	-0.0846710626406495
id394	sample1	obj34	1.084388204521271	0.8830284188654562	-2.134045472981197	-0.702429718038329	-0.972539129469373
id395	sample1	obj35	1.2843716501503122	3.103047645297844	-0.8399781447171775	2.5027314971223342	-0.4655915946222082
id396	sample1	obj36	1.0029373905071428	1.7862848766232988	-0.8771827434303845	2.129019736499795	0.2127693198899132
id397	sample1	obj37	2.1124791018773275	1.912553304333267	-0.5991439035008457	1.334508429793216	0.4144821111051613
id398	sample1	obj38	0.7127662249375617	0.9869495632641023	-3.8104893469852184	1.6784911000421008	0.7322037278798683
id399	sample1	obj39	-0.0472088753097335	2.9377970961928055	-1.9804152650470754	1.0915794896595161	-1.8351544068886865
id400	sample1	obj40	1.951443661568059	3.0358835714526538	-3.5946334932473976	2.5457921196398727	1.2936922491866196
id401	sample1	obj41	0.2761368583815531	3.2545826469642085	-2.2751599349377907	2.1587076125839033	0.06697654021726174
id402	sample1	obj42	0.22621708810589047	2.4018704112901164	-2.872156810253303	1.0381839281522183	0.49499907896527673
id403	sample1	obj43	1.1232259568417122	2.8198092855389842	-4.131359738135796	0.7185113079718088	-1.447171444187637
id404	sample1	obj44	2.3812731612537874	1.6126603705055516	-1.0655359886322542	0.5945277214824698	-0.8578983387449794
id405	sample1	obj45	1.5183550561535644	3.3427802422564192	-2.938351854772238	0.08506679039064902	-1.6198328178386712
id406	sample1	obj46	2.553862233760573	2.8873719361550063	-3.623661448250226	0.0094122946095061	0.36882873746213884
id407	sample1	obj47	2.175269358021575	1.540338238302367	-2.571422409779954	0.16981221448694406	1.2997130955431546
id408	sample1	obj48	1.352796448695267	2.0793391659991265	-1.7682931699271165	0.19673634450352728	0.7547386162701162
id409	sample1	obj49	1.037658593828148	0.6956917262227912	-3.716909172632638	1.6491500073838197	-1.8189039587033768
id410	sample1	obj50	-0.5082693097894371	0.6960472322058258	-3.1955343301534938	1.1534270647794849	0.004451064406662875
id411	sample1	obj51	0.4330801349032989	1.7561153989215381	-1.2961728693620544	0.5565653453400772	0.8240667156753776
id412	sample1	obj52	1.947353461744487	2.791418981735804	-2.432293221639905	1.240376202840294	-0.11716625181581386
id413	sample1	obj53	1.252561209599712	1.8461380148604403	-2.8869945095635456	0.681507315685739	-0.8514416640282565
id414	sample1	obj54	2.1305492443395107	2.8775268008863213	-0.8940600715311284	0.9219495439655065	0.5238470347539448
id415	sample1	obj55	-0.23245025740423997	3.2919745152102364	-2.6945322810683914	1.5440838852348897	0.18734870047245278
id416	sample1	obj56	0.4389340847306844	2.473216179931804	-1.4276845788508996	-0.3978040028775556	-0.005450816423752114
id417	sample1	obj57	2.5219898217954766	2.938016956818988	-2.9229107238532563	0.7852430247912807	0.054544731230192545
id418	sample1	obj58	2.5633270479226598	3.1171137378089617	-2.1819269206044787	1.0609409358408797	1.25191628948275
id419	sample1	obj59	0.6434512200074778	0.231419476801213	-3.1325572453238486	0.16705918411831067	-1.8631311952177605
id420	sample1	obj60	1.0760492076759371	2.449635181471485	-2.082381530804099	-0.24890882271915382	-1.9047288805022964
id421	sample1	obj61	1.1347169252672202	1.360580812249276	-3.287764287082106	1.3895313649808367	-1.8143006202950525
id422	sample1	obj62	1.3754511846139164	1.3571943071953187	-3.2624396802012354	2.5639534101831245	1.3674326637017493
id423	sample1	obj63	-0.2670492961122317	0.5332600912472676	-3.9148551911866902	0.3109879263115285	-0.3992816013914755
id424	sample1	obj64	2.0261270574026016	2.4323361108240045	-4.005486763272948	-0.46396537753745126	-1.8004980558103754
id425	sample1	obj65	0.2174467433568874	2.586736385623305	-4.010786472481517	-0.7123128678865929	-0.5820766251837128
id426	sample1	obj66	2.333749550020256	1.6522692568617252	-1.4744691773737204	-0.13129147928920992	-0.41671702534019195
id427	sample1	obj67	0.17381865562439514	2.1455560136732656	-2.69869135447226	0.17178088795959257	-0.2334029248987879
id428	sample1	obj68	2.7047583060601843	0.20252437026749726	-3.427179030833722	2.2283615650503723	-1.7163735800341473
id429	sample1	obj69	2.4058461151153443	0.8082982812073398	-4.04088712386104	-0.1362604004985849	0.24704437936797752
id430	sample1	obj70	2.562973740321591	2.250589436255869	-3.0101625666067218	1.9921806507256516	-0.3201379909034572
id431	sample1	obj71	1.064614605816993	-6.387408130203998E-4	-2.306830535077302	0.022848648410110584	-2.050157143634019
id432	sample1	obj72	1.8510712500215012	2.210527707660224	-1.6269731444032927	-0.16012015135992153	-0.4486901893016415
id433	sample1	obj73	2.5628203981603317	1.9954744355926675	-3.736183897441049	2.2393280856705413	-0.3805920603775357
id434	sample1	obj74	1.770507876241118	0.6778609910622766	-1.727547918965539	1.781038875289745	0.7504228722639923
id435	sample1	obj75	1.8993292341137027	2.638007788972026	-2.1765378635848815	2.372603910278597	-1.9151296646764873
id436	sample1	obj76	1.0257527951632186	1.2778062852028875	-2.839183526793919	0.08424910287430176	0.8615255508978954
id437	sample1	obj77	-0.15331773932381743	0.11211866846199725	-3.9549540122339586	-0.13318940973427373	0.16477043225487908
id438	sample1	obj78	0.9175003644393507	3.2950872233403956	-2.7873275127167148	1.4392649592869045	-2.080817681535956
id439	sample1	obj79	1.5593993188066426	2.118882183852353	-2.682971072552972	-0.34487832865426027	1.3568091865932421
id440	sample1	obj80	1.2285853038146635	0.4080515365206454	0.5001683315414411	-0.4906806913934523	-4.276318632837399
id441	sample1	obj81	0.8999918044380979	-0.9649600727851283	0.5466002591903012	-0.003987077126338834	-3.9001260787123027
id442	sample1	obj82	2.475872821282782	0.93629851000923	0.8503875163615675	-0.4947963632248873	-4.134639895361229
id443	sample1	obj83	3.830433074392656	-0.9580275371792316	-1.8374970915970692	-2.1487559932804006	-3.6444987388293426
id444	sample1	obj84	3.295725354598062	0.9137737565920208	-1.6374654775524542	-0.7067142706391036	-2.1296359205399362
id445	sample1	obj85	2.0780723848923537	-0.19378839407971427	1.080750469763472	-0.6521842269067533	-3.3148248752271794
id446	sample1	obj86	3.3657864677040887	-0.5689773541504561	1.6325041541532308	-0.11474063081177754	-1.3660209631919515
id447	sample1	obj87	0.666858315903976	0.5290249613143188	1.2781083091856391	-0.27504678865796683	-2.340720256154947
id448	sample1	obj88	0.36579404766511225	-0.6694610582718543	-0.015104532020358663	-0.5539135304518898	-1.0938129557089995
id449	sample1	obj89	0.48106684623360807	-0.17910704603484295	0.07469660564592218	-0.8138892569304081	-4.355113306807485
id450	sample1	obj90	3.566612492043321	1.2995210557055399	-0.7542604551189529	0.6154733805481707	-2.3912717462936586
id451	sample1	obj91	2.6773847782411897	-0.49238829057202826	1.2738155214143398	-1.3803873022322155	-1.498078574586012
id452	sample1	obj92	0.6638653092467708	0.7095558185677173	-1.326742678396104	-1.0064582411393268	-3.4172332133881342
id453	sample1	obj93	2.395045716727636	-0.628233433197704	1.245244617453406	-2.036744220486549	-2.437804734388374
id454	sample1	obj94	3.6176695219122426	1.5382607012392724	0.8954304432263849	-0.2871846990705669	-3.6922028382995355
id455	sample1	obj95	0.7676346127195666	0.6464406766424082	0.6180182794065467	0.26279285985624257	-2.829904569576705
id456	sample1	obj96	1.919638509876776	-1.8058195763305216	0.17283307321757646	-1.4398283257291313	-3.344722089331494
id457	sample1	obj97	2.774736765669833	-0.0047035919664562	-1.0002593550256664	-2.299687484988614	-2.8634184802169322
id458	sample1	obj98	3.5259923796267625	0.12538726607491202	1.0786443188635804	-1.227389939661421	-2.869119749099399
id459	sample1	obj99	0.7836120802209581	-0.4736641530124963	-0.06913159942360592	-0.45318599356820344	-2.046587793143993
id460	sample1	obj100	3.111374085252743	-0.16450191292230865	1.374640164299852	-1.5307008541539857	-2.567472110226417
id461	sample1	obj101	2.3289068158112816	0.9452506449077	-1.074462182982022	-0.569822548819628	-3.842898343860408
id462	sample1	obj102	3.0115079845069905	-0.6587527576797652	-1.4043222773117616	-1.7728534987946558	-2.0427273103493233
id463	sample1	obj103	1.4682011183104913	-1.3814057116495728	-1.5616308555873117	-0.8287197460530322	-4.081219855957125
id464	sample1	obj104	3.77878097764407	-1.4901976419837317	-0.09327890056407884	-2.113031778315996	-3.4576643447560347
id465	sample1	obj105	3.8021047325734285	-0.11211340909383538	0.5198716016959264	-2.0122554764365796	-3.0865676558055553
id466	sample1	obj106	2.397182626335412	0.3821704750699364	-1.27815495111992	-1.2711067837786298	-1.868437124937383
id467	sample1	obj107	1.174378215244785	-0.13768915884637845	1.1766286808665065	-2.145151826980763	-2.238459555418183
id468	sample1	obj108	3.2515156187265815	-0.5753893900703542	1.1144933476832597	-0.16946031327451228	-3.7050406245642384
id469	sample1	obj109	3.601558885241414	0.38175595034299925	1.1585740270591514	-2.5649901220127145	-4.063635323123439
id470	sample1	obj110	0.6581835862139256	-0.9416707152732139	-0.4312081930031668	-2.4436587874623705	-3.4743286253174954
id471	sample1	obj111	0.9882480594777427	0.12968550522651046	-0.4151635620466878	-2.6023157567499204	-3.6894512374454016
id472	sample1	obj112	1.6762447028649636	0.7132327357336343	-1.0900306509209674	-2.4133566328520253	-3.4473039768211926
id473	sample1	obj113	3.6749565819720367	0.6042699873991364	-1.1503209583828884	-0.3281370316161605	-3.417203959391477
id474	sample1	obj114	0.32088472659940126	0.26205097964850776	-0.5991445108125835	0.028434328824363364	-2.6414158662074536
id475	sample1	obj115	1.305506987121951	1.497847679983041	-0.44790765083143014	-1.4250913385496884	-4.388579880812167
id476	sample1	obj116	3.2828258589541104	0.40947265878337036	-0.6385405873945678	-0.7246133255840241	-2.305123880769644
id477	sample1	obj117	2.562658604279563	0.9451040373641362	0.165516279061529	-0.004816416259112666	-1.0659118664634837
id478	sample1	obj118	1.458874044253707	1.4686454289183375	0.8704566136472789	0.6398460027971777	-2.721025910576626
id479	sample1	obj119	2.184801545065251	-1.1696629573304285	-1.6021375232899884	-0.8128732336948092	-4.105971631979017
id480	sample1	obj120	2.74508654650604	-0.5868999469428184	-0.021385981007858934	-1.4227953635598443	-4.464861151841687
id481	sample1	obj121	1.0937382270462894	0.14398150382996122	-0.4707846345052604	-0.9754986886833392	-3.3442146711365
id482	sample1	obj122	3.572639053518447	-1.2319943726714488	0.15960884746991977	-2.478661903119032	-2.43616380549802
id483	sample1	obj123	0.6464967287803176	-1.8876741586830064	-1.5494709109969012	-0.9979352541281985	-4.309190221772356
id484	sample1	obj124	3.7706510016999237	-0.06765390337920585	1.3693561165889319	-2.560471259114573	-3.89034470389531
id485	sample1	obj125	3.116756993360511	-0.4180814173103313	1.194972057881804	-2.214583598659491	-2.8319122534983032
id486	sample1	obj126	0.39043706469643813	-0.45025351255565327	-0.5082966884546518	-0.4534014034341316	-2.488615503235313
id487	sample1	obj127	1.2281745718408372	0.8024471698411018	-1.6584853315425248	-2.5581561028936974	-4.090925017519794
id488	sample1	obj128	1.9981782900957785	-1.5301608182371114	0.5766958176886054	-2.5620345612322857	-2.5814284586603176
id489	sample1	obj129	1.4947008756546092	-0.6181214833219928	-1.3409444817843972	-0.5353834003145093	-1.5785434040459394
id490	sample1	obj130	2.9503828401711827	0.20305702820120852	-0.6802185895544317	0.650879161315691	-3.451118796439368
id491	sample1	obj131	3.713643715623152	0.831779820759728	-1.7723660433448285	-0.8589607615938404	-2.751155119143216
id492	sample1	obj132	1.998325589766457	-0.28136798466550594	-0.30859197147172535	-2.345953688187927	-1.622364831297553
id493	sample1	obj133	1.6459214420898274	0.7729812346275946	-0.3166529386523742	0.5442209477919382	-2.100634362441691
id494	sample1	obj134	3.0410722244067454	0.19667083620660564	-1.0120563878798456	-2.2921796528953977	-4.611561817224361
id495	sample1	obj135	2.1392095385708565	1.5271763586870601	-0.8510628273862317	-1.3524692382036292	-3.3294725874776825
id496	sample1	obj136	2.8539156559561967	0.7516595225347207	-0.7268979897343038	0.548331392908868	-3.062716193362956
id497	sample1	obj137	0.6528616291841058	0.40486878358134093	-1.0037188908403174	-0.7063645558140765	-2.2615333692269104
id498	sample1	obj138	1.6284150357851013	-0.3076495062202895	0.47561447602588625	-1.3876769265193365	-2.0628679680175637
id499	sample1	obj139	2.3144078443388736	-0.47668626280898274	-0.19801740440536864	-1.3712555437270526	-2.5826693154125495
id500	sample1	obj140	2.9493738766803803	-0.10018446550483717	0.45898731211047594	-2.7016386626342888	-2.1633191090396187
id501	sample1	obj141	3.3216288707796	0.2546616224799021	0.5462473915111448	-1.3252515466568002	-2.2084918412023047
id502	sample1	obj142	3.7557025535271356	-1.5705158577577971	0.512325145237569	-0.7146615176498072	-3.981419888703667
id503	sample1	obj143	0.3414712249139076	-1.5168002147290998	-1.6086513156132645	-0.5084452316379056	-2.3167519606500395
id504	sample1	obj144	0.424338009254692	-1.1708735643579833	-1.6253515238074518	-2.1812026406220077	-2.286725430652811
id505	sample1	obj145	2.5148532723314236	-1.429756289817409	1.2837952036024827	0.5096513895764858	-2.854488159377305
id506	sample1	obj146	1.5928260006228636	1.6540537736985665	-0.705535311509029	-0.2538556924708282	-4.3824420582447505
id507	sample1	obj147	2.5423500207041547	0.13478364526344033	-1.401259873136565	-2.2443789168319057	-3.591058069452827
id508	sample1	obj148	3.499501810645505	0.5588813810390227	-1.2331368006612358	-2.1518600959184884	-4.062293603519033
id509	sample1	obj149	1.3385454264462557	-1.175141770585385	-0.24589209348733276	0.5342354251401693	-2.247343026943976
id510	sample1	obj150	3.722441368932378	1.218853766769158	1.1153042036240384	-0.0870264032671424	-1.641636663139986
id511	sample1	obj151	2.533044019946244	-0.7223966919222671	-0.07201489114203574	-1.9804933025849145	-3.858085990904315
id512	sample1	obj152	0.6851489489312974	1.1670155498988117	-0.08638951006882034	-0.2840468922403845	-2.4331505920202297
id513	sample1	obj153	0.6373468125357096	-0.5113251359596396	-0.6841656402354359	-2.6576151510022177	-4.607712411885879
id514	sample1	obj154	3.2376533906282825	-1.6985550132543277	1.1604632873441945	-1.389225867028447	-3.0865451918341265
id515	sample1	obj155	1.2522638653257143	0.9685475718338961	-0.785245969664268	-2.406752686605576	-4.441163397533229
id516	sample1	obj156	3.1408401915062916	-0.5572967882057909	1.6670895097164464	0.43497321244236153	-2.290895327319215
id517	sample1	obj157	1.3392220237409467	0.36194801236706486	-1.2348169621428706	-2.212218430764695	-2.6477817826563674
id518	sample1	obj158	2.0302573432012414	-1.300951680569739	-1.179020383506981	-1.48719087484784	-3.8995430177053736
id519	sample1	obj159	1.400618574418534	1.3656277734162263	0.7196410910453801	-1.399959564949935	-3.7297365291991516
id520	sample1	obj160	-0.2719005852732217	0.522035507427154	-0.9676633125935317	2.2956314315052593	3.4970174420134663
id521	sample1	obj161	-1.509295346868505	3.0152527462396863	-1.0907407282178332	2.94069754033538	1.5209734496076277
id522	sample1	obj162	-2.2550454100236728	1.6110121459078928	-1.3596912531397944	2.850056644987326	3.766569726687476
id523	sample1	obj163	-1.7054023424657898	1.833738677568854	-0.77123576147753	1.2163157458127014	4.475637077590929
id524	sample1	obj164	-1.7048842282895356	0.8974910787462185	0.9174639542849496	3.012225759147607	4.38722395473829
id525	sample1	obj165	-0.5930218400159786	2.865887245699983	-2.076038699646748	2.9463976887640664	4.3051710626851625
id526	sample1	obj166	-0.1710349018859374	1.2262071734113356	-0.42974867734723143	1.8470283629589628	4.176401073104397
id527	sample1	obj167	-0.19526878420562466	1.6657573579139229	-0.01689965890104772	2.875908161500843	3.8097671760108005
id528	sample1	obj168	-0.9090145588800158	1.931223007851253	0.4716670529245135	1.2994373111867943	1.9027149250815851
id529	sample1	obj169	-3.1409462360292144	1.4979507387071413	0.6580027180376684	2.1748921281981524	3.520385277236458
id530	sample1	obj170	-3.2814628915475215	2.745565552673158	-0.020223955808094773	3.406184638883799	2.2832961944634773
id531	sample1	obj171	-1.2538921203583853	1.4183571428077648	-2.057034893414138	3.1746565834786438	1.1489255180662061
id532	sample1	obj172	-0.2822638161202342	2.9683382915204772	-1.147339138456141	2.7107585627517983	3.093332130007412
id533	sample1	obj173	-0.7044431698538041	1.3992390588709749	-0.4318090048713954	2.628997834775631	3.847079058076111
id534	sample1	obj174	-3.520389724363551	2.557040282302041	-0.4053958795576833	2.674063483618016	1.9409183783385324
id535	sample1	obj175	-0.9271638637510737	2.749117404890381	0.273591739019863	1.417411428152542	3.9169160715193216
id536	sample1	obj176	-2.1856218728744397	2.5968711785970884	-1.1769543837848822	0.09278565261442195	3.8544036809909654
id537	sample1	obj177	-1.5351543239355256	1.0832369843001362	-2.12432235819737	3.2242748780032846	3.6908126244638426
id538	sample1	obj178	-1.0098589323968372	2.8240932018946445	-0.6355900701457002	0.48942165557876116	2.2414225930483065
id539	sample1	obj179	-2.3238471545824373	1.664713098403072	-0.23690624138187322	1.8065635117335617	3.8694603839703285
id540	sample1	obj180	-1.341127144386108	1.0635637436058956	0.3534873685008113	2.3132079051770225	2.1176526857508082
id541	sample1	obj181	-0.9332915918349494	1.8633520050801298	-1.3620974009172029	1.5264893804132915	1.5585981359365382
id542	sample1	obj182	-0.9762534432329708	-0.39232763091055345	-1.1082150865396498	1.0762547018239013	1.3406924376562435
id543	sample1	obj183	-3.0306047732235006	1.2405635336120961	0.5069625579133674	1.6054039679158931	4.409120295803212
id544	sample1	obj184	-3.2362511029234406	-0.09007924342975837	-0.12000173472926279	0.6157860930749219	1.5085721750670293
id545	sample1	obj185	-1.1504351831415398	-0.27306444102395955	-0.9926590304907148	2.2240284942428943	1.2692297412601645
id546	sample1	obj186	-1.5481601600789807	-0.2056425337733987	-1.1995380650932677	1.512017604171423	2.8184874247722145
id547	sample1	obj187	-1.2389435079429016	2.0096717737156498	-0.47515824875291135	1.743034837390542	1.1879063940838508
id548	sample1	obj188	-1.2395699479153002	2.2865656793892857	0.010252603978466057	2.089729966757516	3.4944575862989815
id549	sample1	obj189	-2.4395556054821865	2.1163481316581807	-2.2228671136677196	0.23565287354264353	2.6538961571692754
id550	sample1	obj190	-1.4403932003581412	1.9418824961659216	-1.6529644783360464	1.6676265465408713	1.2224265219518502
id551	sample1	obj191	-1.2771240564641533	1.866985714487493	-0.18971408678566637	0.3721080529714875	4.104612661442625
id552	sample1	obj192	-3.396529710215334	2.012373361142152	-2.1253252074987268	1.824529553516674	1.8892426895618069
id553	sample1	obj193	-0.9209215874310372	0.6911074583102996	0.5264549105528931	0.5090363088351839	1.7323285581314942
id554	sample1	obj194	-1.7665053587392854	0.8071013458521752	-0.31062537340662044	1.7104677153183843	3.0485900611869763
id555	sample1	obj195	-1.1229678560727552	0.6185534371043573	-0.5095772959776037	0.4175493558808643	2.668067398122938
id556	sample1	obj196	-1.8941294696695792	1.672804729458398	0.9613872361765325	2.819512281657392	3.0150139171533192
id557	sample1	obj197	-2.324021152475007	-0.24335792602483486	-1.3935686021326783	1.1938207890100172	1.397195208032178
id558	sample1	obj198	-1.698704976118801	1.9008575016374507	0.6235699180221668	1.9726076307805982	4.211126479306452
id559	sample1	obj199	-0.9076241284309032	1.8768623634394526	0.942361208692917	1.7742699252446645	3.493394334722322
id560	sample1	obj200	-0.5440857123826055	2.659185927254086	-0.8155646692357432	3.4970017594700327	1.806590053846013
id561	sample1	obj201	-3.2550843352848498	1.827487418895038	-2.569674172419014	3.1527525260952203	4.580696106168357
id562	sample1	obj202	-3.4833915762781866	0.8953395363347862	0.8561457275484214	2.701235902621206	2.152284626089883
id563	sample1	obj203	-0.34195760202834813	3.00517623545009	-0.5941890555923097	1.4063334392990532	2.175456476773661
id564	sample1	obj204	-2.0987916299915277	0.385103427498409	-0.5231725895243617	1.8112881808608754	1.5037882715164037
id565	sample1	obj205	-3.1039871363048928	2.7006403815875357	-1.256381086696748	0.6780433743581431	3.981000794080707
id566	sample1	obj206	-0.16472819229333724	2.0378206495112074	0.6141456432366061	3.2364740600143698	2.822926172863987
id567	sample1	obj207	-2.928050587645827	0.9558616579658727	-2.4750438770100027	0.9974393631797038	2.4197805146039597
id568	sample1	obj208	-2.479435472961167	0.884829390073127	-2.114511855138359	0.5520131483766673	1.5418919310915993
id569	sample1	obj209	-0.4918967761085893	2.7936648623190043	-1.6261578582627976	1.9809738372228702	3.323074905228954
id570	sample1	obj210	-1.9715083834268492	0.5788929393983597	-1.2872627639492806	0.2869173351381702	4.360972958413201
id571	sample1	obj211	-3.032348957996078	1.734118699276258	0.4654105880344652	3.5807859960056714	3.233167933618592
id572	sample1	obj212	-0.30709904292776247	2.742061606919159	-0.21814300546303556	2.4593417718907293	1.9989754059522973
id573	sample1	obj213	-0.5635199403015696	0.17326735225758183	-0.032616369210273666	1.7070570694609526	3.904970754260919
id574	sample1	obj214	-1.2281036706086097	3.088107676362153	0.23692401111261208	1.5686273857082014	3.063533900016872
id575	sample1	obj215	-2.918330388918894	0.12366595553225945	0.6748617924989848	0.7526797268981378	4.5854432384007815
id576	sample1	obj216	-0.8534271961890789	0.02635741303507766	-1.324722116302071	0.7845189860786055	3.5695246264099323
id577	sample1	obj217	-3.354546703911039	1.1942455081743304	-0.3987211857153168	2.9227827218238485	2.363524386294431
id578	sample1	obj218	-0.4706196264323361	0.2520705410768356	-1.5345133211671063	2.9045022574494617	2.3194563028162345
id579	sample1	obj219	-1.2808647271248146	0.17493691853172555	0.62530561696408	1.8177266454993988	1.5816471764196605
id580	sample1	obj220	-1.9241799020207877	1.8840994191460754	0.21606767897724333	2.806080116744554	4.258824552529204
id581	sample1	obj221	-1.416739068016607	0.0718343991141881	0.39762936703825535	1.9062384036505742	3.657759555956056
id582	sample1	obj222	-2.9464040728898198	1.2386984810029436	0.8829129433762051	3.260973897081402	2.1625472004703905
id583	sample1	obj223	-0.5249825232511209	2.6593712536331218	-1.7199594196644612	0.22911573884120018	3.687120861301584
id584	sample1	obj224	-2.0996311887470336	1.8775907361951452	0.4051254763308638	2.680426454466059	3.603604880438658
id585	sample1	obj225	-2.0799492794021983	0.9531404964786021	-0.30820108151847303	2.5666161446173117	2.6950638999305605
id586	sample1	obj226	-0.4504405863365839	2.603082824462483	-2.0405425503553927	3.589091048065554	4.199817651574317
id587	sample1	obj227	-3.183204528584494	2.5800751905140213	-1.748802493855441	0.3077617716019516	2.877095500694847
id588	sample1	obj228	-1.4196787114785623	2.99994943526196	-1.3558767972089358	3.053887443894043	4.298683619197768
id589	sample1	obj229	-1.4184171459137265	3.023939397331561	-1.3755919576151783	3.685661548222993	2.612653897050027
id590	sample1	obj230	-1.2660441073076967	0.8762138586779351	-1.9096422523856083	2.5408339647703553	3.7975168268322
id591	sample1	obj231	-2.458249662912843	2.4518930254066245	-0.70166657849508	2.2711445509440233	3.8947869958661503
id592	sample1	obj232	-0.5770301624218128	-0.029714879531179683	-2.0453221489105555	0.3125421460592497	1.2489049229926896
id593	sample1	obj233	-1.107692410113413	0.6213302753250112	-1.9950099266178247	2.3745805777863183	4.083119553400663
id594	sample1	obj234	0.035330667279970696	0.9317772917640053	0.05663477509897619	0.5473734113410156	1.408084380817001
id595	sample1	obj235	-0.32160662741971957	1.2866892556334593	-1.7875031942757915	1.7608391815979183	1.6993217744827411
id596	sample1	obj236	-2.757002163238155	2.6388658840308823	-1.2646224802545964	1.3912820195200766	3.627013087960674
id597	sample1	obj237	-2.2255969455583777	1.7998859879035154	-0.8946322356995511	3.046777242027483	4.405424560406016
id598	sample1	obj238	-0.095835808651904	1.5085495200097907	-1.8856278947334744	0.9550886167955752	2.1147712886149894
id599	sample1	obj239	-1.6277742982332084	-0.17273338498835855	-2.029053084323956	1.5089604126757696	3.546209269336374
id600	sample1	obj240	-3.0617713057515488	-0.21566473017090693	-1.7471353452131855	-3.441709746699443	-1.1065772907647804
id601	sample1	obj241	-0.3193141302922433	1.4285229212234247	0.12968266255666738	-3.032625542809207	-3.529793168719091
id602	sample1	obj242	-2.124948434476935	0.012044947979227727	0.918613458739423	-1.3124556348787697	-0.6837737419369898
id603	sample1	obj243	1.6567485399696353	-0.03459039164775102	-0.4762924127407202	1.7847911085986985	-2.79952356256414
id604	sample1	obj244	-1.185922544196996	-2.299267098396419	-2.933463483842106	-0.8412158078020588	1.3593946232744796
id605	sample1	obj245	2.6336408795612583	0.2858793381225435	-1.0708318662931473	0.9698468619854519	3.026112161163799
id606	sample1	obj246	-1.494440625351355	0.9353574132749218	-3.9236361782132665	2.675704759943774	0.3925840373710563
id607	sample1	obj247	1.351864142178205	0.23925290906689667	-2.728237837983052	-2.1222966579192715	2.4655050700286516
id608	sample1	obj248	-0.39893781046344867	3.3688812606572354	0.8581758876039316	-2.2320167975767298	0.8978693616710978
id609	sample1	obj249	-1.033292075196546	0.5740901059183823	-1.1991191663441045	2.317152618567121	-1.5176340495154341
id610	sample1	obj250	3.644606933000876	2.2229921294127983	0.4598283522257689	3.0033288904587265	1.1397482853183043
id611	sample1	obj251	-0.19522428718297058	-3.1252166208658503	-0.6576345703840252	-1.4433269629129413	1.0846321014125777
id612	sample1	obj252	0.06594870022623112	-2.298113066334343	-1.8205931694698894	2.079251461900127	-2.741275090136972
id613	sample1	obj253	3.807680502355816	0.9847146362400239	-0.48734605138732134	-1.205844538327185	2.733904006612774
id614	sample1	obj254	-1.2050393042421756	1.335970723259164	-2.41244687027206	-0.8713259575263292	1.2427815691209516
id615	sample1	obj255	2.209384036393736	3.346215654692457	-1.8749731934304665	-2.7347660892405043	-3.5178622021530077
id616	sample1	obj256	3.5335498472748457	1.5429938148754525	-0.6483063713008719	-1.3384895681390516	-0.8695441436511018
id617	sample1	obj257	3.8477955026853277	-1.2825953232241665	-1.9024100356804885	-0.6202026467530324	1.123949176827726
id618	sample1	obj258	0.35494538173706935	-1.5650178162230226	3.111646261515631	-1.687947999835576	1.2691447055729659
id619	sample1	obj259	2.5547608310176697	1.3057092446365957	0.7595917197399207	0.5424734829764477	3.2226609274040836
id620	sample1	obj260	4.381358169294622	-0.8986744996772609	-1.6584263682550175	2.7370903423368045	-3.1117471155481278
id621	sample1	obj261	-0.19567752502951197	-2.5644517273994887	-0.03866931594354672	-1.6680863646628	1.9306834950682983
id622	sample1	obj262	-4.0544696882821825	0.47605493136272536	-0.9664625430877252	-0.8048109288791678	1.8850281476912443
id623	sample1	obj263	-0.873369461683364	-1.6125307018959514	1.2550470539909562	2.9734797328133307	-0.21374732746363478
id624	sample1	obj264	0.9095404321859613	-0.6088369588719382	-0.5741109346085251	2.137324398504364	-2.6301793885736577
id625	sample1	obj265	1.725175441096679	0.07613049532309835	-0.954008822168174	-1.9495843582824208	-3.2763455780316955
id626	sample1	obj266	-2.1683729053739675	2.1952066271059563	-1.0924804282653275	-2.3399928678784363	1.0520280273696774
id627	sample1	obj267	-1.696084038394854	1.8727232373721179	-1.1120557475566322	0.29667169712665986	1.9060077702765474
id628	sample1	obj268	-1.3159753203733513	1.3471054885123923	-3.386702378588633	1.7717156970322485	-0.5032369907782062
id629	sample1	obj269	2.1149142209720617	-3.469902550859297	-1.031136627107979	-0.39384315735489195	3.1297678837877143
id630	sample1	obj270	1.5081335195952879	0.32160121642557926	0.6454608121758809	-1.9327118632643805	0.26704123347541
id631	sample1	obj271	3.9889303542163654	-2.645374786972843	-2.2915619343966376	-3.0369352352014545	0.34078493478129857
id632	sample1	obj272	-1.0661443682310654	1.182442016606861	-1.7130631152218052	-0.9010597723334579	-1.9116511098477769
id633	sample1	obj273	-2.5020093508341774	2.7570112208695585	-2.5443782857444415	1.8333056784116193	-3.999700138225875
id634	sample1	obj274	2.807977208795002	-0.981266423595961	-1.8713888910102947	-2.5692252960246416	1.8954894845178913
id635	sample1	obj275	-0.9338515683611275	1.163149092385454	2.7190075878820865	0.4172054014654052	2.945186481684269
id636	sample1	obj276	-1.4431475981431507	1.1044403002225924	4.392856978951011	3.395624683341026	-1.8857257367489653
id637	sample1	obj277	1.0403966361935086	0.17097839161427508	-1.299847040030993	-1.0619062254965324	-0.006649222751720307
id638	sample1	obj278	-1.2416897087664038	2.58679255129496	0.4978517024147864	-3.6408758645717176	-1.65854554460963
id639	sample1	obj279	0.45382826879997107	3.689393229074428	-1.4281993353259503	2.156287288428306	-0.7548902667973285
id640	sample1	obj280	2.708272627095246	0.24262338956551655	1.6884269945489772	1.8001094756547014	-0.4118369008238896
id641	sample1	obj281	-4.5279941415305585	1.437778057026149	0.5785525876932645	0.5273429305361008	0.1414245615635743
id642	sample1	obj282	-1.5846943871312194	-0.45557541550155545	3.2640168772222697	2.719970667615737	-1.8815939548865457
id643	sample1	obj283	3.1893187059378842	0.15220521930396047	-0.5712889301800421	-0.6232279791658908	-2.7443961645447867
id644	sample1	obj284	1.3251918525746915	0.8846657594495546	-0.04035510619520877	2.678848445093959	-0.032656688238279274
id645	sample1	obj285	0.914766026262593	0.5611294703129881	-1.9995082016058203	1.3356807721224424	3.301612032779249
id646	sample1	obj286	-3.0148946879403504	0.12904905951265255	-2.166085755199898	-0.8323657425956541	-2.060881159878324
id647	sample1	obj287	2.240750980415118	-0.9898747061344813	-1.2900171091630204	0.4091579968353951	0.7817315490545209
id648	sample1	obj288	0.9451781637113659	-3.0815642021994822	-0.8489057389890047	0.5743563567654967	1.9213724163929788
id649	sample1	obj289	-1.5559727125137155	1.7626869277691668	1.196736595227174	1.7344919752418813	1.9285848658258937
id650	sample1	obj290	0.6806562827587943	3.7913192005100482	-2.9811269357107157	2.5802992137842775	-0.5868231940098061
id651	sample1	obj291	-1.249410101486814	2.087404969610778	0.03360061505402023	-0.05807459316190844	-1.9115263309904467
id652	sample1	obj292	1.0815685261836154	-1.516195781867936	1.8194187518359795	-0.05877649757662273	-1.2579433967330527
id653	sample1	obj293	-2.250336170323841	-4.554585090852594	2.379254003792709	3.341726486210856	-1.8380266476474736
id654	sample1	obj294	1.935193807112167	-0.28557720527338337	3.2981239250435053	3.9737533998765366	3.1358139637980713
id655	sample1	obj295	1.566563972725369	-1.4138039216337328	0.915824975618728	-0.35543757418523825	-1.9648521498368512
id656	sample1	obj296	1.7699483125463786	-1.0345434046344069	-1.0343081144304056	2.1351388338945574	-3.2963031066936104
id657	sample1	obj297	2.430075391500066	-0.2713247952037363	2.25546389999563	3.7690156390008855	0.6190452341318928
id658	sample1	obj298	0.7542871871747798	1.066039388942808	-2.75941866923439	-2.536497876364522	-2.774235427857688
id659	sample1	obj299	0.6751980145647369	-2.981732024817288	-2.2967627205134833	-2.087667916103867	2.4538961392568783
id660	sample1	obj300	3.1926960457779554	-0.1237640040526391	-0.2779428085381437	3.0824457874933646	3.473144377293848
id661	sample1	obj301	1.577415667619425	-4.584212055897502	3.375460397900409	3.4458985182292032	-1.2393743789992613
id662	sample1	obj302	-1.5690704715718231	2.744062078851666	-2.4416412275703374	1.3198469739395347	0.40882096694958103
id663	sample1	obj303	2.795471004537985	1.5205258596841944	-1.7941014461867122	-0.5605639031043337	1.1645347458502464
id664	sample1	obj304	-4.016038304313383	2.3571341647280333	-2.301662463525475	-2.526931045164136	0.014032083175773868
id665	sample1	obj305	-1.3640185443345743	-2.5057930728110467	-1.1429299566758069	1.1350443627019078	0.8201211233688566
id666	sample1	obj306	-3.865598984224854	1.6640279342517346	-2.8704895916368818	-1.2092059705714486	4.39137028376036
id667	sample1	obj307	3.077857207259809	0.4770008165726942	1.522347172720974	-2.017642124315298	-4.22011730790598
id668	sample1	obj308	0.07665986708681816	2.5537072558083356	-3.9517536908012323	-3.0028311454071606	-1.5734757694586292
id669	sample1	obj309	-0.3657347742293464	2.3482410029029035	-0.751566502654136	-1.9434951070941762	2.218886176708879
id670	sample1	obj310	-0.522349002058917	3.1829262664285896	-1.921950946315872	3.165738623991749	2.375194962462514
id671	sample1	obj311	-1.8348557247352961	-0.5002455590829207	-0.13710105061206312	1.9607993564942052	0.42884614438901525
id672	sample1	obj312	-2.1554359157224314	2.237418683240623	3.1849252182659122	1.6966017032078597	-1.437443688746328
id673	sample1	obj313	0.2412320463857146	-2.0073222665098793	-4.281759026911619	-2.516883219622703	1.0849909229699393
id674	sample1	obj314	-0.7729189241799743	0.8014927418282565	1.9147103626718083	1.5896163563639096	0.28181768661381335
id675	sample1	obj315	-0.029565300715447718	-3.8808039064506628	1.5929278500048747	3.244054683280658	1.907485309958566
id676	sample1	obj316	1.076756255356424	0.5129319029590496	-2.347850594121165	1.2521304624967298	-1.8583978449795058
id677	sample1	obj317	3.826756615488975	-2.293069379229585	-3.0186512843204625	2.7947682958495608	1.825775760096063
id678	sample1	obj318	0.8596094813134287	0.39051891541797545	0.3000815570153952	-1.2884613242585787	-2.1546051810880256
id679	sample1	obj319	-1.9564263558945756	2.6685179113535096	-2.505012141643517	-2.022904985523086	2.0246529447144477
id680	sample1	obj320	-0.09427700219786161	-1.881166559143564	0.5914451319762359	-0.4175581076114867	-0.0793779898221958
id681	sample1	obj321	-2.6311312115311782	-0.7613962225640234	0.6779880300520778	2.9068058910344003	2.2067890877160297
id682	sample1	obj322	3.305548095081867	-2.2519127179264404	1.3989167966773441	1.613363702897787	2.552004150910757
id683	sample1	obj323	-0.7331351451920083	2.4982475055629547	-0.5505725024424459	2.495803756167348	1.4697780678713632
id684	sample1	obj324	0.6856170882442851	-2.1083433388064816	1.2253948511372552	1.6858748651761866	-1.2717333116587222
id685	sample1	obj325	0.02460307527019112	2.1410357536018	2.6690100914250374	-2.3415785792558035	2.107167624574725
id686	sample1	obj326	0.7565442237851303	4.42567932652313	0.6030329166174093	-0.6070400484004256	-2.5757653471189457
id687	sample1	obj327	0.7243955572998846	-3.267785404298465	1.2828110119987317	1.111340922065051	1.0432769500179908
id688	sample1	obj328	-2.925001244232678	0.2918196313012593	-0.9007118842946327	-0.9760245132171266	3.527747883343403
id689	sample1	obj329	0.41769701940009574	2.2980936784600794	-1.0449700647945088	1.41063944411915	1.2318789733348174
id690	sample1	obj330	-0.8229143706794038	-0.19111591624489366	3.2658253757750373	-0.9038947084362172	-2.2310553905391473
id691	sample1	obj331	2.562889887310711	-1.5207655374495606	-0.1343363354512317	0.49872750202185656	-2.176921208673874
id692	sample1	obj332	-1.51673068010173	-4.653512445714637	-0.8458871527615266	0.9408604714596283	2.6907086381180694
id693	sample1	obj333	0.5664250966354869	0.8737064810732911	-0.019292480233972897	2.991044969153296	-1.1148912270517095
id694	sample1	obj334	-3.51189085694189	-1.686753911710959	0.10236200040872556	-0.8578449719282075	-2.206937393426404
id695	sample1	obj335	1.5480679401907798	-1.4365017860740636	-0.5812621479597813	2.2192692899367708	-1.9899232141916656
id696	sample1	obj336	-0.14074772048423423	2.277481314144192	-1.1632183099934703	0.5321841468452335	-0.08782450134017372
id697	sample1	obj337	-3.176963213355312	0.8259382245565334	0.86627975646246	-2.4194212743740895	2.7882216998261526
id698	sample1	obj338	2.6679271562637097	2.6622999244734844	4.261580199893021	-3.294480095182083	0.3014154291705473
id699	sample1	obj339	-1.1213878313675336	-2.880200305186417	-2.996604285352699	-1.4124570288401204	1.3924778059927725
id700	sample1	obj340	2.8175006030479564	-1.0279748141018379	-3.702719815767664	-0.6422730227383282	0.6445149986565779
id701	sample1	obj341	-1.468668595583407	1.7381335691504747	-2.8581152796413	3.772468344128807	-0.22730779538774382
id702	sample1	obj342	-1.102535310763303	0.5198481917999158	-0.18676980461359816	-0.4584964979646018	2.9651744409016807
id703	sample1	obj343	-2.920102860941051	3.828888889728777	3.670902464976632	-3.6351035674328136	-1.2477764062057761
id704	sample1	obj344	0.2782146502384333	-0.33274985847765737	4.188799397239971	3.2647998339577766	-2.8180569779839786
id705	sample1	obj345	-0.7996584883831532	4.647243225001616	-0.16478611546734	2.028604735521654	-1.4902946023314874
id706	sample1	obj346	-0.9522730162925921	-2.0760837782468347	1.761246552936174	0.2795324301700497	-2.321844531266735
id707	sample1	obj347	-1.3483714883172964	-1.6680921105755415	-2.1438732679903665	-1.015842428129259	1.5512192519599342
id708	sample1	obj348	2.3930352418529024	0.5314074411547665	-0.8939940435032747	-0.7753688133283425	4.151068269573163
id709	sample1	obj349	1.269887404103442	-2.083414465605162	1.2284632797804689	-3.529009292983533	0.7180636845396464
id710	sample1	obj350	0.260077844874661	-0.5472379696143985	-2.1292062005637833	-0.4299363322037879	1.7732154367088093
id711	sample1	obj351	-1.867145500984308	1.2512774676640863	-3.9163728981241235	1.2558469489308974	-0.37432924025446757
id712	sample1	obj352	1.3685357573206995	-1.8857844608528027	1.9445069035074063	1.1780244924323686	1.8078803244517074
id713	sample1	obj353	-1.7410356265347975	0.6549340201949547	3.6518672235114726	-1.5124372173667615	-3.050610885326197
id714	sample1	obj354	3.2464410631534424	-3.876525746942563	3.5198061315429134	-1.2112312998576145	0.7182983553957614
id715	sample1	obj355	-1.2722031282440864	0.851286316006113	1.8628479199602619	-3.292562507206863	0.7117928530934821
id716	sample1	obj356	-1.9808606241051392	-0.9533972193639819	3.403956997042287	2.7386215868980655	-3.629971977239971
id717	sample1	obj357	-1.5942799821398796	1.3836485929607327	1.0629738801201805	-0.38803189434567886	-0.5422493865994571
id718	sample1	obj358	1.951652656633027	2.201789981884188	-0.21418262458976867	1.554270312442801	-0.8326958145391636
id719	sample1	obj359	-3.148152146481736	2.3029925190378595	-1.7266921507979132	2.263308836961046	-2.7071438664412755
