id0	sample0	obj0	1.3807234230895586	-0.11395304475155821	-2.5160226208668184	0.10792798880507615	-3.3236901845390108
id1	sample0	obj1	2.1733186541845746	0.018890178970942362	-2.6165315590648346	0.1192841353914158	-1.9264726572264388
id2	sample0	obj2	1.8473406810394348	-1.0092178875373414	-1.9924704915107427	-0.7063727059876201	-2.6884004594085025
id3	sample0	obj3	2.1061281956556246	-0.9299111240529812	-2.676098685082962	-0.8052003704069818	-1.9920336503368534
id4	sample0	obj4	1.404663430295611	0.39363429381687176	-2.2607712560891544	-0.13613772015638337	-2.7977882119450723
id5	sample0	obj5	1.156921026696961	0.14789194008227224	-2.9526057900301557	0.07388317685954338	-2.212959935102398
id6	sample0	obj6	1.8307509301752098	-0.6212724215782526	-2.384416527904091	-0.7070673309378042	-1.7361407443191503
id7	sample0	obj7	1.6459008410753446	-0.281529629587275	-2.5997654126896275	-0.7656701519306791	-2.128938871743947
id8	sample0	obj8	1.0455754938508144	-0.06220335989790149	-2.560092196903971	-0.6478569316899616	-2.035365209367887
id9	sample0	obj9	1.9828334721994205	-0.609486047527346	-2.5240695707301506	-0.1938836235672423	-2.430961370161369
id10	sample0	obj10	0.6642038028197336	-0.9016101279353711	-1.5565278776841718	0.2751314476319864	-1.7746559764254406
id11	sample0	obj11	1.9632221534969332	-0.6777499833058542	-1.3804380123620035	-0.9314153431271114	-1.8673850856382588
id12	sample0	obj12	1.8202067281992615	-0.5887707114631778	-2.80047688768191	-0.07777752564426543	-2.4786348412162935
id13	sample0	obj13	1.4705756074563143	-0.3341344161107458	-2.2865541014676376	-0.5543994758494364	-2.446199646292204
id14	sample0	obj14	0.706417009743009	-0.6307631117837105	-2.1712999839862084	0.31397201680978437	-2.121531973524588
id15	sample0	obj15	1.7139193219557987	0.03512476915712748	-2.9228312056591026	-0.8053654322748294	-2.3340312940916115
id16	sample0	obj16	1.4067162589535844	0.4197999282368625	-2.8140661245488356	0.21813098714045354	-2.1684138420632086
id17	sample0	obj17	1.1812629651931046	0.19603449729465794	-1.40839115260229	-0.7752244762968743	-1.950861104956681
id18	sample0	obj18	1.5690952563223386	-0.8290901906302095	-1.8795191037351313	-0.5616803324200821	-2.357901240618232
id19	sample0	obj19	1.3912993587938947	-0.5555256134832242	-2.2168722911587855	-0.23225197182511303	-2.2078691967273665
id20	sample0	obj20	1.8967947860273036	0.3808717047494887	-1.847697577121764	-0.3332337172746326	-1.8542583473232066
id21	sample0	obj21	1.077172677150293	-0.551229870662829	-2.4193237816846658	-0.23493072510718327	-2.634254580903791
id22	sample0	obj22	0.9108952902917542	-0.8396550383543697	-2.1904328486508007	-0.9724745635969089	-2.470171216204998
id23	sample0	obj23	0.8377167379726965	-1.1007499748753151	-2.7148787929927023	-0.7764572501333571	-2.4873174948770735
id24	sample0	obj24	1.1642878421497413	-0.4954636664470099	-1.5763868487600947	-0.44934503866631625	-2.084971465357291
id25	sample0	obj25	1.9431255810897634	0.12088979510145559	-2.4333380956015094	-0.3696524562745517	-1.8385290003358377
id26	sample0	obj26	1.6635199399635667	0.012430855541778474	-1.8207293861664235	0.3818928270950259	-2.956498642234524
id27	sample0	obj27	2.0835825296557813	-0.1307897682871142	-2.1672318667535224	-0.19195310031143253	-3.276750039353688
id28	sample0	obj28	1.2815730940536862	0.039007586520641846	-2.7299923702819924	-0.6535634389131718	-2.748231907627456
id29	sample0	obj29	1.8009348442338622	-0.7563427171129997	-2.314365963761878	-0.871100706663816	-2.668199336121625
id30	sample0	obj30	2.2211912190110885	-0.23454970540660225	-2.2910751511554155	0.3494921187988662	-1.7667598356025158
id31	sample0	obj31	1.345064947707638	-0.5832451181847988	-2.5852958545818687	0.39692071343070956	-2.9612073776936283
id32	sample0	obj32	1.1149415150655813	-0.638575236733045	-2.101813510144721	-0.7896796204642708	-3.328093559088731
id33	sample0	obj33	0.748170867791999	0.2913844047688505	-2.853608940021042	0.5452068820319946	-2.722231247789155
id34	sample0	obj34	0.9247520553411779	-0.04744201061553133	-1.9389613425549497	-0.1094278851418451	-2.1447672529942334
id35	sample0	obj35	0.8117311850320926	-0.5373933853108699	-2.000334065335741	0.5850881200302183	-1.7380419660151993
id36	sample0	obj36	1.430232430681495	-0.3046836386989984	-2.7078727563224456	-0.9082347888862475	-1.7491063895668044
id37	sample0	obj37	1.852492624659748	-0.22549519359555958	-1.4272333828182229	0.18275163741843992	-3.217434489651194
id38	sample0	obj38	1.771647113536308	0.3005427136443741	-2.116608781600076	0.26081995629710963	-1.8414821388769094
id39	sample0	obj39	0.855380632210903	0.12658984604272305	-2.0871706590498884	0.42802844727695555	-3.0742469947363134
id40	sample0	obj40	1.6399725161981533	0.03597404566278328	-1.4656309833314995	-0.243368767550439	-2.07580826644385
id41	sample0	obj41	0.932795492968454	0.3983709190734652	-2.2031864232577445	-8.955129259957673E-4	-3.0719145207264686
id42	sample0	obj42	0.6830325187343214	-1.0228746899005232	-2.5426815368868647	0.2947181513802015	-2.5679730643229868
id43	sample0	obj43	0.8913198431239961	-0.9752422442244733	-2.921348389722847	-0.1840214519259118	-3.058218723750239
id44	sample0	obj44	1.323268664535779	0.2649863571070641	-1.5608867669250002	0.20105503773611955	-2.5363379621122895
id45	sample0	obj45	1.65842534417967	-0.730976892924876	-1.3658832116840227	-0.18544835786017277	-2.917333222353936
id46	sample0	obj46	0.8592643673000553	-0.2319587390523361	-2.3765590717923972	-0.9297504239120152	-2.9568707782739017
id47	sample0	obj47	0.7233284966259529	-0.3958835858734726	-2.1385326697646145	0.26229483400179254	-2.0147024551162334
id48	sample0	obj48	0.8497047675592437	-0.16481679873598232	-1.8716089148788841	-0.8627030988779564	-2.1389192860679076
id49	sample0	obj49	1.597709222583796	-0.7728181899768272	-2.82751524745205	0.27550569378100387	-2.0087275968792326
id50	sample0	obj50	2.1550162493895053	-0.8348411673973377	-2.383916949921265	-0.9637999381025946	-1.901069095479799
id51	sample0	obj51	1.003566920615999	-0.003802877068876498	-2.564911650538033	-0.5127745281678866	-1.951672265361454
id52	sample0	obj52	0.6384924363226328	-0.5927600501262708	-1.817452878368018	-0.9671888628087044	-2.949966027134683
id53	sample0	obj53	0.8470522437670271	-1.0082880164973735	-2.6947297098438616	-0.8460483937126497	-2.6006376990176943
id54	sample0	obj54	1.0052756806816512	0.3468820698597699	-1.5623662474970461	0.2833084554757246	-1.9384218016505457
id55	sample0	obj55	1.838675059385343	-0.12927399575016096	-1.5873424604617707	-0.02165697155464852	-2.6078939697999015
id56	sample0	obj56	2.1841256439390806	-0.18080802997373946	-2.0037106295869758	0.38378871994392516	-2.30255852976242
id57	sample0	obj57	2.0718510131431915	-0.2061892312412359	-1.9594299643814275	-0.8358219259418257	-2.3582926375102486
id58	sample0	obj58	1.0334693465135203	-0.9679107442608569	-1.9959014341870565	-0.5594852915703266	-1.9511857411277822
id59	sample0	obj59	2.173312842611744	-0.8293585041617069	-2.331993402396335	0.30888692572635046	-2.0699220250903094
id60	sample0	obj60	1.579789066161475	-0.42989078879344933	-1.4284440621467571	-0.09557726667936361	-2.4040407196617295
id61	sample0	obj61	1.5904734424540985	-0.6168328892432408	-2.482447079039955	-0.52195611878898	-2.972605529127787
id62	sample0	obj62	1.272967377558704	0.18885626713036285	-1.7069069308834959	-0.9224448931414052	-3.2489600080087455
id63	sample0	obj63	1.3823919441735135	-0.19029067783705855	-1.5202322398600812	-0.8047338779787269	-2.7272797589922386
id64	sample0	obj64	1.8697707828688357	0.39918105810848825	-2.8215521317112726	0.3131466123861213	-2.011488843791815
id65	sample0	obj65	1.9325549434698954	-0.9126553751686105	-1.7388325603748445	-0.4799705908061582	-1.9477268267658354
id66	sample0	obj66	1.3332164053128202	0.1792151206293413	-2.8744722609013564	0.295155759136845	-3.103871060324666
id67	sample0	obj67	1.7032488533900398	-0.5860148168004086	-2.870510910238445	-0.5250278434063755	-2.134573526253918
id68	sample0	obj68	2.1621282214742923	-1.0585388613779267	-2.0845216145909378	-0.20290528890688253	-3.243800799570264
id69	sample0	obj69	1.5028610079232645	0.40563680081394393	-1.393522108303481	-0.7766764608920406	-2.929906343401466
id70	sample0	obj70	0.8417516522889233	-1.0788021341320442	-1.5877656574092749	-0.41592677482343854	-2.2067541908044026
id71	sample0	obj71	0.9390095925679869	0.1883753138447255	-2.114995828938126	-0.41384784888399095	-2.349290072302739
id72	sample0	obj72	1.8328587564679921	0.441522616823083	-1.3996111653154002	0.03603583523508114	-2.1991568534040598
id73	sample0	obj73	2.181966236355473	0.01864490310238809	-2.776120301531889	-0.4718045376879888	-2.746413858570495
id74	sample0	obj74	1.2933377694235744	-0.15058453492362067	-1.7032165084699284	0.23423296452170428	-2.513080851961053
id75	sample0	obj75	2.064395490860308	0.3895441905813877	-2.899694706774964	0.5300920119247432	-2.1140277155928726
id76	sample0	obj76	0.952823619613216	-0.2937268760726435	-1.9772193496049772	0.06702926458851066	-2.046601398271405
id77	sample0	obj77	0.8949998606708842	-1.1051713550009787	-1.92355685875339	-0.6960984135903892	-2.523268235746267
id78	sample0	obj78	1.2374888067267826	-0.9445782911098677	-2.1742562044829272	-0.624784285619848	-1.9473822809531223
id79	sample0	obj79	1.165220694024164	0.2864204561412007	-2.4368291041518804	-0.9021402033773934	-3.0519111428808596
id80	sample0	obj80	-3.088849191865858	-0.07889524213455812	-0.0985261186941564	2.0287124189057826	2.8442994250638227
id81	sample0	obj81	-1.9778178322713635	0.2182035376220972	-0.5477034334430135	2.033036853704236	3.054269726937153
id82	sample0	obj82	-2.221908387254194	-0.7679630774551269	-0.5107076973892802	2.4869999896397106	1.6698760045176568
id83	sample0	obj83	-2.014694286901694	-0.8675256425181547	0.13345642770189647	1.7000181955446971	1.8608553088151765
id84	sample0	obj84	-2.688482222550861	-0.54691748847675	-0.29211753415064057	1.9205165092790946	2.838203425296113
id85	sample0	obj85	-2.772446237614882	-0.03910977600092791	0.5333383977525463	2.293626356176283	3.1409208558333974
id86	sample0	obj86	-2.938465629711551	-0.4546646142315277	-0.4065333513030309	1.9162579672803812	2.3754483462083016
id87	sample0	obj87	-2.5427915592061403	-0.026528001253034894	-0.06666014316153179	1.8347025277225013	2.547775707903855
id88	sample0	obj88	-2.2903137636099404	0.6662853132647322	0.6615551168930653	2.822944169035633	2.736317775413654
id89	sample0	obj89	-2.6257311728727375	0.22562795092921406	0.7064273689257479	2.385091332039499	2.993502832978029
id90	sample0	obj90	-3.078288018640812	-0.34058990731704264	0.5702080049908178	1.8443380728302983	1.7996673484889991
id91	sample0	obj91	-3.3148555247882996	-0.18418094646544958	0.8956702376433536	2.1401980175185393	2.013367055580633
id92	sample0	obj92	-2.7259575382382137	0.2720651451288454	0.69593334712968	2.7069803992922967	2.0816526757060556
id93	sample0	obj93	-2.2917929576218956	0.1810191892582549	-0.08489726581874901	1.7261611367952039	2.431286424141571
id94	sample0	obj94	-2.636337813941164	0.036680594270183775	-0.37675398802045756	2.0350060957319718	1.9213556861786734
id95	sample0	obj95	-2.0381490469681314	0.17826038981305836	-0.431529254833225	1.4600882935371697	1.988330196778394
id96	sample0	obj96	-3.062483989533831	0.039337218302988086	0.7004757693531569	1.4787708352510198	2.97037917531917
id97	sample0	obj97	-3.0217241866273	0.3146176385993289	0.05798264031182643	2.1708650235019977	3.097768526199193
id98	sample0	obj98	-1.9457951205803952	-0.861142772151262	-0.5840250556599398	2.8080785684987664	2.344467433072432
id99	sample0	obj99	-3.312234184765269	0.35204816836482045	0.7817455479269755	1.4671082918583984	2.841761998393236
id100	sample0	obj100	-3.0827227895673603	-0.01139386051881508	-0.5995616620436842	1.9948638654901611	2.071770930494588
id101	sample0	obj101	-2.1301957348191083	-0.17243519210143798	0.8951316002818215	2.4779001885204908	2.1263411995169137
id102	sample0	obj102	-3.304014667736835	-0.5477340331842291	-0.037388949672347516	1.3742447899252144	2.19893775052532
id103	sample0	obj103	-2.6310764711637744	-0.20671649815302184	-0.36211964907590133	1.48099860695996	2.7628891674793774
id104	sample0	obj104	-2.42406151411528	0.6939022232233583	0.017221625980416766	1.486925103261716	3.092774848414333
id105	sample0	obj105	-2.3752467417664556	-0.5050508205598485	0.5053069533643222	2.4722848156910526	2.945902476190438
id106	sample0	obj106	-2.741353661171638	-0.4382913194404367	0.2655416741885128	1.7699865546248352	3.1017868297465183
id107	sample0	obj107	-2.832707657481859	-0.22839435071776926	0.8685471771839566	2.219270062028709	3.1483682992157043
id108	sample0	obj108	-2.444490040399965	-0.1261218715223068	0.7405340559855016	1.4771748782045777	3.0184605139258753
id109	sample0	obj109	-1.9200076487024058	0.07313805845702637	0.42533411980016433	1.8805463537310125	2.2576583720251784
id110	sample0	obj110	-1.801620656584211	-0.7458916461241656	-0.46988442839673406	2.673845628476668	1.9097275231431126
id111	sample0	obj111	-2.3651970310417982	-0.6435209223766338	0.6893626860801232	2.0621281523024484	1.8264024080568457
id112	sample0	obj112	-2.0846413159435357	-0.7466845926578748	0.6436218209519999	2.2657980877004746	1.859598707694634
id113	sample0	obj113	-3.2451074532777393	-0.464667926577512	0.0028609406445735397	1.6206950768633182	2.21436639441335
id114	sample0	obj114	-3.20289556263614	0.23318970333000366	-0.6118754267733307	1.3852887055780432	2.394527107371044
id115	sample0	obj115	-3.137681526584094	0.42232782200540697	0.6835506916291623	1.812807927034397	2.548923867656087
id116	sample0	obj116	-2.594578282375616	-0.32370872464282996	0.2728148783986599	2.871576921310721	2.8386187104032867
id117	sample0	obj117	-2.1805139093913004	-0.7834076542575814	0.09374051727892341	2.9282325316538573	2.833270367387338
id118	sample0	obj118	-1.847470804842911	-0.1735552720225183	-0.6387732426508319	1.4474201604661658	1.772372625353309
id119	sample0	obj119	-2.125204106811874	-0.04623201107071628	0.4458585247143678	2.334568927958645	2.383093786475362
id120	sample0	obj120	-1.9940766843908355	-0.3477443198357827	0.542639861215656	2.1069960240180627	2.3451945704148516
id121	sample0	obj121	-2.625557753828063	0.5495903058443856	-0.16470640772807954	1.69944550419497	2.07397671103315
id122	sample0	obj122	-3.049663437153691	-0.5343664515622941	0.5955611317734382	2.1947925100199637	2.8184905479462365
id123	sample0	obj123	-2.496111073583961	-0.46781255939978306	0.9179771514142985	2.2456003564581386	2.233367613539414
id124	sample0	obj124	-2.935153964928628	0.11626832217041594	0.7677487996398489	1.66907057594897	2.992710136807222
id125	sample0	obj125	-2.925890533438572	0.07233011477858486	-0.5733008172671014	1.433234741063544	2.6125221991989482
id126	sample0	obj126	-1.850248411232416	0.5220703220735008	-0.3011965505102177	1.7075642193118288	1.8982700236999683
id127	sample0	obj127	-2.830757725537953	-0.1150765549399283	-0.4532846052737082	1.6530860277088995	2.9253773231144438
id128	sample0	obj128	-2.8355945370548348	-0.6153539502387948	0.26291477205241787	2.9271468423797264	1.9068533332193236
id129	sample0	obj129	-1.876125719842253	0.38909394250831886	-0.15223543255382915	1.352729165479599	2.342882939291816
id130	sample0	obj130	-2.4862631121255205	0.47794431409010985	-0.28908630531467594	1.8532554929973748	2.846140087845188
id131	sample0	obj131	-2.600272701796664	-0.021712085537615167	0.39617789767987976	2.3076801303879773	2.482880080056706
id132	sample0	obj132	-1.9522209064409926	-0.5127298245867336	0.3423435339979134	2.2889253975203045	2.777588866449218
id133	sample0	obj133	-3.116913674825338	-0.8341404267531385	0.4473240422639331	1.487935000907675	2.0371750153302655
id134	sample0	obj134	-3.084932714678462	-0.385073718145717	0.03982475638249705	2.897351722275615	3.0234508738125965
id135	sample0	obj135	-2.474131011664785	-0.2643098779403399	0.34519713936749863	1.3596425992003134	2.629023031276546
id136	sample0	obj136	-2.262660779948736	0.6578041233280183	0.7495519450817287	1.6259569692700264	3.0057603816861174
id137	sample0	obj137	-2.6952001653368294	0.24144098240906642	0.5325164125584161	2.900670221661854	1.5957963115479972
id138	sample0	obj138	-3.050466743567754	0.0013097396478178869	-0.4066772095210107	2.7640042634124473	2.2866088050265216
id139	sample0	obj139	-3.2252854820017434	-0.5378925618368415	0.9012692491757752	1.8978848207887948	2.5431747807144527
id140	sample0	obj140	-3.224360647494159	-0.4369287947220663	-0.6509375303573122	2.639861191885509	2.075570912609693
id141	sample0	obj141	-1.756418335602163	0.13560129592992065	0.2901917935408914	2.433034136147384	3.118759707376902
id142	sample0	obj142	-2.212476808543161	-0.24106234545340866	-0.26163143901300645	2.028079207296953	2.7967153215210847
id143	sample0	obj143	-1.8016068486752632	0.6561532723099706	-0.43775620038542984	1.4531755650872076	3.1045730859862433
id144	sample0	obj144	-3.2795952693647568	-0.747157601155993	-0.48883570332361703	2.450517701154948	2.4841928170525795
id145	sample0	obj145	-2.7373645385927956	-0.3646112592443841	-0.028303159137733402	2.560661938174216	2.6294681028582083
id146	sample0	obj146	-2.004765242095679	0.3911641764022735	0.5191107023182879	1.7198036372094563	1.6019599416643993
id147	sample0	obj147	-1.9323825694885484	0.49099310760453774	-0.1429825935264445	1.6467569924525556	2.054039083754451
id148	sample0	obj148	-2.7752229005126976	-0.7887153719285473	-0.3790092517033872	1.6874800139913004	2.1597562252733877
id149	sample0	obj149	-3.028507445613296	-0.6590551100290196	-0.12771076735761366	2.9320147829939494	2.2821802851377986
id150	sample0	obj150	-2.543235147587766	0.5531013684922355	-0.03515998540092846	2.2232596408801992	2.3240171062508646
id151	sample0	obj151	-1.8386240723856473	-0.15464212592594284	-0.40351864753370226	2.5656208312922484	2.505007808480685
id152	sample0	obj152	-1.9659373410061745	-0.10868125877099111	0.3431631526617608	1.5658621634802516	1.6989666312524783
id153	sample0	obj153	-2.874481015058093	-0.7479642720776625	0.8364309664171494	1.3749545201606779	1.6844184884852518
id154	sample0	obj154	-1.87167109630335	-0.3545985402736239	0.3191351497355528	2.3499758720408055	2.279696615809932
id155	sample0	obj155	-2.8159327189837087	0.3659050820887033	0.465973051170697	1.8456947314946979	1.6351252043276683
id156	sample0	obj156	-1.7697653447813262	0.5131380314058802	0.0732511725185423	2.0279476372258296	2.1556011904995946
id157	sample0	obj157	-2.2815108702296802	0.4765555421344443	0.6202104457645958	2.1518541524671964	2.5655674810367364
id158	sample0	obj158	-3.2441414463703104	-0.18717607067471342	-0.17854992424638	2.8688667964171666	2.969098526981944
id159	sample0	obj159	-2.0586742568413383	0.04217776138834295	0.8904814362955287	2.844188757248612	1.9896615736796646
id160	sample0	obj160	-0.5075206150493805	0.8345332314208878	1.5767481560201295	1.2490388668384707	-2.203390070829598
id161	sample0	obj161	-1.663484210396889	0.6686495928675988	0.41159240755471005	1.4617601900893409	-3.091609443955662
id162	sample0	obj162	-1.075730969771986	1.2552343717035286	1.2418412810824437	0.591036931235375	-2.6530026790103722
id163	sample0	obj163	-1.857171655163786	1.5018072191467051	1.0733049844911278	0.4996192284848252	-3.4865328589326614
id164	sample0	obj164	-0.9172040981010976	0.5158951113774297	1.6301191896367981	0.8851923888427563	-2.1557834369182
id165	sample0	obj165	-2.0176541991613304	0.9193273279083243	0.6230528287289351	1.0672543045637302	-2.538141936495254
id166	sample0	obj166	-1.252596178418567	0.6739059748486265	1.1833927949710557	1.587096453195723	-3.1041490363131286
id167	sample0	obj167	-1.9589077537909239	1.3488313280420061	1.1227198831392393	0.757156758262489	-2.370135117407882
id168	sample0	obj168	-0.9564992104098449	0.9570924815972895	1.0369031471681251	1.2030996738735467	-3.182593262832269
id169	sample0	obj169	-1.2431260270712925	0.2767628918145767	1.8295804478550153	0.6862722722811941	-2.4513244627798674
id170	sample0	obj170	-1.114489179781172	1.130321358304406	0.925320332948087	1.077246803856869	-2.4861776273164766
id171	sample0	obj171	-1.9068841684085378	0.9223251799817077	0.3396398025339491	0.3995562999482233	-2.520131736991363
id172	sample0	obj172	-0.8029144472798513	1.0595450725851445	0.4611436157972886	1.828017925246264	-3.705463484039758
id173	sample0	obj173	-0.5116784721068106	1.4496036127317318	1.1943193845367157	0.9847859584646461	-2.5107549817339665
id174	sample0	obj174	-1.3193050941964986	0.9707941142605397	1.2490287955943582	1.9300417289844296	-3.1604538152841606
id175	sample0	obj175	-1.4646911190123835	1.428664588922105	1.0085416273832613	0.9195757091557258	-3.156543195072639
id176	sample0	obj176	-1.9647216383921728	0.5906892258870369	1.0511298143825591	1.050009711281797	-3.0895506232881127
id177	sample0	obj177	-0.5040682384216901	1.4704835855490956	1.0548348376309769	0.6106063909183392	-3.444553405843732
id178	sample0	obj178	-1.3027992100517922	1.2941085965591743	0.4201056335523323	0.9100819874154508	-3.5729711963224666
id179	sample0	obj179	-1.1414345888027309	0.6246196002955093	1.5646392865361833	1.6741400263270654	-2.9437025935226737
id180	sample0	obj180	-1.5936800626694643	1.5737071665485312	0.8680053506971405	1.2661382921188835	-2.1935041684552354
id181	sample0	obj181	-0.902807945885024	1.0426130461067424	0.7845585004994833	1.3459549228621717	-3.427363900478017
id182	sample0	obj182	-2.0244656956163967	1.7850477895512082	0.9408062476128359	1.6522905812309276	-2.6109236764068076
id183	sample0	obj183	-1.6075124102483773	0.9741493127024348	1.6518626201657594	0.9978988756402101	-3.5596938716293645
id184	sample0	obj184	-1.6312568997956887	1.6101664919819436	1.3199434915627206	0.8571351126403419	-2.449817627818704
id185	sample0	obj185	-1.0731276442612925	0.9770909297311682	1.4301131614719025	1.7773194526860752	-2.31341629956369
id186	sample0	obj186	-1.8312872570712502	1.421456788661505	1.073731185609177	1.2612856374940629	-3.474023346479408
id187	sample0	obj187	-1.3329489226813371	1.0865442517974069	0.7723400522307282	1.8746942967649949	-2.4352235489801757
id188	sample0	obj188	-2.057093861835432	1.116819864669791	0.43313838866643595	0.57979058291866	-2.1443011284075704
id189	sample0	obj189	-0.7008700456510208	1.4021897625915332	0.8557661304959424	1.2638458877271899	-3.4733959699502073
id190	sample0	obj190	-0.9081059050658524	0.6360911558937634	0.967944546125811	1.217100957293617	-2.72931479180452
id191	sample0	obj191	-0.6170383086174438	0.7171663180682046	0.4586350578781285	0.9481882101133617	-2.630676030981326
id192	sample0	obj192	-1.5084695324928892	0.45781466367348833	1.3908632346903267	1.7563168416774138	-2.563424533633834
id193	sample0	obj193	-1.9560694244349062	0.6258633277890537	0.7262616634307111	1.185514735188843	-2.6038719276749656
id194	sample0	obj194	-0.5833648431206135	0.3145005638753884	0.818783839454192	0.8685040630572984	-2.618235321397993
id195	sample0	obj195	-0.5780462808841802	0.4120366699548319	1.099987041297936	0.8529005103295166	-3.420102670635481
id196	sample0	obj196	-0.9395082707341529	1.7535629757650937	1.1718444706778999	1.141933826829816	-2.678282339258587
id197	sample0	obj197	-1.5509639372690087	0.5327268864805461	0.6592820130375999	0.45235273312267144	-3.678034219315251
id198	sample0	obj198	-0.9589714852320339	1.4101975519567438	0.8926113476121956	0.9951622247907801	-2.6846711457502574
id199	sample0	obj199	-1.2717205972997667	1.2775209083569374	0.9538055050456645	1.446907072112336	-3.550894225876733
id200	sample0	obj200	-0.788884812922207	1.7475216930720636	1.319202578192508	0.5519273843536577	-2.2339289781829734
id201	sample0	obj201	-0.6611915150297183	1.7967602171347519	1.6787876953576875	1.8559298218254172	-2.6064892153082235
id202	sample0	obj202	-1.5330314371846943	1.3583614145744802	0.8477567451016649	0.5199057597654866	-3.1927599780966487
id203	sample0	obj203	-1.1073601822731869	1.1563622696829166	0.47366849589281435	1.1274478882552887	-2.3478871087406157
id204	sample0	obj204	-0.9247752752161913	0.9121328238714534	1.6712091851595392	1.7294306322755792	-2.312835828881748
id205	sample0	obj205	-1.0789196395397516	1.3909830505666572	1.5004865647670964	1.4443912135996595	-3.5768639833968385
id206	sample0	obj206	-1.0842037946344427	1.4693273672583986	0.9829012487181131	1.852339336650245	-2.803189503328607
id207	sample0	obj207	-0.9301925810506526	1.4913121100429167	1.085074863872189	1.410695565749591	-2.6306529106958414
id208	sample0	obj208	-1.0358039884075527	1.5751737238188732	0.6851106493983232	0.5351773944704354	-3.2412188083090854
id209	sample0	obj209	-1.9666582867460733	0.4753534857135153	1.380681821483075	0.7022745393649323	-3.040968853999371
id210	sample0	obj210	-0.6864272706016767	1.4831105932590287	0.4441530461662111	0.7450506382145908	-2.9767420109857454
id211	sample0	obj211	-1.3388102531548611	1.157608471185475	0.7402004255082939	1.9569337918684822	-3.012721993806177
id212	sample0	obj212	-1.9367367119725771	0.2477678191648679	0.7852679798659759	1.3404788137603363	-2.506987450703776
id213	sample0	obj213	-1.5805069571483754	0.7441389041931362	1.4597486282587337	1.7163621042498547	-2.3182690953209306
id214	sample0	obj214	-0.5227675888856098	1.066215828775327	0.6220642837160142	0.9436669109430298	-2.3738349582874148
id215	sample0	obj215	-0.6064154426634669	0.34555185580794057	1.7829080804997843	0.8223960318411327	-3.551490190974777
id216	sample0	obj216	-1.4576695760674205	0.5353052550626705	1.5668632238562912	0.9046722808842025	-2.958064818039683
id217	sample0	obj217	-1.531584753283929	1.3140093606407823	0.33149021105773846	1.9088186717260958	-2.1844146550325654
id218	sample0	obj218	-1.5671360017453593	1.2319818394201703	1.5698393030489173	1.5120090775531252	-2.5188080576669645
id219	sample0	obj219	-1.7746235239057477	1.1744289670776193	0.6552616509790932	0.7190142726898561	-3.517559464544031
id220	sample0	obj220	-0.5854644770590547	1.4125237663386199	0.8864221682549785	1.8182931093294723	-2.749828630948643
id221	sample0	obj221	-1.1543945085139409	0.6341039801441928	0.5696223455865028	0.5188638189776973	-2.8135787313642564
id222	sample0	obj222	-2.0026287127076534	0.6657110525123868	0.473984419449223	1.113593428156769	-2.397705879906959
id223	sample0	obj223	-1.888574953614547	1.7190340287518802	1.3767939098487176	1.6633282536530725	-3.2522619122101744
id224	sample0	obj224	-1.5261804541321935	0.8439996687454323	1.8704036380664353	0.7932189389827529	-3.7104234069360786
id225	sample0	obj225	-1.1508703203078865	0.299319779489413	1.5426368779775326	0.6142300579269608	-3.243355072190797
id226	sample0	obj226	-1.8452375516050847	1.5358345203771069	1.6086489672530913	1.5307311501830276	-2.4583071276222057
id227	sample0	obj227	-1.5421060022938304	1.3300376897156394	0.7277783169797913	0.7958043659584669	-2.482117599976935
id228	sample0	obj228	-1.3572509023377937	0.7312991846231112	1.8731049184482593	1.481036714465532	-2.39269393511184
id229	sample0	obj229	-1.6788586935687129	1.6480731931974457	1.2482945047245826	0.4136555142709083	-3.730963632468607
id230	sample0	obj230	-1.641681742309343	1.372361823592075	1.2049079643154093	1.10247531941126	-2.8811493913749167
id231	sample0	obj231	-0.5017277878715669	0.32945364192440674	0.6677547271166255	1.3518151034431543	-3.0589756945539683
id232	sample0	obj232	-0.538157305953306	1.1680395837551663	0.615133881491926	1.1008822807163916	-2.881489409340321
id233	sample0	obj233	-2.0537831121116112	0.8257842336643433	0.498995898521583	1.7016623708704568	-2.7695148343094043
id234	sample0	obj234	-1.5101106930308528	0.7938663158593576	0.6662359664342665	1.1626657195212646	-2.9903006504572236
id235	sample0	obj235	-0.7781641539470701	1.5624529913340917	1.5205589339797856	1.1655284732829463	-2.89458950605456
id236	sample0	obj236	-1.9483487157110404	1.1841108182611657	1.133697284381185	1.3580028827602082	-3.625089085474177
id237	sample0	obj237	-0.8322426372299085	1.1953335067801167	1.5892820369152276	1.1168698797672467	-2.5330827156998956
id238	sample0	obj238	-1.5924278999887516	1.2642554744121728	1.161422332363358	0.9593211244300759	-3.472626366388159
id239	sample0	obj239	-1.3141980468327266	0.886776045889531	1.857106254806743	1.887957664202015	-2.6583748299518497
id240	sample0	obj240	-0.2362420379374921	-1.1134408842260086	-2.5013787720824165	-1.860494575029506	0.36632885898387446
id241	sample0	obj241	1.0453109325062684	2.317864411703605	3.0025168464972936	2.655880427925614	-2.9800389795115483
id242	sample0	obj242	1.7844653556817147	2.6737395019149472	-0.06811398612241659	2.983677588923854	0.2033001275892583
id243	sample0	obj243	-1.6031064556269214	0.5011244968594766	-2.1097641676162393	1.0822922230586416	-1.659142240231851
id244	sample0	obj244	2.2812511482621787	-2.2887357345000447	0.31704402554960653	2.390423478338313	-2.543074271053365
id245	sample0	obj245	0.7919625719075947	2.5331945221058536	-2.2924620754174594	-1.2624773581483129	-2.7259440601175196
id246	sample0	obj246	-1.3558185883783507	1.657454349227941	-2.494491523409105	-3.1908924810381203	0.8654534873806012
id247	sample0	obj247	-1.7172762301262476	-0.8441569072468298	-0.9251630667051879	1.9877035275014148	3.1851899984685774
id248	sample0	obj248	-2.418696711785006	-1.8605922207207002	-2.1676983638089657	-2.8011947581095495	2.8272780267864093
id249	sample0	obj249	-0.7058297112493661	2.89697035050603	1.4610856460089063	-2.426788087537719	1.357800109429658
id250	sample0	obj250	1.0937840253589557	0.4813959051432293	0.2498110379457703	0.05001658971420331	3.0095608248477297
id251	sample0	obj251	1.7723338916670859	-0.0481659261034354	1.6478612857754125	-1.1367272114004177	-2.6331094482117217
id252	sample0	obj252	0.9292168827152906	-0.28511812508999756	1.0180630685619678	-0.19043674808712052	0.6048593222618349
id253	sample0	obj253	-1.194425974377263	-1.9948802784269717	-0.9814781616589304	-0.640454707155638	0.5179237867929547
id254	sample0	obj254	2.236357247710086	-1.0923535663408392	-0.38541617804743145	-0.16872896568284057	-0.4968122354054719
id255	sample0	obj255	1.634087564598657	0.050260452383073306	-0.600074666595446	-0.6351127771596357	-2.227327078889688
id256	sample0	obj256	3.7728211956951725	-1.9768742019358951	1.6445891013863638	-0.5126191806660342	-0.41311005267787393
id257	sample0	obj257	0.3310311178738893	0.8453019201974881	0.9893378085747448	-3.5307048372205956	-2.4602370024434124
id258	sample0	obj258	-0.616237816776827	3.0275683873411037	-2.4227372506869687	-1.704386911164754	-1.664192479841898
id259	sample0	obj259	1.690537448765475	-1.8751649121639995	2.285542502903886	2.2199360380790543	-2.650674559093476
id260	sample0	obj260	1.286753149693934	-0.9798293435182366	-0.8911672090312523	1.7494925359517801	1.8054940788014364
id261	sample0	obj261	-0.4801764707305962	2.108822628850745	0.5313787062520765	-2.263150042610513	2.0351431027965514
id262	sample0	obj262	-0.5791519248997026	0.6883128337373687	-1.2964355642726124	-1.2165848048031171	-3.019376989626803
id263	sample0	obj263	1.5002538938430408	2.460374230537501	-2.10806361574865	-1.3595760485149921	2.2722146968158707
id264	sample0	obj264	-2.9363341072625317	-1.2679125012460144	-1.9115099107109186	0.8359786538089662	-0.3106484192438843
id265	sample0	obj265	-0.47993406440612985	1.4132454819629814	0.03412164835094367	2.419912361273158	-0.41025803464557
id266	sample0	obj266	-2.974339518309061	-2.826046541078903	2.1942711912223647	-3.459000157291911	1.0910590503136715
id267	sample0	obj267	-0.17728818414542835	0.3023804685018583	-0.6962637421977611	-2.038296979533613	0.39485684061865156
id268	sample0	obj268	-1.3494202003875675	-1.1462460967794843	-0.5206438329761462	-2.610140830326861	1.3371528397776935
id269	sample0	obj269	0.16135698964620615	-3.5077383111309093	1.748781961270165	-0.7419735170382273	0.3654162991456018
id270	sample0	obj270	-1.3406789490521271	-1.7415334602045296	-0.49735456681697554	-2.845453714140122	-0.9111403565814238
id271	sample0	obj271	-0.8272809371222352	-1.567990625914468	-2.185626801439178	0.5364551140637482	-2.665913636792578
id272	sample0	obj272	-2.836484711372966	1.7706074814460875	0.7950286337517949	-1.110010472189742	-1.5878296576215607
id273	sample0	obj273	0.9215691236984989	0.7156504586356252	-1.893895243229684	0.011665528867977892	1.592685926184926
id274	sample0	obj274	-0.6434296410411604	0.6286412000353292	1.2149897549162207	-2.33236929289241	-0.9677909530595972
id275	sample0	obj275	0.15908359948927153	-0.029498240185459546	-0.7058675152986813	0.34844177776558727	-0.8384494369456387
id276	sample0	obj276	-2.992688437218495	-1.3403458587169348	2.3396207026637623	0.44700117859060184	-0.9367026961059062
id277	sample0	obj277	0.3059222122233656	-2.3726449227195254	-0.37668444483381763	-0.17207869973455509	-0.09987017919415608
id278	sample0	obj278	-3.184935569924525	-1.444270168447044	0.9475589171729024	-2.3264264196234534	1.2172808784090858
id279	sample0	obj279	2.1167062269576506	-1.2368141875838004	-0.23122766839423092	1.5772450697976377	-1.7485991576388975
id280	sample0	obj280	-2.2795809474307003	1.4549789703204183	-2.166740610249206	-2.6610179851844276	2.206624651714914
id281	sample0	obj281	1.1895118417091117	-2.3143113994888496	1.6958016817138128	1.188084307928199	1.7496514693587835
id282	sample0	obj282	-2.9938668481823028	-0.9782453182912476	2.059082567901177	-3.4403070579644512	1.2950600862813533
id283	sample0	obj283	-1.469165606734097	-0.9428124617819742	-2.8495549514835625	1.9004848638115508	1.0863090903405388
id284	sample0	obj284	2.5548706628022315	2.9284621435839826	0.4076162404098199	3.5724090675908613	1.4628609945899143
id285	sample0	obj285	-1.0632685574466632	-3.507418299928927	-0.9564009609267158	0.199679401412436	-2.3145362855829124
id286	sample0	obj286	0.4147543311827151	0.8740999993249557	1.0491311121060725	0.6355359233406216	-2.92060715643188
id287	sample0	obj287	-2.2964518132430003	0.18250345833821102	-3.3117714666101983	-1.058780705968093	-2.5909707827147836
id288	sample0	obj288	-0.7958064442081674	-0.842941635655236	0.4829105724726921	0.6912861422315821	0.060839295533116955
id289	sample0	obj289	1.3875696431012483	3.2910098274419433	-2.1473392443802384	-1.6828674057395303	0.28980138285184454
id290	sample0	obj290	2.0893593682312286	-2.3593630510252983	-1.7291112518248402	-2.3797599645680014	0.11394295194174597
id291	sample0	obj291	0.6204117446095866	2.054083874923034	0.9525635182162473	1.5495153366507761	-0.0813885830728881
id292	sample0	obj292	1.3332931794197145	0.9726999963351022	0.4747179542586967	3.1244081761739197	0.006400819920874823
id293	sample0	obj293	-0.9883445634541376	0.9802655519207635	-0.4998381880067142	-2.0929650162978297	-2.108276945319273
id294	sample0	obj294	0.9895505599014909	-2.21497403826186	2.1283106730096453	-1.7259010821828535	-1.008283321801051
id295	sample0	obj295	1.454345556138113	-1.7157133790957984	-2.214493371124145	2.1273380122906023	3.1898221917014205
id296	sample0	obj296	-0.5024817204962728	1.4576577922905436	0.46094480626595435	-1.7442217741091062	-1.329745838718346
id297	sample0	obj297	-1.0280807238196894	-1.26253609654676	-2.71048741047485	-1.0921089119223155	3.001897343595722
id298	sample0	obj298	2.9208594421535032	1.7691442456194062	0.7743667532799382	2.2159303820260514	1.542539783293475
id299	sample0	obj299	2.9333117253384	-1.0348898570089395	2.627507934697807	-1.1260968166785035	1.700710800380843
id300	sample0	obj300	1.7855817581491997	0.6007100432325327	1.195803292371264	0.6622836259778749	-1.1627151752891287
id301	sample0	obj301	0.3816517107652291	-3.5243997921236407	1.3748260219100643	2.452748583310611	1.8271044587959302
id302	sample0	obj302	0.23009715710387119	-0.7771677820733554	0.8612989450319082	2.2443261855326266	0.7550087555795343
id303	sample0	obj303	-1.6477464166296492	2.154003370969563	-1.1282632417576042	2.17220258974469	-0.422083530902839
id304	sample0	obj304	2.6051983299084656	-2.204767564272349	-2.261368708153332	0.7981924999660943	-0.8539152486086096
id305	sample0	obj305	1.7535819773475616	-1.2352528242126473	-0.3130982950348242	-1.986804317199836	-1.8289837876407073
id306	sample0	obj306	-0.88052764340519	-0.2560687555620537	-0.2889501029064525	0.276138479758961	1.1087325072232372
id307	sample0	obj307	-0.9356493095548659	2.4598941759513866	-0.013814510243328137	-2.1618038768146572	-0.5205547680210261
id308	sample0	obj308	0.752708730828096	-1.783599624967207	1.8601733613068758	-0.2225953280826133	-1.1661986445708739
id309	sample0	obj309	2.5192903446045345	-2.0685356346403676	0.7382288742247154	-0.8023235232955448	1.91777206281975
id310	sample0	obj310	1.5525692996243527	-1.151816865607742	-1.0804857429451638	1.8581557011088177	0.5299980377554361
id311	sample0	obj311	2.1459344574266557	-1.3051755203075284	0.5816021800627729	-0.31818421391615215	0.7362054671096446
id312	sample0	obj312	-0.2971764814694968	1.9924672182633572	1.1128556395474234	1.263625860708523	0.7980082177851257
id313	sample0	obj313	0.5980186151156957	3.05403258781475	1.3437898675691913	1.201671101921504	1.0403807610589446
id314	sample0	obj314	-0.8954221036522774	1.284716639482221	0.6903353361733358	-0.9715644664825285	1.8756273956602116
id315	sample0	obj315	1.9847030833020853	-0.8154016802007302	3.6453686166148627	2.1814223399767494	-0.372040358447316
id316	sample0	obj316	-0.16460797775289748	0.19256561262575622	2.729898702533693	3.202288694274155	-0.17936295723067297
id317	sample0	obj317	2.432256609294541	-2.2195837613701443	-2.5991821763873726	-0.8871776307853114	2.94955429577218
id318	sample0	obj318	-3.7058717732277446	0.996765843351831	2.1217957328807246	-0.5455530442217663	-1.6156006324189227
id319	sample0	obj319	1.3745854802523327	1.9127537028745725	1.1412760045890398	2.3018683950843295	-2.4926745580173844
id320	sample0	obj320	1.9527095635072587	1.9265247336975668	1.726999520195975	-3.2727160441862018	0.19593546940147377
id321	sample0	obj321	-0.07084895202356623	-2.8041753153984	-0.486042477832364	0.5525586785127604	-2.6746399338257425
id322	sample0	obj322	-0.17232670193169375	1.0826898382308339	0.43208155866115416	-1.4360831247423556	-2.7569272600660266
id323	sample0	obj323	-0.01252560448490514	-0.5248374413374153	0.40063193551781695	1.105143417929784	-0.1867907231044862
id324	sample0	obj324	-2.5355996540531116	1.4025234749631812	0.7043976561012388	-0.9098235664554458	0.9954094676206242
id325	sample0	obj325	0.22071556093683542	0.38869589600281784	-1.2087482802480514	0.10340080195918677	-2.752386259251117
id326	sample0	obj326	-0.10842590006371156	-0.47294597127097926	-0.9305999366647681	-1.3348251404666265	2.579116144045796
id327	sample0	obj327	-0.9125559250515476	-0.7155725865168231	-1.4368868683984337	-1.392933075566107	1.0862883899626834
id328	sample0	obj328	-2.6085233837086674	-0.835295472295368	-2.6899095895355187	-2.9347924768435854	-0.27107996282749003
id329	sample0	obj329	2.521850090541909	-1.6291529732353287	-0.9770097256584755	1.3338758815674039	1.701808165443154
id330	sample0	obj330	0.791738647054156	-0.3060548438762183	-0.17175811567414478	-2.98674594343598	-1.081514590544032
id331	sample0	obj331	-1.6657871736430283	1.5369094130352214	0.8437995674066168	3.116631869851962	-0.8615420822696924
id332	sample0	obj332	-1.6708951613323557	-2.540735841170546	-2.144362391419483	0.3367093249533747	-3.152155388483384
id333	sample0	obj333	1.8308962694099629	1.7407181154408056	-1.49905701028534	-1.8034313775368018	-0.42617808263785784
id334	sample0	obj334	0.244066875393814	2.4935117466797174	0.40508360451243886	1.453030814839126	0.31121555154415226
id335	sample0	obj335	-0.04825149790663563	0.6752535967107509	-2.036057903776875	2.0360708897145074	-1.8370853089836126
id336	sample0	obj336	-0.6547346393493028	0.8634798702828221	2.8378660991132625	-1.730939031805263	-0.1999818429193425
id337	sample0	obj337	-2.492438451672806	1.3796379069847529	1.2297108366873133	1.7833385738362015	0.8921836719409773
id338	sample0	obj338	2.1604906230809338	1.4865185150026086	-2.5735636010308798	-0.24740482922442697	-2.4749357721279415
id339	sample0	obj339	-1.2299423240276788	-1.7778243931467206	-1.3727683669537485	1.4183975215648097	-0.38893000854571486
id340	sample0	obj340	2.190432894236136	-3.4354622288460925	1.1401664779218623	-1.4323814606591143	-1.5948595018509093
id341	sample0	obj341	-1.0315718392493458	2.5332739641985214	-1.761438853855943	0.002082325101375737	-1.9261009460062184
id342	sample0	obj342	-1.4870395401457688	1.9592833339237912	-1.1885888407826386	-2.3786042778436585	-2.170419219721478
id343	sample0	obj343	2.035190412971474	-2.0401160486482333	0.35959957081798977	0.7815606537959958	2.4482272885295933
id344	sample0	obj344	-2.010923465728617	1.0318634557658983	0.21957457415874915	0.876082214355355	3.061911150848326
id345	sample0	obj345	2.9313814602159	-2.362231346245038	-1.3415004393038865	-0.0016708589064521329	0.9012425746763362
id346	sample0	obj346	-0.6949574428434775	0.25148414944262654	2.4018269335609705	0.17232627488299856	2.680925976613584
id347	sample0	obj347	1.6969450398667667	-0.5080976042643146	-0.4086976633305548	0.28686004698257483	-2.5440431639875967
id348	sample0	obj348	-2.874605581107719	-0.6767103705902895	1.0687813775201152	2.3587547688849546	-1.3059113620513387
id349	sample0	obj349	-1.534573852690407	0.5055871664843905	0.43342221600077413	-1.797600027664093	-1.574910179764473
id350	sample0	obj350	2.074435751966326	-0.6080581400062062	-1.0512403029524968	-0.7006129156058323	2.4141408051291453
id351	sample0	obj351	2.0203412444354796	0.8411367853906075	0.9308189137122149	3.3017811508458434	-0.5872114386736478
id352	sample0	obj352	0.8237080980612594	-2.136328445755744	-1.1490398148127665	-1.460296291673868	0.3401980385786214
id353	sample0	obj353	-3.3598341052369296	2.213693833486048	-1.4663515496449806	-0.5827951033701547	-0.22850944737176815
id354	sample0	obj354	-0.776870860767425	-2.6086578334768236	-2.5596656546542573	-1.5310932435967959	1.6751263558371203
id355	sample0	obj355	-0.5151409377857705	-0.8519088232842713	-1.0657874012898136	-1.8257604604059734	-2.31910255216738
id356	sample0	obj356	-0.6740995718265355	-2.460361083852977	-0.3614979130089145	2.657161041506922	1.4560637700449763
id357	sample0	obj357	1.5430496070661475	2.888623115527545	-1.6047917597406893	-0.655040380475601	0.06450688117237169
id358	sample0	obj358	1.3426165256485987	-2.0353141768972076	0.45751569509261203	-2.2726106509269184	0.9578008752835139
id359	sample0	obj359	-0.1719744960917189	-2.146161887588174	-3.0525650239429827	-2.2028217630086635	0.08153418954486469
id360	sample1	obj0	0.9033231890625966	-0.21841060352678565	-2.823466969718783	0.23162672179433574	-2.158999441411023
id361	sample1	obj1	1.0803829955224948	-0.31125063335046865	-1.3703578885889083	0.5293984217953853	-2.1136710011225555
id362	sample1	obj2	1.9905160463817764	-0.5402271885098292	-2.2359864993216245	-0.9100237778061826	-2.232350116652409
id363	sample1	obj3	0.9816956287960292	-0.4254905518047183	-2.192649237329651	0.5241239373586113	-3.071818259462168
id364	sample1	obj4	1.2227976184933926	0.03596830592376099	-1.8266988945074867	-0.46532221858666645	-1.940180513919984
id365	sample1	obj5	0.7516238100977678	-0.8755461152593438	-2.119363078844102	-0.8428562176546022	-2.108114028043884
id366	sample1	obj6	1.752398483054392	-0.15238579674025332	-2.0710566273739563	-0.5612414477211016	-2.965087073591871
id367	sample1	obj7	2.2184710798212586	0.3151359181926603	-1.3925262542994357	-0.039587172897656675	-3.19590707955729
id368	sample1	obj8	2.234235954356768	-1.1234082201719477	-2.0445081092339548	0.020394536775879768	-2.6588575925060054
id369	sample1	obj9	1.7460767828370871	0.06026891301515658	-2.613092202879226	-0.9891723956243874	-2.9794426844684896
id370	sample1	obj10	1.7120227194367843	-0.6712574015574306	-1.5091025010477757	0.14102891951749985	-3.256806479926491
id371	sample1	obj11	1.07532700482068	-0.4624290792999315	-1.9999633403769004	-0.4641593418734258	-2.1116775988138983
id372	sample1	obj12	1.3749091121179768	-1.0141640317257654	-2.0201614992466475	0.5253791861950863	-3.258637059014352
id373	sample1	obj13	1.5871026104134005	-0.3545916653361554	-2.3349735386387414	-0.16535943375392326	-2.610061964212727
id374	sample1	obj14	1.1149817164899982	-0.7611755599650616	-2.400039209543938	0.49107735299228206	-1.8376957453741305
id375	sample1	obj15	1.1552681484778637	-0.282392632585846	-2.090071624421015	-0.3653276274039796	-3.028872716473587
id376	sample1	obj16	1.7550023224457176	-0.4872118555414364	-2.7619294293913983	-0.7977505540679708	-2.9514210569998904
id377	sample1	obj17	2.0223667957070433	-1.048634691061407	-2.1438829407322153	-0.4451628055411845	-2.73261953771904
id378	sample1	obj18	1.004835365340791	0.24553024524731226	-1.8526168180122995	0.33790366701248864	-2.1867275663559966
id379	sample1	obj19	2.0447510637157107	-1.020244337645933	-2.155764533599484	0.14827088820517664	-1.790982589052721
id380	sample1	obj20	0.6440729329806341	-1.116650547089284	-2.0190056143145787	0.19255901106472728	-1.885002597436624
id381	sample1	obj21	1.8179390432456042	-0.7531165079846702	-1.876406818465582	0.2491646510119374	-2.801678103163492
id382	sample1	obj22	0.9174297949740775	-0.8909229536404994	-1.389197888022511	-0.5968918550550769	-3.152330887830079
id383	sample1	obj23	2.2070508721026814	-0.4796894334954376	-2.434971644447422	0.2496532116906749	-2.0835866413926794
id384	sample1	obj24	0.8685435072119987	-0.480970772157414	-2.6948297739908105	0.12247153562658042	-2.9715000549068855
id385	sample1	obj25	1.8712403541726428	-0.7980682499749921	-2.1536947750875477	-0.7156417769215413	-2.568414444735398
id386	sample1	obj26	1.5268764439910725	0.21708710297762468	-2.5473125347359318	-0.8628384589368012	-2.3932768348403286
id387	sample1	obj27	1.2851011183426855	-0.9249534065833376	-2.30181774755515	0.10173761471005704	-2.155097842511588
id388	sample1	obj28	0.9014798294002158	0.29568058965093624	-1.516562355401069	-0.04756130015835225	-2.0953820145569115
id389	sample1	obj29	0.9240877828404289	-1.0480668712247452	-2.011652242689071	-0.7470467680190751	-2.0770964012646997
id390	sample1	obj30	1.2244417600485553	-0.874987033747753	-2.8467403106451976	0.04530374336717813	-2.8585294862835173
id391	sample1	obj31	1.0950559329055098	0.3627926675060269	-2.740516539431296	-0.06946732315719895	-2.368659409332132
id392	sample1	obj32	1.4259042887501525	-0.22657244191438208	-2.0794615728427233	0.11213224683072043	-3.119831564480117
id393	sample1	obj33	2.1570868230823423	-0.24650250834003662	-2.7732227975032298	0.34066310823521206	-1.8020868204868885
id394	sample1	obj34	2.211596632257659	-0.266621089948037	-2.4408700832942953	-0.9856786000406887	-2.524811524328265
id395	sample1	obj35	1.791825177168463	0.2361354952893182	-2.9207291835919333	0.294517170606839	-2.5039438092972657
id396	sample1	obj36	0.9528943113775878	0.029033545085806134	-1.5849130849181787	-0.3481202897703922	-2.5102005527404008
id397	sample1	obj37	1.7466214935484572	-0.43709175542741363	-2.5815105973317736	-0.044425803979462275	-2.0441251656793087
id398	sample1	obj38	2.0884763843948173	-0.8669109161667725	-2.571086708087593	-0.42854532552610725	-3.2106346439090947
id399	sample1	obj39	1.2878318924144718	-0.9294980359338105	-2.2931377147055914	-0.21853808488850968	-2.127604093818194
id400	sample1	obj40	1.4757159198831298	-0.27803885606912004	-2.5908616427721327	-0.25814570078088606	-3.1933038692920643
id401	sample1	obj41	1.2656919351878813	-0.33138723802380365	-2.4124922086131493	-0.7495933118578632	-1.9046361241400371
id402	sample1	obj42	1.7190004461242108	-0.6499483726596784	-2.1429354132611578	0.40668237218326553	-1.8855448153346506
id403	sample1	obj43	1.606242643610812	-0.6771296836895901	-1.6239833490309434	-0.4360573909971648	-2.5511277077478
id404	sample1	obj44	0.7412425539921194	-0.9746265527428015	-1.4933953256473385	-0.5497316356150972	-3.271303282571563
id405	sample1	obj45	1.4098498882845965	-0.49103312665857923	-2.386068825141967	0.5690921713971187	-2.5568158007966444
id406	sample1	obj46	1.3539026612145526	0.020369519108747403	-1.542813329934056	-0.11036338444404847	-2.693332653981734
id407	sample1	obj47	0.6499205680717897	-0.6086396691687487	-2.3873196868979365	-0.9552056955937811	-2.094842294223951
id408	sample1	obj48	0.9199089578935067	-0.5466732490172481	-2.6582320440358242	-0.6681787910700542	-2.408931260566467
id409	sample1	obj49	2.1294816833164285	0.40648332212853977	-1.9942078479314733	-0.5510826616179627	-3.1322451205974047
id410	sample1	obj50	2.1929214333960614	0.027347625403608244	-1.6139383809781598	0.3123959175000872	-2.707958024519046
id411	sample1	obj51	1.0673508258598838	-1.0930476099011301	-1.9337304293947921	-0.7762427164595592	-3.17682439109439
id412	sample1	obj52	1.4554502319734322	-0.384595302122996	-2.720858461579235	-0.042349581681753956	-2.7128047472112318
id413	sample1	obj53	1.0496889103881135	-0.6501661468099484	-1.4649246017313362	-0.7905155232170823	-2.7417807726327683
id414	sample1	obj54	2.167400132398664	-0.26843364798253977	-2.910345712642669	-0.8105924907979425	-3.240940242278692
id415	sample1	obj55	1.096788965363481	-0.011414561702843162	-2.2542623937138844	0.41656408179678617	-2.945459834932827
id416	sample1	obj56	1.8756761525997172	-0.469956365628593	-2.774071051758032	0.5180372940585998	-2.9215785728966215
id417	sample1	obj57	1.659016699531303	-0.8451445274207765	-2.6808538371852717	-0.24026207736253435	-2.549473283876851
id418	sample1	obj58	0.7245476879939368	-0.9747284556268672	-1.947661155495217	0.14578825955179253	-2.118962486619383
id419	sample1	obj59	1.46988172209177	-1.0071162070557071	-1.7583231036119893	0.5577183845527018	-2.774407138406735
id420	sample1	obj60	0.7455304642623475	-0.6722003245777279	-1.761669738546435	-0.17088392269296893	-1.9256887679656165
id421	sample1	obj61	1.5482798600689776	-0.6641894524381355	-2.8711609477548556	-0.9456927325758607	-3.0182624005246943
id422	sample1	obj62	2.1946092581400265	-0.35766918814165083	-1.5694022443227038	-0.4747451357493089	-1.9504415385598846
id423	sample1	obj63	2.0560107283621476	-1.1102370303834423	-1.4842931791542426	-0.8817852095052522	-2.738712692769257
id424	sample1	obj64	1.343685474223802	-0.6241930470017444	-2.3970538251519247	-0.7251627500265614	-3.235435851373297
id425	sample1	obj65	1.7807362748953164	-0.38184931715054016	-2.6955432060451407	-0.36958322035082225	-2.2462001396754347
id426	sample1	obj66	1.3221971970752813	-0.2449935655624106	-2.547556510051375	-0.35106741801101227	-1.7998119462847357
id427	sample1	obj67	0.7286086161579137	-0.8048356008308708	-2.3616037916344097	-0.7305495570980074	-2.7908286440032177
id428	sample1	obj68	1.4439216659052359	-0.34532273117722423	-2.925470052048801	-0.38456541290983803	-2.0161577792580214
id429	sample1	obj69	2.0748585012032934	0.4240346488182807	-1.9390707460026368	0.2566113658700353	-2.5119507952674542
id430	sample1	obj70	2.1430319114366108	-0.31120569970863454	-2.336187227622353	-0.7437068876579769	-3.2882752897264176
id431	sample1	obj71	0.9346979312269602	-0.8078310056663729	-1.7430288237152853	-0.27542225183786395	-3.1552828785151523
id432	sample1	obj72	0.9825427446088768	-0.1809087174052847	-2.0486633824942944	-0.00635393068593082	-3.1092428759408963
id433	sample1	obj73	1.2809525085948184	-0.5381497380301765	-2.0366174644910466	-0.4754511939923197	-2.9483186305644526
id434	sample1	obj74	1.787343247480824	-0.4134202641368441	-2.496816225593774	0.059471286162893655	-2.53976437500266
id435	sample1	obj75	1.2489026625643163	-0.6282605191510754	-1.825941821867887	0.08854874189715334	-2.4607516688841335
id436	sample1	obj76	0.9930754384119893	0.1733311106107822	-2.330679796453065	-0.13006096734531458	-2.8577325870729346
id437	sample1	obj77	2.2328743034499072	-0.04901004304461298	-2.2456315806362532	0.21510845675599222	-2.2625525291775856
id438	sample1	obj78	0.7911816517780154	-0.9466407163264896	-1.9143344301638292	-0.057789325637151334	-2.9908719212666712
id439	sample1	obj79	1.393182531167888	-0.7756579181857819	-2.1812878937532125	-0.851899332322315	-2.9282842605912345
id440	sample1	obj80	-2.768020424577099	-0.3640716822025395	0.508088380898946	2.575647655832067	1.749531097391483
id441	sample1	obj81	-2.7014308305062857	0.2560545651441697	0.8256636641018504	2.827725317723856	1.8826165657111786
id442	sample1	obj82	-2.8606354538987606	-0.14429659667340733	0.18947048952466916	2.092347160216781	2.821300592787213
id443	sample1	obj83	-1.9539855985623351	-0.24337920231542198	-0.2973604702402639	1.8905919639652382	2.1703648570319607
id444	sample1	obj84	-3.178230751460112	-0.13286737506392898	0.8199051533998207	1.4693200752439255	2.3676930670170284
id445	sample1	obj85	-1.744165740293698	0.6041902236574082	0.8459298887037183	2.158245875591297	2.6796862473785232
id446	sample1	obj86	-2.633541114394435	0.24966450256138017	-0.3439405736711459	2.0531263972466967	2.8458543602764204
id447	sample1	obj87	-2.5325770757496775	0.2068299359883925	0.1729073295766934	2.9369850417809733	1.6367765717305496
id448	sample1	obj88	-2.870082995071275	-0.16568629057872053	0.5378903559214054	1.992408758858849	1.7727829030767126
id449	sample1	obj89	-2.988323074684099	-0.7393291993405289	0.8003830018567604	2.7214394842563645	2.832015598007936
id450	sample1	obj90	-3.0658284098469526	0.6122432876354706	-0.039891117417777955	1.3894899909940794	3.032539820399836
id451	sample1	obj91	-2.74176880889519	-0.06586261317378184	0.31728606653673774	2.385109792871967	2.305455187931112
id452	sample1	obj92	-2.9847047354004888	0.18806266837629648	0.6114678139859226	2.8023749921113756	1.8110728025270748
id453	sample1	obj93	-2.202977113581493	0.03549241317973506	-0.009476664525720269	2.6962370474897175	2.4397311463377056
id454	sample1	obj94	-2.9830976696741716	-0.050820507754974265	-0.6026482283004942	1.7474008911883436	2.859288447730499
id455	sample1	obj95	-1.9147135037009115	0.35456480617257746	-0.029721149903589428	2.3412789899047475	2.824314405655281
id456	sample1	obj96	-1.9394729635711827	-0.6758943464046748	0.12521064033778784	2.8793425733900406	1.9740706427403087
id457	sample1	obj97	-3.0448540972120974	-0.5039069926183212	0.4500757679778906	1.389830702468979	2.96908011591185
id458	sample1	obj98	-2.086169391676587	0.5541802246083061	-0.353560008667656	1.6023424392316208	2.2260045143012226
id459	sample1	obj99	-3.108967429340872	-0.5013221889924038	0.875985294053959	2.5363901264243633	1.9092357536230562
id460	sample1	obj100	-3.0833532333902234	-0.09526497606136408	-0.08762593727200318	2.7915959825399583	2.3516281327689628
id461	sample1	obj101	-2.0497797954581554	-0.8400986946865903	0.8884298695025623	2.5059309671579135	1.9577115251275718
id462	sample1	obj102	-2.3860621594232243	-0.20670963659311925	0.7161202978015895	2.4822875414155163	1.667097214313349
id463	sample1	obj103	-1.7861702240362098	0.664730815158	0.11909048716472093	2.7118092684546014	3.125179623487168
id464	sample1	obj104	-3.016203504986295	0.3139316047975411	0.05602627001908389	2.808832660583505	2.6492092869110895
id465	sample1	obj105	-2.880279122480505	0.4408900026677982	-0.34550963907292154	2.4060901865613866	2.241929988907037
id466	sample1	obj106	-3.2623100337499613	-0.3114206776413194	0.6706324102527983	1.9540464527235095	2.1687979253005496
id467	sample1	obj107	-3.057252173908347	-0.45855928613706143	0.31688942850274826	2.763946792871356	1.7798943421320552
id468	sample1	obj108	-3.1907929285479755	0.07742843023166324	-0.44097326793366387	1.794419229388863	2.05056883249373
id469	sample1	obj109	-3.1480784067393364	-0.5186173530691166	0.7021876715012645	1.7953426147154818	2.187171924808454
id470	sample1	obj110	-2.163370128317494	-0.4676057121758437	0.6145799354590682	1.5042438731568155	1.5725124471434113
id471	sample1	obj111	-2.611918845062732	-0.8683603757160953	0.35359613119473243	2.4787741245330883	2.2114723083396965
id472	sample1	obj112	-2.216285333375069	0.6789660393972008	0.4641020746797302	2.807901533660397	1.9070909326925287
id473	sample1	obj113	-2.330259823836615	-0.5996355581191621	0.9388986003785182	2.8634106407675937	2.6029547783424696
id474	sample1	obj114	-2.9678697619134766	-0.43656998403459096	-0.1814760050998665	1.8461745624449586	2.545458519286352
id475	sample1	obj115	-2.0511627283184932	-0.19194370090795942	-0.3618116315897485	1.487532115991665	2.151004348010361
id476	sample1	obj116	-2.6819378252264894	-0.3960110004662195	-0.09473011696619427	1.3490186320038646	2.4350381104867305
id477	sample1	obj117	-2.0978182327408073	0.28954713499281715	0.13802728405751452	2.3127277463453666	2.4235486246019233
id478	sample1	obj118	-3.22544355173911	-0.6641353379496833	-0.13345065366035846	1.7837879962649377	2.6998386125247027
id479	sample1	obj119	-2.54155278981548	0.23247674221718384	-0.3329626751609526	2.074880742051154	2.8415813023196
id480	sample1	obj120	-1.9197638399457446	-0.15796602253189052	0.37185988302070827	1.3744706313613397	2.601960218125564
id481	sample1	obj121	-1.9753702923661778	-0.31156246962282086	-0.2030037991397453	2.3045274283879458	2.0356205583151885
id482	sample1	obj122	-3.0959103768065224	0.41281236023076207	0.30705341797132313	2.76405211621619	1.8417976400623928
id483	sample1	obj123	-1.9100508835792165	0.46953351276172794	-0.12742752811174174	1.8707402880816617	1.5948937049763283
id484	sample1	obj124	-2.9249114258961115	-0.12094100386077744	0.06638290967640348	2.2186905034897935	1.583513397809891
id485	sample1	obj125	-2.4507660394626516	-0.1303398466448048	0.9218971879526763	2.554248996503484	3.13410159897993
id486	sample1	obj126	-3.205540206138405	-0.5846579140083699	0.688007630123471	2.44894558802884	2.5314159537568868
id487	sample1	obj127	-2.298105764303179	0.626373948140422	-0.46076853372787974	2.2570737639604292	2.2666785033586576
id488	sample1	obj128	-2.8525061389493422	0.01096447228491293	0.8374976486170931	2.3498698612247093	2.171939724351088
id489	sample1	obj129	-3.2533527451838715	-0.5342162595700473	-0.07994699926276316	2.8075094909472993	2.3875264158991554
id490	sample1	obj130	-3.0391606612916124	-0.5416871598932731	0.2579418159830883	2.638329538163971	2.934987496749445
id491	sample1	obj131	-3.0937742167125757	-0.050542551899719235	0.3679455213572811	2.7208609967286215	2.7322641922922797
id492	sample1	obj132	-2.5097087861181833	0.4095552068779058	-0.43067533445383077	2.2924883921283046	2.517456390706516
id493	sample1	obj133	-1.7196410286336459	0.16890149663105714	-0.21826119400182958	2.127891998475399	2.194095754748459
id494	sample1	obj134	-3.0868534867101216	-0.3957245865250434	-0.1860990863266649	2.8749474322648796	2.1508331565322827
id495	sample1	obj135	-3.060619884796965	0.10973141887249427	-0.12959053318928138	1.384513764287247	2.043462898015555
id496	sample1	obj136	-3.0617382241206506	0.37219417479087347	-0.29164139616159146	2.247597559072976	2.983805449018607
id497	sample1	obj137	-2.1651234619909316	0.4342156165349291	-0.26768635012926156	2.6278005062374294	3.009711214845254
id498	sample1	obj138	-2.3639909285592733	-0.8333095978758864	-0.6223755091938776	2.662804625901715	1.7898990585204833
id499	sample1	obj139	-3.1821390907782416	-0.7925635636569821	-0.22561246996106982	1.5449828166112942	3.1480605545984526
id500	sample1	obj140	-2.1706086979478156	0.5863974402509271	0.009227552661791427	1.5421078719688748	2.4992135521824577
id501	sample1	obj141	-1.9809955382251865	-0.28112478776293703	0.5360123768197129	1.6736311775731176	2.9292330097673975
id502	sample1	obj142	-1.7233618498397565	-0.3062872563234509	0.1811990248620079	2.030176382198677	2.3923904283057515
id503	sample1	obj143	-2.9404641913385423	0.22779004867980546	-0.3786962668996994	2.0528057772567196	1.8531546997965893
id504	sample1	obj144	-2.9853321522206984	-0.559379253460538	-0.41944959396099035	2.6383302090560177	2.3840119575504275
id505	sample1	obj145	-2.974528699560437	0.38731858565241795	0.6326476234658975	1.7965097964855996	1.80221013399437
id506	sample1	obj146	-2.178137761247192	0.6637925756942924	0.6434325349239969	1.7684948258235023	1.6616899877994915
id507	sample1	obj147	-3.148094249732681	0.4787995031219916	0.5373677836072384	2.562346902769593	2.7135896140169793
id508	sample1	obj148	-2.6023356083753937	0.4124871661026359	-0.48785824824915025	2.0350211714627955	2.436166583505569
id509	sample1	obj149	-3.271846096402129	-0.38563076124018847	0.2884718985296969	2.3398459203068063	2.7643335086137686
id510	sample1	obj150	-3.0544285836548437	-0.275657491616049	0.41820219145221205	1.878364951151525	1.896812240618947
id511	sample1	obj151	-2.451403011026011	-0.6575463362450531	-0.24051396720705986	2.2844778477441157	2.1267395572324297
id512	sample1	obj152	-3.014842931815637	-0.03429348549957434	-0.6351856643768712	1.99118210306532	1.6559681301728901
id513	sample1	obj153	-3.1018504053363154	-0.7826643110613247	0.942449885330485	2.8749532846725003	2.8658613499523287
id514	sample1	obj154	-2.792178476657396	-0.8952786375815243	-0.20397563150418319	1.9539594269073735	2.4046423377425334
id515	sample1	obj155	-3.024674185579973	-0.3294565606187322	0.09720755671527426	1.6729503535341665	2.5148893149212315
id516	sample1	obj156	-2.369971952299756	-0.6130640975613704	0.004029343434184263	2.2038621288982663	1.9911326629676414
id517	sample1	obj157	-2.9800541732594543	-0.6516346467581431	0.12919084698056071	2.415986559247767	1.6782675606718942
id518	sample1	obj158	-3.2131512748719513	-0.5652156667740982	-0.25990246146849805	2.8370423031756635	2.6732103661881563
id519	sample1	obj159	-2.1734142068401514	-0.6436385706140084	-0.2880446013111275	2.4757095911325857	1.8764626052132982
id520	sample1	obj160	-1.1152556617765064	0.7202283177382196	1.6280930320821907	0.38848240570483483	-2.6309619937841675
id521	sample1	obj161	-1.5740220600538368	1.1046987810211604	1.329239971386769	1.882711869817878	-2.554161513904797
id522	sample1	obj162	-2.037715671821086	0.5266458924541921	1.2075162942085378	1.889139043846209	-2.8272734579398313
id523	sample1	obj163	-0.9286520832011447	1.5399267481278762	0.9642418249596728	0.9996669715620279	-2.7271760805145018
id524	sample1	obj164	-1.8755799663223496	0.2719402530718832	1.8554571640778592	1.189327987147996	-3.315509091557641
id525	sample1	obj165	-0.7914167933595186	0.42969528202788854	0.5112861533387087	0.5387575920847062	-2.8493869832716348
id526	sample1	obj166	-1.8914213018471444	0.39252674344547445	0.8202146096972667	0.7094989681310471	-2.1472275486454873
id527	sample1	obj167	-1.773217475025918	0.41960647134990237	1.893424772015985	0.7165776804002602	-3.180951398460645
id528	sample1	obj168	-1.9236833838437488	1.2132952352319943	1.8941047666142592	1.4104660794015598	-2.593586875600485
id529	sample1	obj169	-0.8537951375672954	0.5318274330915265	0.6892673013114752	1.6956035804495126	-2.7459460369942486
id530	sample1	obj170	-0.8645125511735501	1.425882225905947	0.7086189956451971	1.4891092017171546	-3.6009642406016034
id531	sample1	obj171	-2.0631442615592137	0.4973307496179904	1.052987207953493	0.5002819967706307	-2.8579504645585625
id532	sample1	obj172	-0.8037745444316722	0.5839244747430219	1.685295918085429	0.7529955075123114	-3.124820921727288
id533	sample1	obj173	-1.4157083317206225	0.6249645690728216	1.88664855879814	0.9682148278749608	-3.312816494725097
id534	sample1	obj174	-1.3839342473272218	1.6491319968160052	0.8202869330855481	1.3866650205309567	-3.278678288007361
id535	sample1	obj175	-0.6037533937915838	1.6607221623806532	1.693613882778099	0.7812158832708427	-2.3222075506779536
id536	sample1	obj176	-1.9714128254272423	0.22358085977338216	0.8446550475427311	0.44888689542842886	-2.8460072117800457
id537	sample1	obj177	-1.892253930260265	1.8171425623804638	1.030854158251117	0.3725776605025368	-3.547429390715609
id538	sample1	obj178	-1.6609763083773788	1.5551886569482354	1.9165117052186347	1.9167555803901393	-3.063771091262316
id539	sample1	obj179	-0.7435621430415351	0.7293360119516439	0.41704724966866846	0.7084488462080947	-3.2290114252386912
id540	sample1	obj180	-1.6906443117487828	0.704898049274165	0.6651569150522091	0.4190587939653003	-2.2973007000572565
id541	sample1	obj181	-0.5360700495393722	1.320691224275924	0.3424107386973453	0.5927847577888272	-2.1934348025933508
id542	sample1	obj182	-1.1555482163376298	1.8156562821986921	0.3214511914002365	0.9779108300777727	-3.087115365016032
id543	sample1	obj183	-1.3270106855986032	1.6378834539040505	0.6652796402263159	1.2468964923725125	-2.254341319885443
id544	sample1	obj184	-0.5701025805551532	1.6248410207573416	1.6327106986618933	0.7042083450450587	-2.6592438446624502
id545	sample1	obj185	-1.9454821197006658	0.8413652616762058	1.16950102374502	0.466187021742958	-3.4114949975138518
id546	sample1	obj186	-0.8387936095282467	1.0133454207800952	1.0744790149053158	0.6690277342390727	-2.9515348973779196
id547	sample1	obj187	-0.9877164180620377	1.1140834124867496	0.9957804861198276	1.8582237942744215	-2.8867047221245965
id548	sample1	obj188	-1.9568243436798558	0.48609797147869305	1.5355911665975872	1.4996453572652915	-2.5193849911752495
id549	sample1	obj189	-1.9225518221927036	1.4777296016609258	1.2491773824927757	0.5178615592409626	-2.2218549544535335
id550	sample1	obj190	-0.6727943925436388	0.23035454146891987	0.36700887380982894	1.4254252682619986	-3.5452491535799338
id551	sample1	obj191	-0.5010052157555995	0.7823931544964825	0.3240090305298998	0.596690297754732	-3.2001280153049385
id552	sample1	obj192	-1.0065297845750631	0.3996636446441648	1.2489679219821967	1.325380652687062	-2.587236561613175
id553	sample1	obj193	-1.3997784832881632	1.0620480898694002	0.9764857316451729	1.3756462156043494	-3.637440100873019
id554	sample1	obj194	-1.1261149962861878	0.9229675187472297	0.5450410067870821	1.4057783208353984	-2.4630324952661695
id555	sample1	obj195	-1.9144703188336936	1.0248681400968747	1.914461834346153	1.451186580647696	-3.727049121698195
id556	sample1	obj196	-1.4491180881162813	0.43986406285138613	1.6757821874552201	1.2627180486557879	-3.1763229718500794
id557	sample1	obj197	-1.5542027588531808	0.6739266253336704	0.6627495278430455	1.0969905075441604	-2.6062317159079247
id558	sample1	obj198	-0.7439363178416745	0.514618153310183	1.358681635082306	1.261180431262138	-2.85383849587868
id559	sample1	obj199	-1.1753083803244162	1.1304005352595756	1.5015057470172515	1.1647120639170594	-2.349862681302797
id560	sample1	obj200	-0.668127368197561	0.4830724662036926	1.3252212229177904	1.1886004888381738	-2.8720686953756553
id561	sample1	obj201	-0.6276626780748957	0.2579597975377852	1.5642639151218956	0.6388727380066967	-3.4816691588234634
id562	sample1	obj202	-0.5915294362156562	1.7381704673941123	1.1398850119548467	0.41758558066741747	-2.3136389206577572
id563	sample1	obj203	-0.9731829196503736	0.2635867539793275	1.3212457304545933	1.7625441872796734	-3.5298674347269094
id564	sample1	obj204	-1.7129097179656212	1.5613671883269182	1.2100403086961173	1.5389598184189637	-3.204275812436379
id565	sample1	obj205	-1.3719521078938886	0.4766315994911827	1.4626499791626955	1.5020338920407232	-3.7398299590154775
id566	sample1	obj206	-1.9898195277756971	0.9587658568426054	0.3896679552564061	1.8028787376820663	-3.242227649070209
id567	sample1	obj207	-1.3173652284727937	0.5844737606450858	1.0356781462852536	1.0203491818678119	-3.192365973225307
id568	sample1	obj208	-1.6622711002227448	0.7623803021310486	1.7439826615300864	0.53232080108721	-2.942941712781841
id569	sample1	obj209	-0.8376312647742941	1.129720081308736	1.5781192805366389	0.7807776789898193	-2.262137033582584
id570	sample1	obj210	-1.1617890164561335	1.1084864473328686	0.6560473169788258	0.7498254135038078	-2.4827394062071004
id571	sample1	obj211	-1.7669024359579835	1.450434536481783	1.73037885909186	1.5034841300791728	-2.9866671083716447
id572	sample1	obj212	-1.3583259564608536	0.9065880665702248	0.7205466792380587	1.1849085508907449	-3.636166374503334
id573	sample1	obj213	-1.0252400388930796	1.2714558624342067	0.3968984874779803	0.4495870221064636	-2.502343055473105
id574	sample1	obj214	-1.6084712289562308	0.8640848187682678	1.5839498005236177	1.4061501772557903	-2.4626333544668415
id575	sample1	obj215	-0.8325630068093064	1.2314221185797747	0.36697694474901643	0.8087402233007288	-3.2397400350036
id576	sample1	obj216	-1.1293167408147105	1.2332927095779969	1.8543510602785633	1.2485104891884953	-2.8088998037421438
id577	sample1	obj217	-1.7176632924650446	1.7566844027624628	1.5940641015725765	1.7178070403844685	-2.856542585296423
id578	sample1	obj218	-0.6332834350163408	1.699030315487141	1.0183447106569528	0.38299380241985825	-2.454891519353445
id579	sample1	obj219	-1.6693096533450977	1.2698528419242185	0.4716630823125896	1.2397780163018024	-3.5222713624665443
id580	sample1	obj220	-1.1201483170012978	1.3265455651523579	0.5663474920831506	0.40234167791424735	-3.641278902782338
id581	sample1	obj221	-2.0123985992618083	1.747282582606436	1.2330374187613462	0.48364433494826353	-2.954961119574628
id582	sample1	obj222	-2.0334498635099623	1.2411215698519797	1.8418491780325335	0.9729996747568114	-3.3781820411011956
id583	sample1	obj223	-0.778049398523889	0.5163682525460593	1.240983406650545	0.7475032896012683	-2.545874271239713
id584	sample1	obj224	-2.0493870788263835	1.312261516999971	0.4941309894648689	1.8301643175164155	-2.3453046016450028
id585	sample1	obj225	-1.4724764334272955	0.31007871690379085	1.422989587916044	1.9187326844002934	-2.9942718473380308
id586	sample1	obj226	-0.9772647069245675	0.9669155641574303	0.8280561213809757	1.6692789298353299	-3.1547373332439186
id587	sample1	obj227	-1.6354112361135864	1.7727261672347998	1.2461683890297324	0.9666351411483625	-3.1101999759008585
id588	sample1	obj228	-1.8114751495578378	0.9577752554722042	1.008597994209146	1.7139110833315234	-3.6586085326196547
id589	sample1	obj229	-1.014782523629464	0.2375266847395079	0.4154069213074958	0.6145152833301072	-3.2291894466543356
id590	sample1	obj230	-1.8859446916901321	0.6642231087607176	0.7918348826387842	0.7165043664562998	-2.444696937184289
id591	sample1	obj231	-1.970300969933903	1.2730704313812322	0.5172469625636507	1.3797147159662038	-3.418701454848178
id592	sample1	obj232	-0.5429091035141946	0.7050882630815687	0.4182019952864552	0.5750624331048598	-2.4740596656172666
id593	sample1	obj233	-1.654532726357722	0.4223841698071584	0.7210662119353295	1.1216931873120344	-2.3420914626555502
id594	sample1	obj234	-1.7388217395281793	0.4939204534055719	1.31785438088303	1.225383569689458	-3.375665451904599
id595	sample1	obj235	-0.6059832611361708	0.9348296238926612	1.1881957100750948	1.8398059447579986	-3.681799949600566
id596	sample1	obj236	-0.7711338631912474	1.6690580009264215	0.7420568403981938	0.3950277859136637	-3.6239608871154374
id597	sample1	obj237	-2.0246500748011385	0.3176443935038171	0.4286704146951388	0.5139903966182483	-2.6094168966756435
id598	sample1	obj238	-2.0206254045686407	1.4823278513966458	0.5485791375773326	1.781760705683574	-2.686235101376773
id599	sample1	obj239	-0.586441431045083	1.4104948210324533	0.8843732478322147	0.883137379617993	-3.7262032761834623
id600	sample1	obj240	0.38236551729078494	0.030522726065677075	-2.457802925433512	-2.4111820595399793	0.4845777781454925
id601	sample1	obj241	0.7026919068354445	1.7326920423512573	2.0893264176243678	2.0008481768100927	-2.607959248634006
id602	sample1	obj242	0.6853866503711478	1.4666119843206875	0.331226228494387	3.2827388984755985	0.44162502963820716
id603	sample1	obj243	-1.3667151604132828	1.0753372239683976	-0.7726698822847871	1.0763205225488037	-2.693235034131988
id604	sample1	obj244	2.7096648374851364	-2.2859539736624654	1.2669387374760683	1.4214622161743478	-1.4239683259207088
id605	sample1	obj245	-0.21218628823107089	2.73110342748765	-2.713256097447149	-1.2865153028369405	-1.7166523077981783
id606	sample1	obj246	-2.3728714107411153	0.8839483149851511	-1.2581110666396593	-1.7747002631364728	0.5259459722335637
id607	sample1	obj247	-1.1138614633412898	-2.0279670741720297	-0.36174468973818663	2.1448034022605604	2.0176016423593954
id608	sample1	obj248	-1.7641387641816952	-2.2641763556629573	-3.4955005192772433	-3.5111200192404555	2.5325045755803757
id609	sample1	obj249	-0.7232098096405916	3.173523006562947	1.6009665030932931	-2.839324789405991	1.1654167256110646
id610	sample1	obj250	1.7885715915225515	0.4143425762004558	0.2526702006034256	0.8254977207684002	2.275815443115458
id611	sample1	obj251	0.7909135000122717	0.443405496944394	2.090785985434978	-1.132544857259537	-2.4514263558895903
id612	sample1	obj252	0.5829012679117705	-0.9280131686891533	1.4100355605572514	-0.9152888264590661	1.548032818254083
id613	sample1	obj253	-1.3444460600639787	-2.4568404772802093	-0.14927646310188314	0.6502548258646488	1.1230520478367232
id614	sample1	obj254	3.403996038574722	-0.8967668666664829	-0.46013798994048605	0.8853234901608875	-0.42241336344862646
id615	sample1	obj255	0.8700660482805315	1.2175627018755104	-1.3504055449781154	0.5316914974444304	-1.9609149283067797
id616	sample1	obj256	3.371677949208153	-1.6731571585564273	0.8472446853345256	-0.2504270815836894	-1.4439570952556844
id617	sample1	obj257	1.804985101976059	-0.4235826957597024	1.1549248561352967	-2.9343095335723355	-2.4908585873564504
id618	sample1	obj258	-0.472482728121034	2.49067342907125	-2.810060416140521	-2.758767692019643	-0.8238308550289732
id619	sample1	obj259	1.6420618162307987	-2.0383581605338534	1.186738391251179	2.0680671847657113	-2.824355553063133
id620	sample1	obj260	0.8542051225779188	-0.6552993777331467	-1.8412083728118707	1.8637513957674514	1.4690010640206261
id621	sample1	obj261	-0.7384811413821277	2.2504620042536185	-0.33290872755579315	-2.2977947510500307	1.9011920543366059
id622	sample1	obj262	-1.2185122470500032	0.8865912768961843	-2.408479054025254	-0.25532813066186577	-2.3547220736981505
id623	sample1	obj263	2.3061584205059784	1.6520273464875093	-1.9648399829647254	-1.7486932813708767	2.76106349849221
id624	sample1	obj264	-3.4703790707904942	-1.111604180752623	-2.5400573320403015	0.2087741144235521	-1.6048785754118686
id625	sample1	obj265	-0.21132663663879747	1.3305783728540552	-1.2924174596203413	2.2797303377068587	-0.35968671187364953
id626	sample1	obj266	-3.5783270689357582	-2.3103025283270338	2.250599299066902	-2.0170252322782742	1.1905992076639287
id627	sample1	obj267	-0.9958942987358103	-0.16786645486349772	0.005560030298049856	-2.305064673893786	0.033974356670008365
id628	sample1	obj268	-1.3723877187464475	-2.0124437836554194	-1.008895837804893	-2.0921632246342026	1.2989207526145121
id629	sample1	obj269	-0.7217021537313768	-2.1788731741112874	2.189638107998963	-1.6326531929625285	-0.004219876224043295
id630	sample1	obj270	-0.6276945636612031	-2.168720827512898	-1.2731921143204157	-2.750614272687313	-1.2017151614521946
id631	sample1	obj271	-2.0913929688341812	-1.2151591057309115	-3.2454253584292436	1.0656249560593403	-2.2759456744303246
id632	sample1	obj272	-1.748617792247228	2.173636303597208	0.9110403686941708	-0.22480360771578467	-0.43858238666448934
id633	sample1	obj273	1.1870461300007402	0.19191477550049096	-1.276552294831005	-0.6443171147914388	1.427481709761259
id634	sample1	obj274	-1.6227551963494538	-0.15842680910290485	0.14221740565450902	-2.8863716249998568	-0.5800722468465782
id635	sample1	obj275	1.0897881195833006	1.2123401336790882	-0.4938038294482896	0.5102459593718983	-0.3402677880567718
id636	sample1	obj276	-2.400401990349242	-1.2227370912084494	2.9016327745492463	-0.6855694189898012	-1.2852887419721215
id637	sample1	obj277	0.09863582269143256	-2.29041771498209	0.47457106096046675	0.525725933202392	-0.03605304525226549
id638	sample1	obj278	-3.1592523333505254	-1.3110696106309316	0.046525660349706954	-2.6904278751263857	0.9268646753963748
id639	sample1	obj279	2.1981527826008427	-0.5740982856079251	-0.44625006729679306	1.6665958989481968	-2.2825938938878854
id640	sample1	obj280	-2.5337322700955913	1.8305568462634425	-1.7290504566308884	-1.8962935080086698	1.461638274221969
id641	sample1	obj281	1.238282267809036	-1.8394838867323204	2.073927552782302	0.4480327093690859	2.9696105659540386
id642	sample1	obj282	-2.0946379624193248	-0.5159484819269715	2.2450322442296713	-2.6526156505835803	1.1456637527373659
id643	sample1	obj283	-1.4756939132928077	-0.2578040456104296	-1.4379756127521812	1.5356760573745876	0.31645780654322
id644	sample1	obj284	2.73323495356336	1.8355608306476543	0.5349754899040661	2.272113519109966	0.4609232389314324
id645	sample1	obj285	-2.4290266800901135	-2.6336646284348015	-1.4956574643604204	0.09620339853695459	-3.2415372300515597
id646	sample1	obj286	0.33439003903966724	1.6122977963628102	1.332343187217338	0.9012313186362237	-2.8922827911962505
id647	sample1	obj287	-2.801747547634793	0.23959783736394513	-3.027768512484105	-0.7273404913181228	-2.5914888041988955
id648	sample1	obj288	-0.4825458447375355	-0.5802647668009187	1.8341743459389623	0.7938674003494203	0.8413836060497528
id649	sample1	obj289	1.3196737669302943	1.9615642118124166	-2.5544868276752517	-2.324751779801464	1.6984255834333295
id650	sample1	obj290	1.5928734978140981	-1.8777617965094304	-2.418781407236765	-1.923261324210261	0.7700774615147334
id651	sample1	obj291	1.8139951883776109	1.842136513978022	1.5916461846651782	1.7132628233046052	-0.379752299870762
id652	sample1	obj292	1.625849088179079	0.8584694365733471	1.0503933572838278	2.0583149081200944	-0.8307890574534614
id653	sample1	obj293	-1.0333849200516407	-0.01902830732755323	-1.037528843148921	-1.1379463882508964	-1.9340116206729951
id654	sample1	obj294	0.2815273592215617	-2.50382883723017	1.205397310244917	-2.3615058936752265	-1.555311633571647
id655	sample1	obj295	1.7401553126972136	-2.632334556863822	-2.121814488945011	2.103350676046526	3.0818821923057302
id656	sample1	obj296	-0.9066181549149135	2.131181193338821	1.3814645728164736	-0.7527583861477085	-0.7614150736361384
id657	sample1	obj297	-0.2858389509232251	-2.523979842950996	-2.7620538776630514	-0.30454218507086495	1.7647784399180442
id658	sample1	obj298	3.44980886513183	3.3547719825211253	1.5263695950499336	2.7527327351660875	1.9655998083449178
id659	sample1	obj299	2.793844846559509	-1.635079357185567	2.087809210161486	0.15323325402709664	1.2220022083904305
id660	sample1	obj300	1.9503764573442357	0.4776360877184288	1.0158955592382353	1.1891247810064225	-1.5498043651145712
id661	sample1	obj301	-0.5231707997172267	-2.8723032180247876	1.062166903803382	1.8752021999649013	2.5980313098247505
id662	sample1	obj302	0.7174408261348099	-1.9099086445016598	-0.2165812352126466	1.4113275791767843	2.1832126042829967
id663	sample1	obj303	-1.7703033206360674	2.168014543273274	-2.5679305175424223	2.4028577394637525	-1.673869058447065
id664	sample1	obj304	2.625643985413599	-1.439270121146556	-2.9122238067872566	1.162221540146437	-0.36033585462304907
id665	sample1	obj305	2.0071027601610787	-1.30776029029036	0.6447403050343947	-2.001947046657552	-2.5211582509018475
id666	sample1	obj306	-1.0952363140278685	0.17779304839144572	0.18047268144446404	0.7041648928272186	1.2206312502255954
id667	sample1	obj307	-2.0361186497882757	2.665246979169034	-0.630166646389585	-2.31293614076965	0.09670403738018851
id668	sample1	obj308	0.29734989766591047	-1.6631398537688153	1.4247886715057014	0.32628520642999914	-2.5232472100657466
id669	sample1	obj309	1.873346837609241	-2.018145694568395	1.519854651164665	0.19464453749254007	2.405960838586152
id670	sample1	obj310	1.0455201564514014	-1.5097317464415247	-0.8429886945895413	2.24073576086817	1.086931221535241
id671	sample1	obj311	3.3593796711701533	-1.142173895758205	0.6068787813319536	0.5885158305461808	1.3752202989563442
id672	sample1	obj312	-0.7107272039381839	0.9471987808663928	0.4673469838010642	2.008037121632185	0.6854587062317524
id673	sample1	obj313	1.0386450324064325	3.0472767112438985	2.8628597322101337	1.6131386604779188	0.3303968207043957
id674	sample1	obj314	-1.7077517519768346	1.3981397776399098	-0.01179623273646746	-1.6525096564999757	1.1157297755519862
id675	sample1	obj315	2.9881730471499663	-0.6538320807936653	3.513856131711437	1.1604699698922945	-0.42607766608558184
id676	sample1	obj316	-0.357856284197935	0.0717918106792822	2.1152439243769354	3.303791752994359	-0.650009106440426
id677	sample1	obj317	1.460902411393476	-2.809852149378552	-2.3497473354491683	-1.7520208959502113	3.0770944086322483
id678	sample1	obj318	-2.288232474970151	2.059944187739895	2.311883354848276	-0.08008049256879168	-1.2355628989432685
id679	sample1	obj319	0.8321629331069664	0.6418765921246761	0.8979465659993437	2.7415911940381963	-2.293472014534439
id680	sample1	obj320	2.3449732266744556	1.9688087206294465	1.9703446988954174	-2.1038066224205334	1.0369573284775209
id681	sample1	obj321	-0.33404431813573154	-1.6615606713068867	0.1012532202056593	0.09644558127176839	-2.18241097393523
id682	sample1	obj322	0.13108514908060032	1.2142481587884393	-0.5504050294994118	-1.9827867152196716	-2.753728418929766
id683	sample1	obj323	0.7289200076227347	-1.2196654062203751	0.24516296466979381	1.2546862753117909	0.6385643761854014
id684	sample1	obj324	-1.8980988179278702	1.0537649155364088	1.146900578405504	-1.0174505057706145	1.6072113411330995
id685	sample1	obj325	0.23838539164078876	0.7705963622290628	-1.061591991223277	0.5975794622924984	-2.254465005176148
id686	sample1	obj326	1.1664832609847033	0.3761218677951992	-0.7275547444258319	-0.4992722097414233	1.7025867251992912
id687	sample1	obj327	-0.539527213566914	-1.3556511482072988	-0.20468298376426608	-2.241868301032948	1.1484329657149859
id688	sample1	obj328	-2.0681229790245252	-2.192196971557267	-2.7194057890741865	-3.1772261779519306	-0.4438893772387277
id689	sample1	obj329	2.788231698270698	-1.2676116729535063	-1.0987063548023375	1.126153339747029	1.4576888664294498
id690	sample1	obj330	0.250020284898191	-0.914316520145582	0.49044568328659044	-2.718826299759481	-1.28483237748861
id691	sample1	obj331	-1.1779124253702276	3.049328951076858	-0.045441781010010285	3.0002558947205364	-1.4052860433782257
id692	sample1	obj332	-1.8119594242901027	-2.8027196846889315	-1.1463897561905847	0.3485641306451277	-2.857550669766267
id693	sample1	obj333	2.415337265497352	1.3195541907470545	-1.9985524121111253	-3.1263013244541984	-1.347130458091301
id694	sample1	obj334	-0.1620642315228713	2.5287692250563643	0.4485039023348787	1.2903882255077939	-0.11285767219761089
id695	sample1	obj335	-0.1579158346030014	-0.25343519324203423	-2.0000514776717044	1.9840169180799867	-1.2770275121112626
id696	sample1	obj336	-0.7752583888010145	2.071726674000534	3.369490211856596	-2.7209763867254253	0.8698453441963514
id697	sample1	obj337	-1.8292845011669379	1.435121972063938	0.2695631183794502	0.8219275537034422	0.5766892932751047
id698	sample1	obj338	2.045663570498327	0.9339525160159488	-2.5248263870877827	0.7371783440172885	-2.048950314392817
id699	sample1	obj339	-1.5792746562959696	-1.679818496813232	-0.8736893411103788	1.7202960658472162	0.8999650898713596
id700	sample1	obj340	2.0317841893637936	-2.3962034370231446	0.9135526157348566	-1.8074979349582954	-2.3223574179854074
id701	sample1	obj341	-1.7192640414350806	1.9745419389799843	-2.5214004493187505	0.44676284463447435	-2.528733186136451
id702	sample1	obj342	-1.1041320658993166	1.7496854680743616	-0.35655199132801974	-2.3998614014911377	-2.0208878728670094
id703	sample1	obj343	1.4145117118619832	-1.6927984386480577	-0.2508026813905544	0.33413922218898384	1.8770441728107974
id704	sample1	obj344	-1.7335890103322595	1.9520931012032547	-0.1951333859427833	1.6616671451148355	1.9294359192838892
id705	sample1	obj345	2.403439095000279	-2.6714137201406487	-1.8043262711386936	0.6340739965398301	2.4357683060794084
id706	sample1	obj346	-1.6698598979968275	0.6378490080379362	3.0076612988579186	0.19263323880089622	2.0851940133950784
id707	sample1	obj347	2.810925612423132	-1.482222206838978	-0.6496733490941204	-0.02625559277623335	-2.7327461510748314
id708	sample1	obj348	-3.2979070969932005	-1.0909867609274646	0.3287327576278347	2.340471480222947	-1.1927682228603778
id709	sample1	obj349	-2.4322101720256994	0.7200939524067131	0.8332783948777795	-1.1968824714350503	-1.5804445157997025
id710	sample1	obj350	3.172428381032212	0.04189345407734035	-1.0774740076698122	-0.9773376155448894	1.192912168458128
id711	sample1	obj351	2.448048743900496	1.239045770626343	0.3705071612017601	1.8811269531656611	-0.10588315465221787
id712	sample1	obj352	0.8691587056024483	-1.9937908664472537	-0.984081117097019	-2.247237984060626	-0.02192207130271262
id713	sample1	obj353	-3.569619675163108	1.5417863393020486	-1.2478878780370206	-0.4288836216573826	-1.6476240014667796
id714	sample1	obj354	-0.6782196338432265	-2.9312343312091866	-1.796281309902809	-1.4204177816255428	1.0705205880415438
id715	sample1	obj355	-0.06046372771699804	0.3173604955319982	-0.40606261685189815	-1.6239376994526655	-1.5762309652101005
id716	sample1	obj356	-0.8232424233653071	-1.8321612360698123	-0.2193979899290316	2.3311001222989587	1.0769488183230926
id717	sample1	obj357	1.2704194176709218	2.026830043298721	-1.664621075436262	-0.011882189105543173	0.26485415028269355
id718	sample1	obj358	1.2351744649040488	-2.939852398078374	0.9038795363803456	-3.002771901844988	0.9788949386227843
id719	sample1	obj359	-0.22948648303976515	-1.8531182590693949	-2.6459071265750067	-2.230641820603143	1.0596798547912838
