	1.438418835516749	-0.34898126407392915	-2.1628116025820567	-0.21226437719576685	-2.5336186303979904
	-2.5191063787581918	-0.10605709042427236	0.14884833830525057	2.1453945560897263	2.3711763795241594
	-1.2820661722241526	1.0203394198672846	1.1182970985842164	1.1626617719359595	-2.9433477719096945
