	-2.2213280130776374	-2.7181729904335343	-2.107113606569192	2.942437847330548	-0.1034299942714556
	-2.2344463364905067	2.259642969941408	2.917385230900524	-1.9878611987782975	-1.365516137680749
	-1.1222920822451607	-1.0117352297329436	-1.5285571154205897	-0.7771109770761981	0.9744772425351576
