id0	sample0	obj0	-4.301900794052812	-1.2647118014907837	-1.0298155506030209	0.5539665413763601	-1.9678233863189383
id1	sample0	obj1	-2.1866315143919888	-1.520411656349668	-1.7638596621540799	2.532620312152811	-1.545279326179185
id2	sample0	obj2	-0.9642130138953264	-2.3499017693187487	-0.6971974505825356	2.7166698676703804	-1.2084366351824254
id3	sample0	obj3	-2.9239582204892614	-1.9376761677466712	-2.9654685477235985	1.5598147457315656	-2.619522068455734
id4	sample0	obj4	-4.243834782654366	-1.5704757420847149	-2.298469907259941	1.9208972118495737	-0.5760308332541768
id5	sample0	obj5	-3.541432763320341	-0.23466116864022735	-0.5191264481330353	1.5244464463150476	-2.574777318592509
id6	sample0	obj6	-1.5136644758178963	-1.2495290675821566	-3.0952850995857855	3.085773561725973	-2.408946313078193
id7	sample0	obj7	-1.8099485845315135	-0.09665433380307742	-2.962243137001451	1.9656295770569825	-3.3430012266652414
id8	sample0	obj8	-1.446272876551016	-0.5960639354471515	-2.758846641152416	1.1046248597296067	-1.5982351018609076
id9	sample0	obj9	-1.6606751647425944	-1.771180452030516	-3.1182559288848335	1.0360561787941038	-1.6657835750737708
id10	sample0	obj10	-3.44707790088741	-2.276324681191103	-0.6356226541413859	2.190197449395437	-1.0235299115656382
id11	sample0	obj11	-4.4418886830466695	-2.8362721202822474	-0.3073166848418285	1.3227255138330765	-1.8841571807443596
id12	sample0	obj12	-4.116706036131393	0.1453436021340655	-2.9036515923616215	1.974281864076274	-1.9630544910293852
id13	sample0	obj13	-2.9864400100241726	0.3184045516382443	-2.3001919825990984	0.49740556812445025	-0.7219240565075904
id14	sample0	obj14	-0.9502692792917313	-2.1522717540975567	-3.0637992725990735	0.7447283644135747	-1.5115479518827082
id15	sample0	obj15	-3.8084965733412375	0.24299735603699868	-1.3211005504075877	2.8356861373186764	-2.0288314525212834
id16	sample0	obj16	-3.905027391239006	-2.661597851386464	-1.8069873755183343	2.0812733063128896	-0.5547778453311019
id17	sample0	obj17	-3.406988087852498	-1.4636074539279829	0.2507086189835295	0.3156688178353786	-1.6576463452019343
id18	sample0	obj18	-2.67557099546207	0.05614115422856769	-0.6833228751272931	0.4937467825112929	-0.3481457323852337
id19	sample0	obj19	-2.7441338547292684	-0.3230437447052268	-0.707292413193205	0.9462239282230687	-0.7117457465391548
id20	sample0	obj20	-1.291763065611651	-1.8356657697488106	-1.7613617419493441	2.0394607517124186	-1.4435775037044494
id21	sample0	obj21	-1.2518014692681059	0.5392897034207917	-1.1128490519406402	0.7622787100434443	-1.623254914474713
id22	sample0	obj22	-4.008032328223458	-1.9466273398498912	-2.760606656013554	0.9535337368254908	-3.2693225745984456
id23	sample0	obj23	-3.416555050987012	-1.04792413814484	-2.8582127314865216	0.7374406043926764	-1.8561147943904477
id24	sample0	obj24	-0.9242647944119089	-1.9098975798089572	-1.125245442205175	2.6435578484097126	-2.8347452102241286
id25	sample0	obj25	-1.2580550481050323	-0.609679481971009	-0.2754922587603852	3.440465403030628	-3.078495064308422
id26	sample0	obj26	-2.4756328434872295	-2.2514811830002257	0.17561054691298916	0.49332209105467384	-2.8155870377374574
id27	sample0	obj27	-4.096221722558912	-0.08840896719278679	-0.5222983244264474	2.7238470621475086	-1.2871676210396175
id28	sample0	obj28	-3.1546644192956173	0.6671719001016181	-0.8812077984314273	2.710105127587621	-1.0392120630348176
id29	sample0	obj29	-2.360181124596508	-2.134095836823571	0.09595692597445837	0.7784088189284741	-3.3855551188253714
id30	sample0	obj30	-3.951061596243517	0.5154329170983492	0.17978196840289917	3.7921166646037	-0.204599481344091
id31	sample0	obj31	-2.9194072665605497	0.6289180613010001	-2.9959125871268006	0.23758038216354715	-1.1974655013554558
id32	sample0	obj32	-2.1940024276569234	-1.0013908179061823	-0.31282101186005407	1.170861001868371	-1.359023717128183
id33	sample0	obj33	-3.6484676081133465	-2.8715029894724946	-0.3725457321934671	1.1579888532702318	-3.0168884878387208
id34	sample0	obj34	-2.9987720808539002	-0.43788316526216886	-0.5818789718944182	3.585623576889221	-0.7172783839536152
id35	sample0	obj35	-4.040435973213809	-2.3236145526568808	-1.222163918648755	2.538368215119646	-1.7396490915181482
id36	sample0	obj36	-3.741569636216783	-0.19471467210958626	-2.237735470858901	1.6653487317752735	-0.9819161775777852
id37	sample0	obj37	-1.462268459262915	-2.0350851254562805	-0.9468488124368817	1.3548749696954374	-2.5713887550750734
id38	sample0	obj38	-1.8948090000827207	-1.5656143275077996	0.13455391101290615	1.049147270139338	-3.2840639275575523
id39	sample0	obj39	-1.4547111061638784	0.3707159431515643	-0.6037177108453735	0.24404763028076126	-0.42128315093244484
id40	sample0	obj40	-2.7629912830223824	0.04924300935663939	-1.7510477919891116	1.637316034753956	-2.0963041283207913
id41	sample0	obj41	-4.18210229079951	-2.0453202521567313	-1.360047256522425	1.8348510122364259	-3.070840875060536
id42	sample0	obj42	-2.7082160790782757	-0.8578084628963103	-1.9146883791988147	2.067909923327801	-2.0471284207892473
id43	sample0	obj43	-2.439901007538185	-0.55781009507807	-0.9562897508039192	3.4605351840489345	-0.9915705319451675
id44	sample0	obj44	-4.392575567091452	-2.589597603727407	-2.4103705395555006	2.118642458534457	-0.5896171436245365
id45	sample0	obj45	-3.269051263997069	-1.2648290379427996	-1.4624976380437213	1.9897311776498332	-0.055964312974053465
id46	sample0	obj46	-0.98841918607867	0.5910120891623605	0.29308919783188814	3.456497849116899	-2.546692771368135
id47	sample0	obj47	-4.21495444331936	-0.6362315442221551	0.20975053817906164	0.42122525486254236	-1.7715250787267427
id48	sample0	obj48	-2.292340107223029	-0.09434177115248965	-1.2831081538725908	2.207719890385431	-1.4888625378079035
id49	sample0	obj49	-0.9879284797942802	-0.09178173246626087	-0.19130764088498764	1.8128445707335183	-2.4381680577907163
id50	sample0	obj50	-2.6455574322022195	-1.9474108946068194	0.12566751523169528	1.583203844988383	-2.862739236194548
id51	sample0	obj51	-3.3156976809102505	-2.1589635652769337	-0.6501747135813531	0.9674541109737111	-1.1222449272826245
id52	sample0	obj52	-3.1144378511375437	-0.8863056402324798	-0.24182329784834944	3.2221985517553007	-2.7648534830324287
id53	sample0	obj53	-2.403819913805604	-2.396074005252951	-2.674370527023164	3.3598763712056874	-1.6465642976808539
id54	sample0	obj54	-4.345630884780328	0.5698125499591391	-1.4514333290492654	3.2598342702585237	-0.13357603634002202
id55	sample0	obj55	-2.362103253026449	-0.14815395399670073	-0.8603620996854355	0.49881432591924835	-2.6208338305068644
id56	sample0	obj56	-1.4240596111613157	-1.4704528267374746	0.2947319751710611	2.1823036703294507	-0.3177943047024112
id57	sample0	obj57	-3.8825918441927794	0.5953481486489383	-2.591727945802247	1.6927000240085137	-1.0811552757043528
id58	sample0	obj58	-2.485876979502393	-0.8231864283428865	0.14764375333583613	0.6644522196299822	-0.32280673810972327
id59	sample0	obj59	-1.618433484323042	-0.5064883231110386	-0.9922511593987984	2.2318696807649685	-1.817303280129056
id60	sample0	obj60	-2.524996915307902	-1.460769021401782	-3.050361574512383	2.0850549393798374	-1.6232189597236442
id61	sample0	obj61	-4.212981817798276	-0.7283407700824551	-2.338567515832948	1.2575380704125372	-1.3820626203785176
id62	sample0	obj62	-1.8626722997645844	-1.9607649391995894	-1.0749518697255451	0.23107031353042262	-2.35098175689884
id63	sample0	obj63	-1.128095579264791	-0.7209489897369152	0.3696470581341249	2.9853077261821346	-1.8640076750288708
id64	sample0	obj64	-3.0179472739293463	-0.2879449635826761	-0.03555607556724261	3.380678997849447	-2.4225749247679618
id65	sample0	obj65	-1.2577064430844718	-0.2947294770024176	-2.3468979465915343	1.6107155717447486	-2.4297184257894706
id66	sample0	obj66	-1.0226750523499637	-2.740535775736677	0.24415421320417052	2.295929518119652	-3.1626954412728705
id67	sample0	obj67	-2.3873370507044944	-0.6599687017286862	-0.18727158398440857	0.34658620328933853	-1.6035359527735138
id68	sample0	obj68	-1.7681480093379334	-1.1445224402369572	-1.0143870008591611	2.0593301452917756	-2.4126715731353148
id69	sample0	obj69	-4.272359161257064	0.5896492092670791	-2.5971402193405058	1.0267239506380363	-3.4525689826275157
id70	sample0	obj70	-3.1512480106493754	-1.5700633838574938	-0.815520304739805	3.3547398500389747	-1.3801824277089965
id71	sample0	obj71	-3.809740347718027	0.479105900886202	-1.0629330144613724	1.5881188562499886	-3.136487398689282
id72	sample0	obj72	-3.656162038955417	0.4418420670320413	-0.165382342896361	0.9598246772123047	-1.5401086394359715
id73	sample0	obj73	-2.5058936745399034	-1.6618519165065084	-2.4736854874417373	0.7975905238247589	-1.3375244143616463
id74	sample0	obj74	-0.9195302049315146	-1.2226582635267718	-1.376767637354597	2.10852912854439	-1.0700700738133404
id75	sample0	obj75	-2.6133402157619736	-1.7959446241393795	-2.726814711574036	1.761424457107293	-0.7622325521433921
id76	sample0	obj76	-1.9055459856344086	-1.5330613210968917	-2.571835705356511	1.8004276368458865	-1.8597296264758192
id77	sample0	obj77	-3.6603025809928607	0.6573643920869043	-1.1935170412749658	1.9942687575778706	-0.9808863563540651
id78	sample0	obj78	-3.089589671224024	-2.3515248874945103	-2.7975616921176396	3.150488562492235	-2.7528607327638652
id79	sample0	obj79	-4.318625881256204	-0.7165570417967999	-0.5164612773508532	0.43259346751537375	-2.11836628720925
id80	sample0	obj80	1.1134588091122806	-3.1200892219461873	1.2874663313980348	1.144590256766731	1.0828438769316173
id81	sample0	obj81	-0.906171066394873	-1.8906194184737595	2.4117106792309597	2.3415143448444113	2.8293172882054423
id82	sample0	obj82	-0.575662536986166	-1.8593728263100948	0.7225627687836447	1.9310820155379225	3.446744409848967
id83	sample0	obj83	0.3715622178168654	-2.10741217516938	2.001001123631515	2.4723630908918253	1.801879690550856
id84	sample0	obj84	1.5115303767921204	-0.6291560714951501	3.5763814206020896	4.487704717183421	1.764208786128623
id85	sample0	obj85	-0.6337315257596654	-1.6826853473991707	0.2713402964614857	0.9620061623441873	1.6734578466971854
id86	sample0	obj86	-0.6842243347255064	-2.70163060953068	1.8708723942411423	4.000231076845618	4.044772996871348
id87	sample0	obj87	-0.5219369214711496	-1.271808822795433	0.5728312291130209	2.018278282890293	1.815192166829613
id88	sample0	obj88	-0.7836513817898649	-1.1014586433569977	3.6343950514004044	3.2178505772127224	3.1804304507363987
id89	sample0	obj89	-0.5116798413909767	-1.042219520079432	0.32453588870532646	1.7958138234637744	2.984684882865084
id90	sample0	obj90	1.554224404652383	-0.6016401053655189	3.6891238027792133	1.6662486571128219	0.777277429402552
id91	sample0	obj91	-0.8037045618994578	-3.8984726672066303	3.6271366307722896	3.9137350495103336	1.3388856108451161
id92	sample0	obj92	1.9796651508676304	-1.4173768225699834	2.1951537146316475	3.653824418778882	2.669182691466581
id93	sample0	obj93	-1.144858126976646	-2.4693085726442754	3.005659987219068	3.7791799238231585	0.8278044262310171
id94	sample0	obj94	0.9325715775923731	-1.377419209679448	2.7015271465012063	1.2389709808565093	3.9607433453193304
id95	sample0	obj95	-0.2596282225441955	-2.2222862331370976	0.16668520658376518	3.277238382221788	1.9479039696805827
id96	sample0	obj96	-1.1270746372683815	-3.636952822021919	3.5222144722633315	3.1458125732457836	3.3825987133033744
id97	sample0	obj97	1.0317243765734092	-3.0233779179038462	0.6418792177090955	3.5246181440295157	1.9265810102624208
id98	sample0	obj98	-0.28372827209850016	-3.623237611190522	1.0609157403819411	1.9045652482704405	4.196374119217029
id99	sample0	obj99	0.8060425768653741	-2.5808348769634506	0.3505474517224445	1.8691295831926955	3.8907172045311036
id100	sample0	obj100	-0.5255380635996206	-2.842700838258936	2.349522710949607	2.2787275849647264	3.7073278050330334
id101	sample0	obj101	-0.16225016850217577	-2.4984876714261177	1.9894798722567202	2.944383468782707	3.057950811520727
id102	sample0	obj102	1.500372280087528	-0.7305837053877486	3.3141566557852418	2.430589435246637	2.9210834331869187
id103	sample0	obj103	-0.9692636846316631	-1.723874583583202	2.9456315854918254	4.1395796486078575	1.3003575315021072
id104	sample0	obj104	-1.3170505337166154	-0.6793476418530882	2.2474471353376426	1.719609206495349	0.7930841341811079
id105	sample0	obj105	0.551432711536785	-1.1316417528050684	0.5093631522078941	3.45864070657076	1.3089414616842943
id106	sample0	obj106	-0.6352853706286208	-2.515798695615508	1.4476602720088376	1.9537388184024853	4.185478293333767
id107	sample0	obj107	0.5338358423093863	-1.2557286191366266	3.5756044993618756	3.2983389659399434	4.078526484519875
id108	sample0	obj108	-0.30825240168546886	-1.6183720763490494	3.229424356357989	2.948543779018726	2.4965367256496056
id109	sample0	obj109	0.2963901141948584	-0.32408581021085925	1.2957007626977513	1.791085503429204	4.2142829363405525
id110	sample0	obj110	0.6065635592153098	-1.9250054528169913	2.7174424088021683	3.546229426368683	2.9405921953387306
id111	sample0	obj111	1.8422719704416977	-1.8274073795600418	0.7805849687034083	2.736561536899387	2.9052609984541853
id112	sample0	obj112	1.9571862904980637	-1.4785109726965022	1.803721551580958	2.2064508416873574	1.031882177808256
id113	sample0	obj113	0.8087610655095381	-1.8685941154204728	3.1563171697995624	2.5873912630714475	1.5169472174076668
id114	sample0	obj114	2.0211111038801413	-1.2903441090715433	1.180488796781313	0.9030499323016883	2.5635677165831705
id115	sample0	obj115	1.9880265520632905	-1.2923984694599853	0.43591665595504825	2.0575687199936503	1.2239968370124208
id116	sample0	obj116	-0.6692579776287605	-0.7751470025962923	0.8551060421524137	1.9456279017780054	3.8735898848040353
id117	sample0	obj117	1.4607954871985191	-2.484935309171015	3.1968069655225335	2.2883679006317585	3.535938948925076
id118	sample0	obj118	0.6372787239589395	-3.4174338981757484	2.0099335485274894	3.492127990831409	0.8519179626637625
id119	sample0	obj119	0.46601026986292715	-0.9604798237697556	2.9410831129594097	1.5349810182470867	1.7627895717231665
id120	sample0	obj120	1.3629185180949863	-1.8782655950415428	2.0892359712810835	2.728367263958365	3.969132853708115
id121	sample0	obj121	0.1737253079550687	-1.8182040507088717	0.46620049633282257	2.828144735770236	3.224149574687785
id122	sample0	obj122	-0.6333701625552297	-1.633747475714949	3.37686343488069	2.362724736705996	3.3941798295131482
id123	sample0	obj123	1.9351300717606448	-1.654242356092113	0.5865768987868618	1.2185304659351657	3.1245049902816318
id124	sample0	obj124	1.6866443274786993	-2.0586689925191046	1.472581132819183	4.2189556653829765	2.619516574800252
id125	sample0	obj125	1.9527305359369713	-1.554706684880489	1.3219891540252395	3.027690434386204	0.699087245033615
id126	sample0	obj126	0.3232050841663072	-2.0275861370722428	3.581560803590518	2.907369030039482	1.724771251088671
id127	sample0	obj127	-0.9546429918070181	-2.7730099989695702	2.60653494277632	4.207866235241995	1.6787918451796955
id128	sample0	obj128	1.8879989789262097	-0.8021345979746421	1.8006905220744864	1.614371392769995	1.2854177729715488
id129	sample0	obj129	-0.3231878963338366	-1.2100879001717153	1.2723244233931779	2.8539827606649397	3.129295437233832
id130	sample0	obj130	1.0720927148360768	-2.207343104594796	1.2169968643695446	3.372644173006808	2.1708648305795375
id131	sample0	obj131	-0.7263923959520495	-2.2688451488451973	1.9249532078845835	2.114666097161136	2.0886493305126272
id132	sample0	obj132	-1.427919012617771	-2.8712045893010325	3.4276157378619203	4.358989064910319	1.8767462763862135
id133	sample0	obj133	0.6763849729367937	-2.4443863569310134	1.7532013613277928	2.6151393052683174	3.7592723890417314
id134	sample0	obj134	1.9895537433018162	-1.7432026843865518	0.7708528806719039	1.5273578774273253	1.8966936074292393
id135	sample0	obj135	-0.8544090430858253	-1.0061394511539599	2.222664784185306	1.0316170606610706	1.5739933834370925
id136	sample0	obj136	1.8995889035134745	-2.47920220064558	1.381772605771853	3.5881867380735333	1.1243781786400862
id137	sample0	obj137	1.1390639942571184	-1.776773229416101	1.4323390544234662	3.7925126903502724	4.1983333673711964
id138	sample0	obj138	1.3660559802707966	-1.941784649271835	2.6972917006437944	1.6408181819607188	3.757892519726437
id139	sample0	obj139	0.6276157074127078	-2.7618166772651556	2.453778408800251	3.24910495119797	1.2053217749677065
id140	sample0	obj140	-1.1771707595697904	-1.3281924737616964	0.26028084877445035	2.0652380462353634	4.25782395349926
id141	sample0	obj141	-1.5049453305462468	-1.4287772626427484	0.8454336316070217	1.5945498145264825	2.1072747495105233
id142	sample0	obj142	-1.2786141214418056	-1.9336913101374524	2.5307889814246476	1.1451989429719198	2.389711927524832
id143	sample0	obj143	1.4854051348850053	-2.208975344142135	3.330899288742863	4.335055615568253	3.2387807655026872
id144	sample0	obj144	-0.7297381702368364	-2.425997752663757	3.13839259886836	2.0420148565616243	0.9147086413934147
id145	sample0	obj145	-1.3495659308311199	-3.4420718781356783	3.2719061527724396	3.508802506212951	1.1919660628471176
id146	sample0	obj146	0.2354606254363727	-3.3438751434065574	1.6943837879793144	2.5044629806344094	1.0422673205076656
id147	sample0	obj147	-0.978677522135853	-3.2649750268958586	0.5745515543464599	0.9935854442238821	2.878174896892914
id148	sample0	obj148	-0.811467887227753	-1.7929275434192424	0.27512991043384205	4.396321264751507	4.092327928467677
id149	sample0	obj149	0.9851068289994453	-3.2196325222431925	0.4985350508418005	2.8940117494489934	1.7854679095224344
id150	sample0	obj150	1.9634923080151367	-2.379266351086923	1.5767312662910176	2.4346727211129733	3.0515122139451902
id151	sample0	obj151	1.7004126095205636	-0.34827420469816883	3.4100371179344453	2.338813414906173	1.9896822645383636
id152	sample0	obj152	-0.30391718415340807	-0.6074516675699877	0.17482782277649656	1.3494870788139608	1.6331560585113913
id153	sample0	obj153	-0.11601396692168509	-2.5116892256774963	3.548224617993367	3.992728072147335	3.893137842220632
id154	sample0	obj154	-0.3744900469835033	-1.6718487049167188	2.7362949648350687	2.2285056753231416	2.9701446887629865
id155	sample0	obj155	0.7374207579388801	-2.887605311113621	2.4195061026192715	3.922171340388423	2.2154651072065565
id156	sample0	obj156	1.0079418811711445	-1.6107694517521736	1.4049608207025301	2.427470497040658	2.3511598155078333
id157	sample0	obj157	-0.41613297805307337	-3.1652226068612244	1.7403015648198776	2.6511857504050194	2.0739198950158113
id158	sample0	obj158	1.0226855867754734	-1.1705092643646486	3.3213652447343645	1.9042555442979279	3.255087508771651
id159	sample0	obj159	-1.0525978026418832	-1.248438097004205	1.5182308313228994	3.3039206699600028	2.2659415778897425
id160	sample0	obj160	1.6538680980979052	0.45498717645174414	-2.3334392131475354	0.6679250271207213	3.0226833306132432
id161	sample0	obj161	2.983189904065279	0.7521527863909718	-1.9005691728016285	-1.940737456617434	1.9063113117738484
id162	sample0	obj162	0.9999343522775963	-1.1547364903696984	-1.6749540422434945	-1.1649838798872096	0.9430887626468792
id163	sample0	obj163	2.700990660181751	0.38291062352084304	-2.0202323419019543	-0.9764869146428752	0.23070118757694558
id164	sample0	obj164	2.5082590201100023	-0.2611770705124301	-1.1653038105178124	-1.6540615850145555	0.08410839156675198
id165	sample0	obj165	2.6206383144426653	0.1275907482674734	-2.8396178969749166	-1.835829190046129	1.787789042544775
id166	sample0	obj166	0.6707788901518268	1.4820425110741906	0.39579585362457403	-1.660785930036794	1.3345395559827495
id167	sample0	obj167	2.1785434625140514	-0.24644305148127565	-1.272933018680108	-1.1817640723787963	1.6245081063409346
id168	sample0	obj168	1.2983893557469703	0.6421554891030603	0.22358808950830666	0.4260174511773338	0.419395754984204
id169	sample0	obj169	3.163904403006918	0.0964927131481581	-2.757395496031089	0.19571354783224648	3.0363357109976334
id170	sample0	obj170	3.6174095735895664	1.5539903857708526	0.3557538740854602	-0.3673747364720412	0.35730921037095564
id171	sample0	obj171	2.937256225214078	1.9744376808829716	-0.30254211600189085	-1.0459649575659506	1.6826085153286208
id172	sample0	obj172	3.6321851085999564	0.5319621483372698	-0.4882418680206724	1.3166007142447993	2.4663834940733196
id173	sample0	obj173	2.41999360539673	1.4238240353223375	-0.7310399210788743	-1.2767127829889955	1.0581232217235845
id174	sample0	obj174	2.6940358586142814	1.4928762133116404	-0.9601628323876439	0.8634749166431444	0.39580249842367055
id175	sample0	obj175	3.1342822776548322	-0.7620840418691618	-1.1621003109659247	-1.6168918802894707	1.995372344205913
id176	sample0	obj176	3.249548278005487	-0.27208537157592727	0.0353762289518007	0.7381840940060835	2.579568620961437
id177	sample0	obj177	1.3301236618563566	0.275590276808344	-2.0895468575672034	-1.2468192006752745	1.5320759479867647
id178	sample0	obj178	0.3021921714201061	-0.5011009307162322	-0.16741540090538698	-1.9320746353566491	1.5454043730173337
id179	sample0	obj179	1.2221621478204605	1.2426248179380897	-1.5071502111315866	-0.4436711233166726	2.5499267975509525
id180	sample0	obj180	1.448795775090203	0.9865088033805918	-2.6716281774612005	0.1769121834325078	1.122197482174646
id181	sample0	obj181	3.63025372559533	-0.6161687939723168	0.29535730999690313	0.45555185337357273	0.6570471219955687
id182	sample0	obj182	2.949228428080951	-0.06597035224011094	-1.1398069509371622	0.038982786302947714	0.1018117490157604
id183	sample0	obj183	2.4695022894043275	0.1914229030262422	-1.3530982441145478	-1.1184515240511006	3.43271318460984
id184	sample0	obj184	2.25718795962435	0.9453751442926628	-1.0663067788146545	0.9060216785783963	2.2719012893884747
id185	sample0	obj185	0.4170011547241068	-0.19580508617442116	-1.5623041414095198	-0.6587628459459636	2.786434297790631
id186	sample0	obj186	0.15711029253403352	-0.5963183000241918	-1.403044043743711	-1.7577872365176426	2.522390579121976
id187	sample0	obj187	2.3121232461468226	1.7746098311357754	-2.2952987634075703	0.9738585255163235	3.475020587440418
id188	sample0	obj188	3.580571743852346	0.11631778921320768	-0.9579205625582994	-0.04335152576785739	0.3895298711199804
id189	sample0	obj189	0.8923516680832785	1.8268677464336782	-0.1672008192839447	0.6195715726038797	2.312176085521826
id190	sample0	obj190	2.042751516550706	-1.2809165391934947	-2.5166767527284	-0.06632535246569504	2.769063154467789
id191	sample0	obj191	1.4505834932646766	-1.5922328664058019	0.35250839712945514	-1.2421928557371378	2.1995756584325434
id192	sample0	obj192	0.4105724261450592	-0.4504728235962836	-1.9111615676248246	-0.8070024991445699	2.5874540164750295
id193	sample0	obj193	0.24086613885126495	1.6040615370886477	-0.09550393540828561	-1.1621275769325734	2.740761009936529
id194	sample0	obj194	1.8656903669281801	0.20901049791445137	-2.9397992600375344	0.7256578965686551	1.7914458846959507
id195	sample0	obj195	1.8173876097726047	0.2437523664637069	-1.6194055101605267	-0.7081624872755166	3.1168019300273633
id196	sample0	obj196	3.496591492069679	0.05777613238847401	-0.09780278265683973	-1.4488918874033523	1.5371657312540215
id197	sample0	obj197	2.289017943623474	1.4840407049088473	0.4938669889160996	-0.9968223062609205	2.2643298554515923
id198	sample0	obj198	2.8291020090527264	0.3451972159821328	-2.3530675306417717	1.2996712456954251	2.1629784194486215
id199	sample0	obj199	0.20154240763637232	-1.0064764217026307	-2.448370056156242	-1.1727871037947097	1.8468401822493898
id200	sample0	obj200	0.9073781470272747	-1.2187472913752824	-1.3128413416684042	-0.9661504004495036	1.5455746881657257
id201	sample0	obj201	1.0758729576772912	1.7137190656343024	-0.7924670444878321	-0.8078397031445479	0.9276595337145718
id202	sample0	obj202	2.661278042139039	-1.5599398583471904	-0.7528094282647995	0.1514827232348701	1.0593853513585487
id203	sample0	obj203	0.6845258446436626	1.4226291794543482	-0.7695824720526254	0.4981453295126024	3.0339259828115264
id204	sample0	obj204	0.24725570433340116	1.2079436314065994	-0.4899552524714539	-0.7382186092935887	1.4484140242388144
id205	sample0	obj205	2.530814843043525	0.49518707067224965	-0.37476015886924796	-1.8502731258839784	0.36021091694573615
id206	sample0	obj206	1.0339085317828833	-1.1584765938686716	-2.000296120116363	-2.1050792241858076	2.066513102690796
id207	sample0	obj207	3.1685283182121102	0.8165279736267295	-1.3244334746035658	-1.0183385273204895	1.0057245462546422
id208	sample0	obj208	0.32506130440395076	1.5619164254586646	-2.698587288914023	1.0652805180728306	0.08753344467001045
id209	sample0	obj209	0.8657156265910282	0.3497134409594156	-1.4969618632355168	-1.9951989264078314	1.7655060714929116
id210	sample0	obj210	2.2734754143116263	-0.13442112740290768	-1.8681175537216357	-1.6582863366758236	0.14663914907977027
id211	sample0	obj211	0.6658695229686529	0.7589455451952978	-1.2910007379228245	-1.8758631916480644	1.693337686430397
id212	sample0	obj212	3.1042882464777186	0.963960674880574	-2.8064525292970526	-0.18388399595059934	2.352593972178597
id213	sample0	obj213	0.5470498544173972	1.4522002049065355	-0.6329930698587758	-1.6498548018118488	2.3138831275079124
id214	sample0	obj214	3.0958008697553776	1.9582832484908812	-2.668217828680047	-1.3380415310821396	1.7518428246545579
id215	sample0	obj215	3.28926773017953	1.7325981914927684	-0.5990516610862182	0.2562314504328189	1.2838199565094972
id216	sample0	obj216	2.956250046994433	1.5123914711953634	-2.9387468111364106	0.03733593532754331	3.5287263771512576
id217	sample0	obj217	1.6327069735257167	-1.3642775570089964	0.012010720685130094	-1.570794441922561	1.886498422134574
id218	sample0	obj218	1.8887158348784157	-0.3942268357230181	-1.862654057648339	0.9124765377145561	0.2921830379137793
id219	sample0	obj219	1.144132421129305	1.0804835752132262	-0.6912352734418723	-0.7836309022663637	2.191927176658184
id220	sample0	obj220	0.3523303286906707	-0.6695217357385036	-1.079127641135877	-1.0104548009533214	1.127807341978939
id221	sample0	obj221	0.7060936771954305	1.174022281947572	-1.9518630860416757	0.3919281376298491	0.22364981416707685
id222	sample0	obj222	3.1064706523538383	-0.3601883907072938	-2.180970892635237	-1.1670326290273325	3.085151022987879
id223	sample0	obj223	2.7033042708848694	0.08653138785942938	-2.1889374399992314	-1.9529077336014118	3.046343120897263
id224	sample0	obj224	3.1656330187523576	1.0633131333827308	-0.9171546880050323	-1.9586121249292057	3.2236663962370624
id225	sample0	obj225	1.4028384024500902	-0.7502305707809436	-1.1848735980845766	-1.9476436387755056	2.3227340090169983
id226	sample0	obj226	1.9962019924384746	0.8716802047003644	-2.898879312751134	0.16777226727041783	0.05670985536332185
id227	sample0	obj227	2.709553041405182	0.13342693850353227	-2.2924863369509967	0.24710572631245653	2.5856953579634263
id228	sample0	obj228	1.2523438609018676	-0.7930710311550333	-2.146877884296027	-1.867953907750295	3.2115362436180632
id229	sample0	obj229	2.6686570567430135	1.712511723809058	-2.340332645726896	0.9909915306112305	2.3575641649970827
id230	sample0	obj230	3.4668220509179033	0.47088083204508435	-2.319307163299129	-1.4801056853396912	1.4910889695399707
id231	sample0	obj231	3.215525149840908	-1.2180054167294665	-0.7488355130353355	-1.9179641642895402	2.466163196780344
id232	sample0	obj232	1.4065296087011636	-0.1670977481138911	-2.586344440795898	-0.8476317754355143	1.281920459281127
id233	sample0	obj233	1.197596918799363	0.47191499144568616	-1.4793548505226282	-1.9414924847665724	1.7555166245785578
id234	sample0	obj234	1.8770548041231	0.14425859877152925	-0.1698632558577542	-0.8472371283885654	0.5482555245515748
id235	sample0	obj235	2.1981629978178105	1.775749290817328	-1.58058686049041	1.3560936657345717	0.015382353389040704
id236	sample0	obj236	1.811193682713025	-0.39618491193277316	-0.7873124996366576	-0.4274823471701086	3.4485408339201253
id237	sample0	obj237	0.7713406725135248	1.829760534297508	-1.3411343167772	0.18674482368441736	2.5484971055674626
id238	sample0	obj238	1.943468385143278	-0.5132343814311435	-2.6192572286742584	0.573151961265532	1.7621933802435266
id239	sample0	obj239	2.932574818043909	0.8726192195337699	-1.7247631562785286	-1.4451967327708093	1.9272776482207739
id240	sample0	obj240	-1.1940129352161177	3.701415895557351	0.8184309810896468	-2.439658500046896	-0.5036891567794399
id241	sample0	obj241	-4.192060414416949	1.7493175173935902	1.5449219682552608	-2.5238960920221376	4.055440752086654
id242	sample0	obj242	2.9240993421035055	1.6008899371961605	-0.7303504841806112	1.685426871056338	0.23406429197880496
id243	sample0	obj243	-0.8621200798350668	0.060281895137449526	-2.164924175852739	-2.9120675807973377	2.0227202789823044
id244	sample0	obj244	-3.5421297400278915	0.42820787977086283	-3.013921012217702	-0.750953183712785	-0.9692677176471263
id245	sample0	obj245	-3.8739687926084	3.6571539007503358	-0.006896984212610535	-1.5838133451433998	-0.558698984205291
id246	sample0	obj246	-2.882344710919851	-1.1931594588522927	1.7085797965375764	-2.529742139862107	-4.203049552289843
id247	sample0	obj247	4.535760908079189	-0.3062187927440967	-1.7661401038838258	3.044962541003308	-0.16879407031051663
id248	sample0	obj248	-1.8427830935137235	2.544035345223076	-0.29473903975753024	0.13839669319419978	-2.4591406764386488
id249	sample0	obj249	-3.587754062288264	1.3276196744664588	-2.217952398784063	-3.3276706533029463	-2.5257773529459353
id250	sample0	obj250	-4.151052739090037	-3.2866929815849364	4.4608972841587	-2.482775680392125	-1.5279881539374143
id251	sample0	obj251	-1.4265120963190137	-0.9521355269918936	-0.7658333086471905	-1.2075621585042138	0.869089260137528
id252	sample0	obj252	1.4734748977960146	-0.26727821295228504	0.8803191793545551	-0.8655288948105053	-2.6420668051014222
id253	sample0	obj253	-1.3304153938206762	-1.7037005946348678	1.797290803383806	1.2322431583985403	-1.7494208562355682
id254	sample0	obj254	3.159686459240217	1.394224977963014	-2.6407907526920003	0.4354283644167032	-1.540481486715216
id255	sample0	obj255	-0.8509516395186754	1.2796702322158127	0.016851362006006898	2.414423233649149	-2.406302797380902
id256	sample0	obj256	0.5024339690226627	-0.3371698157089733	-0.8547430383974615	0.6747738975297559	0.5773228151645287
id257	sample0	obj257	-2.9772462378205615	-0.01667131508447839	-1.1381445997692754	0.5667491961465718	-1.5873968404348886
id258	sample0	obj258	-2.0065941749422507	2.113049105501193	0.08623536593657422	-1.0921264264947503	-0.7536667236652843
id259	sample0	obj259	2.246190184190249	1.004545157350895	2.8164141243610903	-0.5903554396084139	1.7494494585994567
id260	sample0	obj260	1.230234148442131	1.9224143106788818	-1.983605797511172	3.321309222929183	-2.326268420855833
id261	sample0	obj261	-4.2891426365943905	1.9464962405620048	-1.1002952508197443	-0.7919711765246873	-1.229322784726205
id262	sample0	obj262	1.505225999243776	0.25762954641324165	4.223199552409028	-2.8673652351022945	-1.2550186445728955
id263	sample0	obj263	2.6632835619656765	1.1108287972163853	0.002887319627014273	-0.07746739378520595	3.7804417801072985
id264	sample0	obj264	0.7754692025235761	0.30031403745328933	-2.1289606010954882	-3.603746024294587	-0.9189158973876059
id265	sample0	obj265	1.1661620321221922	3.9074413508023182	-1.622104125700339	-0.12267809463554946	-1.6048419041720539
id266	sample0	obj266	0.046839649806821315	-2.860039944501727	-1.8670570163991453	-0.3020744438369194	0.363496045271124
id267	sample0	obj267	-0.525816006538796	4.7694904607212685	0.8500196715962132	-1.9360928914542161	3.355943532940066
id268	sample0	obj268	2.438283559342466	-0.4708603692202069	-2.5661697356897215	-3.8752201201568166	-1.950325482478324
id269	sample0	obj269	-0.39662362092055825	-1.6906753411639697	-3.496837124603334	-3.0816172611887334	1.617229548047942
id270	sample0	obj270	0.2884760506085571	-2.9612583622772726	-2.304321872000873	-2.580731415860069	-1.57100528638573
id271	sample0	obj271	0.6902072904578975	0.2308837059764388	1.22934001863268	-1.2447354131424373	1.7141391057852446
id272	sample0	obj272	-3.0195611859055593	0.5662783408184375	-2.19390045809983	-2.9989466391813755	-1.521806628623655
id273	sample0	obj273	-1.5993024726748926	0.7982156883147791	-1.9861879044979476	-0.6826357531142644	-2.8128583666596536
id274	sample0	obj274	1.477584371249612	-0.8284840497260262	-0.5085064026533503	-3.7702228367388537	-3.854425320669345
id275	sample0	obj275	2.690729288820611	2.875122082654329	3.0818641217395815	-0.534085988424073	0.5337117675000478
id276	sample0	obj276	-2.140852477162048	0.9285531064248309	0.3966288351016287	1.897742792254649	0.6684088957721066
id277	sample0	obj277	-0.3228137627623986	1.6649697881291428	-3.1054517646955344	-2.726521447145691	-2.745949935378831
id278	sample0	obj278	-1.639771209193135	1.1930104890463564	0.7941019437340773	-3.2538766845365314	-2.455222524394537
id279	sample0	obj279	0.3857295097313742	-2.034432841649037	2.4288242316002955	-0.181808000470431	-3.7832686126856414
id280	sample0	obj280	-2.373157060323326	1.8134378549338817	-1.334844649451892	3.345196947482594	3.8405779419943338
id281	sample0	obj281	-4.057094002869384	-2.251903397957356	1.6207842808835857	-2.786626983118013	0.9192964056024675
id282	sample0	obj282	1.5443324192040175	-0.8251735333628827	-0.2103846181295832	3.099896621637683	-1.3581007157610603
id283	sample0	obj283	0.7478534596440604	1.2012478871883736	0.37311282084999564	-3.488461849664982	1.9965790729624358
id284	sample0	obj284	-0.08509712205448894	-2.023436380796264	2.3413742784410014	2.57384154250525	-3.3046525820019768
id285	sample0	obj285	-0.1832979594406947	-2.4034186902837122	0.8181472475509091	2.1413317172633013	0.45399495904828613
id286	sample0	obj286	-1.5755798373435652	-1.6941131302185615	-0.6235697748750342	3.0094910891385798	1.4134063296438129
id287	sample0	obj287	2.207227535036723	-2.542531123420416	0.8918105150439908	0.04397949943071411	1.0823688013840915
id288	sample0	obj288	-2.083399054946425	2.1357973580362257	2.7504594735950247	0.04770321950994538	1.0175864908241488
id289	sample0	obj289	2.4301510839453044	1.5931887475299293	1.2182802091509972	-2.7031853308272358	-2.0716749911040395
id290	sample0	obj290	-3.938530768533607	0.45690495061958036	-2.0507699781698285	-0.7142889031070887	-1.4872253738550942
id291	sample0	obj291	-0.05027283834326912	1.4921510084054077	-0.5484063423400196	-1.5247738302074914	0.04658492030407002
id292	sample0	obj292	0.21958787614075193	-2.2903385681755326	2.3935229590860203	4.4734838177726575	-0.21908872552905256
id293	sample0	obj293	-0.8389959229631969	2.1836706937549533	-1.2529018974618358	3.6353809486429682	-3.7457314648461812
id294	sample0	obj294	4.189313683079875	0.7941875692208868	0.793476237476636	0.6991934021240731	-1.8787198903945372
id295	sample0	obj295	3.346440822410388	-2.569597466757606	2.2646640734179764	-2.6987074966076356	1.2154867218233394
id296	sample0	obj296	-1.979200215055885	0.48710938468697274	-0.6479702743647857	1.4002649135823801	3.4262168394229953
id297	sample0	obj297	3.967577768927752	1.9576526185259995	-0.6660040334871986	2.244586361013568	1.9171144689349917
id298	sample0	obj298	0.101822510350839	0.55084220846527	-0.2841055552059224	-0.8334906692851114	2.0665874245582194
id299	sample0	obj299	1.1420462496791701	-2.645675418325497	1.2338802483208593	0.07662259297399276	-0.8177136743370039
id300	sample0	obj300	1.7402074640065759	2.9593273537964357	-3.119374170786123	2.185078096034003	1.0751138545662247
id301	sample0	obj301	0.6902861408394787	2.1742436635839306	0.5481239465281147	-1.0127849870957029	-3.082951643068176
id302	sample0	obj302	-0.5702858673153588	-1.9015785773011793	2.9034867632877823	-3.1654398360700844	3.3046951478594515
id303	sample0	obj303	-3.831556014221703	-2.037340989759968	-4.146014178665114	2.1130101103380357	1.7744190837883649
id304	sample0	obj304	-0.586045400178618	4.545879654141529	-0.32580120119225797	0.0981273651240484	-3.079226202141057
id305	sample0	obj305	1.539499617671744	2.7565772808852858	-3.155659309723913	3.8577424188130927	-0.4508654027010295
id306	sample0	obj306	1.005285155735676	-3.060152192733958	2.043731216343321	-4.268001845011879	2.398321080785471
id307	sample0	obj307	0.21281603224100487	1.4846361769248626	3.6387155968084377	-2.64801326738432	4.502085747257247
id308	sample0	obj308	1.3390653100370153	1.2596128006655514	1.5236307030895093	-0.1007518663245841	-2.977614970599624
id309	sample0	obj309	-0.6299657991018193	1.4168526017487089	-0.878374308357946	-2.111103607848456	-1.5413308988047387
id310	sample0	obj310	1.0687817933736037	-0.4531718754583045	-2.409670431664445	1.8601124264360533	2.8158312980066413
id311	sample0	obj311	1.20827249721515	-1.1987483929174128	4.344491434596939	3.7180095381378067	1.272157553708824
id312	sample0	obj312	3.131689768038651	3.006011261045704	2.6546161136763806	0.9786185904703433	3.1069948083380687
id313	sample0	obj313	2.688855636429916	-0.034281866811223916	3.330768931353383	-0.6775577006562494	2.4712798548957395
id314	sample0	obj314	-1.124230403775526	-2.7791914843935936	-0.7885852348256168	-2.644445195702513	1.3589019708769763
id315	sample0	obj315	-0.14576301978684936	2.1944676724774625	1.5746592146847453	-1.2421284327903646	-1.9965870121049638
id316	sample0	obj316	0.018180632191381774	-3.859429196921069	-0.40465646985260917	1.6788247385320227	3.421416968783249
id317	sample0	obj317	-0.07323610096906763	2.765300531138357	-2.644866167312292	-2.852220487359202	0.881922188296403
id318	sample0	obj318	-1.4984723198570078	1.0898643142231108	4.622403279111665	2.1762071916861863	2.9119615240193406
id319	sample0	obj319	-0.023219090324450464	-3.6205928678960086	0.3086813237359227	-1.4816075308140924	4.096891173705027
id320	sample0	obj320	2.85214412263906	2.414343199054639	-2.7507990865768654	0.4092888321904242	-0.28627651746972127
id321	sample0	obj321	-2.4483988348499675	-2.024734426089629	-1.349285343739778	3.3857779196430524	-1.4313517110785985
id322	sample0	obj322	1.395092826008169	3.419374613806699	0.6499235241993437	-2.160972002086175	0.6157847447299059
id323	sample0	obj323	2.7150859362503983	-0.1315185725020085	1.3529012293803382	-2.219002732478933	3.670121778646881
id324	sample0	obj324	-1.652969678194401	0.589038072023943	-4.357828580157248	-2.572766724358332	1.613937049242551
id325	sample0	obj325	-4.168100818470737	-1.3535472274369558	0.5235691686381494	1.1761939065329936	-2.220186559781423
id326	sample0	obj326	-0.8160269502737074	2.8187837586682467	2.840965540623632	1.715996591489912	-0.7378949026040125
id327	sample0	obj327	3.0433442957091357	0.2583760186077668	-0.7383274785707312	-2.1318653017188343	2.8465461924916298
id328	sample0	obj328	3.819076266117577	-3.231295519661738	-0.8815080582654067	3.614519453126009	0.7511883005975217
id329	sample0	obj329	2.547592391956295	-1.8477157356522698	2.9282569491605086	1.716658577640733	-0.10892332035448615
id330	sample0	obj330	3.464283504450525	-4.336252261260089	1.9846478833621144	-0.11587328257213159	0.16514966752485938
id331	sample0	obj331	-1.1126878458495082	0.6745775024638025	-1.6642795475647487	-0.16898798758188494	3.8035785818351577
id332	sample0	obj332	-2.474839783059243	0.6972769246393695	-3.2718798331594416	-0.7267046895164466	2.202326324969512
id333	sample0	obj333	4.254433332874851	-1.8538732266767426	-0.8153664139737165	3.527898986985985	2.296914256145243
id334	sample0	obj334	-2.3515112034932595	1.9861501490075981	-1.3829721121990945	-2.1116408795298085	0.43191059855328096
id335	sample0	obj335	1.8685940684550664	-0.3822568721076032	-1.9275767986042178	-2.1985491126807313	-1.021141940052944
id336	sample0	obj336	-4.237876869091476	-2.8016000628381583	0.32682139254845866	-0.714147694145475	-3.5585728130452963
id337	sample0	obj337	-3.209590675056047	4.176558189348825	-2.2788616934436883	1.1493348726400086	0.19876375617723596
id338	sample0	obj338	2.537871788568458	0.9028569824162649	-0.7816431989655743	2.247898956193704	-2.8285371591356236
id339	sample0	obj339	-0.5486509690433425	-2.573995092571013	-1.625565271792112	2.5712922933471933	-1.7323912844447498
id340	sample0	obj340	-1.9132141672049847	3.210652755947888	-0.31204436574235284	-3.526085371977862	0.908781248014772
id341	sample0	obj341	-0.9328021893081238	-1.6768696832783367	-1.0618926673555866	-0.04536491798485498	1.892176189603209
id342	sample0	obj342	1.353323589585914	-2.7956103245848523	-0.9839456714008219	1.1166661923050267	-0.270394892233605
id343	sample0	obj343	0.2556123429073953	-0.5129937980308326	3.867145461588608	-1.925016472429935	1.2926204100343839
id344	sample0	obj344	1.0791011089141518	3.7252344687043273	-1.3567490857365365	-1.0678279734477512	1.6122097834116744
id345	sample0	obj345	-2.2151679096342023	-3.32404433365205	3.568135360078517	-2.163748524299457	1.7810573146392958
id346	sample0	obj346	-1.0836156000563582	0.9766259633021608	-3.7810090377010512	2.9632138175545633	-1.3432196304165502
id347	sample0	obj347	-1.677146149056655	-0.5703557341776277	-2.8883746268807844	-0.22244019287928252	-2.9437955326563205
id348	sample0	obj348	-3.0834794806711834	-0.041990858082616045	1.3044963303049133	2.0923072097972106	0.43844345375306815
id349	sample0	obj349	1.6479256926793415	-3.09109655502275	-2.4888194666651997	1.8761422932289302	2.0019706147878473
id350	sample0	obj350	-0.5665952886021857	-1.9593055208298662	0.10558450607198222	3.3229591128007456	-1.8572052451887628
id351	sample0	obj351	-2.546919373815519	-3.6685931486314356	-2.0705017703877298	1.2662098747852037	0.5205909621270015
id352	sample0	obj352	1.7975346163804284	1.9063375110617684	0.12009416049741417	-0.09903337925790878	1.0170477423416877
id353	sample0	obj353	2.285995754983082	3.528651285564	0.3675532384208271	1.6940566488741682	0.03811209384645409
id354	sample0	obj354	1.7863785144070545	-2.989922639735859	1.8131280148229945	-0.711108901922596	0.2828535520191111
id355	sample0	obj355	0.505602458849771	0.07372218090333804	0.1785795210797474	-2.9863181044862404	2.9618313824997227
id356	sample0	obj356	-4.341235073636836	-1.5526367390465867	-2.524622950040235	-0.8248469256748572	1.550518422988045
id357	sample0	obj357	-2.8822625338566006	2.7139738611797553	1.4954082034510001	1.7521149561148144	-1.183660823798366
id358	sample0	obj358	-2.718848257560606	-3.173605347295455	-2.5551518787591547	-2.1862253966536196	0.4485749959838854
id359	sample0	obj359	-2.109837485348433	0.8644008162082508	3.102137935590216	-0.18874792197081458	3.570928077039464
id360	sample1	obj0	-2.297550034941769	-1.8685099598999781	-1.5795047572438188	2.2803122333936825	-1.365516225737659
id361	sample1	obj1	-1.9184436805685492	-1.6893761955309146	-0.41388188263981296	3.427573916721709	-0.9193186954305339
id362	sample1	obj2	-3.386192578004595	-1.896815246185319	-2.9527005356600533	3.5427582654131173	-2.5402990842127973
id363	sample1	obj3	-1.3030794334874087	-1.1398422614231545	-0.9045679720715116	1.4334473659949791	-2.6461413394982705
id364	sample1	obj4	-2.119087546883449	-1.928099134130855	-1.1592924649885867	3.6075809750201584	-2.9287578158927308
id365	sample1	obj5	-1.8220381852186336	-1.374257614492928	0.10040303620125157	3.817768509568782	-1.0819768712154134
id366	sample1	obj6	-2.5354461529989303	0.3327745351816749	-1.26458409257896	3.726973494828817	-2.8360122550312084
id367	sample1	obj7	-4.06882767472975	-0.49353862688995	-2.092942708290553	1.199530308833989	-1.2408930053139715
id368	sample1	obj8	-1.128967834079184	-2.7729416863530547	0.277369729407148	3.809906756860845	-1.7568893614557757
id369	sample1	obj9	-1.731862487781371	0.6199397040440282	0.3668134867954802	2.1504341158050027	-2.7080945141928754
id370	sample1	obj10	-4.291258169594794	-2.526606105520354	-3.057331439642682	2.3644733497233013	-0.4321195826815136
id371	sample1	obj11	-3.3527920946616105	0.6127487326118641	-2.788087435741866	3.484390235324782	-2.1450375537611492
id372	sample1	obj12	-1.7521283165570425	0.6287447973391369	-0.4570766196337097	3.0207935018963186	-0.6559366829104774
id373	sample1	obj13	-4.277951314509653	-0.5312940055339201	-1.9275201835913107	0.9738248718058959	-2.555206890258153
id374	sample1	obj14	-2.858471194454684	-1.695984480165231	-2.397257420537937	1.280778002050914	-3.2479348317519072
id375	sample1	obj15	-2.158696530825522	-1.4576318034757936	-2.533893260408922	2.278206756507707	-2.436515576652845
id376	sample1	obj16	-4.420659158883311	-1.1919901289074026	-1.9878031787817632	3.4118350797916683	-3.4741298326893433
id377	sample1	obj17	-1.2064210528480632	-1.2501828949969205	-1.5512234198756791	2.2438900829261588	-0.6372842862374062
id378	sample1	obj18	-2.265422878291682	0.6100570166215584	-1.8695362645725946	3.527702361713432	-2.353070953120265
id379	sample1	obj19	-2.8673222355568937	-1.9873264711863179	-1.6354461480684406	0.35131513289122585	-2.617156683983486
id380	sample1	obj20	-2.3997028931535684	-0.46325657898372463	0.030325700802315447	2.697667416598592	-0.9060228590195567
id381	sample1	obj21	-4.216924239810882	0.1383670331681237	-1.4250058634293095	2.0497101487222684	-2.105438586185148
id382	sample1	obj22	-3.0132289622748916	-2.4027883664571803	-1.555623266219993	1.6269344946107114	-3.2001012923047116
id383	sample1	obj23	-4.174353304555837	-0.7731598062503731	-0.29235713594506385	0.936097257679855	-0.3249111262353097
id384	sample1	obj24	-4.229044184812356	-1.260303450985395	-0.4823964932301872	2.7759579565147083	-0.3074595345406592
id385	sample1	obj25	-2.079405274623344	0.2861932838700685	-3.197565414421097	0.5468614350884919	0.04440201797324872
id386	sample1	obj26	-1.6260887001392972	0.12914524458891807	-2.73191229510326	1.8371925205720445	-3.3607749216302687
id387	sample1	obj27	-4.501640360120313	-1.8906073948167477	-0.5182307287905294	2.2128110015130185	-0.26721345535106944
id388	sample1	obj28	-2.649127804143097	-0.3298314299169023	-3.050742829566534	3.0215740509639293	-0.2947266341087744
id389	sample1	obj29	-1.8110775542519943	0.3449134229319093	-1.1859212038179898	1.0948894676274286	-0.23850532305261418
id390	sample1	obj30	-1.1343102213002114	0.014336585440162919	-3.061504517620052	3.602803017819916	-2.8612918240691734
id391	sample1	obj31	-4.176742041802753	-0.23915752599273543	-1.1016752323824697	1.123106650274117	-1.9839383395504613
id392	sample1	obj32	-4.109726834176474	-0.15451433415775884	-1.7449837560823471	2.228117698499015	-2.6440566879932947
id393	sample1	obj33	-4.399903635216342	0.03916405702201353	-1.5905257320750057	0.46614694908707066	-2.072651563544593
id394	sample1	obj34	-4.452402661595652	0.5718159805564185	-2.8254659148564842	3.3905030009664703	-1.2474057546528157
id395	sample1	obj35	-1.7960028343980794	-1.581776565295072	-0.2603689966650726	3.820695635815105	-0.6995090597688469
id396	sample1	obj36	-3.1525391309771003	-1.9048474521561591	-0.7137979563676311	1.1430592334446796	-2.928202940982225
id397	sample1	obj37	-1.8415324175450876	-1.0382118351288763	-2.9549911148061554	0.8961931802237486	-2.0384671369066245
id398	sample1	obj38	-1.0263021929107554	-1.9015651630408799	-2.825273765443657	1.5569152703575146	-1.9747025759939572
id399	sample1	obj39	-1.6786272349256885	0.6947106330834207	-1.6427086487193125	2.0003042128153625	-3.5367066748519584
id400	sample1	obj40	-4.470392925503588	-1.998578330291077	-3.0263043839511834	3.3961011757842297	-2.424122522425244
id401	sample1	obj41	-2.463167606225337	-1.7922205435841503	0.15842043478137025	3.2611372198230635	-1.943654792880568
id402	sample1	obj42	-2.69506842593438	-0.7200116899363749	0.2885063705219364	1.8519733787747674	-1.4809946399344442
id403	sample1	obj43	-2.8973262161223716	-0.10970316771771338	-2.3999453280316416	2.302894222531557	-2.3660973398694045
id404	sample1	obj44	-1.2994330168484278	-0.989219557299432	-2.051605497574501	1.7716399136374354	-2.681158064313546
id405	sample1	obj45	-2.1288404781320853	-1.723641498118255	-2.659874858436523	2.7593159410107964	-2.9455424768048335
id406	sample1	obj46	-2.8149272743382348	0.10013891133192954	0.15236634850255526	1.3029874142827458	-3.074393151331157
id407	sample1	obj47	-1.0835061375016741	-0.855180861428763	0.334550933484983	2.51125494715508	-0.840038381123158
id408	sample1	obj48	-1.6956275802636271	-1.1605329493081307	-1.2808203890730279	0.8390167906557435	-2.6716782276622
id409	sample1	obj49	-4.494377171753504	-1.4844982062124237	-1.3384936738802258	2.8749134439370447	-1.7536281393888145
id410	sample1	obj50	-2.200499419343968	0.39881895055156336	-2.048164721346395	1.8314620474464518	-3.33167348403817
id411	sample1	obj51	-3.775382310581428	-1.7750212639374485	-2.870648087607308	2.5595055242517173	-2.7811000517369893
id412	sample1	obj52	-2.853890946526701	-2.0577459533853886	-2.9207422838120563	1.6061634825020326	-2.205403972763035
id413	sample1	obj53	-2.4402989065410807	0.6979268537531416	-0.7764166098063676	1.0614007252103648	-1.6332041213238229
id414	sample1	obj54	-2.556863660305349	-0.9355963837698216	-0.6308087677843217	2.2530503896773313	-1.543538557765746
id415	sample1	obj55	-3.973545880905693	-0.34298746734378693	-1.2767045981131548	3.3134149671710844	-1.301130226709302
id416	sample1	obj56	-3.7348303453245624	-1.8904956827716948	-1.0722901682146093	1.293422756582323	-1.0167096988648228
id417	sample1	obj57	-2.110193683511679	-2.1276703581084297	-0.6703740943445327	1.4650194353910637	-2.0252088679581837
id418	sample1	obj58	-1.2718201679829713	-1.670032096869682	0.2619099685717463	3.4325266473104223	-0.9274286950475379
id419	sample1	obj59	-1.8588203580052196	-1.1745463731838819	0.3438410791329083	0.9538795367234665	-0.868262774185889
id420	sample1	obj60	-1.1023059208664583	-1.357444900040118	-0.34073308250147893	2.518968257739769	-2.5950779796838175
id421	sample1	obj61	-3.4098279325913463	-1.3801883005611801	-2.0200148045855713	3.0920274585025807	-2.9905200447314586
id422	sample1	obj62	-2.359261916960075	0.22811435564709526	-1.934351163936623	2.226654749877702	-0.01069644245768564
id423	sample1	obj63	-1.2183199452048077	-1.9117872915764025	-0.6932154727960407	2.615362368028876	-0.4569861302197322
id424	sample1	obj64	-3.1423575823332888	0.6712346893931274	-0.16500156697765722	1.1315856893762792	-2.811009031525392
id425	sample1	obj65	-1.8346221481564269	-1.169980588405798	-1.7142382449023006	2.0330624016787384	-2.879653938545949
id426	sample1	obj66	-2.272924251694586	-1.4509469045545156	-1.92279183739413	2.7749648757191405	-2.311385060925233
id427	sample1	obj67	-1.2770146740865027	-0.745414447199858	-2.692718641887576	1.1638833218611466	-1.8059169891259486
id428	sample1	obj68	-2.6425673112367383	-1.046150769445537	-3.0532686669848106	1.9857389338972844	-0.9651455941898821
id429	sample1	obj69	-1.9002281550904978	-1.585776580215694	-2.1764867287423892	1.5592104433348317	-2.3110354377812454
id430	sample1	obj70	-3.1400319065248286	-1.6280521956992118	-2.3070151345725476	2.379811947398257	-0.7818725581461885
id431	sample1	obj71	-3.8063849910181964	0.42818764881183236	-1.4726327860781683	1.7214291262784513	-0.19272091586913898
id432	sample1	obj72	-0.9463535934468579	-0.07518161232750109	-2.160749995828665	2.21060768013156	-0.3185430845377246
id433	sample1	obj73	-3.2653490145002975	0.3798236582108865	-0.13559833178326008	0.30119521800796756	-2.060599972860942
id434	sample1	obj74	-4.057271099807769	-1.1301084913135864	-1.4253181968231161	1.3156906572268987	-3.178328236512285
id435	sample1	obj75	-3.4805622590951377	0.40672722701889286	-0.6812697788345947	1.4519326454170765	-1.9361587215643092
id436	sample1	obj76	-2.058100441508855	-2.2291498054122374	-1.5410571636757973	1.9599836017422079	-3.452472666062425
id437	sample1	obj77	-2.3780766387516152	0.2604168779228593	-0.8105166418457685	2.1170758469569053	-2.5741851025659077
id438	sample1	obj78	-2.6793693471604225	0.5924853694621348	0.25044515663020417	3.782283723832144	-0.7464871156384432
id439	sample1	obj79	-4.275020490148285	-2.199034993853454	-2.957411407733594	1.4188459656673555	-1.7544337476750562
id440	sample1	obj80	1.6568019340495288	-2.739014072566162	2.426918434420122	2.1912075821871757	2.521559127548108
id441	sample1	obj81	1.7913484067221417	-3.014158233968176	3.09065226172363	2.053450060708763	0.7227402432623389
id442	sample1	obj82	1.3233068587839771	-0.5170546519135784	1.8733165174134847	1.6687123883893604	3.2882854125706498
id443	sample1	obj83	0.7786150044999605	-1.1149426530453168	2.181012140756346	1.2854920624666284	1.8232603763120045
id444	sample1	obj84	-1.0282683559587775	-3.8332325525286484	2.7119120221783026	3.959796881713217	2.3114815895192535
id445	sample1	obj85	-1.2654651576060116	-1.4535134347642529	2.271468538665167	3.5580848858137477	2.9434520992959694
id446	sample1	obj86	1.2756818561776397	-0.9975724065130513	3.402697190759816	3.0742900172590764	1.4198817812171347
id447	sample1	obj87	0.12142494194436959	-1.8887199806079373	1.236068657156482	2.34164489860489	4.027849037153024
id448	sample1	obj88	-0.1215142811038894	-1.7946868681602892	0.3863713336781778	4.258430038166825	1.5681080562435281
id449	sample1	obj89	-0.16827121072283213	-0.38972163526303016	2.0187322645500325	2.9573881020971484	3.386194895761494
id450	sample1	obj90	1.9038345804835968	-0.4518711197020482	3.6888219578513333	0.9129828876631829	0.7990950359575573
id451	sample1	obj91	-1.298049900918838	-3.8281372120953265	1.130385340852881	3.2118513564840034	3.466832933062431
id452	sample1	obj92	-1.1334230625019894	-3.2506251896112324	2.2970763243391747	3.0139494992712033	1.0729532620557762
id453	sample1	obj93	-0.8399406831224203	-3.3009326104270307	0.6458216617553534	3.4238502666164	2.558206434652506
id454	sample1	obj94	-1.2454848643309062	-0.5688577295603163	3.3731170743468013	2.515002212066106	2.61044938126411
id455	sample1	obj95	1.1056148236487051	-1.0692584367560307	2.474686193403566	2.238549065758966	2.932992913666797
id456	sample1	obj96	1.492797566848694	-1.1856034009973564	2.2185228213271584	2.304315873496749	1.798731264179328
id457	sample1	obj97	-1.1062395626046013	-2.0249453647453834	2.8383045557206064	4.34713952377865	1.6076596704063784
id458	sample1	obj98	1.9008519827711308	-1.462309371788048	0.876837702083548	1.6620445244136588	2.154431779005211
id459	sample1	obj99	-1.04961041228575	-0.6035698031089758	1.7922356292863333	3.7628750711294208	3.3440564234703185
id460	sample1	obj100	-1.3802255141451645	-1.3313165849541935	2.5364964746535064	1.8226571040747146	1.2574255844022821
id461	sample1	obj101	0.8943359193732328	-1.0842917842058457	3.006394027812755	3.8651742739923574	1.7365636368588409
id462	sample1	obj102	-0.12100435092948181	-2.954204079668383	1.2192692474823954	2.4557553896638256	0.7076981615649702
id463	sample1	obj103	1.5232399243204455	-2.8793329994162136	2.281804555792463	1.726115677559382	1.4951022958987958
id464	sample1	obj104	1.6669153089891806	-1.206300960537454	3.529809348202778	2.185526295608561	4.238050791771107
id465	sample1	obj105	-1.4443394182898366	-1.8324533381562544	0.8843497637302746	2.9221280468250814	2.9762939078592137
id466	sample1	obj106	1.4062488522865093	-1.70293160428562	1.6883371494045154	2.6686123924056124	2.216588415892704
id467	sample1	obj107	1.642870658531687	-3.8089838308541295	0.2833638973547845	1.8617986407410068	2.365665397908721
id468	sample1	obj108	0.32584685812494696	-1.9263157409088434	3.315759777220216	3.9130824305625636	2.8764537343188357
id469	sample1	obj109	1.6360420923601746	-0.8720794672402252	2.6114429222879396	2.754858126377961	1.7985562790071168
id470	sample1	obj110	-0.5257378235660525	-0.6929077981788871	0.75029160631059	1.446568252261608	1.9762869941035026
id471	sample1	obj111	-0.770708093322904	-2.789468789530987	0.5528559816232381	1.8040454025664832	2.0546525961741544
id472	sample1	obj112	-1.06364213735058	-3.5193159966275984	2.24690554496995	3.229528540222252	2.42340602118355
id473	sample1	obj113	0.09632685467229996	-3.902083156916807	0.22145968361017943	3.220694151550231	2.270838960651676
id474	sample1	obj114	-0.30723868461764714	-1.2008045378844219	2.4457120531973775	3.8599897643638013	0.8827163693859337
id475	sample1	obj115	0.6981871153525134	-3.9105595886500026	0.10503044524357885	2.6465236873392866	1.5893221525920551
id476	sample1	obj116	0.7029892805577871	-1.7097374121884348	1.1926272158710827	2.4290040900488967	1.9478777793226147
id477	sample1	obj117	-0.5381408737450264	-1.69772073431151	1.9314485478222096	3.1082582259417633	1.9927490301419826
id478	sample1	obj118	1.796580073428227	-2.5521861152369576	2.55545735780089	2.7614567693074585	0.8672684306762892
id479	sample1	obj119	0.8142901706618184	-3.504744006091235	0.953180292789269	1.5383385442060948	2.9753048026100757
id480	sample1	obj120	1.0225884488907153	-0.38927981701190917	2.1007935452935476	1.914743923734195	0.6958040719154532
id481	sample1	obj121	0.20360428471804193	-1.4158415458468372	1.2500227847427818	2.164130159101821	3.958544547185416
id482	sample1	obj122	-0.3636879075232935	-1.835736960273924	1.3818747626592618	2.7082342277911406	2.2846845393454314
id483	sample1	obj123	-0.05091575780755675	-2.780882255492899	1.4160894892338354	1.499674793670836	3.082975754349663
id484	sample1	obj124	1.6931357751049887	-2.6913773242773855	2.134842777152903	3.1193166601141495	0.92465688099578
id485	sample1	obj125	-0.2662494523596859	-3.9174968074936674	0.6255315942606687	1.868169650341129	1.9911757344161578
id486	sample1	obj126	1.072892518581787	-2.842270855948983	2.490580934904485	4.0072295229667905	3.3243977204085704
id487	sample1	obj127	-1.0118665160502696	-0.5838147635624689	2.9625053573083333	3.5400024547146733	1.865493028989072
id488	sample1	obj128	1.0741600436302654	-3.8865425220685124	2.381590327915161	2.013754109407678	4.134135945774486
id489	sample1	obj129	-0.6889001266385142	-0.5000939556438839	1.0544112974324595	2.89030858083993	3.493147834024575
id490	sample1	obj130	1.696423247993491	-2.9957071780508686	0.8581257095658921	2.640247985241703	2.4156496158724385
id491	sample1	obj131	1.4333620538250382	-3.2221100084342913	2.0634470796649302	1.0616585663589373	2.7038124800848253
id492	sample1	obj132	-1.0309483875348366	-1.2157722551783972	2.6250776069239947	4.213385327135377	2.113289401181501
id493	sample1	obj133	-0.9484377841641458	-0.3312846370957192	3.170030198450048	1.6616250375144932	2.959517138181389
id494	sample1	obj134	0.551251159847318	-1.739326066672955	0.10329307911665864	4.43336552606389	1.1044016346213856
id495	sample1	obj135	0.6318300481743682	-1.2942961250426672	3.4893049572085726	4.0886064617177045	1.9834424472913195
id496	sample1	obj136	0.7314031231941895	-0.45870617871720465	2.3984407895486015	1.6618237484743181	2.355704263027492
id497	sample1	obj137	0.41746932880872367	-2.693739708761191	0.38463541937039847	3.09088151745154	3.569883201882874
id498	sample1	obj138	1.8726470401506072	-0.6386669008237436	3.055559412649183	3.704259966870156	2.2321061421715735
id499	sample1	obj139	0.9429881857101583	-3.4971979094784467	3.292436121498355	3.9854620290650775	3.2437959450866867
id500	sample1	obj140	-0.9678150761304152	-3.5142341642819197	0.7386391569799418	0.9707567979770146	2.9038416914493226
id501	sample1	obj141	0.9326244209595191	-3.1175628649828417	2.640236532691307	3.144907386937115	2.052561964869703
id502	sample1	obj142	-1.1916448468102514	-3.7001403379066566	3.38687771699124	3.1779620060634395	1.9120554890236474
id503	sample1	obj143	-0.3982091523561446	-0.861070617344869	0.8659647023130375	2.5726629479995715	2.980356959746465
id504	sample1	obj144	-0.23816590450283193	-2.8255251864633166	2.87578186699324	2.8723300608626605	4.127754697572901
id505	sample1	obj145	1.6110579114353276	-0.9380378974311687	3.3312931007594297	2.366884825901009	2.5752521639448736
id506	sample1	obj146	0.5277267569472486	-0.5708731338921187	2.2374939512883136	3.568300970861446	0.9316306500311051
id507	sample1	obj147	0.8769000630939667	-1.0906034850279605	2.8705249048222514	1.8081646809618432	4.191264992604245
id508	sample1	obj148	1.315279423383416	-3.159383292191775	1.134110989536088	4.117721072116299	2.4939091823234856
id509	sample1	obj149	1.77972924186355	-2.4091432118737135	1.6174273929763774	4.244532829741704	0.6954818628552564
id510	sample1	obj150	0.9436577381634452	-1.4323025040661552	0.4705909675576432	3.2807067273837074	4.102096093020034
id511	sample1	obj151	0.41407924910901217	-0.8155776711304277	2.5672885298865014	2.747807722701977	2.0160748525962005
id512	sample1	obj152	-0.7981588388806888	-1.7567925985212305	0.703460569731511	1.2066072173504154	1.501618903656901
id513	sample1	obj153	1.2160612695102813	-3.7197585490743137	0.8806061295442116	4.420456603757308	1.8995350550447865
id514	sample1	obj154	-1.3695533002598477	-2.6895129094296983	3.167553114992864	1.5653614754415217	0.7366346737773435
id515	sample1	obj155	1.094225051529092	-1.698484514736479	3.0820842575728236	1.6950186517880255	1.4489604473026216
id516	sample1	obj156	-0.004435885128196038	-2.831209787719291	0.5715210254550107	2.463684854058971	1.5630359974083075
id517	sample1	obj157	-0.35652201159594754	-2.427552429103464	1.1183753174142792	0.9935353390613031	1.4812541509552388
id518	sample1	obj158	1.7594479067927151	-2.257210822937167	2.1038837848289456	3.237162843491527	0.952955596300455
id519	sample1	obj159	0.5377268016036452	-0.5156121308080766	2.1102759652365695	2.302322664367315	1.0695999297497683
id520	sample1	obj160	1.540895146046319	-0.41767886806091425	-2.9771472396823766	-0.8563880893849973	1.7823104945868553
id521	sample1	obj161	2.732737636760821	0.3141299828336599	0.575742372518601	-0.8029088435511287	0.7297729315444759
id522	sample1	obj162	0.46173741352790776	-1.1479705910484954	-2.3158759197718566	1.1626305164971342	2.635689175821626
id523	sample1	obj163	0.9078934909439732	-0.03889545637068159	0.41418897035275193	0.2684656793005	0.7897904027634702
id524	sample1	obj164	0.7742121050699877	1.0778426539479582	-2.415045000730232	-0.20656550778844562	3.21452124483762
id525	sample1	obj165	3.1838974629994725	1.9680799356512726	-0.38497862290058626	-0.6454483319428586	0.6394256025457059
id526	sample1	obj166	0.7888527339871942	-0.9626973663091913	-2.9100696695733497	0.4755737857678397	0.3562261185250273
id527	sample1	obj167	2.821497960075524	-0.8810877907857231	-1.894445594339802	-1.9861501770108736	0.22942586752329164
id528	sample1	obj168	0.5983952847560896	-0.28453457893305645	0.20482292569132077	-1.1912134038480817	1.5961432088255338
id529	sample1	obj169	1.1965630186955731	1.081082996542731	-2.7283070232481386	-0.09113054755908645	2.937949641554873
id530	sample1	obj170	3.3696612898816323	1.398418868178035	0.36555443749725325	-0.31004266038048334	3.5362584698311545
id531	sample1	obj171	0.18929359860753503	0.4287216085115404	-0.7158237340031246	-0.023856848373183803	3.5023576705225317
id532	sample1	obj172	2.375492859293427	1.6750207932454633	-0.6577313457040417	0.21333998832636847	3.458305361746061
id533	sample1	obj173	2.582645964384671	0.025718824813289576	-1.0323596558335046	0.3710711529665234	0.21979505373254327
id534	sample1	obj174	1.4080516223739645	0.854878409280569	-2.870580293435299	-2.0680213707365125	1.7846522704456071
id535	sample1	obj175	0.09664486023738417	0.44353541346399905	0.43577102813124324	-0.07517132635715762	2.5799773450819004
id536	sample1	obj176	1.4350875659725306	1.098895908388381	-2.6266457647344077	-0.9825847587259107	2.1901604744349283
id537	sample1	obj177	0.4672938917586231	1.2839241980058385	-0.350511659984847	0.6226692673255056	1.7165314940463368
id538	sample1	obj178	2.3882888164311327	1.726412258686471	0.5875883751687809	-1.4058048333192876	3.4158955395505775
id539	sample1	obj179	3.392451326831991	-1.3948573579367582	0.2632460983223395	-1.081684575686129	2.343761620422839
id540	sample1	obj180	2.430485684341164	0.6376696621322513	0.35072811924921843	-0.5539008014705058	1.2859915112868454
id541	sample1	obj181	2.5916960902390533	-0.05998758808971694	-2.577841520373799	0.30166708889468663	1.9957123119319335
id542	sample1	obj182	0.7902467513774178	1.5489067889206354	-2.3946906344399856	1.3186050812048256	0.18045890086173055
id543	sample1	obj183	0.12611525524775247	1.3337496839620118	-1.5928745307728134	-0.10587110466156147	0.6295045925292289
id544	sample1	obj184	1.3277939052589969	-1.3941499957327563	-2.537755077508371	-0.058879847665052276	2.947059570836977
id545	sample1	obj185	3.0544120684615983	1.1066947941999954	-2.0932716788788817	-1.7883739069799656	2.8677736616431595
id546	sample1	obj186	3.056110545319908	-0.6472712685453712	0.006484262599483204	0.09342044962255902	0.15769485943603256
id547	sample1	obj187	2.901478267346689	-1.1032689299787535	-0.32006769030680204	-0.053257206686202485	0.12990430657107876
id548	sample1	obj188	3.0726701530032576	1.319209479801277	-1.3746263757982664	-2.1567892015187704	3.200190768150737
id549	sample1	obj189	1.4492144780620664	-0.8880996004570323	-0.9961443328113591	-0.27541446412430215	0.038915867909047996
id550	sample1	obj190	0.6991935286218531	-0.55141038890356	-0.12948597338921286	-0.6104252590145176	2.8812238056899977
id551	sample1	obj191	0.6522096180123347	-0.7049747289199332	-0.9809894967538455	0.5657774476874546	1.7905137187375444
id552	sample1	obj192	2.4763259276608105	-0.9868214659917953	0.5484539272660685	-1.8167351779317522	0.8447964950292682
id553	sample1	obj193	1.7781460221327299	0.5041181590574648	-0.573168481316477	1.0670051168316779	1.84852240433291
id554	sample1	obj194	1.9090019415135533	0.8237128015058499	0.09099513495065259	-0.33224409064914595	3.3475997723939974
id555	sample1	obj195	2.49150061413515	-0.465815503941468	0.14101074739472552	0.2340822638196991	0.6969905142199742
id556	sample1	obj196	1.2825022953250098	0.21009933565904748	-1.2705042874233592	0.2252330399963005	0.1557333805746064
id557	sample1	obj197	0.9112414395733026	1.5218272075793096	-1.906726461442937	1.3029874925853047	2.8572887140780754
id558	sample1	obj198	2.1585105621467315	0.71096816776877	-2.230666356344165	-0.11436136323607937	1.066469384362185
id559	sample1	obj199	0.8455616275976541	1.1327822416976023	-0.777469448873138	-1.756088431642592	2.2498456569086134
id560	sample1	obj200	0.8816665387346942	1.1929829471178064	0.20560027716283957	-2.0803453912331245	1.1806800334305456
id561	sample1	obj201	3.615718783528439	-0.5103293171203105	0.4548423100000678	0.8294925624957579	0.10481718091680947
id562	sample1	obj202	1.34940363481041	1.073593478233067	-2.634852448883902	-0.3365619715166961	0.6082283345453898
id563	sample1	obj203	0.6409026653104324	-0.1802794129829517	-1.8479070918689542	-0.7459765504896252	3.1589396515760555
id564	sample1	obj204	2.1789536291672693	-1.0655962519304807	0.5917350717453977	-2.1488519300648505	2.8176841629304645
id565	sample1	obj205	2.9471288165092107	-0.769432350953538	-0.20346444188769763	-0.7768237448353126	0.5450645985418339
id566	sample1	obj206	0.4184337863135046	0.3450609479292497	-0.9141997031162357	0.17876202608980107	1.3818191459618219
id567	sample1	obj207	3.4930360386283485	1.5353974879181995	-2.6303586785776707	-0.03944621429042017	0.427711675066502
id568	sample1	obj208	1.3706217570453272	0.7967706157992736	-2.303478348553023	-1.0732576726110024	0.7596290938576207
id569	sample1	obj209	3.668312747769714	-0.26518545573536323	0.306952313388152	0.2659934521024432	2.1579423606473087
id570	sample1	obj210	3.071273980493924	-1.403232459269879	-1.3378668396575468	-1.32645177928997	2.380568563434357
id571	sample1	obj211	1.6333686352630856	1.4163374993409505	-0.070218998768391	0.3703135525431731	1.5462488409451745
id572	sample1	obj212	0.6079873159026423	-1.1901608290649746	-1.0551590271806452	-1.5769966113617186	0.05332563706419813
id573	sample1	obj213	1.2442573628708564	-0.5515605951225426	-2.1637600524446037	-0.9965439045428954	1.8400419122504363
id574	sample1	obj214	3.0722435141777993	-0.5697368169766117	0.41958219918240114	0.4220440525908449	1.640603454155271
id575	sample1	obj215	0.944747401130395	0.7245634574659119	-1.3217760615531209	0.227749879800198	2.742713613497136
id576	sample1	obj216	0.506414198817938	0.5272868734870324	-2.24874204905039	-1.6386094949016763	2.623015903328488
id577	sample1	obj217	1.407828989410173	0.15356226759617497	-0.14238986068728576	-0.014722027404475702	3.124140134572327
id578	sample1	obj218	0.9391496508935193	-1.4704588596010075	-2.4670380106441945	0.9301979885224017	2.0193474726063076
id579	sample1	obj219	1.271834431798138	0.3965245735564198	-0.6559205419121177	-2.0318962359604864	3.5478810139963013
id580	sample1	obj220	1.6967100198099836	1.898547642587593	-2.641881763876508	1.236760947563911	3.337064910482483
id581	sample1	obj221	2.0417422839393837	-1.5840320096207292	-0.3513937290285962	-0.8576270304217652	1.5782218828959964
id582	sample1	obj222	0.6344421371234474	-0.011255959263420712	-2.637670779777287	-1.189142851380357	1.1961114796782764
id583	sample1	obj223	0.11412297177973452	0.5318921924227642	-2.619198901563999	1.0420758539515782	0.030598748096926087
id584	sample1	obj224	2.5517429623684746	1.9012167332354364	0.1961307814627371	-1.2306620913764492	2.0006537999782195
id585	sample1	obj225	0.3345773712533584	1.5702035295096082	-0.625066167474863	-0.20448234576248514	2.291831176811801
id586	sample1	obj226	2.6354942295070263	-1.3894030993889293	-0.42226330788643573	0.25508231357948774	2.527592048483755
id587	sample1	obj227	0.3094084228260907	0.04253614487161772	0.08860410807984587	-0.24268573953173567	0.761983396610892
id588	sample1	obj228	2.721089859343751	1.1793406937178752	0.5252478551736621	-2.149548361648006	3.557286132128339
id589	sample1	obj229	0.5767678365722306	0.4872276227217631	0.5670738896220959	-1.9289384094347002	2.9642333865052475
id590	sample1	obj230	0.9511470140868622	-0.40458020911485537	-2.645396065922185	-0.03817895429060214	0.6596744194102651
id591	sample1	obj231	1.683116941917813	0.952482090833809	-1.521260989089618	1.3335681355356395	3.4120584712060733
id592	sample1	obj232	0.24097237678300343	0.6613526596793766	-2.7260375145054114	-0.536447617166276	2.679461565431394
id593	sample1	obj233	2.2902628085346812	-0.06411166287269365	0.4941576767849225	0.45325671527254685	0.41165705064948743
id594	sample1	obj234	3.3558068005840447	0.423930926386175	-1.4923362621294476	0.995214517880852	2.0305675311675424
id595	sample1	obj235	0.49479747886434833	0.9283104665142663	-1.6671267869802264	-1.7791624686467686	1.6401575034015214
id596	sample1	obj236	1.357756922074476	-0.021505917965357835	-0.2184117328798727	-1.2375250477507453	2.9001306208091
id597	sample1	obj237	2.046527332374752	1.9464836503072551	-2.0372581488731836	0.2265000186137167	2.4271531177342274
id598	sample1	obj238	2.5483543456731574	1.8837695634890308	-0.6605140361857165	-1.77418892084316	0.7705201966671663
id599	sample1	obj239	1.7327944870618082	1.5226798796370182	-2.165312660319368	0.8569973733085072	3.3590953543493773
id600	sample1	obj240	-0.8028366329066174	1.6018750133559814	-1.3823214546009908	-2.5359448592326537	-3.1850037815703764
id601	sample1	obj241	-4.1615839300451825	2.17681229680041	4.509397983335594	-1.5457213091013127	4.204574055067023
id602	sample1	obj242	2.724155930719997	1.5183670711673616	-2.4056165968313987	1.6370550274456683	0.9990859402836929
id603	sample1	obj243	1.625817723492679	-1.0625265065961857	-1.2878918165698192	-3.578514568905591	4.072059442632165
id604	sample1	obj244	-2.0482533116405364	2.160768129487235	-3.617842781085566	-1.6885353408370438	1.6092961436146973
id605	sample1	obj245	-3.3210048598981725	2.4560341789147966	0.9039803429165396	-0.9223124995474812	-2.761791820287246
id606	sample1	obj246	-0.765721439283056	-0.5862176485024768	0.5237312669912664	-2.5626672853205426	-1.4836749841782735
id607	sample1	obj247	1.588767441688066	-0.8425925466838844	-2.5959732380525247	3.119623505399405	2.8406217784931953
id608	sample1	obj248	-0.9301282498416044	1.2716821616774654	-2.8882584975959156	1.0966234217192679	-1.7374802625516799
id609	sample1	obj249	-2.7151582632158493	0.8154514443963465	-3.695493866714348	-3.7836680227582997	-3.5714343277328346
id610	sample1	obj250	-1.9440769620335676	-0.5131434864152535	2.7161203829929965	-0.200446057464988	-3.0878345286038034
id611	sample1	obj251	-3.82704053985981	-1.6080329169104586	-2.4664792040633534	-2.0976822908356416	1.7673083053773526
id612	sample1	obj252	1.3008680941205741	-0.4327961463074368	1.4015139032474553	0.35919360940453715	-1.8849920894137822
id613	sample1	obj253	-0.2358186919243972	-1.8520191102892556	3.322154642580883	2.045276506196684	-1.6677758549290236
id614	sample1	obj254	3.285237223708582	0.2529829894496144	-2.042548532038688	-1.6252852764838455	-0.247566053769382
id615	sample1	obj255	-3.1528803499467304	-0.15153896928928168	2.3738569851404656	2.85578381689752	-0.9396503808520109
id616	sample1	obj256	-0.04605667960453674	-1.4291317848777199	-1.340124398197093	3.645942252604658	2.4174883842637973
id617	sample1	obj257	-3.231647989834266	1.1669337970100122	-4.036530564965359	1.538455621360645	-1.724784894305246
id618	sample1	obj258	-1.3904145580244884	3.4727620440659566	0.30886475121314416	-2.895509710794729	-2.36324174661521
id619	sample1	obj259	0.27750718316201906	-0.9031643253348818	1.6689389060009718	-0.5989932729630563	1.4777636818497661
id620	sample1	obj260	2.4880631013559302	0.9578207205717837	0.047836070333299174	1.847500933172566	-2.9719819594092822
id621	sample1	obj261	-3.0889119840337376	1.9778238337272955	-1.2341269500622893	-1.039327333217553	-1.488178153780243
id622	sample1	obj262	2.663184274854596	0.27058853917141357	1.5163698839079887	-1.2586756970071267	-2.6730788437480273
id623	sample1	obj263	3.116571942831005	-1.816164855587391	-2.4264043819800687	-0.18945558786313055	2.767889362163146
id624	sample1	obj264	-0.8262403699814658	0.7625624996865554	-0.5193865252069272	-3.3945097890668854	-0.9009350927383641
id625	sample1	obj265	1.5638304443357256	1.347048324589152	-3.0791220992970594	-2.8364051283170504	-0.9635130807872208
id626	sample1	obj266	-1.6629480804641568	-3.414687926949015	-1.2278502826991624	-0.9998685137215824	-0.36140100329523683
id627	sample1	obj267	-0.6089976285497818	3.32683207134197	1.5546677638553215	-1.3841215609217934	1.973669003489267
id628	sample1	obj268	3.8506798678795295	1.380812526888375	-2.92716546093149	-1.3444542286841596	-1.433359762211932
id629	sample1	obj269	-3.299549539600942	0.607923117046272	-2.8679881840405934	-3.9128351296672985	0.21743242122733775
id630	sample1	obj270	2.2484640874002384	-3.1186054716449294	-3.7684064158744865	-1.511105779526734	-1.3743482912826568
id631	sample1	obj271	0.017482561884469616	0.5045758278962917	2.5931516050178143	-3.2660976669298263	2.2398525992822877
id632	sample1	obj272	-2.9655362107370307	1.0095833901804556	-1.7175029644961926	-2.6671079728666216	-0.9450190245017251
id633	sample1	obj273	-0.5560736789401035	0.47216715237793827	-2.4438854658496982	-1.7732164199055356	-1.9240504868754023
id634	sample1	obj274	-0.012008333094330359	0.032779694907964396	2.076868429619002	-2.9359731558149083	-3.242085302545584
id635	sample1	obj275	0.9922797960630414	3.1705178587386973	2.699745267636664	1.203298029178909	-1.3658516845423188
id636	sample1	obj276	-1.4735749398658349	1.940986939277766	1.1327340293562906	3.6901652669871177	1.2084681078882886
id637	sample1	obj277	-0.8873143602522696	2.1945823773487296	-2.645866230566314	-2.113673001431053	-0.777624819798955
id638	sample1	obj278	0.47851427197635865	2.872456225287257	0.3943116512677791	-1.721098679793945	-0.5054412160843362
id639	sample1	obj279	0.3032564063377883	-0.43587487658133983	2.3991054543573576	2.2615239761826444	-2.504495744721803
id640	sample1	obj280	-2.3039498096014537	0.6330136050217816	-0.707579543827807	4.173104681396805	0.7751165311044073
id641	sample1	obj281	-2.511983179348931	-2.252586853225348	1.737564449627302	-1.4867207470202597	-1.4821413889638246
id642	sample1	obj282	1.475569624654057	1.1169762086072887	-0.3720445294709769	3.2885669249072365	0.33107354187210825
id643	sample1	obj283	1.6803651335866596	2.677162979472951	-0.3257127871572425	-2.676338339648054	3.484338489682977
id644	sample1	obj284	2.979498971624828	-1.6366069334084454	2.8565902719528466	0.10506001716368885	-1.7712046991429504
id645	sample1	obj285	-0.6303762121425633	-2.721910624652126	-1.5156070644599535	4.15919334457105	-1.7335763971701608
id646	sample1	obj286	-2.9459847960581165	0.44277032525072024	0.5578027358912276	3.544393785664198	3.674317797887821
id647	sample1	obj287	2.543645048901019	-2.5957318313983953	2.5119804435837665	-0.990470200309417	0.03883030940426191
id648	sample1	obj288	-2.6751171412075223	0.2282028304321566	2.7537191716519533	-2.11539492597624	1.4206894103244359
id649	sample1	obj289	3.940891086798314	1.5992452559605248	1.2629849899042427	-0.6069631871090955	-0.586418064246726
id650	sample1	obj290	-3.465904581196467	0.727665339708053	-1.6451088351930296	-2.534973509374413	-1.2901002103932167
id651	sample1	obj291	1.650351628227454	3.926320848170241	-0.38155871511896744	0.17128104503850028	1.654683626232418
id652	sample1	obj292	-1.1815090201866063	-4.034596344819501	-0.5948540533744804	4.660530567170672	0.6485608232274429
id653	sample1	obj293	-0.08202480219515862	1.491700196890452	0.9633683510637587	3.739024698035635	-3.1560050109911875
id654	sample1	obj294	2.063322146798101	-0.6257895899608592	-0.48740911399301623	-2.1336955529164032	-2.5356908737043984
id655	sample1	obj295	4.2637011932216025	-2.8318266162895442	0.8843364620589198	-3.286411431218289	-1.5109764112822397
id656	sample1	obj296	-3.68484094867568	1.9878386194426767	0.5156795235818137	0.24818053726659417	1.0182249338674272
id657	sample1	obj297	3.3170596186346097	3.504526798770083	-0.09679833403951954	1.5965750457232577	0.5343377465126398
id658	sample1	obj298	-2.180617301313223	0.692357958320702	1.5962161426365677	-3.6433669768572567	3.0406623432425004
id659	sample1	obj299	0.8204618379179147	-1.1017623222796133	0.47763904828425563	-0.31439855312972154	-0.8121613491106965
id660	sample1	obj300	2.447098182309219	1.6174944276546233	0.2898087863132608	1.5984175446909086	2.7698761772861964
id661	sample1	obj301	2.6077447501414524	-0.3509865506335035	-1.4523506274941438	-0.7203592739783636	-3.2300334558616957
id662	sample1	obj302	1.525327328053433	-0.6391699827032433	1.1901301897071999	-1.274168059765642	3.4371517070395683
id663	sample1	obj303	-1.8650193500531602	-0.2321408481814562	-3.110727943289465	1.0320381811673975	1.4617741473034036
id664	sample1	obj304	-2.3333611163338888	2.2347820126796045	0.312992588529023	2.034063957106052	-3.9827872024382054
id665	sample1	obj305	2.0619101353293043	3.849893915261423	-3.435335000866422	3.490988182094301	-1.3385947061716914
id666	sample1	obj306	-1.527045538199311	-2.2016782633446295	0.3904812279944061	-3.931005580886919	-0.3191042967423119
id667	sample1	obj307	-0.17412004998910957	2.0884490399270152	1.0971793362234177	-1.750156972943536	1.962419546783615
id668	sample1	obj308	3.159800594668172	2.196637430868601	0.3889639832915648	-0.4874743727751967	-3.168849207756618
id669	sample1	obj309	-2.026365417056303	3.1093395632344323	-3.600856855221182	-2.1406632211692544	-1.5974979162954188
id670	sample1	obj310	1.7759824569287315	-0.9577786661304328	-3.415111762530387	2.006672878808316	0.348833078569456
id671	sample1	obj311	1.6287936829613094	-0.15119828938334123	1.0165721887787782	2.685323101402842	0.6699332228263561
id672	sample1	obj312	3.851075688825274	2.1744419251866463	3.211304233722811	-0.09037146229745718	2.3108537088222754
id673	sample1	obj313	0.6244453576352389	-0.3192265680490325	3.346799294472775	-1.0848016826044942	3.1486501538284517
id674	sample1	obj314	-0.5121365821772945	0.10555308509532257	-2.167591246284071	-1.6028840914560896	2.098847900360104
id675	sample1	obj315	-0.7381792770376601	1.1687181909173059	-0.20011253883796964	-0.7356040077690087	-1.3139595292307016
id676	sample1	obj316	-0.11676285810668952	-2.7660594870517707	-0.5073025619315275	4.661469469821241	3.689466253419698
id677	sample1	obj317	-2.7431284228408646	0.3679860426911159	-3.3746964757325593	-1.8508184725487704	0.17322024967957872
id678	sample1	obj318	-1.8486806953554111	-0.4637608261252506	3.5335570744186446	0.22696448307297	0.9965483579618886
id679	sample1	obj319	-2.809007096766164	-3.3977166737952817	-1.4681620411412546	-1.2749246385525728	2.6370856866464227
id680	sample1	obj320	4.368526478361025	1.1122468459296184	-1.9947980374530054	3.5167276536931587	-0.05126561902952109
id681	sample1	obj321	-2.491813129372585	0.5755322330909471	-1.1646561166397391	2.7260407928617667	-0.31864237774162985
id682	sample1	obj322	1.266959800645573	3.14280489767376	1.725150970471318	-2.474299197668503	1.7706925354904193
id683	sample1	obj323	4.071634193786297	0.4478879749144118	-0.889041126598392	-2.5923681912804852	1.7519072612271498
id684	sample1	obj324	-0.6692659414187616	-2.1927876291869652	-1.5750433878484495	-3.0970961904482293	2.420654640170958
id685	sample1	obj325	-0.7940885389607228	0.55516405693471	0.9522880974684071	1.3016866456373635	-2.816844397481655
id686	sample1	obj326	-2.6823665323950765	0.986911868325191	2.6850034028455427	2.52060179384591	0.9551084131940588
id687	sample1	obj327	2.3740671455663653	-1.4213780441589405	-0.2038571584610669	-0.28578305317796704	2.398983870751401
id688	sample1	obj328	2.3522467813286174	-2.6030133489845912	-1.7326196615564944	1.4232162527715149	1.7373861332764007
id689	sample1	obj329	2.8734148169488316	-0.6347626246102138	4.198738420272561	-0.16059352437144914	-3.355552385672385
id690	sample1	obj330	1.0334167973754478	-3.0123038039828	1.0354048368090505	-0.7354900424659743	3.0629244027821527
id691	sample1	obj331	-1.2821024979699398	-0.15169829151003822	-0.8489010282151461	0.23603103682926885	4.234260114379571
id692	sample1	obj332	-1.4987153066390617	0.9246169125165173	-2.810939969770001	0.8744281458650518	0.7343961043239449
id693	sample1	obj333	1.1162629786690685	-2.3914207507863714	-0.40315935849523155	3.302049489808061	0.4976036010051912
id694	sample1	obj334	-0.3498343434292013	0.788287606806332	-2.7045682186512137	-2.935966772536669	0.13255276493433965
id695	sample1	obj335	0.4267281533028908	0.38032704139218443	-3.409025999819526	-1.8360706210408608	1.092859529383072
id696	sample1	obj336	-2.090828661285329	-1.7224975849724762	0.8969051364282701	1.206423261498388	-2.323665240164087
id697	sample1	obj337	-4.591859172973119	2.1564713434280574	-3.1592561865292415	1.4857985641125049	-0.24624167751942538
id698	sample1	obj338	0.9644268779488918	2.797121117646018	-3.1303638930838353	0.38114256372736577	-3.831322999527238
id699	sample1	obj339	-2.6311547557704054	-2.4845374960451334	-0.6765716169007436	3.545306826508546	-0.2664779433834472
id700	sample1	obj340	-3.8535424486022984	3.0088482080174126	-0.11048556177574675	-0.808380923595504	0.7829305204229255
id701	sample1	obj341	-2.1186705070923075	-2.464624046542523	0.2251967683903715	1.5847174556725283	3.1493899123666598
id702	sample1	obj342	2.230769513153734	-1.8360424712788013	-0.6658548227815289	1.6028155656915393	-0.852476225269674
id703	sample1	obj343	0.42203119936211886	-0.3663387851908364	2.398259571677234	1.1783328832353168	0.46612268074713525
id704	sample1	obj344	2.3833303716613043	3.6538227984173774	-1.255882959767631	-1.6420938630386452	-0.6995885735521283
id705	sample1	obj345	-0.8326447047005738	-3.6769209567462076	1.4983194552038395	-1.1556127459110106	0.0667368331064957
id706	sample1	obj346	-1.4321862284830496	1.74430896399675	-3.585761426054912	2.0908235553943832	-1.7102114570792195
id707	sample1	obj347	-0.5324724912058232	1.1817288671643986	-4.211237701027016	-1.395102407817079	-2.298947911502404
id708	sample1	obj348	-1.96913786419043	-0.9561490395393022	2.034800320402801	2.3548679056947153	1.5435290956221424
id709	sample1	obj349	1.337313052023063	-0.8779086639716043	-0.13689954297587303	1.9720530627104638	1.664786458716044
id710	sample1	obj350	1.8170354967792506	-0.15006785247142163	1.052063003244572	3.4289745823291407	-1.8023285862493372
id711	sample1	obj351	-1.442026435423384	-1.4323484654945837	-2.801221783729094	1.5475522511280497	1.087468182773251
id712	sample1	obj352	2.3201803042731957	2.9062075052816985	-1.8251351135633638	-1.759929295781205	-0.17439075089949907
id713	sample1	obj353	3.172764771709366	2.7284956949220724	0.3089405826814604	3.717617685714232	0.6891710825971409
id714	sample1	obj354	1.4160611797103995	-0.46781710526474085	1.0436834275745266	0.8042613076529859	0.9361419701500269
id715	sample1	obj355	-0.8219096956362235	0.995022619519635	0.416323510453936	-2.3117970950400957	2.2010248049411536
id716	sample1	obj356	-4.069852326831244	-1.6281347570844718	-3.4407175857084256	1.7338985380543253	0.08536551032596018
id717	sample1	obj357	-1.3900340545156151	1.985951821804749	0.4092410558483459	2.9791799185507273	-2.8635224505724572
id718	sample1	obj358	-3.763866884476021	-0.3938824895171049	-1.8898164892910498	-1.931768649404793	1.0232947928683307
id719	sample1	obj359	-2.4784032299106125	-1.7712248223487397	3.274307939825513	-1.307731816224503	0.8297969765843141
