	-0.9486444903067266	0.758233196121437	0.3911713928469691	1.9884084865485847	1.2541046081089808
	1.1009406724555189	0.34916634808358626	-1.1090352355918078	-1.8363938203582073	2.854554885790837
	2.2067879424658416	-2.9107474787757086	-2.2308670018714754	1.3914543891261355	0.09924629835411292
