obj0	obj133
obj0	obj176
obj341	obj0
obj164	obj1
obj224	obj1
obj2	obj77
obj3	obj75
obj3	obj93
obj122	obj3
obj162	obj3
obj3	obj208
obj4	obj74
obj79	obj4
obj108	obj4
obj4	obj215
obj4	obj216
obj4	obj250
obj4	obj284
obj5	obj100
obj111	obj5
obj5	obj270
obj113	obj6
obj6	obj165
obj178	obj6
obj182	obj6
obj7	obj56
obj312	obj7
obj8	obj35
obj346	obj8
obj7	obj9
obj282	obj9
obj10	obj44
obj134	obj10
obj10	obj186
obj340	obj10
obj11	obj198
obj11	obj295
obj301	obj11
obj77	obj12
obj12	obj345
obj61	obj13
obj14	obj128
obj14	obj135
obj215	obj14
obj353	obj14
obj15	obj81
obj274	obj15
obj321	obj15
obj16	obj66
obj136	obj16
obj220	obj16
obj355	obj16
obj8	obj17
obj17	obj94
obj55	obj18
obj344	obj18
obj19	obj61
obj98	obj19
obj19	obj99
obj19	obj157
obj253	obj19
obj200	obj20
obj255	obj20
obj20	obj266
obj174	obj21
obj205	obj21
obj21	obj273
obj21	obj293
obj308	obj21
obj22	obj351
obj23	obj120
obj208	obj23
obj23	obj268
obj24	obj7
obj22	obj24
obj113	obj25
obj210	obj25
obj25	obj353
obj100	obj26
obj110	obj26
obj178	obj26
obj124	obj27
obj298	obj27
obj27	obj358
obj28	obj114
obj28	obj213
obj315	obj28
obj28	obj317
obj198	obj29
obj231	obj29
obj29	obj307
obj347	obj29
obj143	obj30
obj283	obj30
obj338	obj30
obj353	obj30
obj31	obj58
obj31	obj78
obj97	obj31
obj215	obj31
obj256	obj31
obj278	obj31
obj31	obj324
obj78	obj32
obj32	obj169
obj32	obj237
obj32	obj259
obj288	obj32
obj71	obj33
obj277	obj33
obj345	obj33
obj34	obj91
obj34	obj333
obj129	obj35
obj35	obj180
obj35	obj286
obj318	obj35
obj37	obj51
obj38	obj91
obj38	obj121
obj270	obj38
obj313	obj38
obj38	obj320
obj141	obj39
obj178	obj39
obj39	obj342
obj197	obj40
obj41	obj28
obj31	obj41
obj41	obj37
obj41	obj55
obj41	obj95
obj42	obj90
obj185	obj42
obj42	obj264
obj42	obj304
obj22	obj43
obj71	obj43
obj43	obj216
obj5	obj44
obj44	obj46
obj95	obj44
obj44	obj193
obj225	obj44
obj250	obj44
obj280	obj44
obj4	obj45
obj287	obj45
obj45	obj302
obj102	obj46
obj46	obj264
obj308	obj46
obj349	obj46
obj47	obj222
obj47	obj255
obj48	obj224
obj49	obj244
obj271	obj49
obj301	obj50
obj50	obj328
obj21	obj51
obj51	obj26
obj51	obj130
obj52	obj93
obj52	obj173
obj52	obj209
obj254	obj52
obj52	obj291
obj53	obj269
obj339	obj53
obj343	obj53
obj1	obj54
obj58	obj54
obj101	obj54
obj54	obj165
obj181	obj54
obj54	obj258
obj54	obj322
obj69	obj55
obj55	obj91
obj210	obj55
obj55	obj211
obj212	obj55
obj226	obj55
obj55	obj239
obj298	obj55
obj308	obj55
obj56	obj28
obj258	obj56
obj56	obj318
obj31	obj57
obj190	obj57
obj57	obj236
obj57	obj242
obj357	obj57
obj105	obj58
obj58	obj126
obj171	obj58
obj58	obj199
obj59	obj165
obj266	obj59
obj59	obj347
obj70	obj60
obj167	obj60
obj61	obj70
obj61	obj204
obj61	obj258
obj62	obj51
obj62	obj138
obj218	obj62
obj232	obj62
obj307	obj62
obj42	obj63
obj96	obj63
obj63	obj146
obj63	obj335
obj64	obj64
obj64	obj173
obj187	obj64
obj351	obj65
obj66	obj54
obj204	obj66
obj226	obj66
obj66	obj286
obj333	obj66
obj66	obj341
obj199	obj67
obj249	obj67
obj67	obj270
obj78	obj68
obj322	obj68
obj348	obj68
obj24	obj69
obj69	obj101
obj69	obj104
obj138	obj69
obj69	obj205
obj251	obj69
obj110	obj70
obj70	obj133
obj71	obj89
obj21	obj72
obj72	obj30
obj47	obj72
obj48	obj72
obj169	obj72
obj72	obj276
obj91	obj73
obj124	obj73
obj186	obj73
obj73	obj277
obj348	obj73
obj74	obj44
obj74	obj65
obj74	obj255
obj6	obj75
obj233	obj75
obj75	obj261
obj75	obj304
obj76	obj128
obj159	obj76
obj164	obj76
obj76	obj199
obj76	obj223
obj116	obj77
obj157	obj77
obj77	obj161
obj77	obj236
obj257	obj77
obj40	obj78
obj78	obj175
obj176	obj79
obj265	obj79
obj356	obj79
obj34	obj80
obj80	obj56
obj332	obj80
obj92	obj81
obj110	obj81
obj250	obj81
obj134	obj82
obj166	obj82
obj82	obj188
obj82	obj226
obj250	obj82
obj276	obj82
obj284	obj82
obj83	obj146
obj83	obj149
obj83	obj201
obj83	obj209
obj83	obj295
obj345	obj83
obj84	obj37
obj164	obj84
obj313	obj84
obj85	obj168
obj183	obj85
obj85	obj301
obj318	obj85
obj86	obj150
obj86	obj163
obj86	obj211
obj263	obj86
obj86	obj321
obj87	obj98
obj272	obj87
obj87	obj344
obj88	obj13
obj298	obj88
obj88	obj357
obj79	obj89
obj107	obj89
obj89	obj255
obj324	obj89
obj4	obj90
obj12	obj90
obj90	obj96
obj108	obj90
obj90	obj261
obj90	obj273
obj91	obj69
obj91	obj99
obj91	obj114
obj131	obj91
obj169	obj91
obj92	obj154
obj342	obj92
obj93	obj43
obj93	obj241
obj93	obj247
obj74	obj94
obj310	obj94
obj23	obj95
obj99	obj95
obj95	obj349
obj96	obj167
obj96	obj179
obj245	obj96
obj35	obj97
obj98	obj97
obj164	obj97
obj175	obj97
obj121	obj98
obj98	obj349
obj167	obj99
obj99	obj249
obj173	obj100
obj100	obj217
obj10	obj101
obj101	obj44
obj101	obj119
obj102	obj4
obj214	obj102
obj220	obj102
obj102	obj254
obj102	obj280
obj103	obj64
obj82	obj103
obj103	obj194
obj103	obj268
obj104	obj20
obj74	obj104
obj104	obj79
obj147	obj104
obj104	obj164
obj198	obj104
obj210	obj104
obj104	obj256
obj104	obj268
obj270	obj104
obj105	obj53
obj105	obj92
obj106	obj128
obj106	obj316
obj330	obj106
obj107	obj59
obj230	obj107
obj107	obj335
obj108	obj21
obj43	obj108
obj237	obj108
obj108	obj295
obj109	obj209
obj307	obj109
obj23	obj110
obj110	obj170
obj110	obj217
obj110	obj239
obj182	obj111
obj113	obj11
obj27	obj113
obj255	obj113
obj113	obj299
obj325	obj113
obj350	obj114
obj114	obj356
obj115	obj35
obj115	obj82
obj142	obj115
obj185	obj115
obj115	obj229
obj116	obj65
obj215	obj116
obj304	obj116
obj225	obj117
obj233	obj117
obj117	obj334
obj12	obj118
obj58	obj118
obj106	obj118
obj340	obj118
obj118	obj354
obj77	obj119
obj119	obj172
obj119	obj257
obj92	obj120
obj111	obj120
obj120	obj147
obj155	obj120
obj120	obj310
obj121	obj5
obj121	obj130
obj121	obj281
obj70	obj122
obj122	obj252
obj259	obj122
obj122	obj341
obj123	obj6
obj123	obj102
obj12	obj124
obj36	obj124
obj124	obj266
obj315	obj124
obj125	obj18
obj125	obj50
obj125	obj112
obj125	obj266
obj326	obj125
obj286	obj126
obj161	obj127
obj127	obj203
obj322	obj127
obj293	obj128
obj3	obj129
obj129	obj112
obj129	obj115
obj129	obj136
obj129	obj328
obj130	obj12
obj27	obj130
obj38	obj130
obj114	obj130
obj117	obj130
obj129	obj130
obj191	obj130
obj268	obj130
obj130	obj281
obj130	obj290
obj131	obj106
obj131	obj290
obj140	obj132
obj132	obj185
obj133	obj60
obj133	obj104
obj174	obj133
obj181	obj133
obj56	obj134
obj134	obj242
obj75	obj136
obj78	obj136
obj136	obj79
obj109	obj136
obj154	obj136
obj136	obj273
obj136	obj293
obj16	obj137
obj22	obj137
obj137	obj285
obj347	obj137
obj116	obj138
obj138	obj124
obj139	obj15
obj139	obj128
obj139	obj165
obj139	obj274
obj139	obj295
obj140	obj69
obj231	obj140
obj108	obj141
obj141	obj272
obj175	obj142
obj142	obj184
obj217	obj142
obj255	obj143
obj143	obj308
obj343	obj143
obj345	obj143
obj144	obj40
obj124	obj144
obj144	obj129
obj139	obj144
obj144	obj180
obj358	obj144
obj145	obj146
obj303	obj145
obj339	obj145
obj53	obj146
obj82	obj146
obj146	obj196
obj146	obj205
obj147	obj53
obj102	obj147
obj128	obj147
obj147	obj149
obj147	obj287
obj147	obj316
obj147	obj322
obj34	obj148
obj256	obj148
obj148	obj319
obj149	obj49
obj88	obj149
obj149	obj222
obj149	obj283
obj78	obj150
obj150	obj85
obj351	obj150
obj95	obj151
obj151	obj215
obj224	obj151
obj151	obj251
obj260	obj151
obj78	obj152
obj89	obj152
obj144	obj152
obj172	obj152
obj152	obj320
obj358	obj152
obj37	obj153
obj153	obj84
obj153	obj341
obj154	obj74
obj130	obj154
obj154	obj163
obj154	obj196
obj154	obj320
obj155	obj158
obj201	obj155
obj155	obj330
obj155	obj353
obj149	obj156
obj156	obj202
obj234	obj156
obj157	obj65
obj157	obj140
obj157	obj256
obj278	obj157
obj307	obj157
obj317	obj157
obj157	obj330
obj158	obj196
obj158	obj328
obj158	obj350
obj62	obj159
obj108	obj159
obj144	obj159
obj159	obj195
obj269	obj159
obj159	obj345
obj160	obj38
obj160	obj43
obj161	obj82
obj161	obj206
obj263	obj161
obj287	obj161
obj154	obj162
obj162	obj285
obj163	obj6
obj209	obj163
obj253	obj163
obj11	obj164
obj32	obj164
obj164	obj283
obj164	obj329
obj13	obj165
obj50	obj165
obj165	obj205
obj4	obj166
obj77	obj167
obj92	obj167
obj167	obj153
obj208	obj167
obj154	obj168
obj168	obj230
obj168	obj273
obj169	obj15
obj44	obj169
obj60	obj169
obj61	obj169
obj82	obj169
obj169	obj183
obj169	obj350
obj130	obj170
obj170	obj159
obj198	obj170
obj170	obj205
obj329	obj170
obj128	obj171
obj171	obj139
obj171	obj291
obj292	obj171
obj201	obj172
obj172	obj221
obj306	obj172
obj172	obj335
obj347	obj172
obj358	obj172
obj173	obj30
obj154	obj173
obj317	obj173
obj174	obj88
obj174	obj151
obj173	obj174
obj174	obj192
obj174	obj264
obj175	obj112
obj175	obj213
obj176	obj158
obj176	obj159
obj311	obj176
obj323	obj176
obj177	obj63
obj177	obj64
obj177	obj296
obj179	obj39
obj179	obj89
obj222	obj179
obj29	obj180
obj180	obj55
obj180	obj61
obj208	obj180
obj340	obj180
obj180	obj341
obj43	obj181
obj181	obj47
obj114	obj181
obj182	obj126
obj208	obj182
obj182	obj358
obj183	obj24
obj82	obj183
obj183	obj242
obj183	obj247
obj136	obj184
obj274	obj184
obj184	obj285
obj185	obj69
obj253	obj185
obj186	obj41
obj52	obj186
obj172	obj186
obj187	obj8
obj65	obj187
obj125	obj187
obj187	obj199
obj187	obj223
obj270	obj187
obj332	obj187
obj187	obj336
obj188	obj119
obj188	obj150
obj188	obj313
obj326	obj188
obj189	obj57
obj189	obj85
obj189	obj123
obj189	obj307
obj189	obj309
obj190	obj317
obj57	obj191
obj191	obj64
obj191	obj327
obj192	obj1
obj192	obj92
obj192	obj109
obj192	obj120
obj236	obj192
obj74	obj193
obj156	obj193
obj285	obj193
obj193	obj350
obj194	obj127
obj194	obj209
obj325	obj194
obj194	obj329
obj194	obj338
obj76	obj195
obj195	obj325
obj196	obj46
obj95	obj196
obj145	obj196
obj168	obj196
obj196	obj250
obj256	obj196
obj274	obj196
obj157	obj197
obj227	obj197
obj294	obj197
obj197	obj298
obj197	obj328
obj333	obj197
obj346	obj197
obj68	obj198
obj273	obj198
obj11	obj199
obj199	obj279
obj281	obj199
obj200	obj158
obj200	obj320
obj3	obj201
obj201	obj55
obj201	obj186
obj201	obj232
obj206	obj202
obj203	obj121
obj203	obj138
obj204	obj15
obj46	obj204
obj204	obj63
obj204	obj104
obj204	obj128
obj205	obj177
obj205	obj180
obj325	obj205
obj357	obj205
obj206	obj7
obj206	obj61
obj206	obj151
obj206	obj211
obj294	obj206
obj206	obj331
obj207	obj47
obj207	obj84
obj174	obj207
obj207	obj200
obj230	obj207
obj208	obj36
obj63	obj208
obj81	obj208
obj149	obj208
obj161	obj208
obj129	obj209
obj210	obj43
obj94	obj210
obj132	obj210
obj159	obj210
obj210	obj174
obj202	obj210
obj15	obj211
obj35	obj211
obj149	obj211
obj234	obj211
obj211	obj302
obj211	obj303
obj211	obj323
obj20	obj212
obj278	obj212
obj212	obj291
obj310	obj212
obj19	obj213
obj69	obj213
obj192	obj213
obj261	obj213
obj214	obj75
obj288	obj214
obj214	obj337
obj24	obj215
obj215	obj87
obj215	obj278
obj339	obj215
obj350	obj215
obj216	obj40
obj320	obj216
obj193	obj217
obj217	obj296
obj217	obj353
obj218	obj358
obj219	obj23
obj219	obj41
obj103	obj219
obj220	obj15
obj220	obj142
obj220	obj174
obj209	obj220
obj13	obj221
obj18	obj221
obj220	obj221
obj221	obj299
obj221	obj309
obj222	obj96
obj145	obj222
obj222	obj227
obj259	obj222
obj267	obj222
obj222	obj345
obj34	obj223
obj80	obj223
obj249	obj223
obj260	obj223
obj223	obj348
obj65	obj224
obj207	obj224
obj292	obj224
obj327	obj224
obj224	obj355
obj225	obj32
obj225	obj83
obj225	obj322
obj7	obj226
obj226	obj333
obj36	obj227
obj201	obj227
obj186	obj228
obj207	obj228
obj218	obj228
obj54	obj229
obj229	obj265
obj101	obj230
obj230	obj237
obj252	obj230
obj230	obj272
obj230	obj292
obj242	obj231
obj312	obj231
obj231	obj331
obj85	obj232
obj217	obj232
obj304	obj232
obj31	obj233
obj233	obj84
obj93	obj233
obj234	obj4
obj23	obj234
obj234	obj80
obj207	obj234
obj235	obj107
obj220	obj235
obj248	obj235
obj236	obj288
obj305	obj236
obj237	obj68
obj305	obj237
obj318	obj237
obj47	obj238
obj51	obj238
obj66	obj238
obj238	obj129
obj238	obj175
obj238	obj187
obj238	obj201
obj113	obj239
obj240	obj18
obj241	obj34
obj152	obj241
obj120	obj242
obj242	obj123
obj242	obj213
obj242	obj238
obj243	obj69
obj243	obj216
obj337	obj243
obj340	obj243
obj244	obj183
obj178	obj245
obj233	obj245
obj67	obj246
obj150	obj246
obj160	obj246
obj246	obj162
obj196	obj246
obj246	obj215
obj225	obj246
obj295	obj246
obj206	obj247
obj247	obj303
obj247	obj311
obj247	obj339
obj39	obj248
obj248	obj74
obj92	obj248
obj248	obj94
obj248	obj146
obj321	obj248
obj65	obj249
obj249	obj174
obj249	obj279
obj31	obj250
obj250	obj219
obj250	obj263
obj327	obj250
obj346	obj250
obj250	obj358
obj251	obj170
obj221	obj251
obj326	obj251
obj251	obj344
obj10	obj252
obj252	obj40
obj252	obj65
obj73	obj252
obj99	obj252
obj136	obj252
obj140	obj252
obj252	obj205
obj252	obj274
obj252	obj333
obj351	obj252
obj253	obj272
obj319	obj253
obj254	obj71
obj88	obj254
obj161	obj254
obj254	obj269
obj255	obj55
obj204	obj255
obj63	obj256
obj256	obj78
obj256	obj236
obj257	obj146
obj257	obj219
obj257	obj282
obj227	obj258
obj258	obj327
obj72	obj259
obj259	obj121
obj259	obj263
obj259	obj267
obj260	obj94
obj123	obj260
obj260	obj158
obj174	obj260
obj260	obj214
obj260	obj328
obj261	obj196
obj197	obj261
obj198	obj261
obj261	obj265
obj262	obj258
obj263	obj26
obj264	obj143
obj264	obj147
obj264	obj153
obj206	obj264
obj10	obj265
obj265	obj167
obj265	obj184
obj314	obj265
obj84	obj266
obj266	obj328
obj266	obj348
obj350	obj266
obj91	obj267
obj204	obj267
obj267	obj260
obj280	obj267
obj88	obj268
obj268	obj234
obj269	obj4
obj29	obj269
obj269	obj110
obj166	obj269
obj351	obj269
obj270	obj44
obj73	obj270
obj295	obj270
obj271	obj260
obj272	obj15
obj272	obj182
obj272	obj256
obj19	obj273
obj30	obj273
obj42	obj273
obj273	obj216
obj273	obj250
obj273	obj253
obj298	obj273
obj273	obj347
obj274	obj30
obj188	obj274
obj274	obj310
obj275	obj50
obj275	obj190
obj303	obj275
obj49	obj276
obj196	obj276
obj276	obj325
obj336	obj276
obj133	obj277
obj278	obj25
obj33	obj278
obj150	obj278
obj331	obj278
obj137	obj279
obj148	obj279
obj211	obj279
obj258	obj279
obj280	obj186
obj280	obj352
obj281	obj3
obj281	obj125
obj281	obj311
obj198	obj282
obj282	obj282
obj282	obj331
obj283	obj3
obj100	obj283
obj174	obj283
obj283	obj205
obj283	obj211
obj283	obj242
obj302	obj283
obj283	obj321
obj38	obj284
obj284	obj205
obj215	obj284
obj253	obj284
obj292	obj284
obj285	obj10
obj285	obj29
obj285	obj169
obj285	obj236
obj300	obj285
obj285	obj324
obj16	obj286
obj167	obj286
obj213	obj286
obj286	obj253
obj268	obj286
obj162	obj287
obj76	obj288
obj288	obj109
obj288	obj171
obj288	obj242
obj288	obj338
obj289	obj29
obj90	obj290
obj290	obj234
obj290	obj289
obj290	obj301
obj290	obj322
obj88	obj291
obj170	obj291
obj291	obj268
obj123	obj292
obj293	obj23
obj133	obj293
obj172	obj293
obj198	obj293
obj293	obj294
obj352	obj293
obj294	obj66
obj294	obj73
obj83	obj294
obj220	obj294
obj91	obj295
obj295	obj256
obj318	obj295
obj355	obj295
obj73	obj296
obj211	obj296
obj16	obj297
obj297	obj103
obj297	obj143
obj184	obj297
obj297	obj199
obj317	obj297
obj19	obj298
obj298	obj126
obj130	obj298
obj298	obj134
obj147	obj298
obj298	obj165
obj298	obj214
obj298	obj321
obj299	obj41
obj299	obj159
obj300	obj24
obj300	obj101
obj129	obj300
obj254	obj300
obj299	obj300
obj301	obj101
obj308	obj301
obj327	obj301
obj46	obj302
obj302	obj52
obj302	obj238
obj280	obj302
obj27	obj303
obj303	obj29
obj303	obj290
obj348	obj303
obj10	obj304
obj151	obj304
obj204	obj304
obj239	obj304
obj285	obj304
obj305	obj3
obj305	obj87
obj305	obj98
obj305	obj101
obj119	obj305
obj170	obj305
obj305	obj309
obj306	obj19
obj306	obj27
obj306	obj42
obj306	obj183
obj202	obj306
obj306	obj246
obj273	obj306
obj213	obj307
obj53	obj308
obj64	obj308
obj308	obj71
obj308	obj87
obj153	obj308
obj308	obj230
obj308	obj252
obj308	obj277
obj308	obj285
obj23	obj309
obj169	obj309
obj4	obj310
obj43	obj310
obj310	obj52
obj56	obj311
obj312	obj71
obj312	obj301
obj160	obj313
obj313	obj262
obj45	obj314
obj76	obj314
obj314	obj114
obj315	obj52
obj315	obj60
obj315	obj116
obj315	obj138
obj316	obj65
obj189	obj316
obj64	obj317
obj82	obj317
obj109	obj317
obj152	obj317
obj317	obj164
obj49	obj318
obj219	obj318
obj318	obj259
obj318	obj273
obj319	obj13
obj22	obj319
obj319	obj40
obj319	obj106
obj319	obj228
obj16	obj320
obj109	obj320
obj139	obj320
obj320	obj187
obj191	obj320
obj309	obj320
obj322	obj16
obj322	obj51
obj358	obj322
obj323	obj57
obj323	obj205
obj323	obj306
obj324	obj36
obj324	obj63
obj324	obj90
obj324	obj131
obj149	obj324
obj145	obj325
obj241	obj325
obj87	obj326
obj168	obj326
obj326	obj206
obj326	obj293
obj52	obj327
obj27	obj328
obj32	obj328
obj328	obj120
obj328	obj156
obj328	obj328
obj329	obj9
obj329	obj56
obj97	obj329
obj329	obj137
obj329	obj298
obj142	obj330
obj330	obj200
obj359	obj330
obj54	obj331
obj54	obj332
obj188	obj332
obj203	obj332
obj35	obj333
obj72	obj333
obj333	obj111
obj163	obj333
obj333	obj178
obj333	obj200
obj333	obj238
obj263	obj333
obj239	obj334
obj334	obj273
obj275	obj334
obj334	obj284
obj334	obj293
obj275	obj335
obj336	obj93
obj132	obj336
obj253	obj336
obj336	obj319
obj105	obj337
obj121	obj337
obj132	obj337
obj337	obj322
obj337	obj328
obj337	obj354
obj116	obj338
obj49	obj339
obj339	obj163
obj339	obj298
obj151	obj340
obj340	obj311
obj45	obj341
obj341	obj68
obj341	obj85
obj147	obj341
obj341	obj184
obj202	obj341
obj216	obj341
obj262	obj341
obj341	obj357
obj95	obj342
obj221	obj342
obj342	obj309
obj343	obj56
obj343	obj70
obj343	obj96
obj101	obj343
obj128	obj343
obj343	obj206
obj299	obj343
obj25	obj344
obj91	obj344
obj344	obj138
obj344	obj158
obj292	obj344
obj356	obj344
obj345	obj22
obj47	obj345
obj345	obj55
obj161	obj345
obj231	obj345
obj269	obj345
obj345	obj342
obj9	obj346
obj346	obj79
obj239	obj346
obj107	obj347
obj111	obj347
obj347	obj139
obj166	obj347
obj71	obj348
obj348	obj72
obj272	obj348
obj348	obj275
obj294	obj348
obj300	obj348
obj349	obj67
obj349	obj125
obj349	obj126
obj185	obj349
obj349	obj194
obj237	obj349
obj201	obj350
obj224	obj350
obj350	obj294
obj144	obj351
obj351	obj324
obj314	obj352
obj353	obj134
obj354	obj110
obj143	obj354
obj354	obj220
obj250	obj354
obj317	obj354
obj355	obj14
obj57	obj355
obj355	obj125
obj355	obj191
obj355	obj217
obj355	obj330
obj356	obj12
obj22	obj356
obj356	obj67
obj89	obj356
obj150	obj356
obj260	obj356
obj168	obj357
obj220	obj357
obj357	obj289
obj137	obj358
obj359	obj4
obj54	obj359
obj359	obj317
obj359	obj332
obj359	obj342
obj356	obj359
