	-1.1643164502699603	-2.330989213767351	-2.2572048960056765	-2.982776559460347	-1.7004109271047074
	-0.4224573896459338	-0.8023112270152604	0.5135334229234316	-0.3154957975422503	-1.7963891825531206
	2.877872927254345	-2.3970171513152803	-0.17590441370671472	1.3996114417529661	-0.3646030023565032
