id0	sample0	obj0	-0.22633129616403447	-0.33395187525691494	-0.06726134801874528	0.4901226645383861	-1.1318306630106278
id1	sample0	obj1	-0.30929651172701345	-0.6190051607149469	-0.2895018561588889	0.6781156563903166	-1.22344259724306
id2	sample0	obj2	-0.6394718373307059	-0.5130101011375574	-0.06500022913196596	0.7608176633634112	-0.839331312677887
id3	sample0	obj3	-0.5832766407768214	-0.3892895715469802	0.2637922758441268	0.8531345812382793	-0.8580169912161971
id4	sample0	obj4	-0.42017408431458014	-0.10758842924722511	0.19559871446510624	0.704512083608157	-1.5365775236802863
id5	sample0	obj5	-0.7796993062550951	-0.2956028207189283	-0.36941965052060177	1.1756023160757967	-0.7829593582726738
id6	sample0	obj6	-0.778382592722304	-0.17616234483777327	-0.2590024415707511	0.7981079764555638	-0.8855497847744324
id7	sample0	obj7	-0.7419415304817232	-0.060434353711259825	-0.23252882304699335	0.7345588972174518	-1.3476589344213004
id8	sample0	obj8	-0.690445963349506	-0.6894556442366407	0.29814026010485517	0.9323427415293429	-0.959760683912889
id9	sample0	obj9	-0.17656001439126	-0.65040938032602	0.22644344145841255	1.2843565435855844	-1.1523003350498766
id10	sample0	obj10	-0.692400872903512	-0.4820752434022274	-0.06244936113358923	1.2179504260771283	-1.4745590109998923
id11	sample0	obj11	-0.02949704702243361	-0.31500524302301514	-0.27432768911440597	1.0476810440298852	-0.8459407325582027
id12	sample0	obj12	-0.656745133031308	-0.8029368297726229	-0.06089436483579719	1.2215599775501977	-0.9680860610673452
id13	sample0	obj13	-0.5786246960852927	-0.4669663148304181	-0.0060286762628397605	0.5032540735909614	-1.3498851126766225
id14	sample0	obj14	-0.6932030102409101	-0.7047888122623895	-0.3393157235192077	1.2648512455991319	-1.0007309309234682
id15	sample0	obj15	-0.06711475538290745	-0.06308422987986895	0.1413154734556762	0.9796274615693654	-1.0456912035734534
id16	sample0	obj16	-0.30070439818374817	-0.718611006662006	0.2156733669455716	0.9275202112699465	-1.4026503467734717
id17	sample0	obj17	-0.026340355083291245	-0.7869794389559246	-0.30380772866683997	1.1460121876065221	-1.3663532538248038
id18	sample0	obj18	-0.5595181588411478	-0.5391331121336256	-0.2839070304389337	0.726636688127477	-0.8356369795407609
id19	sample0	obj19	-0.23623403857989256	-0.05348825813801006	0.26380943877214746	1.2856151396248565	-0.8034337802420677
id20	sample0	obj20	-0.2891990285085818	-0.4031870519144369	-0.08611447594611865	0.7020085059895156	-1.2473393357493103
id21	sample0	obj21	-0.7452459861875405	-0.24722908907282404	-0.10253145039490441	0.9564890295317812	-0.7921301606309497
id22	sample0	obj22	-0.5097258094506669	-0.07307541603760304	0.2736936797309558	0.7191980271680888	-1.1825548674026085
id23	sample0	obj23	-0.5212645516463025	-0.2758893305723805	0.33869562974799694	0.6894314547641539	-0.8604824556186969
id24	sample0	obj24	-0.22992764074493932	-0.24260783275792064	-0.36376660509956427	0.908867313792809	-0.9780367110933122
id25	sample0	obj25	-0.1290802902598699	-0.2617440824731877	0.0700005411581206	0.742000276380258	-0.8281470559754852
id26	sample0	obj26	-0.549013805813171	-0.7639249493788174	0.08215002596418475	0.7931604027724014	-1.4039732300237142
id27	sample0	obj27	-0.12919306498956573	-0.4128859645739603	0.0374188253124938	0.8222442455744038	-1.1143796939295427
id28	sample0	obj28	-0.4937411351622917	-0.7486992317047717	-0.4179737732966069	0.7068616143741226	-1.1270183880777713
id29	sample0	obj29	-0.0669812282852893	-0.4086142983134307	-0.06172981404177491	0.915278600474098	-1.5640903851034442
id30	sample0	obj30	-0.5254720181554073	-0.5277699664727358	-0.08100799776107748	0.7031005418944887	-1.0564694438026603
id31	sample0	obj31	-0.1704695033632896	-0.4014007279540371	-0.06715027071550794	0.8903667832068186	-1.425050992443955
id32	sample0	obj32	-0.23809473923955626	-0.6587390093497534	0.19616824705869096	0.640405459951714	-1.1969075512524563
id33	sample0	obj33	-0.3991524040185171	-0.18081691258758403	-0.07295105146610581	1.035700635185854	-1.408555482567992
id34	sample0	obj34	-0.6294964211800124	-0.6515222696497706	-0.4080434920391821	0.9799382177783661	-0.8673354497093789
id35	sample0	obj35	-0.08554729365449887	-0.3627789274520546	-0.21381541352712186	1.0626028693577394	-1.540051349088999
id36	sample0	obj36	-0.06599798190501649	-0.6373207943088954	-0.09803108104584146	0.5787747031692086	-1.2585650279290597
id37	sample0	obj37	-0.48537119023022124	-0.6604313880400814	0.1785953145467989	0.6404064334706547	-1.3554794776281
id38	sample0	obj38	-0.2708787978011026	-0.4369442144744079	-0.39282649357321286	0.6471266261183775	-1.0873266018298484
id39	sample0	obj39	-0.5014531317084747	-0.5609635672471188	-0.38915335884023944	0.9677971179844956	-1.1232785061203272
id40	sample0	obj40	-0.7548378598058689	-0.389887747629653	0.33361128771235227	1.0444311527829808	-1.1672903176298066
id41	sample0	obj41	-0.6707136536407008	-0.2756180189234053	0.2046665478121258	0.6559366855935835	-1.3712285870654224
id42	sample0	obj42	-0.26795698885482766	-0.08603300322001384	-0.3801770843157473	1.0212665368507299	-0.8539086144821931
id43	sample0	obj43	-0.20276082243768812	-0.2481213460860685	0.07901466525567657	0.6932151939324498	-1.4715279325498802
id44	sample0	obj44	-0.4894499176541734	-0.7973113162506493	0.0839036627976062	0.9710830115232227	-0.9317082007126796
id45	sample0	obj45	-0.03287136641129307	-0.1997352566791485	-0.1610298905985944	0.8810123574699413	-0.7867146433819581
id46	sample0	obj46	-0.28320067756245026	-0.13713748299211703	-0.4171127920094603	0.7377692979911957	-1.1993775236660662
id47	sample0	obj47	-0.30134464318333165	-0.45709497126072823	-0.16359664275712077	0.6743791541786419	-1.503264683864659
id48	sample0	obj48	-0.03381245047384207	-0.08088986722071079	-0.21706063219691876	1.1321066799943034	-0.7697158344845466
id49	sample0	obj49	-0.19543486721847825	-0.3519706581710861	-0.04432058373573183	1.2310819504581114	-0.778915953699372
id50	sample0	obj50	-0.03960773030607179	-0.7611824473360143	0.10962470897830046	0.9421936159421516	-1.3382276233106658
id51	sample0	obj51	-0.4892869143782625	-0.40005650440307033	0.29092069018436806	1.066982897326537	-1.2039869884882664
id52	sample0	obj52	-0.2757387345698401	-0.8071422417461745	-0.07671015672344605	1.079954894250954	-0.7858654090262637
id53	sample0	obj53	0.008480979286494494	-0.3588604858534854	0.019638989334577528	1.0352613956901053	-1.2261774267285235
id54	sample0	obj54	-0.6522860407713137	-0.027375139161090023	-0.43461137362414626	0.5878813019328003	-0.8681426795134541
id55	sample0	obj55	-0.059314744682240295	-0.13273701137044158	-0.15917263841786866	0.5915127180456803	-1.5125566577962022
id56	sample0	obj56	-0.378942286427976	-0.3417711459459295	0.2473558178193368	0.8371760842205507	-0.8045573485270792
id57	sample0	obj57	-0.7621051754831978	-0.436073010119508	0.13388427056428787	1.2762914321121013	-0.8216649856440349
id58	sample0	obj58	-0.6095960003449683	-0.4477694127734636	0.004416674218557515	1.180516628873916	-1.1189848885163804
id59	sample0	obj59	-0.17714132009168737	-0.34360721330818517	-0.2919770951981475	0.6411978111582195	-1.432871318148232
id60	sample0	obj60	-0.576850241140857	-0.36217170944593197	0.11250173078917447	1.1796702007498694	-1.493419064787297
id61	sample0	obj61	-0.2734750772519965	-0.14983048956874834	0.2501006522109952	1.264137654173525	-1.129349353244069
id62	sample0	obj62	-0.7382284404940364	-0.11006218728423944	-0.13278343322085684	0.5102347207490694	-1.0841570663860725
id63	sample0	obj63	-0.4900862571600178	-0.3273845601734264	-0.2579159023548274	0.6439160379707185	-0.9552534484999818
id64	sample0	obj64	-0.642539640952127	-0.43785961013224706	0.24959843794612435	0.5528058328814666	-1.3112442665679238
id65	sample0	obj65	-0.23811157453158927	-0.8173447661899391	-0.19235287700772352	0.6338580604555879	-1.4668940543766698
id66	sample0	obj66	-0.28659314021183996	-0.5079972617547892	-0.44582792470034005	0.7119036963097167	-1.5687129354959226
id67	sample0	obj67	-0.5563504196330868	-0.6022411913492393	-0.43931996890856734	1.2686795790160352	-1.3719311088082544
id68	sample0	obj68	-0.06917194605174948	-0.48819442401990265	0.13059896017928896	1.2610235353125194	-1.2148678135648627
id69	sample0	obj69	-0.22344116286514826	-0.30564165981412605	-0.33323068118816324	0.9583632593755171	-0.8998227518151591
id70	sample0	obj70	-0.46089294095295674	-0.5787518097997542	-0.20900513189122	0.9942055302403398	-1.3885902268766124
id71	sample0	obj71	-0.37931992725206287	-0.43008831788178553	-0.20801072290533934	1.0673258632897256	-0.7709855752503382
id72	sample0	obj72	-0.1953003972819124	-0.7267727594891485	-0.23922744896754802	0.9715507181226147	-0.8593510769631244
id73	sample0	obj73	-0.13279333930741144	-0.788148866376225	-0.39837307628520935	0.666694193059709	-1.0313408499709165
id74	sample0	obj74	-0.34825830584269235	-0.6566799147139217	0.10164697621872154	0.7781410032516507	-1.2553420893817702
id75	sample0	obj75	-0.5312745354910887	-0.29931156845568263	-0.015255927219076704	1.142038380264355	-1.4931407615113346
id76	sample0	obj76	-0.3094256203723555	-0.30186635204878487	-0.28877797205911576	0.9728525836094148	-1.0258529443602349
id77	sample0	obj77	-0.44295161659230936	-0.2184226456681616	0.018760786942153107	1.1584423865104287	-1.4721864647446332
id78	sample0	obj78	-0.3613175145944473	-0.652788921799433	0.1043591228669356	0.7855831618657838	-1.1807413757236978
id79	sample0	obj79	-0.5508752043889993	-0.029332672707652052	-0.4484737374425371	0.6293227349638544	-1.3357694097016644
id80	sample0	obj80	2.364317739151679	2.5470362886613507	2.687130810865561	-0.5029545668021705	0.95701761167348
id81	sample0	obj81	2.349820290417282	2.5089281789947173	2.846445929314701	-1.1264612671476368	0.8936932891787677
id82	sample0	obj82	2.5939144976747506	2.4199933800497573	3.0261912846928745	-0.7128943816903074	1.1329458178875016
id83	sample0	obj83	2.233685745669264	2.432944086596948	3.190762156330538	-0.5403366078697767	1.2800878145057872
id84	sample0	obj84	2.3700169355532115	2.871311677634599	3.1684346192352097	-0.46470775027613975	1.0525190863258977
id85	sample0	obj85	2.295951398222102	2.8148479049646475	2.5816253935819184	-0.8035691511447631	1.1517922987985136
id86	sample0	obj86	2.6975024530012597	2.9304875264649635	2.472830276017833	-0.5618941940757127	1.2711692773777954
id87	sample0	obj87	1.9765459763198476	2.529527667666898	2.674110300323011	-1.2281181216939672	1.383842102069425
id88	sample0	obj88	2.1663826286892425	2.964276362964178	2.7358689492059796	-1.184182623114366	1.2100729041014668
id89	sample0	obj89	2.573938114423467	2.390339282666265	3.1573762075222502	-0.8857143227613181	1.352329770709599
id90	sample0	obj90	1.9954150667921975	2.252236723756604	2.966575795632395	-0.5271404455838183	1.3480943878329619
id91	sample0	obj91	2.1840488000651637	2.500948019613752	2.762194116221447	-1.1981675537034477	1.3149229548155432
id92	sample0	obj92	2.431483776092113	2.885553965184294	2.501581972016363	-0.7868501307710896	1.2085849461452793
id93	sample0	obj93	2.2527084394045334	2.503166814472977	2.9000969850883034	-0.8521729023736588	0.8022167410189818
id94	sample0	obj94	2.595495310574875	2.6300858520668076	2.5717042505336756	-0.8748829573929268	1.1044400817802529
id95	sample0	obj95	2.4484209033801227	2.643374495384361	3.217868655294636	-1.1359545875965689	1.2118395295157052
id96	sample0	obj96	2.0788187463614136	2.589103755121467	2.6572646251377936	-1.1417680410496802	1.243100698410812
id97	sample0	obj97	2.4379787871346483	2.537128085739172	2.839369000627344	-0.9255550574864297	0.8980125029626133
id98	sample0	obj98	2.732579336475414	2.420734402188598	2.9201622907354485	-0.7551237036877008	0.9564632130657518
id99	sample0	obj99	2.1482550060529735	2.393614738571737	2.679973154992405	-1.154045727778347	0.6750441996401431
id100	sample0	obj100	2.3553964655284334	2.509638066285163	2.8764920603500257	-1.2215868710549873	0.708946075148296
id101	sample0	obj101	2.6232770139864154	2.66862011183804	2.9571847729012735	-1.0774043210574102	0.8040229031371962
id102	sample0	obj102	2.37343803751121	2.861990876028975	2.87428432209827	-0.6596451644858112	0.9502408698922414
id103	sample0	obj103	2.4364715657009164	2.2467210115627316	2.684263823669202	-1.0062728984372165	0.8077506388586074
id104	sample0	obj104	2.319944658238337	2.587369729548453	2.466723244094937	-0.8234445584681296	1.2175575752530596
id105	sample0	obj105	2.1937488045824507	2.7104419224833296	2.5219912440873156	-1.203279096237912	1.2597443225833742
id106	sample0	obj106	2.559658098416262	2.4506695955776885	2.8219805496443198	-0.5456150272581317	1.3554547688446577
id107	sample0	obj107	2.3638759567513783	2.636145384486314	2.476973576515464	-1.1510718525074295	0.8189100115573601
id108	sample0	obj108	2.4668699252614874	2.5217146519822613	2.88658396496518	-0.8101246889699948	0.7096270151543876
id109	sample0	obj109	2.698372088382972	2.363458598330866	2.7731723116621025	-0.5766918530040598	0.6322784589959796
id110	sample0	obj110	2.55408738132883	2.6197551808260613	3.120020849426746	-0.48414183906238295	0.664302468434316
id111	sample0	obj111	2.4539364964645474	2.7170687332274737	2.9866236907058434	-1.0733655905186177	0.6039704417822386
id112	sample0	obj112	2.2615947832952883	2.2445744143474835	2.644057755145814	-1.0308534939710774	0.9311856438313166
id113	sample0	obj113	2.7062048431985337	2.716751512919643	2.4215959270474006	-0.8912804820532252	1.1293426001637479
id114	sample0	obj114	2.2564699347254287	2.205459614353519	2.8010393885338143	-0.8931569708693453	1.3611606801151352
id115	sample0	obj115	2.0444081213484027	2.1935285692775945	2.5197124580419463	-0.6743676525678016	0.9190446012119278
id116	sample0	obj116	2.3528967125516647	2.603824026989928	2.791210260807167	-0.8811105437227524	1.1382527584661601
id117	sample0	obj117	2.0622909652995105	2.636880000908778	3.03185046527598	-1.000587245875838	0.8885008804233887
id118	sample0	obj118	2.3538953089980663	2.3947968132796986	2.4598847488953766	-0.8139977044178008	1.2286254212635064
id119	sample0	obj119	2.5114268183209396	2.32997073909329	2.945905725612625	-0.7386803820874741	0.9641105816108974
id120	sample0	obj120	2.4278741413962206	2.4476296292353967	3.031071645753096	-0.8608279744583498	0.6956737634128596
id121	sample0	obj121	2.1588493417694643	2.286879283156177	3.1517957524093383	-0.8648201321233209	0.6582409777723088
id122	sample0	obj122	2.0716873895727153	2.444299846836983	2.634941004953304	-0.4910665350564233	0.955554150984348
id123	sample0	obj123	2.2916996437731427	2.4878499263275726	2.9383545159983004	-0.6880631140520014	1.3908708983266103
id124	sample0	obj124	2.675164383731864	2.90022140912054	3.05230235470665	-0.8903534547809575	0.6357725704537751
id125	sample0	obj125	2.637371287571613	2.215619780188233	2.655053449005323	-0.813971554463817	1.1865216897806947
id126	sample0	obj126	2.5903576872658833	2.6605057381427297	2.800044290326208	-0.7139416022366689	0.6127348895349746
id127	sample0	obj127	2.618415560057163	2.3279039051983874	3.0347644089261	-1.2312451180750708	0.9508947843199917
id128	sample0	obj128	2.6220384405115618	2.6197464749126205	3.1072669457070434	-0.5435519862462915	0.8424436585312708
id129	sample0	obj129	2.337250940573272	2.6581526744087327	2.962061800858092	-1.2366695338720077	1.2324161141681542
id130	sample0	obj130	1.9942480881610243	2.532832732126059	3.0826201783603437	-0.7813132397869956	0.9618072655339852
id131	sample0	obj131	2.286501976197437	2.4187267704211437	2.6848420249139044	-0.9191588152845552	0.7996686153333024
id132	sample0	obj132	2.51099792545204	2.4288269850561486	2.849141157067415	-0.5574210459832166	0.9263084346277356
id133	sample0	obj133	2.106574080981176	2.287666906240465	2.6053200215525916	-1.2041362399795763	0.7164756516484339
id134	sample0	obj134	2.217487949057471	2.909475307934959	3.02366678720628	-0.7461218973789352	0.963060509628193
id135	sample0	obj135	2.3628518706817903	2.592265847591222	2.449743489505404	-1.0149674974206095	1.0721795005146504
id136	sample0	obj136	2.181498781954058	2.7084481070669737	2.4436772581137505	-0.777594708702523	1.0565610411269282
id137	sample0	obj137	2.490690022076729	2.259682422824464	3.0044470498350817	-0.7386291267605134	0.9254395271050978
id138	sample0	obj138	2.2528908685991746	2.9069416449250904	3.0952084991993236	-0.6012719544386532	0.6477334281917735
id139	sample0	obj139	1.95714678248139	2.3868675750082047	3.1191496643110748	-0.8882632995014828	0.945657218849761
id140	sample0	obj140	2.2224270811033957	2.745801261023414	2.9712524855661053	-0.6991112738179369	0.8151287698906924
id141	sample0	obj141	2.3141917347204055	2.38910473930062	2.716679666200064	-0.8357392024313436	1.0869151480295716
id142	sample0	obj142	2.4894156446266753	2.4438587192281593	2.890845461483257	-0.8652969580563531	1.120441298244611
id143	sample0	obj143	2.368900339540332	2.518497054867351	2.51159351817572	-1.1428098869609775	0.8050992317365491
id144	sample0	obj144	1.9609516452442162	2.6267073552656917	2.5348257637941303	-0.5618195999160629	0.7387717217444536
id145	sample0	obj145	1.9719292280236072	2.900765947199212	2.628435182571831	-0.7499220195078732	1.2296542049006978
id146	sample0	obj146	2.0438169087921314	2.289669924775637	2.9050237040111937	-0.8273508836331944	0.8573547231244872
id147	sample0	obj147	2.726347616844188	2.5207565826914418	2.9236643948851655	-1.0872052450137075	1.32720395801358
id148	sample0	obj148	2.6533787691175483	2.8632451302067734	3.0894276121359248	-0.7597991431759294	1.0147471040636564
id149	sample0	obj149	2.6446810327525894	2.1940768544578337	3.1535635881530997	-0.6526358712543605	0.6450493138768015
id150	sample0	obj150	2.3521100979924365	2.5188503898152295	2.6166511074282193	-0.9109005743088224	1.2657555033489145
id151	sample0	obj151	2.4328051780827007	2.694327906572707	3.193714151381635	-0.9578391682427665	0.8983372027105043
id152	sample0	obj152	2.0436337413333066	2.747209502640294	3.2088082169750316	-1.124168621833006	0.7956628111150178
id153	sample0	obj153	2.4551089588743675	2.8624156478932328	2.703914073256187	-0.7724624884039457	0.6654765058305228
id154	sample0	obj154	2.4864758900719197	2.8612647457051996	2.992683872195226	-1.0154944526277303	1.0705943178222168
id155	sample0	obj155	2.7361267055857597	2.706463376086349	3.1456903937770875	-0.7035208798892103	0.9821568602664406
id156	sample0	obj156	2.6549944441290525	2.6200251158556167	2.6048687684599314	-0.6386583688534715	0.9991456262005778
id157	sample0	obj157	1.979621087058039	2.4078777805239375	2.897840998963587	-0.7265851932629367	0.6751083561369586
id158	sample0	obj158	2.263229115017072	2.239292513063468	2.5273088943120796	-0.8959823207410734	0.8936755380445602
id159	sample0	obj159	2.3368795076617523	2.1811508218523312	2.778721516913144	-0.5411514801658639	1.2525207656030002
id160	sample0	obj160	1.8741459281700505	-1.8937265294082066	2.555041262729755	1.2636240076781156	0.007087851961227243
id161	sample0	obj161	2.02521190653228	-1.6514542215946733	2.7118147794673964	1.4579459505092285	0.41796191100402214
id162	sample0	obj162	2.100921153136765	-2.3611203095903766	2.271887005614927	1.1723840672779193	0.3402329295255524
id163	sample0	obj163	2.0443107039803365	-2.1228889771702395	2.507619188660643	1.319129150195882	0.056441832449588225
id164	sample0	obj164	2.432516559224633	-1.6377428107149647	2.8159999642730247	1.5971873913114623	0.23526297012896363
id165	sample0	obj165	2.3262404978815487	-1.780297506645268	2.603520446286248	1.6581146535373121	-0.1760280919287997
id166	sample0	obj166	2.33353656756373	-2.334060037846111	2.934040423776174	1.7179222960208758	0.06368694450967116
id167	sample0	obj167	2.435063732772317	-2.34494915782329	2.3826809840824956	1.704273325923816	0.3278810317814581
id168	sample0	obj168	2.2521819008824604	-2.021769719818328	2.332434218594144	1.9197160705903444	0.2760216677867341
id169	sample0	obj169	2.178432380311142	-2.242383524831491	2.365173969729491	1.5588102870956382	0.3058005009306414
id170	sample0	obj170	1.8460696181745722	-1.873265683490904	2.2546140381068627	1.6903682049137592	0.41129481939274404
id171	sample0	obj171	2.031931331348227	-2.1771986912255312	2.547523335726648	1.41894088840797	0.2050893201866658
id172	sample0	obj172	2.5530796984994426	-2.2057524424015744	2.765701260898809	1.247911218745146	0.4969114080112971
id173	sample0	obj173	2.3568490837040406	-2.2241471322827606	2.58187476054742	1.8183886053756069	-0.1407730924101273
id174	sample0	obj174	2.2292248640277044	-1.8078175126024099	2.187329243927846	1.2943199167497061	-0.16646319479336047
id175	sample0	obj175	1.84938846166267	-2.331706599398144	2.909763194675765	1.4681153157119562	-0.01565797092168575
id176	sample0	obj176	2.3888223967578073	-1.7317378376119836	2.551088931510245	1.5984204744105845	0.39793097136492894
id177	sample0	obj177	2.535111142485718	-2.177261455755747	2.653724349651266	1.9507268599544934	-0.08017184919317258
id178	sample0	obj178	2.520527268958368	-2.3152653049755045	2.489860029095524	1.5430825445701022	0.25994972666999594
id179	sample0	obj179	2.623191374149288	-1.8309991750600392	2.2832781692693365	1.716527176500319	0.2627768066868419
id180	sample0	obj180	2.2160673227591072	-1.752105562958513	2.862071123094272	1.928808644324627	0.09821016421364154
id181	sample0	obj181	2.0608352549073827	-2.0785950275177334	2.8100940151015905	1.9487261344515003	-0.0032586000557078276
id182	sample0	obj182	2.436802903373438	-1.9607723496658749	2.204714490917668	1.2078662595935485	-0.08780164066446874
id183	sample0	obj183	1.8790031913385818	-2.1207271237598238	2.930428394984588	1.9098370361417847	0.19112571337654793
id184	sample0	obj184	2.5565139022814005	-2.006969010585225	2.8367215479871346	1.330139544917119	-0.23312077855520724
id185	sample0	obj185	2.596354669160013	-2.3104325374734445	2.3212071033563757	1.7508312716722774	-0.051727947748711506
id186	sample0	obj186	1.8570989974395165	-2.1151170862308857	2.485087057338756	1.313908376361054	0.2691489214388161
id187	sample0	obj187	2.2491152946982718	-2.2072838010624776	2.4094053653972063	1.2591486715773683	-0.19889446780204967
id188	sample0	obj188	2.5171528891305988	-1.960121159554574	2.6819106751709136	1.3117943616967138	-0.13624749646552287
id189	sample0	obj189	1.8403477561326245	-1.9203343690092634	2.5726604927373526	1.241193459971173	0.4149724552702927
id190	sample0	obj190	2.221668488016969	-1.8609270835396579	2.281306352836738	1.524144066596238	-0.250430640624948
id191	sample0	obj191	1.9528893150671884	-1.8797496442094275	2.292332584942569	1.7794771207704416	0.22309120382545666
id192	sample0	obj192	2.3343924712869324	-2.3029005053990397	2.2709108324727536	1.2191512169110443	0.45545174654640996
id193	sample0	obj193	2.1459997435293556	-1.6200096767369194	2.268510830225312	1.27410020283377	0.12581644923079327
id194	sample0	obj194	2.1126439066495677	-1.8965203669091242	2.6035038789510314	1.7510510553571632	0.47808166899429094
id195	sample0	obj195	2.556544959187387	-1.8755377754811828	2.7197433005690925	1.572797025368566	-0.19030242780856854
id196	sample0	obj196	2.3076863470253444	-2.0353516172520147	2.2500345559908475	1.8247510204050417	0.4725936378661626
id197	sample0	obj197	2.051322755933205	-1.8825782620175326	2.628550007424331	1.6132980304717288	0.19309445827461957
id198	sample0	obj198	1.8820259714995857	-2.1467293159193366	2.4761282293464895	1.7372930838320513	0.2999911402578951
id199	sample0	obj199	2.1279184071403754	-1.6491157395905294	2.3570601312811394	1.2462958937221014	0.38089424863824517
id200	sample0	obj200	1.8882887479595887	-2.134055990455925	2.8699311525210818	1.933574860396464	0.3736669702919979
id201	sample0	obj201	2.1372589507566104	-2.2975959627248517	2.2453951670591836	1.476832790681319	0.1116544464642229
id202	sample0	obj202	1.9926113311868836	-1.59008189928575	2.699930170265679	1.9457871526090273	0.010617582672272863
id203	sample0	obj203	2.101816483389817	-1.6031785132679919	2.7187017155724176	1.2564575581149897	0.4062787630179927
id204	sample0	obj204	2.088761460465602	-1.8160074886585027	2.357166419896607	1.843057454770343	-0.11877579906965674
id205	sample0	obj205	2.4291918887062387	-1.7432188786936753	2.2670181648016436	1.378032394960036	-0.02188656238297676
id206	sample0	obj206	2.337484984354368	-2.2117152843673527	2.537043359918391	1.2998196695186233	-0.03524653923405616
id207	sample0	obj207	1.9715915329319293	-2.0416475526722353	2.4254412136287016	1.7696005904434045	0.14013283936379117
id208	sample0	obj208	2.578857744947877	-2.0079078823626637	2.4417105685002696	1.2984621163067431	0.2560124708218219
id209	sample0	obj209	2.35749116116029	-1.9348811910355492	2.7703394261225336	1.953257244562876	0.4456648016681768
id210	sample0	obj210	2.0037020315346306	-1.9913969870394919	2.6347857575188933	1.9138364264722099	0.4318740268282881
id211	sample0	obj211	2.522561948955971	-2.1038711300359334	2.3606418141031287	1.6294969323162758	-0.07511313676555265
id212	sample0	obj212	2.6334082342067315	-1.6302573322640987	2.4559594021109987	1.384242032585367	-0.02533098692622318
id213	sample0	obj213	2.492715168706644	-2.3098616404677514	2.5915113792652016	1.2670431588484887	0.13010627482577775
id214	sample0	obj214	2.345783967235522	-1.6360283432102944	2.9038067160570296	1.5555313326997706	0.2627243742155698
id215	sample0	obj215	2.5229034563695043	-1.7394007549821051	2.8909941955917384	1.2226954978529203	0.2786176704191645
id216	sample0	obj216	2.4978337878562407	-1.7056146031258277	2.8209137000161846	1.5920127238954225	0.0766061544368214
id217	sample0	obj217	1.871097103042468	-2.0071136791376336	2.2785162073419607	1.8852620484781686	-0.017286375841906843
id218	sample0	obj218	2.034654317831081	-2.3660054736699903	2.6662048750787855	1.1798590135845823	-0.16709150751787338
id219	sample0	obj219	1.9876361154722164	-1.5827188305935471	2.5173809674427394	1.432175868061095	-0.21779557987960874
id220	sample0	obj220	1.9369102827228308	-1.7004025062144583	2.9351416856976784	1.9057610222965504	0.44571062948509155
id221	sample0	obj221	2.5259391039696624	-2.101734367048801	2.8317031066096234	1.6069249233597942	0.34558498944195093
id222	sample0	obj222	2.547638862977908	-2.2648126129590045	2.5892416508670992	1.475596291905179	0.029105182077204528
id223	sample0	obj223	2.13133191767488	-1.787292464840116	2.7214930102248562	1.4699571509753264	-0.21823232365898443
id224	sample0	obj224	2.532410381739407	-1.9096329328544157	2.6821498876117764	1.5449152742266876	0.4924823944563407
id225	sample0	obj225	1.8405397807774397	-1.8534468427967854	2.6978900621465787	1.9452526626740743	-0.19491888310443173
id226	sample0	obj226	1.965155168657342	-1.701222872616241	2.520275482021789	1.765077404382195	0.44353599927229603
id227	sample0	obj227	1.925168265372775	-2.2783283788302335	2.373822746448703	1.7792868105342174	0.32201682418234245
id228	sample0	obj228	2.0952472076208384	-2.2939270188481418	2.57178698530806	1.4059018654236202	0.30223796389524227
id229	sample0	obj229	2.3382796465534343	-1.728471541048603	2.883654940557351	1.4486392501240337	0.3589859990645329
id230	sample0	obj230	2.339716723207731	-1.7334814704259536	2.338541752999125	1.1977280835892878	0.14231020230828761
id231	sample0	obj231	2.5739519396492545	-1.8836041483959867	2.868659506245583	1.5970346277835492	-0.0738694903348506
id232	sample0	obj232	2.5577450651635716	-1.5782052255115024	2.531306083498143	1.4428130983816492	0.11500310548863651
id233	sample0	obj233	2.325490054065763	-1.7541609685924566	2.25344113146427	1.9521327408125582	0.41301345138883994
id234	sample0	obj234	2.502876386565758	-1.6048463470130123	2.7394034522820285	1.578023519058281	-0.22672852992384396
id235	sample0	obj235	2.628738937325743	-1.6017504641782243	2.9517116788511832	1.7669166867908457	0.0377953787918715
id236	sample0	obj236	2.5116619894435708	-1.8214222393027073	2.7617100132796564	1.2278114674659448	0.20272001756398073
id237	sample0	obj237	2.2027301757969635	-1.9657733604035783	2.8781026745028746	1.6500586092447498	0.5222843244940969
id238	sample0	obj238	1.975734378515989	-2.039861171602655	2.266697493701882	1.7684950713377487	-0.021028224407436014
id239	sample0	obj239	1.8506749777291762	-1.867359616918692	2.405980880163672	1.1941745786605424	-0.05897193923781821
id240	sample0	obj240	-2.419091080037755	-0.9569175663840228	1.8078292462151924	-1.232749399071396	-0.08553709522130959
id241	sample0	obj241	-0.25063317383041883	-1.3389103989103948	0.5214938939468705	-0.6396310499343817	-2.450202636420196
id242	sample0	obj242	-2.443503761564973	-0.8212552541965918	-1.3366400226377972	-2.5251691547730406	-0.002493204623124634
id243	sample0	obj243	0.9554094130878868	1.832969626294231	-1.7637775711113308	0.9517583038709181	2.791907457409586
id244	sample0	obj244	-0.5238998238838748	2.8566617540463515	1.088243532967697	0.8170098353983822	-1.6754313106026233
id245	sample0	obj245	1.699141726750946	2.3126189874002234	0.3528710764903807	0.5379649966611112	-0.4783552954603998
id246	sample0	obj246	-0.06282249331612927	-2.041896859479323	3.02441140724503	-2.1851780906527747	1.3618556679111034
id247	sample0	obj247	-0.028697536445102978	-3.1282211931304147	0.550937391917257	-1.3211035616818418	-3.2085876032048843
id248	sample0	obj248	-0.012149114558820562	-0.8237695765924522	-0.9527279741569368	-2.1972542811909657	-1.9152630562284103
id249	sample0	obj249	-1.103077350700818	-2.158333074059701	0.30996364101995305	1.451143088975018	2.6151880929771236
id250	sample0	obj250	-0.7780683895268242	0.47255121579140213	-2.0990128814924103	-1.5572862711064341	-2.414543436441165
id251	sample0	obj251	2.625768752663438	-1.2555909568986658	1.7925359794275224	2.225169967108574	0.5910581392629257
id252	sample0	obj252	-0.9584454874424433	2.726764566108197	-0.3629072229567585	0.36893952366992416	1.6252326959759478
id253	sample0	obj253	-1.157299979347355	0.20632280961092542	0.5750461144687294	2.5483177890130224	1.6158140569283606
id254	sample0	obj254	1.0420626192922313	1.0994309156507902	2.0401330446046364	-2.3687307365887387	-0.9347686759280835
id255	sample0	obj255	0.43402493459102265	-2.1777921339999704	2.725888743168484	-2.4516073887253538	-0.7172792452943786
id256	sample0	obj256	0.5526235619188802	1.5290602664257922	0.6942868731017108	1.0997743154569692	0.6176265909883183
id257	sample0	obj257	0.2570195360504706	-0.6417136515946764	-3.1039923082942966	-0.33303279022026083	-1.9289678436762538
id258	sample0	obj258	0.86513202814571	2.42500558460277	-2.7218934828972023	1.2966390787556805	0.9513179926146764
id259	sample0	obj259	-0.9403600600125388	-2.3642159723104927	2.6302132010736887	-1.0457040372118525	2.5522578793854205
id260	sample0	obj260	1.2731921967446262	-1.063252773967181	1.9591058647055672	0.24360794060044055	2.674310584524839
id261	sample0	obj261	-0.390826629575617	0.047280120234694134	0.9212261819183267	1.8476480285992491	2.2141030430154935
id262	sample0	obj262	-0.226454338538075	2.351833741033609	-0.1340239065068487	0.09613269857965245	1.2849332024087814
id263	sample0	obj263	-2.0335799045763827	0.12505016534120356	2.2350438670313224	0.4317911006243914	2.3302173130793573
id264	sample0	obj264	-1.113365230231643	2.303173101864486	2.494820340016502	1.8519547059511525	1.906900123705642
id265	sample0	obj265	0.37153114881413046	-2.4129033055867044	0.6902386255475539	-1.2544977316966852	-0.9945567800569012
id266	sample0	obj266	-2.555254269049334	1.8871161664892135	-3.0105762853421196	-2.5235337729576877	2.9498892470848332
id267	sample0	obj267	-1.894355038947591	0.6960941018230511	-1.7392402507886393	-1.266246002934123	1.056449048701792
id268	sample0	obj268	2.370274111117759	0.7736258317483179	-2.062125605922478	-0.5846431623796011	-0.09977321152611429
id269	sample0	obj269	-0.8929956562202378	-2.0760338765245683	-1.1915086279412308	0.9152946566275513	0.13200569913296945
id270	sample0	obj270	1.3992821824845776	0.4268232111046675	1.9437485205236653	2.233578004078667	1.7591161527358588
id271	sample0	obj271	-2.4693924877360125	-2.853531653947905	2.4862888983107263	-0.21535921631127397	-2.4474728439374207
id272	sample0	obj272	1.854074703690338	1.877666164077907	-1.5642579227043971	-0.17341958948372382	1.0035440657107335
id273	sample0	obj273	-0.042813625806930045	0.7053525581903384	2.3637515591404163	0.02218945211654394	-1.4971188526097001
id274	sample0	obj274	-1.4282942287582596	-1.8390427450054823	-1.2675078805913518	0.2244093910945265	-2.2762894384864447
id275	sample0	obj275	0.6222120614999516	2.059148697636141	2.027156731782607	-0.5463304783478022	-2.074812289874192
id276	sample0	obj276	3.273037760649454	-2.6618692394942247	1.4180558353425083	-1.58788695801479	1.0479909670355632
id277	sample0	obj277	-1.2782426491749495	-1.3327924931661612	-0.8664435781565876	3.0691486116925573	-0.5600906853945893
id278	sample0	obj278	-2.889601110331338	-1.8016501266189389	-0.7719717112782527	1.312837676609592	0.14070482200759382
id279	sample0	obj279	-1.2363204729267312	1.0665952545326762	-1.7699093942114925	-0.5477780336552999	-1.48421410372345
id280	sample0	obj280	-0.9565613789493008	-1.5823285014479214	0.6977466981083156	2.2459910430176575	-1.130718409441163
id281	sample0	obj281	-2.494713023147267	0.34013485658288367	-0.9126254405177563	1.8330041712872067	-2.614858059740105
id282	sample0	obj282	2.2261325185540435	2.1449431319336427	-1.735119489703455	1.436250689436003	-0.41307734993826384
id283	sample0	obj283	0.01920568640453979	-1.3499888084012956	-3.124057468432978	-2.903459548707611	-2.9349298930742758
id284	sample0	obj284	-1.4120334590112724	0.9904877671058133	-1.987391358551683	-0.004473656202709203	0.9470101225440393
id285	sample0	obj285	2.455619695860714	-0.9801623209165056	-0.9960478396659393	-0.13507070850795821	2.5325392337189494
id286	sample0	obj286	-2.9146926528669517	0.5675480964391937	2.5314537771548684	-0.9539570463420503	0.8199593034919745
id287	sample0	obj287	1.8507157909987237	-1.934923768004906	2.230735405041039	2.3217217564132167	1.379371425161785
id288	sample0	obj288	-0.6077513333594028	0.3562080274192456	-1.8061259404996388	-2.6534442861638547	0.2668813095232886
id289	sample0	obj289	2.8285696134837623	2.3546445169084445	-0.3963906862016261	-1.3627934360734788	-0.4606649627624031
id290	sample0	obj290	0.5825121781777595	-2.7643775201085594	-1.3167110528788077	-0.6953806205074808	2.7634941848443035
id291	sample0	obj291	2.9486549186403987	0.9740934691409433	-2.104812131341662	1.4404249997809084	2.263599215989446
id292	sample0	obj292	1.995166020991759	-2.3953282646063756	0.6870524893268518	1.6163761242300696	1.169599401035374
id293	sample0	obj293	1.486701876130082	-2.6271681172201724	-2.662945716410416	-1.8931391120324923	-2.416952869002917
id294	sample0	obj294	2.7282009437571553	2.4566565754439837	1.5208681213738307	-2.486722439540152	-0.8071810870099305
id295	sample0	obj295	0.6570520338982881	1.8156698825062016	2.37611830132923	-0.09036213094548373	-0.27176595301948475
id296	sample0	obj296	-2.702215248861177	-0.10533645496438143	-0.2485356776397487	-0.11441864132910357	-1.9299283984892492
id297	sample0	obj297	1.775523261673953	2.9048814180055316	1.276575522015964	-0.8821016880051489	3.10316069586806
id298	sample0	obj298	-2.249034825206765	-0.5936982354560426	2.3574247088379683	1.2996486463111743	-0.7623667027633225
id299	sample0	obj299	0.8398897923855431	-2.9432852097162137	0.43867612949062246	-0.5987346616939184	-1.518195102268144
id300	sample0	obj300	1.8206544739641848	2.326442903630709	-2.6714314246730746	0.6655592430448769	-0.4869982682330568
id301	sample0	obj301	0.7184508399341849	0.35073368033975044	1.42227069824751	2.877563570230179	-0.39794446284531904
id302	sample0	obj302	-2.35995295679478	0.5024245130221718	2.447130156856184	-0.48983499412931963	1.9828339017204852
id303	sample0	obj303	2.565112964322329	-2.552282034179728	2.1963940802310717	1.7672249619713032	1.687133806786848
id304	sample0	obj304	2.446640562186041	-0.03278482397479518	-2.504644248933665	-3.033542639753729	0.47587184390852
id305	sample0	obj305	-1.567524087545908	-2.2004786357247275	-2.2347303784867387	-2.5817996822102662	0.0777991786625486
id306	sample0	obj306	2.342414578844829	2.5828137869702146	-1.8485473777034898	2.5323227006515094	-1.725806689624982
id307	sample0	obj307	-0.5256000886997582	1.040936960834929	-1.4433962887911593	-1.9528401619636593	0.8889286993038433
id308	sample0	obj308	1.5563857682980415	1.8304812777608173	0.4077508458722121	-0.9590295258541379	-0.8622663577562216
id309	sample0	obj309	2.5894871374651967	-2.3708140853954203	-1.5582993585592542	2.0949705363554316	0.2219700207043564
id310	sample0	obj310	-0.8201140288478578	-1.6806809271043492	1.791406219714104	-2.8866952760788354	-0.6755017660240263
id311	sample0	obj311	-2.0388755440783726	2.4322985943860234	2.86180315160395	-1.9132045251956549	-0.6878985971051558
id312	sample0	obj312	2.295913841549366	-0.9854950253425725	2.2901416941949426	-2.7476487860472183	-1.297847746491934
id313	sample0	obj313	0.23376114322049463	-1.7041949368898877	-1.7345471488989297	2.3708623270193123	-2.361274712417593
id314	sample0	obj314	-1.9345303724993606	-2.263258928036847	1.2658295347869042	-2.5541731699182413	-2.533113549899273
id315	sample0	obj315	1.695727093376302	-0.1485116930614126	-2.8468899198249886	-3.182604546644744	2.584486827944321
id316	sample0	obj316	0.010811598509065212	-1.628070139178748	-1.2591794193337722	1.050590930871711	-0.10493619865086157
id317	sample0	obj317	-1.0858194559749252	-0.13262064940292673	-0.15542161018915746	2.404084123247653	-3.1731262572824988
id318	sample0	obj318	-2.8257489019288022	-0.8971557635453329	-1.089247204292985	-0.6411357796784484	-0.5842028537447326
id319	sample0	obj319	0.6170148759075479	-2.0491251498987038	2.629985112585312	2.3916871423105652	-1.8455681333169438
id320	sample0	obj320	-1.1611538420792449	-2.58812159180017	1.7992974760549458	-2.26123391118184	3.0532370492329273
id321	sample0	obj321	1.7002799367370645	1.1642486757920578	-1.2345216570305952	1.8791190220621585	2.314759846332673
id322	sample0	obj322	-1.7371649069397401	0.8164088470949629	-3.0676608208235456	1.0802135339814132	2.672117146263269
id323	sample0	obj323	1.8497047524005974	-1.56741074673937	-0.40904800759871174	1.579053797418097	-0.14697574449680606
id324	sample0	obj324	-0.7272001350041425	0.02765857099767277	-0.33988171196366357	1.372092464691739	-1.72355795264027
id325	sample0	obj325	-1.7757253431518176	1.738230135412166	-2.029186882808454	0.5113831847712305	0.7483144098666991
id326	sample0	obj326	2.6325207160565243	0.8432848447253661	0.6658035774273126	-2.5703542338281022	-0.3522196042956292
id327	sample0	obj327	2.1128205416601515	0.20424966531965272	-1.1869081578473166	-2.1072895955742323	0.39252562702752714
id328	sample0	obj328	-2.4122782948014567	2.897503145191368	1.2189890657726903	2.5552726655538622	2.7363611884815655
id329	sample0	obj329	0.8267666612070368	-2.8450082847036793	1.2613720737229868	0.30660195768300325	-1.8943289364458862
id330	sample0	obj330	-1.004940794785072	1.7359584974604994	2.695135358121433	2.455695487675402	2.486248662691107
id331	sample0	obj331	2.450356199965216	0.3674916300681772	0.36363385457885444	1.8540023621290438	-1.103129619524313
id332	sample0	obj332	0.9717198819948345	3.022564092953317	-2.1993164911832666	2.8892757111990908	-0.08231188520969407
id333	sample0	obj333	1.1818739991329532	-1.6609007677116974	0.6189386167344033	-1.6303056657165602	0.547298012446032
id334	sample0	obj334	2.026016125992987	0.5201881881054831	2.11337452380025	1.645935575979863	3.218974291701857
id335	sample0	obj335	-2.2550945140444494	-0.1803573907030337	-0.7649874537587876	-2.2061124480037506	-1.973111279897295
id336	sample0	obj336	1.0068416641175608	2.6456770386670088	2.244378315749148	1.3667286809739567	1.1117942235424885
id337	sample0	obj337	-1.5619248655793039	-0.10140823130435483	-0.8235212151906542	1.83412263468554	-1.6913616431555414
id338	sample0	obj338	1.9794334936858484	2.9428144716553444	1.110610366688955	-1.080120439653701	3.224114694566908
id339	sample0	obj339	1.4667654034919684	-1.4124563160389787	-2.0446935408185887	2.0490852895384437	1.4922111606281434
id340	sample0	obj340	-0.7834936685086287	0.7362148914647708	2.6107373079262923	2.125649764088391	-2.7092467697293743
id341	sample0	obj341	1.3341058580558531	-1.2341327245210931	-0.4462164380787893	1.3213398011869621	1.502800841750481
id342	sample0	obj342	0.5886554861569062	-2.452105699261947	-0.35320279946935784	-1.5445495729754806	-1.8575539440720945
id343	sample0	obj343	-0.7346902072881961	1.813697806316149	-1.9509755892965095	-3.0697034160778527	-0.2663957981772282
id344	sample0	obj344	-0.6716178539005793	1.5306386214993508	1.7262340404309657	0.8442987482863434	-2.4405560531394137
id345	sample0	obj345	-2.0652050643134756	-0.425919395353353	-0.4690138492377972	-1.7588617853621442	-0.8761095051667523
id346	sample0	obj346	1.3918563069510137	3.18385761901548	1.3988980729697387	-2.9957456126933506	0.2565879400018668
id347	sample0	obj347	-1.0737694128764055	-0.8214047012805076	-2.2912533882658095	-0.5776769721859006	-0.6862108054223116
id348	sample0	obj348	-1.5034841060055797	1.4851561164150104	-0.20612361590860695	1.8954687340422236	-3.2841309008068738
id349	sample0	obj349	-2.020230166930723	-0.2668250944903824	2.0491775808965125	1.0073736303902268	-0.0728876235690844
id350	sample0	obj350	-1.203020066336475	-2.1575695816417624	-2.3332044874243354	-0.4823072404105851	-0.9466693725003615
id351	sample0	obj351	-1.5024614238278635	-1.5307624372647977	-0.5138198960818874	-1.1791685017322746	1.271588445912636
id352	sample0	obj352	-0.41604851469174814	0.8261943057211333	1.375665035539219	-2.2234141589058343	-0.555248210891306
id353	sample0	obj353	0.348511799409259	1.5770942997193815	2.706638868827773	-2.13028768689106	1.409832219744399
id354	sample0	obj354	0.4394724348131354	-1.6093831779514896	-1.5201745502467325	0.03524164133989394	-1.3349802448421522
id355	sample0	obj355	-0.17098430191469016	2.3925536635507423	1.2217308940259763	0.6179368851311658	-1.4264566039089295
id356	sample0	obj356	1.5269880596827408	-0.12381384756741787	1.390796327623978	2.2925372650726525	-2.473107139203581
id357	sample0	obj357	-0.9817132956514517	0.8236440848208207	1.2610022897058113	1.9507199726711169	-1.1716777780024803
id358	sample0	obj358	-1.9126391347470832	-1.8199219108247227	-0.23428484937814287	3.278028264409283	1.3246349873716345
id359	sample0	obj359	-1.825896849566779	0.5835741567882469	-1.7952551882042393	-0.281307056224464	-1.1610565062083482
id360	sample1	obj0	-0.1471985853524337	-0.3876226590593059	-0.22431840271953948	0.8856552719357766	-0.9691721621297624
id361	sample1	obj1	-0.7036443093600269	-0.19154118063991832	-0.11184665805555927	0.679842389991521	-1.383434404910339
id362	sample1	obj2	-0.5915377342324135	-0.386630254815568	-0.22803919096464842	0.5135698721198858	-1.07946333938932
id363	sample1	obj3	-0.2705261375021448	-0.5279384463572967	-0.1206735310289962	0.8208223326746613	-1.3855592417315143
id364	sample1	obj4	-0.7469940331177966	-0.1600423738823108	-0.04034619737342293	0.855371559371908	-1.3532585817318332
id365	sample1	obj5	-0.5336894808772499	-0.43537702354100816	-0.2675602778085542	0.7632406579308959	-1.1417516871631879
id366	sample1	obj6	-0.536890691941488	-0.5521859281779077	-0.45116340895954316	1.0812748822529836	-1.353317277619212
id367	sample1	obj7	-0.25214516141055454	-0.6633608269927901	-0.3929620811748471	1.0513111717423038	-1.3229926813157524
id368	sample1	obj8	-0.3130139633733709	-0.26915708229072977	0.11432664348197441	1.0644906621149575	-1.502438412701462
id369	sample1	obj9	-0.27501947714682384	-0.3518356739531088	-0.11042071278456234	0.9958665870175912	-1.5312488334697674
id370	sample1	obj10	-0.06584401286964303	-0.7941666319860565	0.15004730364427776	0.7126568643184366	-1.2705247211163233
id371	sample1	obj11	-0.2669793616529421	-0.7393994381227678	-0.03638224668467682	1.159805755137882	-1.0325782191017687
id372	sample1	obj12	-0.7232006141994197	-0.12823264238781884	-0.3267289549400394	0.625985151023474	-0.8639045008420435
id373	sample1	obj13	-0.45365196691366794	-0.7564660982355678	-0.42261434197085745	0.7163138326143552	-1.1502450614452011
id374	sample1	obj14	-0.1487048641157872	-0.7408637386759127	0.0036680934261613674	1.2119328518157824	-1.0744060758743876
id375	sample1	obj15	-0.1042993745645886	-0.6032619163313175	-0.1659052819223361	0.5506807317631466	-0.9686979366344526
id376	sample1	obj16	-0.23192733177457248	-0.06459532721651284	0.17411858607788033	0.6494913041237875	-0.9011486938201225
id377	sample1	obj17	-0.08697774067767017	-0.09925026078178434	-0.07519650409946727	1.1023241579211644	-0.7922348085340462
id378	sample1	obj18	-0.7175611773817034	-0.49146002001558386	-0.11272264773785023	1.2844623291154125	-0.988482649643164
id379	sample1	obj19	-0.3243795899368317	-0.1523004617191447	-0.25676841851590904	1.1944048443648696	-0.8701466753017401
id380	sample1	obj20	-0.5514279957410546	-0.5286916985012209	0.3139119912093964	1.1503765702590085	-0.8289798856687246
id381	sample1	obj21	-0.746525489862759	-0.1326351584165102	0.26643133332863944	1.2742032239898418	-1.4431007648013963
id382	sample1	obj22	-0.1265928903164626	-0.7451822488750675	0.33606595843091247	1.1479877414929303	-1.0608452597450397
id383	sample1	obj23	-0.7794417112183935	-0.048308581912803183	-0.14524014339982827	1.1882074603436479	-1.3834926315784688
id384	sample1	obj24	-0.2933335978769519	-0.5894278000551059	0.2701294879229639	0.5795591696981024	-1.0445872036119193
id385	sample1	obj25	-0.32692768485911	-0.20568797278262996	0.21912450581988885	1.241644383284883	-1.3954655074609366
id386	sample1	obj26	-0.7521778886420409	-0.6839207774728522	-0.33806703684578276	1.0224392591870273	-1.0342555537838374
id387	sample1	obj27	-0.1954868082095228	-0.1001282633052637	-0.0769928378489596	1.042966029697711	-1.5082638634353036
id388	sample1	obj28	-0.2796914467682827	-0.6001626648458129	0.028007895505252012	0.5397044212246103	-0.8640229262645368
id389	sample1	obj29	-0.3804626692385651	-0.6187491879339571	0.33130314539597727	1.1095857614492393	-1.439556841028982
id390	sample1	obj30	-0.5421680427767588	-0.7926906971721037	-0.1758075213880117	0.9639290481021168	-1.1513544937189395
id391	sample1	obj31	-0.5743911032286669	-0.44894294573557136	-0.3124577972021293	1.0119390707971714	-1.5233361738999793
id392	sample1	obj32	-0.432841717174896	-0.11973115057424677	-0.14521032532362	0.853423163065208	-0.9734804702992383
id393	sample1	obj33	-0.27654795333289206	-0.07295888691913932	-0.10440966912524513	0.5587256049698786	-1.2899617771202978
id394	sample1	obj34	-0.5237101217255522	-0.8023100163838868	-0.4074829967106044	0.9085600881804904	-1.4043534044719341
id395	sample1	obj35	-0.7756404784116486	-0.0906307797654432	0.0014621731937333182	0.7769700267619972	-0.8538969645500716
id396	sample1	obj36	-0.5535264412737024	-0.37287102027332486	0.061518692346899106	0.7490971730822944	-0.804742195567398
id397	sample1	obj37	-0.04555959201684756	-0.04903090171973801	0.315405206843525	1.2163207442879664	-1.4076441802886925
id398	sample1	obj38	-0.4789865070769988	-0.3386694556896276	0.2427418989727751	0.7916743569513371	-1.3385824130481527
id399	sample1	obj39	-0.23707858153473127	-0.6695535606419531	-0.4160520226065878	1.0077866348624016	-0.9383604712803572
id400	sample1	obj40	-0.29660586908951536	-0.3344292529789822	-0.20699013564172575	0.5299563535838882	-0.8441722167543909
id401	sample1	obj41	-0.7663528146600713	-0.7496502031810457	0.21613624385226404	1.1328932632973112	-0.9766011987025833
id402	sample1	obj42	-0.39825103227837894	-0.06296912388679987	-0.3738435480528504	0.8081654013999893	-1.519271268068255
id403	sample1	obj43	0.005956332966838618	-0.07815615785062968	0.08771171641860298	0.9100211695963167	-1.3546089572425826
id404	sample1	obj44	-0.6537573012574741	-0.12172284072683237	-0.4133824083106573	0.6920331047354332	-1.2846290251999188
id405	sample1	obj45	-0.7568587622874507	-0.23986828278474337	-0.10848042308407652	1.1804704453131016	-0.9945331901539067
id406	sample1	obj46	-0.3195345898868619	-0.08729701381650701	0.2529060717796092	1.2794805984623623	-1.1709376458340657
id407	sample1	obj47	-0.7562690555670338	-0.19675161381092832	-0.42803786046324294	1.277576315111474	-1.2649353051030274
id408	sample1	obj48	-0.25253137507150414	-0.3794287171802824	-0.15957186491089426	1.2566184313896054	-1.0296731626081514
id409	sample1	obj49	-0.0271324939515194	-0.21987144202527098	0.0758474100789226	0.9879828301546111	-1.2369024231231123
id410	sample1	obj50	-0.5643957067983439	-0.24992419424675905	-0.3698691841377212	0.9929375372019684	-1.4987578434168465
id411	sample1	obj51	-0.0019222832409601098	-0.10786653392307533	0.271512255755021	1.164961687880285	-1.2390615894761416
id412	sample1	obj52	-0.3811406864256033	-0.5413780562621158	0.3315006469230053	1.0828451894373283	-0.8594447323969241
id413	sample1	obj53	-0.45422700410770595	-0.0644973432459216	0.23263146585424044	0.6294455895145783	-1.2537554720148731
id414	sample1	obj54	-0.17909108181943456	-0.23469196449566143	0.09546540702697115	1.0789801627209474	-0.801294875485244
id415	sample1	obj55	-0.2481579728409986	-0.319522388553083	-0.04734512142642677	0.4952261646461613	-1.1146088511424606
id416	sample1	obj56	-0.4483558895349483	-0.2536298185534539	-0.2752178696372055	1.1260231178239883	-1.5675858175572945
id417	sample1	obj57	-0.1382686454541069	-0.5638744575547037	0.15034658053904504	1.2805479181682529	-0.9586841988570585
id418	sample1	obj58	0.009459018399574304	-0.5188656036892692	-0.41347464575980086	0.8919991565857424	-0.8839590601354957
id419	sample1	obj59	-0.45755924189535235	-0.13182694981380982	-0.4535694551211476	1.1191108756169283	-1.3543932320741292
id420	sample1	obj60	-0.5878842106877913	-0.04319865866235606	-0.18667871091380112	0.6073509729270872	-1.2785829305191774
id421	sample1	obj61	-0.19910843080570273	-0.19955962658529947	0.0358793586541567	0.6592758806529324	-0.9693004849566443
id422	sample1	obj62	-0.48646457870171	-0.13383004690343359	0.18700462383247818	0.5603419494398234	-0.8825759256667324
id423	sample1	obj63	-0.739842983905983	-0.48125164466140885	-0.05008696138129015	0.6410478331495747	-1.5599229955018978
id424	sample1	obj64	-0.7166053689035297	-0.31681210112829217	0.23040603097699586	0.8606304889253595	-1.554904259910672
id425	sample1	obj65	-0.4729248051600165	-0.1905486419440654	0.09630682657674206	0.8661932023547279	-1.0585996346074298
id426	sample1	obj66	-0.5290602410603071	-0.6230024002262271	0.29000944146826635	1.0711370015166284	-0.8064366129709309
id427	sample1	obj67	-0.7082036170204604	-0.3969691842557207	0.28613760983061	0.7276294194903212	-0.8004719417143221
id428	sample1	obj68	-0.3560399172339543	-0.774071972894993	-0.0257500474199589	0.6216074272114173	-1.303306893350981
id429	sample1	obj69	-0.36815231980088303	-0.7435348743340024	-3.6967356091510695E-4	0.8400054863566246	-1.2765873103595498
id430	sample1	obj70	-0.3116057195382817	-0.5813360845880025	-0.38074639325463355	0.9555576334762954	-0.9102057306501091
id431	sample1	obj71	-0.44967065437259	-0.6036269232784066	-0.28670341081642703	0.6141733879096372	-1.0171038689927858
id432	sample1	obj72	-0.12642509891095877	-0.5193951966132404	-0.11414736663301916	1.1255644086756247	-1.2896890017017208
id433	sample1	obj73	-0.14011174595314835	-0.34179099328732515	-0.3949107613045773	1.0440324463124795	-1.301545380901414
id434	sample1	obj74	-0.567353236859247	-0.1607919078258666	0.14873993043246003	0.8401503711049053	-1.2040614977838362
id435	sample1	obj75	-0.0688548632146081	-0.40493062506199673	0.2738276972212387	1.1250086782822244	-0.9610232506266045
id436	sample1	obj76	-0.022772940014954224	-0.5571088553200636	-0.3793413804676573	1.178790881320229	-1.0718618122491173
id437	sample1	obj77	-0.043716101558217924	-0.10704863664409059	0.15368011417617244	0.9992135353731252	-1.3803112132385156
id438	sample1	obj78	-0.24009456170542032	-0.32615096807844857	-0.23844680588501027	0.9298526392649716	-1.21144349504799
id439	sample1	obj79	-0.7644581107695125	-0.18241393721203647	-0.32598003099606726	0.7231069935143559	-1.5256271648420154
id440	sample1	obj80	2.1502059888351694	2.4352417639370403	2.534462250674042	-0.7618443862707719	1.0089621380831684
id441	sample1	obj81	2.5088638668051777	2.3205650756449243	2.5893273415485223	-0.8521276941892927	1.3516330855750405
id442	sample1	obj82	2.5067209838116717	2.3437721617105045	2.5682111493238473	-1.0430743320105371	0.6847962312636708
id443	sample1	obj83	2.1345699381714764	2.9455481311965093	2.7645839520401694	-1.2267143899545077	0.6369456563589082
id444	sample1	obj84	2.6799869538050602	2.235099291940631	2.7452521541134702	-0.9471974053963957	0.7571167746795824
id445	sample1	obj85	2.7312486758636334	2.614261462656376	2.922400197903269	-0.7477395690401102	1.1994134940038237
id446	sample1	obj86	2.137989057084998	2.1892426074401117	2.646267817506053	-1.1501768354064419	1.1869901666478189
id447	sample1	obj87	2.418902148760895	2.8342083380715013	2.9338805200781004	-0.8769975312182512	0.9439201473097334
id448	sample1	obj88	2.2629269242278114	2.4599841530832087	2.9089475961606226	-0.7373938557322237	1.29117373645919
id449	sample1	obj89	2.1146166609273704	2.7093643142199335	2.823527706598731	-0.6274827055254949	1.0566668380171116
id450	sample1	obj90	2.6300768012943405	2.592414965307277	2.639121168384179	-0.5833681010534165	1.137308592137734
id451	sample1	obj91	1.962734317955557	2.8977692096270244	2.9017602827010616	-1.0546208867965623	1.2239526888887666
id452	sample1	obj92	2.57655917611025	2.938767103057634	2.6532157413884487	-0.6530042851025433	1.2714252160103041
id453	sample1	obj93	2.6389757734859467	2.648422742271986	2.64190078034419	-0.5323446706481006	1.2411412869414975
id454	sample1	obj94	2.5298606322349055	2.7191379308392114	2.4582141279309146	-0.46330574304855177	0.6015167665488519
id455	sample1	obj95	2.1925030748975174	2.248856094627398	3.008202551639366	-1.0119379182179775	0.7422091179613989
id456	sample1	obj96	2.385489813876982	2.824493987130386	2.607321621791692	-0.48121380866476937	1.1054661228976592
id457	sample1	obj97	2.071943287400628	2.3280324738396776	2.636013341874593	-0.7357927081346218	1.387302446339544
id458	sample1	obj98	2.3676784346525417	2.7351238642263853	3.126580844493917	-0.8449510965864377	0.6011441265665589
id459	sample1	obj99	2.2884245734336126	2.8975114612882695	2.8847059450703907	-1.02744131496296	1.3777609320331754
id460	sample1	obj100	2.0765700819913557	2.8284898753283434	3.089705212789975	-0.8829654153755838	0.7110275534660503
id461	sample1	obj101	2.5007077360927177	2.3770928768414974	2.7285367334945896	-0.6034439317626196	1.0250969693985779
id462	sample1	obj102	2.6198700233334558	2.77621015771395	2.5254326055603453	-0.8662896176451957	1.1732169709298568
id463	sample1	obj103	1.9645276032886543	2.5394371871088386	2.9201246744542435	-0.751932299009382	0.6824513915506252
id464	sample1	obj104	2.4464612425687706	2.880683956377446	2.473732358157114	-1.066851509094709	0.9952651892895144
id465	sample1	obj105	1.9702895208220714	2.521440901612262	2.6557742507061595	-1.0968274426842424	0.654077402110971
id466	sample1	obj106	2.144022652514419	2.47765378241964	2.5642299281960095	-0.9059870962630189	0.8167589974081577
id467	sample1	obj107	2.0002980204323806	2.58842635385873	2.6913974519372754	-0.5159691980070099	1.1304354213956986
id468	sample1	obj108	2.632216927759276	2.3317800533491195	3.1722444235963647	-1.1641283318672886	0.8411278683191374
id469	sample1	obj109	2.168725370778952	2.6004869240429564	2.502320653562476	-0.7056131695345956	0.7535135040638065
id470	sample1	obj110	2.077546585208437	2.6780841114822698	3.014866163324693	-0.8843562758118904	1.2166841811354128
id471	sample1	obj111	1.9645595179208917	2.3186094933768366	2.849794034388748	-0.8829703287576802	1.0990184416330129
id472	sample1	obj112	2.275508188600805	2.8128979249737993	2.981531883526595	-0.9392285338339171	0.7914313492651495
id473	sample1	obj113	2.099801695641448	2.8014776937828487	3.0115519057615674	-0.7926825013136575	1.169114729352413
id474	sample1	obj114	1.990205820467581	2.313738904848445	3.050587217895869	-0.6420090398995183	1.335707320311044
id475	sample1	obj115	1.9722157257107356	2.182140352028989	2.7533042085394883	-1.1323461700929736	1.3214189625261117
id476	sample1	obj116	2.011116119317676	2.86831026922162	2.5253566313921034	-0.6701467936092687	0.8212618039711138
id477	sample1	obj117	2.2839616954169806	2.2770110455687966	2.8625698341898778	-0.9364157323666766	1.1169892226844953
id478	sample1	obj118	2.4812287577198315	2.9186085108783564	2.9302728006714807	-0.9305691348154207	1.1648972563922992
id479	sample1	obj119	2.7144786309240394	2.767945910865513	3.1357945372715244	-1.157035789340035	0.7520799606331077
id480	sample1	obj120	2.1703169270982876	2.4769003010468493	2.9396482836262066	-1.0330734138318876	1.3893348272157926
id481	sample1	obj121	2.6280113099433993	2.7114277022989173	3.104226952968815	-0.6545713119659129	1.0454639257823763
id482	sample1	obj122	2.211624140580682	2.946113247564312	2.4687038612451055	-0.9498204639824405	1.2234974927805777
id483	sample1	obj123	2.203208336865177	2.867166116755727	2.503557498674069	-0.6598226743208164	0.7851542465071832
id484	sample1	obj124	2.1897847614405572	2.177965208326322	2.538499058965053	-1.0256510043423477	1.1589341827958775
id485	sample1	obj125	2.1042490576425648	2.801704917322497	2.7368564248562333	-0.4941318999372655	1.3953911789523978
id486	sample1	obj126	2.3623268029763755	2.7279390364242744	2.733441419407926	-0.965665916369163	0.8986395350309713
id487	sample1	obj127	2.269989098623194	2.7109079006079004	2.5498783438753065	-0.5328047383800633	0.9667884533821212
id488	sample1	obj128	2.616636952561843	2.5169901850349783	3.00208277146268	-0.7632292194155965	0.9790557951833389
id489	sample1	obj129	2.179644565760098	2.6184772428400747	2.432331909337376	-0.8714921671904639	0.6995666096243242
id490	sample1	obj130	2.1087988162794997	2.685656174378016	3.2089416988538697	-0.7432717832059097	1.3155737540736077
id491	sample1	obj131	2.060566850255797	2.645938645888961	2.8782444304351036	-0.7043937040314998	0.7418309706171672
id492	sample1	obj132	2.200246990843286	2.5270182324399486	3.0271224533386727	-0.5824925601767953	0.7163818076174913
id493	sample1	obj133	2.5356911337469636	2.61280905863674	3.1830826934502063	-0.8473634558451966	1.2618833768251845
id494	sample1	obj134	2.502710423203129	2.4107463583914104	2.868532601405794	-1.1297726117109534	1.0290427795714134
id495	sample1	obj135	2.3652727620380194	2.9139442140338114	3.124822244059276	-0.5382187936500783	1.1755887433441599
id496	sample1	obj136	1.961449950449499	2.561240659814392	3.180531818183884	-0.4868361788241452	1.3287096377604748
id497	sample1	obj137	2.619556923400288	2.234344154003043	2.870688812956401	-1.2207702080095268	1.2568475574299247
id498	sample1	obj138	1.951326255826336	2.8286628779987995	2.5948765370829823	-0.7209117468649573	1.0264226004121566
id499	sample1	obj139	2.426058489806202	2.3999763502120706	2.770826859460065	-0.4683095930532707	0.7912577912145295
id500	sample1	obj140	2.7297655281609967	2.592433231073493	2.6968556826624996	-0.5678647375112652	0.7704611676808705
id501	sample1	obj141	1.9671600876167812	2.5264572772084013	2.744681196314603	-0.92651314081229	1.0900801782672147
id502	sample1	obj142	2.685221515560033	2.6625490726075527	2.5895444852592786	-0.9459923086123874	1.3332560516338363
id503	sample1	obj143	2.2607674343432085	2.4157144985560652	2.735409154451357	-0.9549333919085272	0.663652623989078
id504	sample1	obj144	2.0392637283858353	2.4948630974500774	2.760134086359207	-1.2373893598405084	1.3208970410173984
id505	sample1	obj145	2.0387927115179783	2.8640325579511927	3.202171998022971	-1.120474344966722	0.8604303044135245
id506	sample1	obj146	2.2049532607585527	2.2122399150505876	3.0123265227693192	-0.7055137780418623	1.311804168764964
id507	sample1	obj147	2.145267511902988	2.583167225827137	2.639685379091678	-1.0454616701145567	1.3098595081960362
id508	sample1	obj148	2.0736980375623175	2.2242913612843607	3.0108153053957847	-1.1042975311244503	1.3256609954711585
id509	sample1	obj149	2.107918561896054	2.1994939972922585	2.8589399332504315	-0.7371390877716839	1.1643245864259117
id510	sample1	obj150	2.2973118195324047	2.8641718123304987	2.690903557121505	-0.6958690650939441	0.7432397252904763
id511	sample1	obj151	2.294070236618015	2.484437895193912	3.0325345548960527	-1.024640980449372	1.3174384109329087
id512	sample1	obj152	2.1515312083261926	2.411696357401107	3.018342636556562	-0.530671182062271	1.3422792690434746
id513	sample1	obj153	2.7437696915929024	2.582712781484395	3.102595738600435	-0.7037093845789114	1.282978111960545
id514	sample1	obj154	2.0117772290885765	2.9478256817163877	2.9415054589519123	-0.5554772730715845	1.3841087620503663
id515	sample1	obj155	1.9800610138808086	2.943179961953065	2.868788204601845	-0.6386430694862215	0.6507990578352205
id516	sample1	obj156	2.241478621823962	2.8863427534486767	3.0600401058238162	-1.101527722581289	1.2802401094956988
id517	sample1	obj157	2.628366793433334	2.520416667848735	2.9184526126498542	-0.995184447458197	0.9930915651762857
id518	sample1	obj158	1.9878057012724195	2.754328124916149	2.941180480889414	-0.566726776201759	0.8876843825585228
id519	sample1	obj159	2.3339659282406884	2.6033666699568987	2.7304378934701483	-0.9772693142168858	1.3763754723319153
id520	sample1	obj160	2.4926383398760703	-2.099645319308537	2.4864622131523775	1.768386268598995	0.47541742025783307
id521	sample1	obj161	2.542032627757721	-2.2027401632712476	2.3182672346152455	1.4961625016841502	0.39079883220337697
id522	sample1	obj162	2.017015400358493	-1.6106304966081875	2.631841368214168	1.3628413101752104	-0.07002263248083784
id523	sample1	obj163	1.9576237970280217	-2.072466282877932	2.6210254726697495	1.312260926603618	0.2963637498854029
id524	sample1	obj164	2.309168313066318	-1.96878307209974	2.376591009810698	1.590701287875211	0.39462910868496603
id525	sample1	obj165	2.4973587251348244	-2.215023254787302	2.725234083033932	1.6268636345327954	-0.12534455055194976
id526	sample1	obj166	1.8702317801196258	-2.2631378080263906	2.3594712028268563	1.2400623402712492	-0.0638061161328013
id527	sample1	obj167	2.631024282862785	-2.0590814833926716	2.78659944549561	1.329890718287223	0.5368129230749229
id528	sample1	obj168	2.0617969092976107	-1.6741674681765077	2.7166101213495706	1.4522370990231517	-0.0019587166419557933
id529	sample1	obj169	2.3639117411364428	-1.9467510602789981	2.598963130202175	1.7836981311026108	-0.03462065086144481
id530	sample1	obj170	2.1816788309788366	-1.803032111851918	2.3822186725660366	1.2761955987086802	-0.06464830718082784
id531	sample1	obj171	1.9553979725425197	-2.1648751963692865	2.746966955489181	1.8254805843040591	0.2677808681373881
id532	sample1	obj172	2.457910271421486	-2.1289098257865975	2.452074404005472	1.30323787370089	-0.23273823522076276
id533	sample1	obj173	1.8554228503368866	-1.8827622833628503	2.3002593476027062	1.577212914032882	0.2201869231533215
id534	sample1	obj174	2.1120595268044657	-2.116552593634158	2.6972015684195014	1.374207340771963	-0.14910204081323342
id535	sample1	obj175	2.504102150709255	-2.033734253184342	2.237060363664286	1.396455298905274	0.31339781654077903
id536	sample1	obj176	1.8625027459675645	-2.0454295718145916	2.6472051396624825	1.2148363248766672	0.026834050197955428
id537	sample1	obj177	2.6217464908538073	-1.6645880602540273	2.4794340086569164	1.627128717739459	0.5194359966274397
id538	sample1	obj178	2.182811923481061	-2.056038588448687	2.719748267232115	1.643095261532491	-0.04495979646978007
id539	sample1	obj179	1.9235881579090819	-1.638785548872848	2.8421478006570653	1.6601483630077776	0.4295494043228586
id540	sample1	obj180	2.299950598709759	-1.6081861624865863	2.6546935650210117	1.9056993627717689	0.45492222694093964
id541	sample1	obj181	2.425548625248325	-1.6159060339553617	2.7415305941356745	1.5895838826892228	0.4713658696896952
id542	sample1	obj182	2.3115011562852694	-1.9202540707462126	2.8184599910879995	1.3392069904918955	0.282580648636114
id543	sample1	obj183	2.0644111500430657	-2.3416145329351217	2.7802711264728455	1.650796787553492	0.09496925810502149
id544	sample1	obj184	2.320678516203215	-1.6076901073009973	2.3761783653630175	1.714425704851723	0.3229511237732545
id545	sample1	obj185	2.037794026604195	-2.269117192905791	2.518630904541441	1.6527862981345542	0.5246989291985344
id546	sample1	obj186	2.1324164134978587	-1.863179023448357	2.486259707705	1.5111230745696216	0.44401819769231354
id547	sample1	obj187	1.876351024461278	-2.1947944652588096	2.862076325467661	1.567756543605815	0.30550565094209314
id548	sample1	obj188	2.4233435398084984	-2.1201683285970283	2.5540219768706334	1.3833204346969747	0.05482634829681743
id549	sample1	obj189	2.592657305592915	-2.3274211080860736	2.539866161578761	1.7166987302828358	-0.17027169064458597
id550	sample1	obj190	2.1929982316328434	-2.2156426132280336	2.3880520344908236	1.2137293682700154	0.5285429499567748
id551	sample1	obj191	2.3082697843201867	-1.822101074266237	2.918661662573889	1.3905638520833246	-0.08781333334660274
id552	sample1	obj192	2.5231616777462347	-2.217258812010754	2.4350105921190415	1.8191715075644317	0.09635950510349278
id553	sample1	obj193	2.5424827430188754	-1.6967638406134902	2.2897582414383217	1.4723821202051512	0.4885171082541123
id554	sample1	obj194	2.4167206023380365	-2.3041731197737776	2.5256197516670884	1.3571039435792538	-0.012451670409817095
id555	sample1	obj195	2.0533301985713424	-1.8107877282541691	2.5880682025830453	1.6764669406482646	0.2437094586698202
id556	sample1	obj196	2.3570020026312477	-1.9901096908233997	2.3466032312609166	1.7966532987989379	0.48552349898935676
id557	sample1	obj197	1.9534180787653694	-1.622034207467554	2.6455159948651246	1.596622273233617	0.03483382401885177
id558	sample1	obj198	2.4230533615177654	-2.1514396234618163	2.560381495726945	1.6558433728622473	0.3892857990142501
id559	sample1	obj199	2.3802007490597683	-1.9502963471221189	2.9510381436649444	1.2560537207916798	-0.04602170165783426
id560	sample1	obj200	2.315873426385221	-2.372257355863433	2.9263543741721594	1.1699819127642321	-0.0858371337202434
id561	sample1	obj201	2.0823469103634986	-1.7618828979156227	2.283911588119705	1.677464649321264	-0.21555086984037913
id562	sample1	obj202	2.095129523585538	-1.6426606555352237	2.534635743913944	1.9444535628749553	0.5352870476912329
id563	sample1	obj203	1.8908720260836824	-2.0517785992121693	2.506665453687445	1.9426000781978385	-0.16468372247067387
id564	sample1	obj204	2.3954289540164746	-2.0456591213972404	2.545135605483208	1.758447640515214	0.47178423526709856
id565	sample1	obj205	1.975745156088494	-1.8365397170083897	2.248361956893635	1.8862823959720676	0.0964189339393739
id566	sample1	obj206	2.585742846622994	-1.942354451625603	2.4319162987575176	1.7244298799134232	-0.1708209968042363
id567	sample1	obj207	2.2457092956730538	-2.282802878677349	2.778564385685749	1.770763865841488	-0.062023966055953145
id568	sample1	obj208	1.9551126498891167	-1.7142550684723328	2.664781059828413	1.471449289841535	0.46205184092959495
id569	sample1	obj209	2.0310861583194493	-1.6830038599861934	2.8668403370905504	1.2120025895150237	0.18597893870939303
id570	sample1	obj210	2.5523002257878296	-1.7458060544398961	2.417083900555128	1.6086519885940176	0.388516072676933
id571	sample1	obj211	2.0963665251083805	-2.351621685587559	2.242180331243148	1.6802495611214756	0.3365741793004149
id572	sample1	obj212	2.3765739570376403	-1.8294341491130053	2.2707816006773456	1.4386554599997197	0.282613045921291
id573	sample1	obj213	2.261419780739078	-2.151982261508011	2.211242887047917	1.2731156415554667	0.3296753023400888
id574	sample1	obj214	2.211354457046994	-2.3496263773244594	2.5967792900852626	1.7287178283815545	0.19025528940726089
id575	sample1	obj215	2.26718659589765	-1.8753746002064102	2.2638683675949967	1.9600687658912497	0.284074697412951
id576	sample1	obj216	2.111974883291042	-2.0517797152346713	2.7206529313525825	1.3109177768265976	0.15887912082715178
id577	sample1	obj217	2.403750152595543	-1.8809509652673264	2.288835359150306	1.7230929019426346	0.5033567974779204
id578	sample1	obj218	2.403341867249953	-1.725777777154657	2.94086261766225	1.1708423351342023	0.14049879039789098
id579	sample1	obj219	2.225713044377059	-1.6666018253153645	2.542364344647995	1.769021218627016	0.29394598633097013
id580	sample1	obj220	2.612814521909061	-1.733469215930325	2.948602517953648	1.2975610234605643	-0.0776140683101624
id581	sample1	obj221	2.4118373838006426	-1.5777144684997673	2.9564048771326403	1.4648375998610814	0.09365317900453729
id582	sample1	obj222	2.058150096318343	-1.583441683376021	2.6054640499403674	1.9059454092678814	0.15912912692317382
id583	sample1	obj223	2.482937933983688	-2.27244325556043	2.943273587584741	1.6480216823684593	-0.10888315853958536
id584	sample1	obj224	2.229896259562088	-2.105703268718591	2.767120266491693	1.7056754505843545	0.024359781841484518
id585	sample1	obj225	2.0740480769398673	-1.6488383028513232	2.9477417591427915	1.689793790796604	0.323564979654425
id586	sample1	obj226	2.452140986522583	-1.603102861447549	2.8982708460874824	1.6795543980625731	0.369961792210722
id587	sample1	obj227	2.163911181484317	-2.3008979940536256	2.4172021506525927	1.9398974432379172	-0.02764370186413362
id588	sample1	obj228	2.575062598313096	-1.855538949734719	2.6061180783336284	1.3470356709345082	-0.024886723415692563
id589	sample1	obj229	1.8968795963802865	-2.0073294186818464	2.8050764488224567	1.357338588074967	0.03278961202062708
id590	sample1	obj230	2.0472534771915663	-2.0272255654504345	2.3266756772496597	1.3271461361155277	0.4870407244400756
id591	sample1	obj231	1.989336161745778	-2.068519698397435	2.6921555964789072	1.4322814553473688	0.5167021954810366
id592	sample1	obj232	2.4353224139518055	-1.576502538256308	2.6302433156672627	1.1782718690260494	0.19989635642544146
id593	sample1	obj233	1.9947832722191763	-2.2939398905726214	2.3050965242780146	1.5300826983915015	0.45340868200020734
id594	sample1	obj234	1.902811644600403	-1.991896414412766	2.7694113357572214	1.7805532332987293	0.28770115142466823
id595	sample1	obj235	2.3087766093473188	-1.9039220862784916	2.230830492811669	1.539226397380465	-0.21343637560051665
id596	sample1	obj236	2.5299960005324174	-1.977356363849783	2.7749909255768985	1.3399177248770893	-0.09817263855062253
id597	sample1	obj237	2.326911314484953	-2.146468397863877	2.7701687697142505	1.5807039857066583	0.4215618389438618
id598	sample1	obj238	1.8506628151846656	-1.583809157706527	2.812296685479732	1.4310600416557953	0.2630250404016803
id599	sample1	obj239	2.026099945604075	-1.8414703463870348	2.9434233566485286	1.5371641819404083	-0.23987774137546308
id600	sample1	obj240	-2.3604964013073597	-0.7282822924629389	1.865103451624775	-0.9122990077399181	-0.8146668426477877
id601	sample1	obj241	0.1250018084373915	-1.495140690106595	0.7014111003815368	-0.9332290386715457	-2.3942856112859463
id602	sample1	obj242	-2.2699322501124057	-0.8631091759963658	-1.1552351772331293	-2.52935584234924	0.08165381302182217
id603	sample1	obj243	0.7111176436259744	2.248406279659756	-2.138544349228535	0.46348287281770595	2.5414401575819396
id604	sample1	obj244	-0.5986751399849553	3.2975554273416776	1.0174178133060257	0.3235116716629293	-2.1673099187546017
id605	sample1	obj245	2.3915061523278442	2.3832276140824367	0.9825387992446712	0.33261905075021825	-0.9487495580785135
id606	sample1	obj246	0.18812870344350402	-2.143139183890789	2.837056698479209	-1.9476004141659675	0.9822527178531907
id607	sample1	obj247	0.14981493688906244	-2.6051234133353587	0.6936740058047872	-1.071833013480266	-2.669845928150384
id608	sample1	obj248	0.40307288470014546	-1.0719577306982782	-1.0814918543794432	-2.1373055334112396	-1.859192318120527
id609	sample1	obj249	-1.5435330472788928	-2.102081372705583	0.6818590636388164	1.4697898089844732	2.483213602221495
id610	sample1	obj250	-0.39850469659988985	0.5543839561582807	-2.2143734700303828	-1.1353064701240931	-2.3020182327637055
id611	sample1	obj251	2.4186838519887277	-1.5885844981682933	1.5391385744578279	2.7110973812344463	1.038377365079945
id612	sample1	obj252	-1.6265388149127848	2.3348364608652448	0.20528573707724596	0.6438897005232934	1.6820861588253218
id613	sample1	obj253	-1.4099337868041142	-0.5366631836142407	0.5102319563365063	2.3340821113400203	1.0962679037626157
id614	sample1	obj254	0.7956939424597473	0.9268205711691717	2.2322277509002935	-2.4253139986925873	-1.129165756409796
id615	sample1	obj255	0.6636797105712138	-2.34756269422988	2.6032407417822556	-2.646180514412558	-0.6482878707157275
id616	sample1	obj256	0.25704840000506596	2.1495428781335253	0.8341891065399342	1.0888387884112332	0.4667180457910943
id617	sample1	obj257	0.07979340088286735	-0.7304626852552045	-3.181053090695615	-0.6109473326491472	-1.9950869347334785
id618	sample1	obj258	0.3622109506724498	2.4751850721947712	-2.192103924260732	0.8191499952350564	1.3241628503660459
id619	sample1	obj259	-0.9937376982002736	-2.370368612349538	2.4500921780202782	-1.1617856881745157	2.3806006958771455
id620	sample1	obj260	1.3460512296900733	-1.0803693918541732	1.8794062223878099	0.5416320166337594	3.1172983628341844
id621	sample1	obj261	-0.5746536481405581	-0.33198677770133395	0.4987886875876638	2.2917348896707623	2.358035098957944
id622	sample1	obj262	-0.0971431006258835	1.9082831363283141	-0.16693622690538923	0.28359795768432755	1.11187006138442
id623	sample1	obj263	-2.553948644762809	0.3650624533545258	2.7871870701995087	0.4862893636393313	2.181427545891829
id624	sample1	obj264	-1.2607725473739273	2.2065320361842122	2.9394361681986023	2.1301861353428375	1.6786455425165918
id625	sample1	obj265	0.24766632044504772	-2.275846757346381	0.8542420314981445	-1.1776110491682452	-1.3015145494800935
id626	sample1	obj266	-2.4333886604296118	2.010347833447591	-2.2573068060787413	-2.3417422617981445	2.966073779744983
id627	sample1	obj267	-2.128895536011639	0.9552561563558097	-1.2683215357106452	-1.637908798858187	0.824928865870208
id628	sample1	obj268	1.9105073930783356	0.7633828096270034	-2.408105866723605	-0.603800237697121	0.22559227660749015
id629	sample1	obj269	-0.8357819317316713	-2.1856405081626167	-1.101889913203455	0.4185013554695216	-0.15324427014317576
id630	sample1	obj270	0.7606516242160587	0.10709882114123942	2.1097330213943812	2.5239821334221966	2.0237780224943904
id631	sample1	obj271	-2.4589866618089538	-2.6017112142412993	3.176006101717636	-0.5556496483592213	-2.7271909708302995
id632	sample1	obj272	2.2337239778951314	1.5154173288725534	-1.6811138557910774	-0.005861365838038257	0.8326730063650938
id633	sample1	obj273	-0.05057568211680297	0.9594892815798808	2.547370438534239	-0.2943274437648944	-1.707890718212662
id634	sample1	obj274	-1.337811647405272	-2.3180532756922765	-1.1961278025874462	-0.1932686944010653	-2.2044995038185413
id635	sample1	obj275	-0.09393622917113248	2.2308121562372034	2.237408944818014	-0.44784988787897645	-1.9409881322952374
id636	sample1	obj276	3.2359627427752184	-2.8859280933433102	1.170202607917509	-0.9234049059678008	1.7333079827229079
id637	sample1	obj277	-1.67153900587065	-1.1375468349048787	-0.8008620957921975	3.212954558084653	-0.6586730886295656
id638	sample1	obj278	-2.8348475031522984	-1.5266406255668614	-0.1512610474737609	0.987306923652956	0.28373007321917515
id639	sample1	obj279	-0.9137485642585377	1.2793764613820517	-2.0948473351742547	-0.41792268214663253	-1.929857797384741
id640	sample1	obj280	-1.0592728047291589	-1.9535959770902986	1.1390006238497512	1.4626667217487925	-0.9777434983361377
id641	sample1	obj281	-2.255586480866204	0.35647864333207024	-0.8738502720463367	2.1176204718531313	-2.8954749874542003
id642	sample1	obj282	2.365702981844324	1.7262064932627712	-1.570636967915124	0.9635702737583878	-0.8334901531511933
id643	sample1	obj283	0.1569909050531777	-1.1496741082262267	-2.908899370085142	-2.5460153189308428	-2.8199222846481056
id644	sample1	obj284	-1.086715898527527	1.6544759091133616	-2.605433091284045	0.5277917271153028	1.4437832700268696
id645	sample1	obj285	1.9930958380369996	-1.0282853565546088	-1.5457610469353602	-0.21572935019486972	2.589295422834583
id646	sample1	obj286	-2.777058083036354	0.5741933773636642	2.2528922677261685	-0.864583953895759	0.23136414930628413
id647	sample1	obj287	2.173903975490397	-1.4350257888998375	1.74355158726046	1.6636718057302164	1.7168617144797602
id648	sample1	obj288	-0.4657747932786317	0.9549015791525371	-2.050822150375267	-2.642219459293827	0.45915308196797894
id649	sample1	obj289	2.9366266793416	2.5915290154562944	-0.030197065276581725	-0.9543964368440218	-0.671280834434943
id650	sample1	obj290	0.8261506071658451	-2.8027077946070196	-1.320773510126571	-0.6816698859799378	2.3772061991374067
id651	sample1	obj291	2.617118276325332	0.791678111187788	-1.8989344102548016	1.7044558312781	2.3255095677845463
id652	sample1	obj292	2.0034579510420762	-1.9531996415353312	0.8309890019624038	1.276574985188393	1.3007410578480672
id653	sample1	obj293	1.3861570073286233	-3.103979583384955	-2.7466727114357528	-2.1829017397950703	-2.3144019423967452
id654	sample1	obj294	2.7572770580565615	2.8273778505960294	1.9144020321913828	-2.7106054751310733	-0.903210088809953
id655	sample1	obj295	0.24605691016958547	1.2338585174673402	1.7422965712232439	0.045781561420010664	-0.2615876019030047
id656	sample1	obj296	-2.5844968071863597	0.15695067086332515	-0.6076851462336085	-0.013433035878034072	-1.7037804726078707
id657	sample1	obj297	1.085938428425027	3.078937669506341	0.6455668718889572	-0.8547204835470809	3.054549023765518
id658	sample1	obj298	-1.6426680712274975	-0.932930784178439	1.8982349060978427	1.530161788069668	-0.7903124465998252
id659	sample1	obj299	0.6287429167172554	-2.497065970139874	0.029646474578257365	-0.5543109272304971	-1.524432797291987
id660	sample1	obj300	1.9481560791584518	2.193980105683045	-2.1974220352817144	1.0521035908188894	-0.6150484720004701
id661	sample1	obj301	1.135218968887837	0.7753735722242057	1.5260357929234294	2.7591584652120513	-0.37460101702790416
id662	sample1	obj302	-2.5122327642046267	0.9410763678012992	2.71889953069289	-0.7461410311479103	1.9356977552873724
id663	sample1	obj303	2.84519373474051	-2.162442508136219	2.448851924559035	1.7251283166906122	1.9699083041544325
id664	sample1	obj304	3.170232346140695	0.06897935712514897	-2.542371832399405	-2.8888965463460203	0.449893825460516
id665	sample1	obj305	-2.0487497927011975	-2.348729926333675	-2.880994905395137	-2.3731382172334783	0.17561993182017688
id666	sample1	obj306	2.4228395125894804	2.8161488034687783	-1.3492070094688866	2.4899318640309636	-2.018988332082523
id667	sample1	obj307	-0.1374775625625989	1.3254652959338822	-1.7865871337175965	-1.8542140753036465	0.6485638474576932
id668	sample1	obj308	1.3002991876201768	2.387969679731361	0.7820566063411446	-1.3834952477645681	-1.3480142818709582
id669	sample1	obj309	3.2059870598488063	-2.7180557989347967	-2.059750032977652	2.5143861883283987	-0.07366486196587324
id670	sample1	obj310	-1.383626172797104	-1.3949812594301902	1.8382080418452058	-2.953012905889199	-0.44561506012901386
id671	sample1	obj311	-2.360084885238088	2.84167383870533	3.332069521818398	-1.590744387960187	-0.901094292527871
id672	sample1	obj312	2.536958831655307	-1.1677949831073977	1.7085491826810713	-2.7114362912789876	-1.8198292518912162
id673	sample1	obj313	0.6608558374195469	-1.2144837803425386	-1.9416588278685782	2.500836628179883	-2.374271457942383
id674	sample1	obj314	-1.9437250046696979	-1.6884707455743946	1.636008332124168	-2.614263489661653	-1.8620143714550943
id675	sample1	obj315	1.5446954808436901	0.03667650099550912	-2.6706724201680556	-2.5659387913381035	2.00881163170324
id676	sample1	obj316	0.13242556370375203	-1.5846669481789373	-0.8117524722473966	1.6008177774191656	0.11886780962574561
id677	sample1	obj317	-1.1217326799551355	-0.02170672450225497	-0.2326830101353397	2.624426325647984	-2.684515191699661
id678	sample1	obj318	-2.4474530654542996	-0.821566983025235	-0.33033032047881694	-0.7934059114406955	-0.5924883209265344
id679	sample1	obj319	0.3462384970206789	-2.3092813282606452	2.5633342199817015	2.068208961831048	-1.7064001704510317
id680	sample1	obj320	-0.9051923530569224	-2.958010263227326	1.8185051031931363	-1.873174276124689	3.285886344972019
id681	sample1	obj321	1.2053430100084737	1.3828341039987952	-0.9468785698534425	1.3159418199779265	1.6901833936215405
id682	sample1	obj322	-2.0004921238626485	1.4661472014837067	-2.8092719700576745	0.8921220434330894	3.1285907204546075
id683	sample1	obj323	1.5025396500028945	-1.8048511952253674	-0.5978017511366277	1.3586194677230004	-0.09235106893142886
id684	sample1	obj324	-0.11931850714168091	0.19044494025966796	-0.33064823742510274	1.0415943940565622	-1.4925567399864301
id685	sample1	obj325	-1.5953738504586927	1.6455907337058875	-2.015758265304635	0.8212966927379269	0.17636925133761128
id686	sample1	obj326	3.010309451803443	1.0200431988705714	0.679841717988731	-2.757425974351178	-0.6486011528889828
id687	sample1	obj327	2.2647924124778402	0.22926746316249547	-0.800850681033533	-1.6750383904843367	-0.11324067989900483
id688	sample1	obj328	-2.4217886574446448	3.1024667146698346	1.2473973038239983	2.900894771329806	2.4731218085428135
id689	sample1	obj329	0.8483394233042968	-2.990303694931664	1.2675222429736674	-0.1777828018418392	-1.3626835584341448
id690	sample1	obj330	-0.8582115943868417	1.2756501088432541	2.2883492229435602	2.603322891855159	1.9828562639115093
id691	sample1	obj331	2.0983788952104	0.07101306846011984	0.4487251528478837	1.5740823696062662	-0.8221401407474929
id692	sample1	obj332	1.0822440814118937	3.186618433739646	-2.344168943390721	3.0134731434001827	-0.14772759979462544
id693	sample1	obj333	1.0970527448297087	-1.5603585365768877	1.0831829550064684	-1.8659694961155706	0.5513015734834301
id694	sample1	obj334	2.0101028855827523	1.0054450324766067	1.6103769616233126	1.5060144172328753	2.835680059853584
id695	sample1	obj335	-2.145784433308161	-0.5877467149316675	-1.089525355014025	-2.0576025732587273	-1.814289385903481
id696	sample1	obj336	1.2264797837571364	2.226746376728528	2.391591808553036	1.6754547539558153	0.9545399130673479
id697	sample1	obj337	-1.6495803023937423	-0.19175121092946795	-0.6513871112009851	1.4919416004050658	-1.5845027979976087
id698	sample1	obj338	2.142528041213723	2.527702690918112	1.6412203794466667	-1.869168621671668	3.135993952610296
id699	sample1	obj339	1.622454069889377	-1.5556358195554263	-2.146541510947989	2.667281085021343	1.5018007841047099
id700	sample1	obj340	-1.0360114607026594	0.2354686132334846	2.6657085003646586	2.0530362738969035	-2.719137498954619
id701	sample1	obj341	1.2869373313361625	-1.1674679393419618	-0.2414391028618743	0.8321112000041451	1.394394594535008
id702	sample1	obj342	0.6182047151348453	-2.1228286568417345	-0.19610216902091304	-1.154701139206035	-1.18387850457579
id703	sample1	obj343	-0.9389246526954829	1.3372068507225259	-2.095869081858313	-3.0353356018771196	-0.22131591143237356
id704	sample1	obj344	-0.3239807640604322	1.6030157732156574	1.4402313829584976	0.5788604785071276	-2.762533076426328
id705	sample1	obj345	-2.398516823692098	-0.8163030524166335	-0.29011276748219617	-1.6687315982397397	-1.1390378266742742
id706	sample1	obj346	1.8205592079503967	2.779140523544525	1.4144430292480974	-2.4143883960186776	0.32660489918088886
id707	sample1	obj347	-1.1850330545083698	-1.3454687569879809	-1.9280231276224742	-0.47127654781981776	-0.426454477029392
id708	sample1	obj348	-1.6597864074374893	1.5648265182132783	-0.25490357167721367	2.169263990294233	-3.3259471918460344
id709	sample1	obj349	-1.696322709505853	-0.20229105135514436	1.7420912424970294	1.3885110154802622	-0.5294597297147442
id710	sample1	obj350	-1.0434664522896242	-2.6272381591036025	-2.492320579533289	-0.48049124091243556	-1.228579874148997
id711	sample1	obj351	-0.9733825141400506	-1.0687418454346092	-0.41841856442294906	-1.2292899661201768	1.4078358076130664
id712	sample1	obj352	-0.19698366185589333	0.546845181083836	1.070685073081116	-2.0261178901240755	-0.6414680360543512
id713	sample1	obj353	-0.2430835610380256	1.4765311558569434	3.010376086727855	-2.2846284229368665	1.361773175526159
id714	sample1	obj354	0.5926868111519012	-1.5037175108765761	-1.241112470079207	-0.13473231516088158	-1.2972266387619604
id715	sample1	obj355	-0.712387413068182	2.783013923933438	0.9566007758721464	0.5776512386495927	-1.3246392838431724
id716	sample1	obj356	1.1772369713646422	-0.754484529118488	1.7267689550352812	2.735898265998957	-2.1856387569331908
id717	sample1	obj357	-0.6827764178736776	0.996302774010091	0.7560546184824841	2.1451473966247483	-1.0043262818748673
id718	sample1	obj358	-1.8843489894950216	-1.4238533707974383	-0.8870490300572162	2.7394381762898132	1.1067947019510258
id719	sample1	obj359	-2.3093415094732106	1.1257114327520243	-1.2195958376491243	-0.002187195213930293	-1.0207441946637998
