	-1.6921904350790467	0.46484184726081956	-1.3397756625413129	-0.7145392936227188	-1.2943332780091712
	-2.8763995390987684	-1.7766717568486206	0.6067983622440289	-0.5373391037153281	-2.6355087625282962
	1.8853335878942754	-2.2324243822838215	-2.7172362711975486	-1.2071656545809448	2.298853526775284
