	-1.3653820801972083	-1.0993408305590728	1.1476832680040414	1.33752905955518	-0.9932937107674418
	-2.515966697212301	0.3810541534602807	-1.4994370875326855	0.680598753843908	1.93572913254373
	0.8524804831372279	-1.906781585013836	0.49387471948248773	-2.8442140889752885	-1.2804375469393747
