	-0.7596064707373076	1.077433393814251	-2.9116052159230303	-1.9065322639512425	2.759617422927958
	2.6078511841858445	2.896521156345192	-1.5619813430104204	2.8838462678162706	-1.4169542718197565
	1.3353932698728272	1.8443346233740352	2.5472947296571986	-1.1587520009026262	2.672762760799431
