id0	sample0	obj0	0.7454973504735238	0.7188006893171748	1.306940839770509	-3.3234171408257525	-0.9773720072579436
id1	sample0	obj1	0.4859168099431234	1.3028943971000686	0.9279526191784522	-3.337195029244211	-0.6013473968986807
id2	sample0	obj2	0.6703366069350501	0.7208712180172998	1.2821208731403662	-2.9819564909150613	-1.114570667745528
id3	sample0	obj3	0.3163027932016736	1.226435437001354	1.2682300709428933	-2.693491307681482	-0.9138199123468141
id4	sample0	obj4	0.24755535836507203	0.8399017377372843	1.4170227906177104	-2.5999105569593617	-0.8497442033366667
id5	sample0	obj5	0.4657044863926717	1.2136380271363292	1.0818769374331187	-3.04336118310669	-1.0353515057650213
id6	sample0	obj6	0.718068993109425	0.7451203053929532	1.3915101287981355	-3.024559529515882	-0.6919580402770041
id7	sample0	obj7	0.9707678167995576	0.6640874640765108	1.452991657223404	-3.102137545775157	-1.195743777708822
id8	sample0	obj8	0.5750154590659096	0.7834446952979103	1.3206899474870961	-2.799568480584539	-0.9489440555698132
id9	sample0	obj9	0.6936772748340545	1.3173625565771006	0.9157797474322553	-3.094921562942215	-0.7150364270569017
id10	sample0	obj10	0.3665200428314852	0.8977304741304865	1.2361127632578781	-2.817104830693863	-0.4700229597592259
id11	sample0	obj11	0.7307804818570971	1.1875348522510545	1.244647030440507	-2.6083121139737897	-0.9125301151519877
id12	sample0	obj12	0.43569843902187555	1.2851200111462278	1.1357659520666097	-3.1353114978585035	-0.8619199284517732
id13	sample0	obj13	1.0150551595692345	1.287438950481334	1.1847294117613136	-2.778719002772196	-1.0113959166237756
id14	sample0	obj14	0.49255164919336575	1.046590854645734	1.1807172416808864	-2.5737088556033183	-1.0851645522798816
id15	sample0	obj15	0.9355871588830481	0.8879533608263639	0.7854810858577035	-3.3294424326863883	-1.2055458096167857
id16	sample0	obj16	0.550686843738031	1.2983336910900913	0.6670455468042591	-2.9670676962619345	-0.475483594372211
id17	sample0	obj17	0.6980102129479164	1.039562509502366	0.7132249038907662	-3.0741702099857107	-0.5296580919579792
id18	sample0	obj18	0.925080371771178	1.1601205598275004	1.3774787101478077	-3.101263868351613	-1.046314975720191
id19	sample0	obj19	0.37563833077101216	0.9905014375716097	1.3568491985404418	-2.8850127350832606	-1.1224697110745825
id20	sample0	obj20	0.6753798834906952	0.705356163991933	1.4179377674056854	-3.1725939793871545	-1.2152895486624886
id21	sample0	obj21	0.9518039759184455	1.1678163076927703	0.9041168077012797	-3.178664713571345	-0.8976667556860056
id22	sample0	obj22	0.6925237891388372	0.7520356469766291	1.2699694804311585	-2.7050005757081794	-0.4592458916305564
id23	sample0	obj23	0.5296956955199771	1.1447050284195166	1.454333715366356	-2.9047510876516753	-0.7359228929382018
id24	sample0	obj24	0.7647377443563494	0.893363692734584	0.9408299218370253	-3.2276236227658326	-0.63906252854608
id25	sample0	obj25	0.48677049157890956	0.6995333783266464	0.8464052753878577	-3.0258837871719013	-0.4858542517149248
id26	sample0	obj26	0.22224892734033497	1.2113212556567599	0.9687626325407688	-3.2580642718326276	-0.44731049942588763
id27	sample0	obj27	0.27659742160581097	0.6789535031413032	0.8195897504656826	-2.559424002338956	-0.7108781036643657
id28	sample0	obj28	0.34834022637287426	0.8859972504568961	1.0417971711052307	-2.8547150241235193	-1.0184477762455866
id29	sample0	obj29	0.2317700603203458	1.1095827450159832	0.9875400488427051	-3.006414386030964	-1.0431813442355904
id30	sample0	obj30	0.45764759821907264	0.8080336946331605	1.3141738677090453	-2.994479946558633	-1.202996142539791
id31	sample0	obj31	0.29730671549270316	1.2597320043838138	0.8945055039305427	-2.6236133142735536	-0.8052236320386317
id32	sample0	obj32	0.7808850985450538	1.321064286416304	1.155282911537974	-3.3001765984680866	-1.1438596206395488
id33	sample0	obj33	0.7247387762132681	0.9347043030105442	0.735847354573574	-3.1000328716596264	-0.8334187604180793
id34	sample0	obj34	0.4584637229016894	1.1655577070515526	1.2417865686492635	-2.9848807279854968	-0.6046623978291471
id35	sample0	obj35	0.7828684346003296	0.9962151012786463	0.7633020524306584	-2.979850592120832	-1.1878564221834862
id36	sample0	obj36	0.8337506216331237	0.7650076763274309	1.2043747201911257	-3.0984428250435547	-1.1867029713658503
id37	sample0	obj37	0.6919586330875906	0.7285175347090918	1.1587087236131655	-2.6290337361458382	-0.45614561878010085
id38	sample0	obj38	0.84999755182104	0.9899437764402838	0.8663850984258835	-2.8543752430838034	-0.7328398068798778
id39	sample0	obj39	0.26389903038549045	0.6308467748644649	1.4481974679858558	-2.673483927917582	-0.6586794024802423
id40	sample0	obj40	0.2932476940014004	1.0547675855175647	0.8623011644338252	-2.983276474042421	-0.6533429123347178
id41	sample0	obj41	0.7316733970478403	0.6978289987062829	0.9421168981437501	-3.2419782251044387	-0.9368395330754373
id42	sample0	obj42	0.686811898299003	1.0469505298343005	1.2999212292049869	-2.701928582971695	-0.6204640353356732
id43	sample0	obj43	0.3772346323400373	1.0565317655439126	1.2242606486468253	-2.627652105221101	-0.854878299559308
id44	sample0	obj44	0.8311864112122468	0.9576606887597244	0.7307742313786694	-3.20517210951494	-0.4651972925317963
id45	sample0	obj45	1.0176752544109233	0.7608637373355983	1.1772335007833195	-3.1372378625740636	-0.6704336792482587
id46	sample0	obj46	0.2965652911133153	1.377417178090309	1.2191387381842969	-3.180631878403134	-0.5714206725446592
id47	sample0	obj47	0.7853623608685073	1.2010631608046964	0.8190792822205945	-2.9277413202423936	-0.5278525498820699
id48	sample0	obj48	0.8133821668168659	0.839902099614877	0.7508024219070666	-2.714335532780135	-0.79932744743013
id49	sample0	obj49	0.5384870205362884	0.9680453811000944	1.1395738249527594	-3.1357079854752645	-0.8027155020515492
id50	sample0	obj50	0.46959710942492944	0.7415910794938978	0.7984814374801392	-2.698235607238579	-0.7817755828155317
id51	sample0	obj51	0.6642598407798247	0.7194114024378779	0.7628675354084331	-3.1846991388947163	-0.5751756217922075
id52	sample0	obj52	0.9117259002537763	1.23439482865329	0.9615996285456134	-3.068614650207183	-0.5239018356426975
id53	sample0	obj53	0.7877651509938666	1.225950232042024	1.0264434759145367	-2.6120660823197617	-0.4339422713894533
id54	sample0	obj54	0.5598895876086969	1.2830353726884818	1.4239090851848264	-3.2973215857952622	-0.7980657165944474
id55	sample0	obj55	0.9752679020285903	0.9344995855224745	1.3546379788996135	-3.086581037280493	-1.1119596287805882
id56	sample0	obj56	0.7854442689970912	0.7984117836401015	1.1232146929319315	-2.925756364106845	-0.6629078731459467
id57	sample0	obj57	0.22154842994659646	1.0650600746407914	1.418252036127995	-3.093950109350274	-0.42904856433289373
id58	sample0	obj58	0.6630318904545593	0.8027416160152224	1.0032467602764323	-2.9744885810730963	-0.5470255014704545
id59	sample0	obj59	0.3366215050054279	0.8670900555559327	0.7100631798562098	-3.2477042860338607	-0.4659992190160096
id60	sample0	obj60	0.8971738442259737	0.9517953992759984	0.7185066488769949	-3.1793646546969616	-0.5244866841408675
id61	sample0	obj61	0.3979773685766596	1.1919387995949648	1.429328609681498	-2.738431727812476	-0.8188202689404304
id62	sample0	obj62	0.4368110807169393	0.8340726832774729	0.8886922618432744	-3.197926632844089	-1.0711239060951565
id63	sample0	obj63	0.7102638233677295	1.3954074084576975	0.9566515498183936	-3.064784281662826	-0.9810696993719754
id64	sample0	obj64	0.5294749819876359	0.686299855933902	1.0500906242484227	-2.5979348750746687	-0.5272660330006543
id65	sample0	obj65	0.9151093016810595	0.7664579884289245	0.9138643658023441	-3.095159498447826	-0.5764106686313374
id66	sample0	obj66	0.9300550185469708	1.3091604894305755	1.4271068709260222	-2.5827550285617438	-0.504286790284905
id67	sample0	obj67	0.9195686349590914	1.1851227508138238	0.8418627542956546	-3.2894282700827002	-0.7127546353017493
id68	sample0	obj68	0.8674101545786697	1.2367008378918656	0.9478795805352402	-2.82633918278031	-0.7590661265691763
id69	sample0	obj69	0.4624541377796295	1.3446961449287524	1.0926070494535098	-2.9655469351855683	-1.1535731376777543
id70	sample0	obj70	0.7853522949270935	0.8073840286686685	0.9537141606094992	-2.683498978355083	-0.6221801052679107
id71	sample0	obj71	1.0135957809553138	1.030324271445676	1.2197875879780238	-3.2263615237615264	-1.1011775212035362
id72	sample0	obj72	0.6128115775334425	1.3042978799100564	1.002846642781397	-3.0091381596880167	-0.9023536168244111
id73	sample0	obj73	0.7018559475564329	0.6281369418851328	1.3659324300065356	-2.7673804839249847	-0.5609857145001312
id74	sample0	obj74	0.7812739585008216	0.776552352053512	1.244832162864784	-2.863079903261452	-0.7014284083329605
id75	sample0	obj75	0.6935049212712975	0.6460992975752751	1.2820171867188201	-3.066760935550576	-0.5050129116396469
id76	sample0	obj76	0.5958634951094016	1.3234342705334199	1.0426331212625035	-3.2950935974521185	-0.5608186302617505
id77	sample0	obj77	0.2933450658358082	0.9597910678199643	0.678917590434506	-2.6142224893187254	-0.5770424826839441
id78	sample0	obj78	0.47972242997996667	1.1174176154895865	1.0452635479713481	-2.5976944495278405	-0.8221439757002946
id79	sample0	obj79	0.8167524238527416	0.9533524157936514	1.1983268914950487	-3.2660710250555103	-0.8811517928258963
id80	sample0	obj80	-0.7829735881448048	0.4678152410717292	-1.476087964153038	1.944338205227302	1.4849877259563635
id81	sample0	obj81	-0.2510112863400026	0.3140228176457322	-2.0366738064433285	1.9076116688372906	2.0369508416448636
id82	sample0	obj82	-0.6885652081225533	0.5282989821314727	-1.7547460551448597	1.6496384918111964	2.15829585305461
id83	sample0	obj83	-0.8379007769437657	0.5026407973108945	-1.4079159619002453	1.550918337166663	1.6120412236870274
id84	sample0	obj84	-0.21948736153146442	0.05031547702719946	-1.9985762633238244	1.7635836559187164	2.219955355125517
id85	sample0	obj85	-0.5740509763575166	0.28377205648104853	-1.7335782971936113	1.2955530871154421	1.89217698656369
id86	sample0	obj86	-0.7391500277256695	0.16350822078846441	-1.8330653184371948	1.6679137541658098	1.5872236884833553
id87	sample0	obj87	-0.33336148609942085	0.6407175548967593	-1.6397031384975769	1.288783312543453	2.1648790372501443
id88	sample0	obj88	-0.504022410410126	0.2992356003682201	-1.621420717407533	1.4981595683700304	1.696843872419546
id89	sample0	obj89	-0.7145868039293044	0.49813159617640795	-1.878494942858686	1.810315686227711	1.910490213092271
id90	sample0	obj90	-0.9729958514915166	0.08853693035693133	-2.0348539441743903	1.2889189799517686	2.016596075156671
id91	sample0	obj91	-0.9384918159933966	0.15274283280951173	-1.7068002059087461	1.373526911494639	2.132098665020515
id92	sample0	obj92	-0.33400060261440834	0.07851985918181303	-2.1304374053566977	1.4352230014512941	1.5357135183149215
id93	sample0	obj93	-0.4150320877373004	0.28779188506157377	-1.4598929656315596	1.9371809856521471	1.7322579809658218
id94	sample0	obj94	-0.7219730817527656	0.5995173720031708	-1.62742849515883	1.438668158500758	1.9577222173862288
id95	sample0	obj95	-0.2261400854751432	0.2976747760935928	-1.8266937660144935	1.5967006041393441	2.1010787132089224
id96	sample0	obj96	-0.7639891803889894	0.5348946194592006	-1.8221733890234577	2.0390233144738543	1.9825454195536896
id97	sample0	obj97	-0.4689172017833574	0.6313127703268118	-2.019268990238864	2.018591106042579	2.206048008836918
id98	sample0	obj98	-0.32409766862668354	0.6899165589854345	-2.0059213171013406	1.68905001205942	1.8529946970495619
id99	sample0	obj99	-0.9782500706455198	0.5698001699507527	-1.5911757525938472	1.3011468549461667	1.9247150381950964
id100	sample0	obj100	-0.8321067604864082	0.7256187196265056	-1.949099343350288	1.9123072705500865	1.8540513028162309
id101	sample0	obj101	-0.5970882974822117	0.08591346294039592	-1.695936803913746	1.2891014129760447	1.9371611239049709
id102	sample0	obj102	-0.767295424425904	0.218154874833525	-1.9898160474346651	1.3907419259407003	1.6916219385120588
id103	sample0	obj103	-0.28684005050805716	0.590095612356297	-1.8886479874288125	2.039413573177989	2.1959546304111237
id104	sample0	obj104	-0.9297399607982317	0.5236264346536913	-2.113581595819441	1.6608981814768724	1.6407351931759846
id105	sample0	obj105	-0.769560032076451	0.04956133049102496	-2.160440398457272	1.929913149555773	1.8170724129288744
id106	sample0	obj106	-0.8686647767596096	0.3729296523045657	-1.7354499577389757	1.6546102330263839	2.241425305875703
id107	sample0	obj107	-0.4678233533310039	0.3742000554154556	-1.957237214490608	1.8220612036486712	1.5860500735061867
id108	sample0	obj108	-0.6489457078632639	0.4906880896489083	-1.4950084618657113	1.6020736043137096	1.9338319967998634
id109	sample0	obj109	-0.2573978546698811	0.29498443641785915	-1.6709648197398117	1.7336110545635133	2.1494054109188307
id110	sample0	obj110	-0.22361216083125923	0.22686893928663085	-1.648857937507877	1.8222219066840941	2.1623255248921427
id111	sample0	obj111	-0.7720457568311115	0.017623808266168384	-1.5030957499966267	1.8464872592802137	1.9621598709019568
id112	sample0	obj112	-0.8419138116990015	0.6092131393280069	-1.7944458195815483	1.4573670922436854	1.5417481206778303
id113	sample0	obj113	-0.4990044087583556	0.316233033173412	-1.6871203722134895	1.969731228095698	1.9880646747509838
id114	sample0	obj114	-0.759235786258603	0.1691402635696411	-1.6833334485239988	1.86609245688183	1.867143661299711
id115	sample0	obj115	-0.6779148538912977	0.03881859663580056	-1.6182627043331286	1.9968935648454573	2.19991933878176
id116	sample0	obj116	-0.2268654047012807	0.763320878436139	-1.981197042877229	1.5704186827416773	2.261628999043041
id117	sample0	obj117	-0.8651853343335641	0.6284147787703948	-1.4754745070918425	2.0417839373935456	1.7031513289892566
id118	sample0	obj118	-0.32633224714301645	0.8076395451691754	-1.4060812039284507	1.5602952087330664	1.9953414969336027
id119	sample0	obj119	-0.5499959799441568	0.6207342784975601	-2.0324606096491493	1.6060210670290815	1.8066073039786512
id120	sample0	obj120	-0.6747616701257834	0.45980378428560387	-1.9256421589390869	1.3904991905240953	1.871678589859053
id121	sample0	obj121	-1.0073692847388152	0.7612288663763546	-2.141207078858464	1.526356559236473	1.9902870920905578
id122	sample0	obj122	-0.3644012994418514	0.5313849621621374	-1.8183366330323336	1.8620570026345327	2.165326374436282
id123	sample0	obj123	-0.44795010579621863	0.5914866142388022	-1.6332027846258996	1.369277104682702	2.070533466738053
id124	sample0	obj124	-0.7111982482800842	0.27960829289853045	-1.4027314385554794	1.562333363813796	1.9098557766006172
id125	sample0	obj125	-0.8733573519453415	0.4869239258141721	-2.1202634358514447	1.5849216198298368	1.538971257028933
id126	sample0	obj126	-0.6740236379591654	0.7237410677315428	-1.7133271184126984	1.3449650005111509	1.8709454770870775
id127	sample0	obj127	-0.8701884767993174	0.3847614940916674	-1.7885860973736714	1.7018803699160978	2.2522713985991993
id128	sample0	obj128	-0.5678601810538176	0.550458349665025	-1.550508076537224	1.7628468700665882	1.8045728281115214
id129	sample0	obj129	-0.4749766498630551	0.6233047376206468	-1.9663807017598547	1.938974860335462	2.175596021265996
id130	sample0	obj130	-0.5309866572620523	0.6170978868933246	-1.9564501199853246	1.52441006052322	1.5877945609338717
id131	sample0	obj131	-0.21661899087192982	0.6205804801940006	-1.4071443208698313	1.8296484360189713	2.133362434722163
id132	sample0	obj132	-0.3179123835645271	0.13124629162633283	-2.0680353794184465	1.8254621279697059	1.5230206908334556
id133	sample0	obj133	-0.49201333876124864	0.75241285097935	-1.6673619462371807	1.7991284379875907	1.6967450036915563
id134	sample0	obj134	-0.37653339242627104	0.7796300819861656	-2.0720430235850977	1.5158912991852205	1.554966207073722
id135	sample0	obj135	-0.35485948370703024	0.14705269052173764	-2.0691370816364048	1.7040527907925143	1.63811499579079
id136	sample0	obj136	-0.42970062871652615	0.7988166228308299	-1.6371031236250388	1.8925678982144905	1.5027463198335547
id137	sample0	obj137	-0.5967997986899158	0.19550597332650455	-1.5249735835865774	1.338784101535751	2.008399896426933
id138	sample0	obj138	-0.5181094153021358	0.024761147855373533	-2.12111977510218	1.8668069635048519	1.497862414569999
id139	sample0	obj139	-0.274292693132138	0.7837379476258152	-2.1636492801662115	1.8321665671897978	2.0441248670392254
id140	sample0	obj140	-0.2731381466991598	0.5277670074142773	-1.6520882092339062	1.53678776310248	1.6321069242524797
id141	sample0	obj141	-0.9838312647795118	0.7849611573809633	-1.432840655999597	1.3030116238106355	1.9866803692567063
id142	sample0	obj142	-0.2749827927973998	0.333957922507132	-1.8544493940047198	1.6023567983357996	1.5576967508644974
id143	sample0	obj143	-0.812338148444144	0.6072463088217559	-1.9658761447285906	1.912129760832651	1.4971410231765447
id144	sample0	obj144	-0.31315274773576096	0.7538921789428379	-1.94234469570318	1.9916724611313317	2.0452261488262975
id145	sample0	obj145	-0.3887865667447181	0.5737268977760864	-1.9867152985799956	1.7432571334591715	2.275742216304656
id146	sample0	obj146	-0.8031121153262077	0.18347983176187677	-1.725351194838189	1.526180512992438	1.6933108861325596
id147	sample0	obj147	-0.8373157388031957	0.21969891864638189	-1.3889687076567132	1.7647569653715016	1.7459022108525413
id148	sample0	obj148	-0.7245694210980744	0.11189520391911312	-1.771498052633819	1.4324409026360838	1.4970772995621338
id149	sample0	obj149	-0.48132837487699753	0.6229490378748362	-1.8614931558831136	1.868506598842547	2.23845859449872
id150	sample0	obj150	-0.23363748138366713	0.06570850535053419	-2.1465818641762677	1.4163577409362191	1.8209306032699168
id151	sample0	obj151	-0.27227611710126365	0.24067519890190947	-1.5448149551544907	1.8519128861325405	1.612569264869383
id152	sample0	obj152	-0.9628036226811314	0.13799136287579128	-1.5980187775078805	1.4473952319833057	2.0843183908418146
id153	sample0	obj153	-0.7160575769701111	0.8083954260924218	-1.6893528743489559	1.603529410127059	2.2755095758988464
id154	sample0	obj154	-0.7593697503787986	0.195682296231198	-1.9756892394947563	1.3573942694354277	1.9574863066546204
id155	sample0	obj155	-0.34417293776870916	0.4632713230623424	-1.8481314695273947	1.6722802994303474	1.7143780419566461
id156	sample0	obj156	-0.6247399716952369	0.6280297247268664	-1.681450183661566	1.4406345537773835	2.077504259124157
id157	sample0	obj157	-0.32599697984712805	0.7863044905287104	-2.073393637054797	1.644827044340655	1.7285048574721145
id158	sample0	obj158	-0.7036525384133678	0.19346095313978803	-1.8132080983759822	1.6488196409452882	1.8331228412309304
id159	sample0	obj159	-0.8427519001600795	0.11489503208567031	-1.7982406062589367	1.725145485532227	1.952138156930689
id160	sample0	obj160	1.042395245507998	1.0167318830388474	0.036102953907524826	2.273890454580082	-2.567263309706436
id161	sample0	obj161	1.2335873298240743	0.9342573413888	-0.11637716240101204	1.7721096684797666	-2.6147991824933627
id162	sample0	obj162	1.5705942828782495	1.207920089380698	-0.04330385141124615	1.8982189313741369	-2.5590398394610787
id163	sample0	obj163	1.6030353494258152	1.3383965992957094	-0.5181396081750058	1.7000245104093727	-3.11636152053811
id164	sample0	obj164	1.5903919853971682	1.4188246884303788	-0.03976151101788006	2.0849216680485902	-3.0662391830127533
id165	sample0	obj165	1.247251643069001	0.9578500185882768	-0.427560831182099	2.002738169387617	-2.41217998817114
id166	sample0	obj166	1.017874182349139	1.0227520272559978	-0.3298513240488486	2.336136179800734	-2.824887619703965
id167	sample0	obj167	1.3873163196402096	1.6843123069202561	-0.31384839714394064	1.9795669106932374	-3.1170323529629878
id168	sample0	obj168	1.6917719218974554	1.1473128948426563	-0.4765721254000008	2.331062057664174	-2.833325039234669
id169	sample0	obj169	1.6714536484878662	1.2284119550224433	-0.22046755611499752	2.287725746578163	-3.003359568535048
id170	sample0	obj170	1.7472834728508224	1.6599191698237992	-0.1307940708415105	2.3014436870282053	-2.5408668848988327
id171	sample0	obj171	1.1924091207702012	1.5794666910293498	-0.1668816380129413	1.8543318672152374	-2.9620832079222392
id172	sample0	obj172	1.4681502173238576	1.3000219855998028	-0.26665341447341423	2.2545878646577857	-2.5558441358069346
id173	sample0	obj173	1.420934372371421	1.4929008357370108	-0.4313401399996324	2.1959650252977783	-2.6242436129057105
id174	sample0	obj174	1.1741397593309122	0.9716899349369632	-0.5105316784405305	2.193843078426908	-2.71821149758166
id175	sample0	obj175	1.7410490586185787	1.5130637664035809	-0.5895926585330855	2.3961021523795303	-2.3476336201440393
id176	sample0	obj176	1.1393709133520546	1.6296573413806383	-0.072481583348743	1.8184986039210194	-2.7186332560006417
id177	sample0	obj177	1.3735297585499913	1.6212200605702218	-0.47112528954894994	2.2852750465360328	-2.5468215328945174
id178	sample0	obj178	1.700196328922818	0.9365035880271544	-0.013180792853247691	1.8420924259377396	-2.4576744091266463
id179	sample0	obj179	1.2998574601548092	0.9055131602506923	-0.5562347067247236	2.188330632763307	-2.894175376612671
id180	sample0	obj180	1.39963984108343	1.338156107473098	-0.4787132016047405	1.6501487650727422	-2.6254440194303994
id181	sample0	obj181	1.149636160306323	1.2817352607699244	-0.5739745215450033	2.1477054200509462	-2.743719683287388
id182	sample0	obj182	1.4286667948461709	1.5994403622979472	-0.10969653169048144	2.3253967845916925	-2.5437560725071098
id183	sample0	obj183	1.6902768199835045	1.2507680537989514	0.02727358273864522	1.801156143623412	-3.0288746624995593
id184	sample0	obj184	1.76284708730121	1.360931878664355	-0.08049317103801268	1.7005534561430198	-2.949592054856385
id185	sample0	obj185	1.5585214871512725	0.9605895923128146	-0.521868043188313	1.686920418007286	-2.459346077958243
id186	sample0	obj186	1.4562515379865109	1.5228966345027417	-0.14846072909468788	1.8557850858020282	-2.9103682665018105
id187	sample0	obj187	1.1991643397450669	1.647774149345142	-0.36472790699557284	2.0688122236932345	-3.091653398423534
id188	sample0	obj188	1.3427038314448372	1.031636693311078	-0.6924168751959157	1.7599927265428648	-2.8482293503942517
id189	sample0	obj189	1.6271071704216808	1.2654429270443521	0.020263379249957914	2.4182883397077144	-2.6720021029347674
id190	sample0	obj190	1.5077912211272189	0.9380902513489633	-0.19371195220750315	1.7620983222830708	-2.512308674771885
id191	sample0	obj191	1.0046684119701275	1.3616551966378463	-0.11840223210467304	1.8600532256561744	-2.349424989530947
id192	sample0	obj192	1.133318680754068	1.4180657251841817	-0.36252189509601973	2.3705398215685354	-2.4746146045075745
id193	sample0	obj193	1.7268456735656352	1.6542598869241427	-0.6754565430237207	1.7823007775420348	-2.4313360343449006
id194	sample0	obj194	1.4791722007916217	1.5880208422897992	-0.33619229658069	2.0162140577972623	-2.7369207496302
id195	sample0	obj195	1.5330135208011515	1.055259840596528	-0.4082375800834406	2.0322230836016653	-3.002859238989792
id196	sample0	obj196	1.4558384313587345	1.4198296355091884	-0.2756836831181987	1.6761383137251782	-2.3227566246749265
id197	sample0	obj197	1.3143188600860631	1.5297715623534605	-0.05909268772559306	1.661947072911094	-2.455513201755079
id198	sample0	obj198	1.054108914972932	1.4525102912309924	-0.06038607224262915	1.9421322263867897	-2.4903144006236486
id199	sample0	obj199	1.3618182243516552	0.9316946030308874	-0.14630491118031885	1.6595916641220985	-2.4700516881117087
id200	sample0	obj200	1.2367783648842612	0.9184193956315042	-0.2307908238517805	2.35085285647906	-2.6388057818806514
id201	sample0	obj201	1.6011819032846162	1.2402362830626876	-0.2757645410403519	2.094668824708696	-2.7724781470309408
id202	sample0	obj202	1.7604281849587662	1.1459481969534806	-0.252725131524398	1.9485474033030463	-2.492521996026935
id203	sample0	obj203	1.0855714228955018	1.4284684100516238	-0.4873261542835764	2.4265836545310893	-3.031472165498349
id204	sample0	obj204	1.1836668116535554	1.470288644055632	-0.3760744228954268	2.1459189765998716	-2.733568502256322
id205	sample0	obj205	1.2690781401837525	1.527124026235367	-0.08651030363108458	1.76951941129255	-2.5896833390896794
id206	sample0	obj206	1.6314805631720866	1.378367524581718	-0.6351361112901199	2.3255322083065457	-2.5159650206730495
id207	sample0	obj207	1.1588917862729784	1.1038733526673254	-0.023927951995501462	2.076525063873043	-2.9205676822562143
id208	sample0	obj208	1.1236294059599812	1.6335788114805925	-0.2869668291992021	1.7962166447418888	-3.0305197980614853
id209	sample0	obj209	1.5451493093899316	0.9603497170978204	-0.37152404655902166	2.300153728274074	-2.3766599794491614
id210	sample0	obj210	1.6383035162237014	1.4704752480961512	-0.4083044777663103	1.7459572440877382	-3.1016063133328844
id211	sample0	obj211	1.3331953122480111	0.9562267525121457	-0.0064559943361339744	2.0065322842439954	-2.3443945689252788
id212	sample0	obj212	1.1705376274013422	1.0191115947829585	-0.6708646909022643	1.8267925576278508	-2.883688884895796
id213	sample0	obj213	1.1537667838920895	1.5016804060021505	-0.050140925262160296	2.264272822916247	-2.3448053218523097
id214	sample0	obj214	1.6581616168214204	1.113263108733643	-0.08903030686842595	2.31227212915345	-3.087162744271574
id215	sample0	obj215	1.5023962408706169	1.4165995957082462	-0.3217248464075964	2.2991687582913594	-2.5186549732841197
id216	sample0	obj216	1.3863467974496215	0.9562741983441736	0.016828729886193883	2.4000563781238182	-2.999792774082309
id217	sample0	obj217	1.060108292202487	1.3369412255641735	-0.6519453733150993	2.4001488122437413	-2.508761975306757
id218	sample0	obj218	1.5450887423472495	1.3628234144440778	0.07394915084811449	1.7892730458107886	-2.4817535720986186
id219	sample0	obj219	1.5732660998836283	1.6556563054797744	-0.36507832734192663	1.6814941944520938	-2.801512608716392
id220	sample0	obj220	1.2022487034114533	1.064422013080522	-0.43899308215578897	2.144275801003765	-2.6989930122837875
id221	sample0	obj221	1.5212055182969118	1.5176451297654943	0.026622531106443192	1.9508546881684712	-2.913763953564746
id222	sample0	obj222	1.4680571020803255	1.0609949635236808	-0.47870497321830874	1.863481642735071	-2.4213592034487004
id223	sample0	obj223	1.3760758618487454	1.445230803273524	-0.3401354591122995	1.7021313579155315	-2.41056286634091
id224	sample0	obj224	1.6652633931053051	1.6204239906398858	-0.10486576683370585	1.7039953509456915	-2.8486504036476203
id225	sample0	obj225	1.360087270456658	1.152671586802172	-0.6542122466542996	2.3468243073278363	-2.4133244337438047
id226	sample0	obj226	1.4823983590978742	1.0724640593165415	-0.34281434000891364	2.2697599915374056	-2.5394656244125686
id227	sample0	obj227	1.0311464946704247	1.215263906489091	0.07940299919271099	1.8169754444354875	-2.6073320673413534
id228	sample0	obj228	0.9758957117614637	1.012975496372479	-0.35488443010738335	1.9530040726207682	-2.704452701766806
id229	sample0	obj229	1.578643424694862	0.8906189593682867	-0.10828705854698184	1.8173674490806238	-2.98164048183172
id230	sample0	obj230	1.3001015555830637	0.9289455024095505	-0.20815643161814312	2.0257872057184096	-3.087269245136299
id231	sample0	obj231	1.5869325464461947	0.9467271139015667	-0.6084874140945882	1.8741710947802117	-2.6336812369187497
id232	sample0	obj232	1.1824810469847684	0.9743038210536535	-0.175612988218798	2.2104770730614804	-2.693290553787429
id233	sample0	obj233	1.2248344938021616	1.0334558454847524	-0.042852012568598497	2.3217649353741527	-2.3450894395554354
id234	sample0	obj234	1.4246131492952943	1.4710688073540594	-0.6319042691780661	2.015022188965577	-2.9378175278361978
id235	sample0	obj235	1.1452640045986482	1.1411576301842488	-0.3232074960110226	2.2889818602494767	-2.484488967686504
id236	sample0	obj236	1.697845704274572	1.279891200531082	-0.604148104316323	2.4009158079493877	-2.572256296519896
id237	sample0	obj237	1.6298720813384366	1.6220961195221477	-9.185035700857158E-4	2.3905688449392466	-3.11719214095044
id238	sample0	obj238	1.4157638639713244	1.6785943217232249	-0.7124080805373054	1.7587777695133755	-2.8084598356639674
id239	sample0	obj239	1.0893713503595333	1.3074296984958145	-0.5557724592401685	1.9991773379799087	-3.000988747970666
id240	sample0	obj240	1.7454437013320678	2.3460048159898914	-2.8018108648924227	-0.03188865542782193	-1.1808313962174122
id241	sample0	obj241	-0.8673478382019622	-2.030607768427246	-2.56683788758373	2.306744496830928	0.6958647407969942
id242	sample0	obj242	0.9380433735996269	0.3300617317244387	2.517667702043423	2.926666004083936	-2.703188118320398
id243	sample0	obj243	0.5686599363608669	-0.10798794924120758	0.37862010619296116	1.0313398015867785	-1.5459942011915762
id244	sample0	obj244	-1.3353945584881275	2.416509514131497	1.9868451520609978	1.013621307227991	-0.617562710388129
id245	sample0	obj245	0.5407821158981359	0.8667810215454821	-1.3651857217525336	0.6761817196626606	-2.065270778954696
id246	sample0	obj246	2.3488816020075656	-2.890303694567857	-0.6218129434742357	2.5706932588507576	-1.2784317455264578
id247	sample0	obj247	0.7242108700925141	0.9857534681278415	2.351475395911239	-2.9133993428608616	0.2770254090182629
id248	sample0	obj248	-2.8991631849039248	2.213999202683022	-0.9052688736255828	1.4869781755211342	0.045587756336684826
id249	sample0	obj249	3.115776576546981	2.0667921775526166	-0.09581063086467578	1.3215110852186258	0.9997160145323581
id250	sample0	obj250	1.7701742652458439	3.068708000910014	-2.9997559367617623	-1.1533526201943292	-0.07227924768003835
id251	sample0	obj251	2.4866778011405497	1.9541155211289523	-2.0537608455884007	0.17587094538634562	-1.663510436596385
id252	sample0	obj252	-0.5446375678923546	2.2104108647416423	-1.6520740691978397	-0.4800544071458268	2.456762822351515
id253	sample0	obj253	0.49330051931405616	-2.5628995479144385	-2.576552441622618	-2.289916032143229	0.7859112043318486
id254	sample0	obj254	2.2818050386260724	0.41633261034675073	2.56541589020312	-1.6915476003145362	0.2311268597539865
id255	sample0	obj255	-1.7433839843966727	-2.4544260031106284	0.6439144526614566	1.0865410334236596	2.300218543303319
id256	sample0	obj256	-2.209389958121405	-2.0984175187943728	-2.9807632775707384	2.807751898374999	-1.338840400145342
id257	sample0	obj257	-0.5845338202244521	-2.0339625507134595	-0.054121203840519355	-2.5783432680176457	-2.5198854274105478
id258	sample0	obj258	-0.04363497930641014	1.1355426684425725	2.8014256500345454	-1.0911698445502243	1.2936152064932842
id259	sample0	obj259	-1.584690976317884	-0.42575162325072513	0.9716749281425507	-3.1102365652481883	1.4827793862595813
id260	sample0	obj260	-2.714141891781351	-1.713018269251283	2.0811027072479775	-2.6282802501037583	1.6835754545584751
id261	sample0	obj261	2.37226467727815	-1.4472414103455784	-2.236811340525058	-1.0607463795177603	-0.2150230237824462
id262	sample0	obj262	1.2284428070052225	-2.6855477685099087	0.9515518175192189	-0.14956928407926273	-1.8378406621426284
id263	sample0	obj263	0.044355641412128555	0.7960463624595191	-1.1950918996118354	2.458833033355082	3.3017518123584852
id264	sample0	obj264	2.1226725695728015	2.129926600650607	1.4676973937478293	3.037610341405592	1.0904845977822402
id265	sample0	obj265	-1.5292632809489035	-1.4792998069540815	2.646390218877856	-1.298671625095441	-0.6956909458368187
id266	sample0	obj266	1.964092047296939	1.652482037154183	3.0795859101228142	-2.5275648550359415	2.0401993129266147
id267	sample0	obj267	-2.1402540081826436	-3.2051003984297655	0.5597885525155148	-1.1458802074884196	-3.2999196912183755
id268	sample0	obj268	-1.2619210209677203	1.2394712478467165	2.4757838249983997	2.0890203424170184	-1.13157657131517
id269	sample0	obj269	-1.6966719366888738	-0.037405488306778034	0.08428969600022462	-2.7599103336288895	1.556716009968207
id270	sample0	obj270	-2.766922707347387	-2.329455232620886	-2.411085388855877	-0.42057025795115	-1.4887096039232057
id271	sample0	obj271	-2.2144168070523405	-1.4729978436038207	1.9634571738544642	-2.3765543743641078	-0.9758741285133233
id272	sample0	obj272	-1.471652145728374	0.03192891050385893	2.5975467313748632	0.7407173694224837	-0.7621121472921856
id273	sample0	obj273	0.2849280183490265	2.92022634246815	1.310347890189387	2.9445297795582976	-1.179745589379932
id274	sample0	obj274	0.11267017581106709	1.0025580912482897	-1.5207750063163845	0.13614696537003895	-0.40107171411765025
id275	sample0	obj275	-0.5780922035358222	0.847135825909235	0.28692285786138405	0.4617146310078536	1.3138244204178515
id276	sample0	obj276	-1.306313345671514	1.009298369014821	2.5047998030675527	-0.7751539282402575	1.7668655314799189
id277	sample0	obj277	2.588628610454617	0.7595401135159963	-1.6619987373744418	0.16286347724103634	-2.4911453435654085
id278	sample0	obj278	0.8404390792910632	-2.8438611204393025	-0.6282466346840605	-0.2690334660263707	1.1725729596363565
id279	sample0	obj279	0.2528759636064385	2.279839608987081	-0.3136443340813848	1.931030393704765	1.3906588819699908
id280	sample0	obj280	-1.215944897005937	-2.266337307424919	0.19263527560439575	-0.6065171816047036	1.1555481717293066
id281	sample0	obj281	-2.3667043434082298	2.5216271033307303	-2.2836842208104353	2.1977612691635384	1.2418038419131723
id282	sample0	obj282	1.4846495081726157	0.9033796664566245	-2.6960794704827533	-1.3471332451779798	-0.4014351849839229
id283	sample0	obj283	2.1958426708954164	-2.700648541908737	2.021482714499726	2.2624554930451715	2.1209465201891344
id284	sample0	obj284	0.8387449515232022	-1.619083294101675	-0.15824183887233945	0.4140669847415479	2.933691634772501
id285	sample0	obj285	1.8615851979790348	0.7125440449627002	-0.42784843941658596	1.6489269825508512	1.7906238271390413
id286	sample0	obj286	-3.185438709083866	-1.6018444833369148	2.326616196763571	0.8308138729434983	0.3857995382992233
id287	sample0	obj287	1.2086937816190602	-2.3540794356215917	-0.3946504635826562	-0.7570112093483797	2.986240980784465
id288	sample0	obj288	-2.79271664476986	-0.7760130763943851	-1.2275826771456946	2.969778675166213	-0.35548687867616735
id289	sample0	obj289	0.2950893113415238	-1.8601625500083148	-1.8781923391703879	2.5212484613842765	-2.326768358353052
id290	sample0	obj290	2.8290826212786775	2.8144552543833896	1.0323206899547177	-0.948629023639985	-2.710301644677911
id291	sample0	obj291	-0.44792812692147344	0.5322653082551344	2.587751636961038	-2.363739492283159	2.609445642296226
id292	sample0	obj292	-1.0033563556924174	3.2249962837180366	0.9390167484441065	2.3749855878872657	-2.716064630030931
id293	sample0	obj293	1.0638374905127606	-2.7889320631980175	1.4144152377122752	-1.0570849270577776	-1.2866852256689492
id294	sample0	obj294	-1.9590873193980245	-1.8392210452471902	0.8996694570957735	-3.9133632534693596E-4	-1.0858164475828582
id295	sample0	obj295	1.544935020915891	1.382617929365129	0.08519090068035506	-1.3071364058818633	-0.23547014803715727
id296	sample0	obj296	-1.5903312093756312	2.70762705164451	-1.0468347024660138	-2.4235766934219742	-0.7785873571035746
id297	sample0	obj297	1.3804324531115642	-0.02044636529676308	1.2111438939473618	-0.5734275572006469	1.1933988773068704
id298	sample0	obj298	-1.6855251780071088	-0.8513095334878111	2.1599922461115906	-0.639805728550664	-2.70995878245069
id299	sample0	obj299	1.6561853539800742	-0.20202672670980248	-0.05674048999835446	1.4761660007648518	1.83954122780131
id300	sample0	obj300	-2.777966878698395	-1.1647678080060246	-2.1759087599585456	-0.2661770770186321	-2.6515089224538606
id301	sample0	obj301	-0.3353587188849641	-2.84503101437327	-2.1914149850128375	-0.24224382378682607	-2.4968653982810087
id302	sample0	obj302	-1.3803822323233836	-0.42084082655391725	-1.6262227260338402	1.6698352247342934	-0.7907767936384439
id303	sample0	obj303	-0.258098660896317	1.3548281887344034	0.7528960417894851	-3.2381345231589407	0.7268972358598145
id304	sample0	obj304	1.2899908894571332	1.537039908898354	2.0690230899677724	-0.2407522239728956	0.5836826423639562
id305	sample0	obj305	-1.2776876179727068	-0.3086365977125791	-0.7185332621837376	-1.3914863208404706	-2.780123445389161
id306	sample0	obj306	2.8892286152776547	0.4583740163260946	-0.35006542093912874	-1.570954966454539	-0.9416857570219578
id307	sample0	obj307	0.5670039282197796	-0.5791277169827898	-1.359988749313552	3.164475701562214	-2.5182589384190015
id308	sample0	obj308	-1.5114166247354393	1.2040949398553331	2.3723074553599406	-1.1575573065114995	-1.2928517557921555
id309	sample0	obj309	-2.7569664195521324	-0.977420128985797	-2.3508397682059754	-2.5496970007927127	1.3566734718808324
id310	sample0	obj310	-0.14242039291470943	-0.8347415401152554	0.6481540607358403	-0.8394975059957712	-2.8794389737323103
id311	sample0	obj311	0.24198456477202168	2.009759519487017	-2.3914766158344896	2.3013483190168262	0.818443774913487
id312	sample0	obj312	-1.5501043020012406	-1.681623205778628	-1.8392904486695951	2.000054987823686	-0.3938868991554664
id313	sample0	obj313	3.0039967734772617	-0.4650199677879388	-2.1377723467267638	1.878921969974171	-0.726663735713069
id314	sample0	obj314	-2.0926031580017876	-1.1340377322356667	1.1745741872897488	1.2430683249366457	-0.19546780148841114
id315	sample0	obj315	2.0596187161412685	-2.4017336627835193	1.0398913691659792	1.2247645343815123	0.6071279594680098
id316	sample0	obj316	-2.6966225423010863	-1.2171677372158471	-2.4864897322212745	-1.9403765397362163	-2.8181451015656034
id317	sample0	obj317	-2.9469225392176726	-2.9501991246237047	1.2595610643781725	-0.5346041731365982	2.4692972570455676
id318	sample0	obj318	-1.2326842692826634	2.606152997350454	2.7134033123581767	-0.14517937162020356	-1.9913502066529816
id319	sample0	obj319	-0.766612907462336	-0.8071911459286302	-0.2622174124123579	2.0350445327924773	1.1863888820520652
id320	sample0	obj320	1.3151635807524849	-1.7131462260261052	-1.8603123495630534	-0.17521491357872093	-1.3984698024412854
id321	sample0	obj321	-0.6078132473345488	-3.2676062991197616	-0.33654061073412195	2.5104260955853035	1.1625217293985801
id322	sample0	obj322	-1.2224446169430643	1.9099765571531429	2.0320507007198607	0.025267998931607027	1.2445045757391138
id323	sample0	obj323	0.21862127132276976	1.3584680067346107	0.6545552408008082	0.5325498907163589	2.5251831860656586
id324	sample0	obj324	-2.5192461166670532	2.571037305793773	-2.0693559392594683	2.2661950806436995	0.4730234304124716
id325	sample0	obj325	0.49250135297006603	1.7530134129940265	-0.8407146995196901	-0.1938299232334072	2.60677703002389
id326	sample0	obj326	1.7803206957677993	-0.3248963431694404	0.6547543765132673	-0.1738039586139727	3.018040162288815
id327	sample0	obj327	2.039189842835152	-2.7876595931905905	0.14678662259544284	1.1738746717717765	-2.753846603091929
id328	sample0	obj328	0.34532954774831703	-0.8531554572623614	-0.7643920528341736	1.6431991711404532	2.2784283062952237
id329	sample0	obj329	1.7462195324809835	0.1937523977982799	-1.3518562949025277	0.8977945026573741	-0.6898848354332976
id330	sample0	obj330	-0.9073918808741428	-1.5236747945601086	-0.28039271833348767	-3.277599986860753	-1.4936380670959442
id331	sample0	obj331	-0.45316354696451705	-3.2657933634352245	-2.5198793812319846	0.8674414182674302	0.2644547236208835
id332	sample0	obj332	0.20840985083359323	-2.51890524322816	-0.09198513729354324	0.8843489235608716	-2.3783096243815494
id333	sample0	obj333	0.09504394058394156	1.7286313377185787	0.6653164514124289	-1.411577082586387	-0.509531004051569
id334	sample0	obj334	-1.3172328342827282	2.0757074188615814	-1.2836900455472584	0.8578522503134778	-2.8309005944343535
id335	sample0	obj335	-0.9929217581486232	-2.238821901282266	2.7392598967070723	2.4761420146962263	-3.0995567909145754
id336	sample0	obj336	0.8144714676425857	-1.5279920526460629	-1.6651572513554735	1.5403942855523405	-0.8716382232397563
id337	sample0	obj337	-2.0263662510607885	-0.10121527683537002	3.12398909383222	0.5447590996976435	-1.9601913027770306
id338	sample0	obj338	-3.2016620158750193	-2.81463694005858	-0.15310160108947912	0.7696506227900766	-1.4030787091548564
id339	sample0	obj339	-2.3651291830770713	-2.090841632432281	0.6969704710039124	1.8895837879816924	1.5913861879296927
id340	sample0	obj340	1.8385768525479937	-2.177183402404906	-0.5129520843580012	1.3714352720982899	1.9803438336815766
id341	sample0	obj341	0.166818207929611	1.9620983387831346	2.5730982159815317	-0.7631505226976822	1.966355889073083
id342	sample0	obj342	-2.318640644627998	-1.6605567881699221	2.0591166196091506	2.7013923489641503	1.6259764867367432
id343	sample0	obj343	-2.5049589077841175	-2.1973756796025476	0.5565154636348575	-0.6140747035158001	1.1566498344430807
id344	sample0	obj344	0.14597759562552337	-2.339238695294777	-0.2820792496340151	-0.8595377363122222	0.07591005248302174
id345	sample0	obj345	1.4024099951488052	2.3165772147968826	1.0499295866170295	0.6841162414084867	2.5448937281031565
id346	sample0	obj346	1.0585144443507302	-1.6949992106003717	2.1720268568803025	-2.0705894333617243	1.3357031268917274
id347	sample0	obj347	-0.2632108950503632	-1.4045932916469117	2.404982157753632	0.32320340621115984	-2.0373838760335827
id348	sample0	obj348	-2.8629165427274654	-2.346417970041772	2.787352654026833	-1.1414390044171259	0.47522996941076023
id349	sample0	obj349	2.887005008291371	-0.22085182134225056	2.0623869713189134	1.3809608572759513	0.028263736295178643
id350	sample0	obj350	0.00714875985149388	0.19692267912552813	-2.254128465396232	1.3196138601734921	0.3986239496256558
id351	sample0	obj351	-2.5516471714123865	0.2288176142274061	-0.899487614803729	0.7824827821631877	1.6878783975577303
id352	sample0	obj352	-1.3158937496813194	-0.6575863239536146	1.2036753901807185	-1.0373960829775553	-2.6759707298511963
id353	sample0	obj353	0.940197551232268	1.9465184455126054	-2.947341696972288	1.3389170122295453	2.558683234585196
id354	sample0	obj354	-0.8256274502759747	2.5601761963704264	1.843122693588832	-0.1005412533605855	1.5644120383283375
id355	sample0	obj355	-2.302768901727214	-1.2003499176897496	1.1644925583667975	-2.569928090846769	-0.29393750924623163
id356	sample0	obj356	-2.776885327780936	-1.3607084641490899	0.6509083990743254	-2.295700638146144	2.2429514420877714
id357	sample0	obj357	0.7931927936544828	-1.3278636642887365	2.2732933264129596	0.6084980346093642	-2.7344340018930886
id358	sample0	obj358	-0.03487226355897666	2.7431602305493508	1.5850770974036321	2.9588892420608257	-2.7633097202744152
id359	sample0	obj359	1.563152785993041	-3.00075865699469	-0.7396917817675062	0.7734792147704188	2.1829153793866345
id360	sample1	obj0	0.2706291311360136	0.9482778930404792	0.7227500894205086	-2.635293293543114	-0.9353138478799774
id361	sample1	obj1	0.7172670956352027	1.1509461801977328	1.0722949943017115	-2.7231392739808102	-1.0204044978952285
id362	sample1	obj2	0.63699677100042	1.174142496079418	1.3042830196667095	-3.0632196167272356	-0.5912989960694437
id363	sample1	obj3	0.7158271960410617	0.9445803490146578	0.9666696144772753	-3.0137116267039006	-0.44117490166064666
id364	sample1	obj4	0.5675443963538915	0.7390991033739326	1.4166382199625094	-2.798358979793678	-1.0691595908104865
id365	sample1	obj5	0.8120215042884504	1.2171609879999137	0.6983640274808588	-3.1553737240563313	-1.1556464851138566
id366	sample1	obj6	0.993484839779083	1.0108588019997482	1.4622320708636125	-2.635048109231885	-0.7746357549550967
id367	sample1	obj7	0.5586617931032796	1.374906045516791	1.211662105095619	-2.9507921016632164	-0.7100080692615898
id368	sample1	obj8	0.2545587082631332	1.2257436040007472	1.421141266486701	-2.885818491395472	-0.6980328566636171
id369	sample1	obj9	0.8538867989918871	1.2375239971516043	0.7076192539590496	-2.7143356435644215	-0.5575449279795286
id370	sample1	obj10	0.5611521731182252	0.7828539716884243	0.7578575213520822	-3.1298447730030468	-0.8788150876172293
id371	sample1	obj11	0.5449338705463138	1.2398219128707435	1.0799282877299778	-2.9394443819993863	-0.8464100023485851
id372	sample1	obj12	0.3951730437676443	1.1285388600722364	0.8836096334513366	-2.5748870095465355	-0.6320021261836082
id373	sample1	obj13	0.5941673605963184	0.8472122463603823	0.7902026403858424	-2.918982048558875	-0.9093717198707746
id374	sample1	obj14	0.25468965405442434	0.7691804744947731	0.9780855791355194	-3.217761373148415	-0.8524583572065323
id375	sample1	obj15	0.819009090563867	0.8203962530983777	0.9994003822540203	-2.950091227149749	-0.45248687204854654
id376	sample1	obj16	0.5918689574409962	0.6260881610175377	1.1314191214772507	-2.9000920582031413	-0.4436319435523246
id377	sample1	obj17	0.6244476615705749	0.9027837848765259	1.2916441144000301	-2.804287996419461	-1.2076156242993785
id378	sample1	obj18	0.3632810047871339	1.347076311590755	1.2493363141997387	-2.7428159618348595	-0.9227700299261477
id379	sample1	obj19	0.8788347142065567	1.16749033775702	0.9712227459336262	-2.86775253881608	-0.6566640423487174
id380	sample1	obj20	0.30616859651037465	0.9150827842506364	1.1713887682035464	-3.304630873412674	-1.1351056126996797
id381	sample1	obj21	0.3407073639438632	1.0490332676979528	1.2830924874556282	-2.555990188191955	-1.153409128424352
id382	sample1	obj22	0.8738120008621015	1.1449657038503498	1.384231580036901	-2.9462959883375084	-0.9649795093222493
id383	sample1	obj23	0.4264071884667852	0.9981306293654807	1.4017259315189565	-2.881256636896705	-0.5617291335597061
id384	sample1	obj24	0.707649664788905	0.635397323123307	0.9689351523660812	-2.694413081367047	-0.5623302325802496
id385	sample1	obj25	0.6152977935319544	1.3362870899230743	1.45268882433778	-2.800359655062168	-1.1970314730647795
id386	sample1	obj26	0.39334755249028297	0.6435554011573104	1.203351729846141	-2.7850345701985475	-0.7084531893108761
id387	sample1	obj27	0.22141368101003867	1.250132893734723	1.1758558144255074	-2.5946682495419564	-1.2006387616953154
id388	sample1	obj28	0.4425406153722202	0.7760932939094844	0.747587839652764	-3.0291642252971855	-0.5253991715798202
id389	sample1	obj29	0.6174048057674617	0.7537628211344981	1.1087075436548002	-3.233378981912718	-0.4948627589546596
id390	sample1	obj30	0.7615012250129621	1.3406516996145799	1.1726662425689267	-2.578934683305303	-1.1888512106868065
id391	sample1	obj31	0.4786724422723016	0.660603424531989	0.7626827111921505	-3.24530844825442	-0.5594639771919289
id392	sample1	obj32	0.5125208422954284	1.0779558534845066	0.9494912598372873	-2.584964522018762	-1.034787054393521
id393	sample1	obj33	0.8226228349370522	0.9446182997231907	1.1850899405263497	-3.2736985880985787	-1.0381644789979343
id394	sample1	obj34	0.6433222622621069	1.1953232918716963	1.0972630669532664	-2.822116597921525	-0.45570420158226255
id395	sample1	obj35	0.9499969491490866	1.133942044103768	0.7436157124076199	-2.8127413387426494	-0.6268492684379106
id396	sample1	obj36	0.8543509423500886	0.7481888914963487	1.297517914282491	-2.6225983942101734	-1.0626519979509532
id397	sample1	obj37	0.45226537460395794	1.168314987103482	1.3399954693981444	-3.2237474170622478	-1.213060869627352
id398	sample1	obj38	0.7933254179638032	0.8670346138505074	1.0120018882117643	-2.5920630741023998	-1.1447850409444307
id399	sample1	obj39	0.6311089186120223	1.0649721674515198	0.7539469675190361	-3.203102422545166	-0.8293603621520325
id400	sample1	obj40	1.0109580258736073	1.3028930843132511	0.7996179112522226	-2.996089498979423	-0.8886204617927296
id401	sample1	obj41	0.983036758504666	1.1759208761634161	1.0379953530334411	-2.6233730258012704	-1.0510967707718317
id402	sample1	obj42	0.6812881046106006	1.0653750455436284	1.4097161433490395	-2.591137864064392	-0.9246503234926763
id403	sample1	obj43	0.8342250679924581	1.382822825843655	0.8283511864371819	-2.89314394677291	-0.8120956443581373
id404	sample1	obj44	0.6846013086432083	0.7529523473983287	0.7360297579252142	-2.8357962087149167	-0.9494293839087193
id405	sample1	obj45	0.36769031684468806	0.8639778340426676	1.106534052307024	-2.6803857522764725	-0.4297463696545796
id406	sample1	obj46	0.7704403020412947	1.1260088020194376	0.9475889480002562	-3.2548521720311223	-0.6267269884174153
id407	sample1	obj47	0.36694288312150103	1.2811875376065682	0.9409650297870163	-2.6183719006869923	-0.9239362253787977
id408	sample1	obj48	0.9627424093636888	1.348953386644387	0.8699775794033108	-3.0404427594953827	-0.701800806509874
id409	sample1	obj49	0.4072977355590345	0.9725584172825447	0.8572831211286891	-2.6623823392038255	-0.8822484165987275
id410	sample1	obj50	0.9386720152958077	1.1284704133522798	1.1723278025795243	-2.561254052882267	-0.6683186889536245
id411	sample1	obj51	0.5580499790031845	0.8005852742456242	1.13067176596696	-2.689649898973863	-0.5668097169742171
id412	sample1	obj52	0.8072461511252402	1.3007635409404945	0.92247961612153	-3.112460874042319	-0.8079238594392629
id413	sample1	obj53	0.3157548782366933	1.2931370454007691	1.2630126890591908	-3.1342238532508464	-0.6761422821022852
id414	sample1	obj54	0.9333832173442173	1.2714311004883623	0.8047631273311034	-2.7758160855800935	-0.9779071803165549
id415	sample1	obj55	0.4708824751427221	1.2282482723482153	0.8022158966677645	-3.122644830971939	-0.7683426914049563
id416	sample1	obj56	0.39753605886243387	1.087391729752357	1.1518930209406775	-3.0710169731622745	-0.5529192639709356
id417	sample1	obj57	0.9171488923142744	1.0519008153145986	0.880605542980477	-3.1255427475991113	-0.6198804731614935
id418	sample1	obj58	0.9506014656087103	1.2210606179404695	0.7244955834891322	-3.166195843744849	-1.032123619037248
id419	sample1	obj59	0.4448571072972315	0.8812618023291032	0.7937728965563814	-3.164489283253694	-1.1372767176912615
id420	sample1	obj60	0.7183302021790375	0.7727576324229346	0.8788200636299711	-2.5770998720693354	-0.6036611591371306
id421	sample1	obj61	0.9166115910172177	0.7341245267603616	1.010838782162283	-2.9126544254541917	-1.056892139036913
id422	sample1	obj62	0.6289920384705441	0.7481100670173118	0.9952173910713538	-2.7212446245233823	-1.2137647352807999
id423	sample1	obj63	0.3058021937871948	0.838580996137571	0.8015990250756201	-3.002035799591646	-1.161023201147548
id424	sample1	obj64	0.9825820464464543	0.9429941215916071	1.197000579245998	-2.8050441172583866	-1.0183314192929176
id425	sample1	obj65	0.4852842127955565	0.8152353978282977	0.7855580002055171	-3.0992479676902036	-0.7064728446948615
id426	sample1	obj66	0.5493857270366176	0.769340125310871	1.0713322250033022	-3.1086390594501006	-0.9002289559593739
id427	sample1	obj67	0.3857124225150794	0.9875495171610497	0.952386195132466	-3.0360779082262126	-1.2047318678206393
id428	sample1	obj68	0.4802512641661085	0.8809079045848554	0.7108158336805672	-2.7948637828334633	-1.0160813425448274
id429	sample1	obj69	0.4000185556930995	1.0641920586421685	0.6728691887416851	-3.28023122127773	-0.610875446102218
id430	sample1	obj70	0.930449110476333	0.9089202497917486	0.9264991444774627	-2.7055109075121058	-0.4917475177089444
id431	sample1	obj71	0.8925524993433511	1.3505452042470671	1.3139469579537448	-3.105912962582472	-0.7712477801638344
id432	sample1	obj72	0.44352978343141203	1.3932231984814367	1.3400285653977444	-2.6197718521594515	-1.2161758012665156
id433	sample1	obj73	0.37843928441333297	1.084803057923489	1.0909729766223215	-2.5731050845357766	-1.0479772085165324
id434	sample1	obj74	0.4111224680847505	1.095423376721914	1.0447252504926934	-2.736449755445512	-0.7887853435580843
id435	sample1	obj75	0.9707345226504066	0.6573776816944457	1.3348545710006126	-3.048621778997982	-0.9813322202939593
id436	sample1	obj76	0.9191478407052326	0.7062338874235755	1.432384597169817	-3.1032601765949237	-0.8559947879722021
id437	sample1	obj77	0.44999280687202714	1.360609881741892	1.421266715382289	-3.301242287184423	-0.6688980675145588
id438	sample1	obj78	0.41045024578968164	1.3100414432767407	1.0146321986528777	-3.1532539433561695	-0.9279870024996071
id439	sample1	obj79	0.5928943810166297	1.1290630015704781	1.4036630711298708	-2.5774400639645156	-0.4335221185472199
id440	sample1	obj80	-0.5942122568961802	0.2516442745903321	-2.0160147848019476	1.8064807828740226	2.0091700268851818
id441	sample1	obj81	-0.6289901966959793	0.4751149939837315	-1.9293763342677215	1.7131504664932744	2.1864924676479554
id442	sample1	obj82	-0.47716823409759956	0.4078022083709395	-2.173193751101596	1.3357913482263486	2.02039492502087
id443	sample1	obj83	-0.6090056639158034	0.04475570420656172	-1.9223827649036709	1.562999055263007	2.1034342659471768
id444	sample1	obj84	-0.3571854819682232	0.7212899815560233	-1.7476524764466945	1.3108531886297763	2.176524116837222
id445	sample1	obj85	-0.6800087608153114	0.536046085438297	-2.0822337595591143	1.6024374307711833	1.698179764365494
id446	sample1	obj86	-0.7650987418812204	0.09047858715490686	-2.140851397360116	1.6931593883452958	1.9455893675077534
id447	sample1	obj87	-0.6370384303029234	0.2205298011663845	-1.7842310508672101	1.4206022607645483	1.9675656664859824
id448	sample1	obj88	-0.3480118972366031	0.49869837260365657	-1.607951832483268	1.74841432932318	1.9235710137585709
id449	sample1	obj89	-0.3752181910085647	0.5616163538712554	-1.5763709354998554	1.9678864129834917	2.235907177226215
id450	sample1	obj90	-0.23429799705302656	0.6391500630159616	-2.1198783690192644	1.4004110203605855	1.867100745823068
id451	sample1	obj91	-0.8934733740447134	0.057967962144136465	-1.4036040890757966	1.8534933173680552	1.487277111993236
id452	sample1	obj92	-0.5252709101661311	0.7600008750089579	-1.6321187412526643	1.6294218279282746	1.9551811982120941
id453	sample1	obj93	-0.7857965556781592	0.17129256993789008	-1.8893577339664454	2.038640182285419	2.102253187485781
id454	sample1	obj94	-0.627273603700994	0.7989284482622714	-1.9751781298312723	1.961318980694816	2.045083620544824
id455	sample1	obj95	-0.6271654439563814	0.8050714548772037	-1.9763467959051078	1.8251417404369032	2.1834359459985606
id456	sample1	obj96	-0.2933971582317909	0.1521565549835594	-1.6245738359224942	1.98192157008409	1.757115922873595
id457	sample1	obj97	-0.25418662420393145	0.13903111489409048	-2.1091687822037506	1.9898869976310958	2.086069740906093
id458	sample1	obj98	-0.4745128623055672	0.02380753944255215	-1.526224594155492	1.424347458006193	1.6174846697965002
id459	sample1	obj99	-0.808507094914842	0.08745001820291864	-1.4966465281699364	1.391503063153749	1.5271314402543223
id460	sample1	obj100	-0.7847689542958478	0.22717841855372	-2.1460579917562668	1.3154296466961461	1.8080061103427039
id461	sample1	obj101	-0.5540042425400562	0.6376725332742945	-1.6223512571257093	1.3762812069596195	1.7282820422396452
id462	sample1	obj102	-0.3671719521217024	0.36032776255876353	-1.380627710731837	1.7305380273185862	1.5159521820675932
id463	sample1	obj103	-0.8967340136599758	0.6384831606325384	-1.677207466766733	1.8362216150586763	2.055108292564788
id464	sample1	obj104	-0.8003416882279452	0.45414280609071433	-1.508501619998872	1.8944284552871649	1.6468488697055308
id465	sample1	obj105	-0.7295851870555459	0.44627573591726694	-2.1685496791617127	1.4228344830366062	2.147111990862037
id466	sample1	obj106	-0.21799736023303506	0.4918366373338193	-1.3801500645816906	1.2790224925185323	1.9575757827344205
id467	sample1	obj107	-0.39155704353963383	0.8002334312274638	-1.415469907944093	1.396116515869736	2.1899364749617822
id468	sample1	obj108	-0.21820119105461344	0.024607054883043378	-1.93703251954059	1.5873024809391478	2.086646507843483
id469	sample1	obj109	-0.3745459223724442	0.3860165784598536	-1.570763446562343	1.8889028152070806	2.163350631990903
id470	sample1	obj110	-0.6198547826116672	0.05896986090532108	-1.718549811031687	1.4757876529119698	2.103081134675007
id471	sample1	obj111	-0.4284953211903362	0.5607366337670026	-1.8152495280922654	1.392575880162103	2.0055423730412967
id472	sample1	obj112	-0.4794118980513814	0.6670602971766985	-1.8584974617742336	1.756338410421384	1.6648132363279569
id473	sample1	obj113	-0.3087327919059224	0.050275901026955505	-1.6507116321631476	1.820894140877223	1.8663043094958445
id474	sample1	obj114	-1.011240469197332	0.5719781123197742	-1.990624716433736	1.8313171078811556	1.6721048093474251
id475	sample1	obj115	-0.47728548019330796	0.2932938628097774	-1.9731716372788024	1.784484195699513	2.178726279465027
id476	sample1	obj116	-0.36053504952203375	0.08603250250852007	-1.475872502265863	1.8544147963628523	1.6209743843302022
id477	sample1	obj117	-0.4129351324255046	0.2945419986169088	-1.4386802411178659	1.7093217657831479	1.5610397218841356
id478	sample1	obj118	-0.7581499343457447	0.6305246106564087	-2.0318323155930114	1.5727349424810795	2.1061740508440217
id479	sample1	obj119	-1.0027421671559154	0.7633907200682735	-2.139275135754025	1.358307960401158	1.7672912122436049
id480	sample1	obj120	-0.24219174779680908	0.24148676884956818	-1.3879368072234897	1.9940060263914812	1.8927831455325896
id481	sample1	obj121	-0.5807368234602392	0.15175263771283543	-1.7872269224764814	1.5658284270619	1.837552716478411
id482	sample1	obj122	-0.2616791536715054	0.16657829569695337	-1.8078613479074603	1.9360763782134998	1.8700168736699432
id483	sample1	obj123	-0.3474446000883905	0.36886832147772397	-1.8611616833719706	1.9709644632516767	2.2554080671613206
id484	sample1	obj124	-0.6830460197871135	0.48411970316264324	-1.813585280446971	1.354125891584766	2.020380056900774
id485	sample1	obj125	-0.946881637697286	0.23870138000289298	-1.6981180172148993	1.6358060826177379	1.9024860770152858
id486	sample1	obj126	-0.6007331507539743	0.6260277176146614	-1.4135292497724423	1.9043103808295325	1.4818270081421434
id487	sample1	obj127	-0.2956244085654435	0.17897126860443116	-2.121064492166812	2.061098776256019	1.5068420809195704
id488	sample1	obj128	-0.9085826142215813	0.1621951402699169	-1.7801548800714013	1.290835574719319	1.8501198617937296
id489	sample1	obj129	-0.5515272667850708	0.11913347775160277	-1.6718731203660184	1.462236358284928	1.514020931064859
id490	sample1	obj130	-0.819216969561728	0.20464076089891056	-2.0403809427400916	1.9567392676756672	2.063109104354953
id491	sample1	obj131	-0.9776295153449728	0.3378976656514133	-1.8752122937536682	1.6443940156002874	2.2666656083983607
id492	sample1	obj132	-0.2240549988056706	0.31553589162320267	-1.4351394756733018	1.416941000996443	1.9281911162036782
id493	sample1	obj133	-0.5997629774184288	0.4891561911121505	-1.9892920696613208	2.0163767660824443	1.6605671219070148
id494	sample1	obj134	-0.567084120838415	0.25399487771662954	-2.1723636651846903	1.79540019318531	2.1987289053037284
id495	sample1	obj135	-0.7743393644985826	0.3984759801972134	-1.6048630884891173	2.008539694741304	1.652082268099139
id496	sample1	obj136	-0.36097800628779797	0.6722989457262925	-1.6406684867193173	1.916504771082429	2.0747532919307905
id497	sample1	obj137	-0.6757659449703552	0.4505885475427938	-2.0343392224281347	1.410917631022257	1.7238774156435206
id498	sample1	obj138	-0.40461746850330105	0.7730031883849828	-1.4689531286868975	1.414093620595844	2.0977934603661854
id499	sample1	obj139	-0.6809061424772922	0.3515939302536576	-1.4883828287092182	1.9234834004394576	1.8729874293659612
id500	sample1	obj140	-0.966540612555592	0.36415856742284686	-2.0101241708081092	1.55979743436627	1.6292163957382053
id501	sample1	obj141	-0.8709712493501105	0.3378755187870274	-1.767760284819092	1.3112346073084908	2.2672104411469975
id502	sample1	obj142	-0.6793175072186348	0.7006611420379626	-1.3951056574811538	1.4756637598211984	1.8459865844514836
id503	sample1	obj143	-0.38919727928575165	0.11700429710629306	-1.603744078094254	1.9825905727343418	1.8228899464366557
id504	sample1	obj144	-0.24531345667781035	0.5755229025736647	-1.5462725583061192	1.8843133282339495	1.857288353010795
id505	sample1	obj145	-0.9856306220755493	0.7641917607503929	-1.4608065849212624	1.3603620253728304	1.9891675137675935
id506	sample1	obj146	-0.48477299121666273	0.5256390415171407	-1.8574116458232857	1.5631559543901636	1.5399842704283337
id507	sample1	obj147	-0.3483141324883233	0.2611327094326127	-1.7708195312571045	1.6903375304707704	2.1808202500116742
id508	sample1	obj148	-0.5626264727666778	0.342408517455424	-1.8402831104441424	1.8074757233806094	1.6104148113748955
id509	sample1	obj149	-0.5631347325440891	0.75235964735454	-1.9984415829447904	1.533311873097408	1.5838283536472637
id510	sample1	obj150	-0.41088908607560826	0.12834510768783342	-1.705825164476101	1.4704759914199823	1.6945751230515127
id511	sample1	obj151	-0.6625617299482942	0.5075123160431871	-1.6428455011695706	1.3121627439118568	1.6648498861666903
id512	sample1	obj152	-0.21899124953664972	0.116598354234969	-1.3910119603847044	1.5366565903667233	1.528236511474525
id513	sample1	obj153	-0.9164742515018053	0.4162068927130396	-1.461405052440784	1.3363635394217306	1.8478104502113588
id514	sample1	obj154	-0.5948479618141942	0.17108435740860992	-1.96034468758167	1.2981763950214877	1.713111064400326
id515	sample1	obj155	-0.28624481377005206	0.8054705536733545	-1.4564303598514527	1.5021011801421378	2.2778471901036568
id516	sample1	obj156	-0.4049435172366864	0.7107078000721341	-1.4039239156550773	2.042135709558182	1.874689422763583
id517	sample1	obj157	-0.5062145810229606	0.2579886298002366	-1.896509517132028	1.7669491415662724	1.974877506880413
id518	sample1	obj158	-0.5821766950103324	0.3519381670507258	-1.6220200512599021	1.9199946592239276	1.6119128962507774
id519	sample1	obj159	-0.5746650196222418	0.3226926708706154	-2.049482724032088	1.9238270387020402	1.5860944170244986
id520	sample1	obj160	1.0308864722087954	1.5147585802848673	-0.1742594263752174	2.1258221937390838	-2.899191682447167
id521	sample1	obj161	1.5472076352227426	1.422473504800118	-0.12977544804419172	2.1169576638588956	-2.818842410677948
id522	sample1	obj162	1.0692691298621888	0.912964215609963	-0.6728918409121285	2.3529664613960595	-2.608307670096703
id523	sample1	obj163	1.725872630705822	1.2022620872152334	-0.3016661810446671	2.2479274453184064	-2.326172669553258
id524	sample1	obj164	1.331699475911896	1.5500375038726988	0.05756648508910689	2.3481756971691587	-2.9897575308300266
id525	sample1	obj165	1.3980902616602013	1.323470783393746	-0.06039219496112225	2.1318949234008766	-2.4130203987385057
id526	sample1	obj166	1.4736304201493002	1.4684935570552102	-0.45285027885587076	1.7935508512837304	-2.3680019676342763
id527	sample1	obj167	1.3302680546565804	1.199954067062297	-0.535366937400826	1.7378447343858185	-2.4002946689325935
id528	sample1	obj168	1.739575852845987	1.5004853387635326	-0.15951184926296746	1.7869217329897553	-2.345349767762936
id529	sample1	obj169	1.5461006864297735	1.6330440719406054	-0.3233499559596506	2.349493812043621	-2.8675051086965277
id530	sample1	obj170	1.3288051556810228	0.9937706193292855	-0.05125884675582959	1.993362190725396	-2.664146353560707
id531	sample1	obj171	1.2981761583012421	1.092028473183253	-0.4650200558991398	2.348081407571585	-2.5676205741633558
id532	sample1	obj172	1.0189364395358411	1.6377468728370066	-0.21751197794141974	1.7492267101910306	-2.5991252276278622
id533	sample1	obj173	1.352229285693593	1.5995422960998873	-0.3254903758542257	1.9894406918744276	-2.381013684558144
id534	sample1	obj174	1.6149334567227154	1.190066668984953	-0.46809041473051993	1.7961743792622868	-2.6335110491813545
id535	sample1	obj175	1.158187799986602	1.5196523695127961	-0.19954209114492305	2.006333748560761	-2.5429399286552217
id536	sample1	obj176	1.6355421982614282	1.3801277182312277	-0.3823750934094704	2.010927308739595	-3.1029319450133266
id537	sample1	obj177	1.4891881459055432	1.2846936054121703	-0.5428215958672148	2.0178123042754152	-2.94696813730651
id538	sample1	obj178	1.2187344707770933	1.4665125805948909	-0.3824214275041945	2.309791741353558	-2.896667721313859
id539	sample1	obj179	1.2617686041697325	1.1601981251303068	-0.48571527077456167	1.8031484495349714	-2.9697479578273933
id540	sample1	obj180	1.7222574551159542	1.6512345892057072	-0.017594866732776993	2.045251371271116	-2.386228554748785
id541	sample1	obj181	1.1074793703921981	1.1355392716256167	-0.11708419210665322	2.2986603389226117	-2.980469140092654
id542	sample1	obj182	1.5149186870934201	1.2044276486590078	-0.11627082583959458	1.6752240233119355	-2.5067285066393303
id543	sample1	obj183	1.4481797565826493	1.1411937609245209	-0.330510415455035	1.701539415123543	-2.49133550924219
id544	sample1	obj184	1.5987679666853962	1.5288988057175055	-0.20311026715825498	1.6738531958622707	-2.346986330046014
id545	sample1	obj185	1.3343246001674682	1.0318067406025484	-0.40617469231352044	2.1155668013043956	-2.573345899714892
id546	sample1	obj186	1.1718682125620388	0.8947439870399874	0.0016098434698017527	1.9659883680829746	-2.709754719465568
id547	sample1	obj187	1.3375726326769906	1.3375252426696758	-0.15695469554460417	2.1493878779357884	-3.104642639970706
id548	sample1	obj188	1.435879262058411	1.6000079825240197	-0.7088368655244117	1.8057882619661043	-2.883948553599647
id549	sample1	obj189	1.3460810623244361	1.2743474331543458	-0.3978013031458226	1.9787950715174998	-2.636657171022928
id550	sample1	obj190	1.072209259139871	1.064151781214289	-0.5873799703706529	1.7831630451421328	-2.726210550192209
id551	sample1	obj191	1.3928822344358358	1.5175157630280047	-0.3029192545429537	2.410250594753011	-2.5562509222969982
id552	sample1	obj192	1.2550198634697658	1.0368709142897894	-0.2822117849968723	2.130052496100673	-2.4796222711466784
id553	sample1	obj193	1.4547686397839952	0.9802637248818306	-0.09574732367248906	2.4336615381580753	-2.990018573269981
id554	sample1	obj194	1.0389025264442222	1.3055901013224143	-0.013507223074116448	1.9118183952570507	-2.962836713080508
id555	sample1	obj195	1.6911445566711596	1.303506903001614	-0.47220191721370175	1.828201372276185	-2.7398893689940595
id556	sample1	obj196	1.0535747667210535	1.210740682075865	-0.20912745964254242	2.427310924600625	-2.443377521688189
id557	sample1	obj197	1.4493336154902443	1.5503505513574711	-0.5881167164118206	2.1857531590217993	-2.6571309591444483
id558	sample1	obj198	1.457475926355847	1.1287084757405652	-0.29859892756680423	2.004449523010202	-2.864318975108365
id559	sample1	obj199	1.1448626254359333	1.1125668285974384	0.052720351080769	2.4423306855474185	-2.854829091001299
id560	sample1	obj200	1.446673921772526	1.6581209976495783	-0.507628941143108	2.366440766377416	-2.724028968703353
id561	sample1	obj201	1.0322735192671502	1.474476444235822	-0.5069373533107481	2.058615516525906	-3.0268850014648905
id562	sample1	obj202	1.4850250412058528	1.3459242609830477	-0.7133869693237966	1.6570360358967586	-2.8141266973667953
id563	sample1	obj203	1.7140464667600526	1.6429503834259895	-0.5731060615367963	1.9665285723760444	-2.684541523171658
id564	sample1	obj204	1.4160607549033342	1.6154806619816466	-0.31374999164735673	2.051514045455932	-2.6012749609938854
id565	sample1	obj205	1.3922483310753022	0.940528961830924	-0.3884964378019623	2.2995367136066593	-2.3394169688070505
id566	sample1	obj206	1.7366060425292291	0.909700501018065	-0.031679112639216744	1.8433537145602403	-2.4938961002412676
id567	sample1	obj207	1.5495519331134977	1.2719362151161997	0.07867125425531707	2.350175656294411	-2.754995491850644
id568	sample1	obj208	1.1566658125804805	1.3380012676172757	-0.2188627209444135	1.7848446153006716	-2.5653690011331527
id569	sample1	obj209	1.553303118573906	1.3125496237307597	-0.6437835547700645	1.7490518747004706	-2.5564906106676504
id570	sample1	obj210	1.1396462891061097	1.1166697111573731	-0.5407311750599438	2.07316320436454	-3.110733699738714
id571	sample1	obj211	1.208343246454795	1.3306656591763923	-0.24430162371947806	1.7353674873346876	-2.3319677751810035
id572	sample1	obj212	1.411510502868666	1.617983217983521	-0.11791595231319485	2.111724609134153	-2.6943986561185866
id573	sample1	obj213	1.7413268680082887	1.5436832831851675	-0.24841597473355226	1.989793412787785	-3.075580332049914
id574	sample1	obj214	1.0469974087595886	1.2942282378791954	-0.06719533231085961	2.439900499616065	-3.101814477192028
id575	sample1	obj215	1.6813044654100076	1.4216088698510843	-0.22826707223090714	1.826296987586641	-2.416742435855778
id576	sample1	obj216	1.2855659131934396	0.918534674759164	-0.3279373553720051	2.212475404956024	-3.038546858399286
id577	sample1	obj217	1.4083727234187398	0.9895669455094166	-0.6614215508249635	2.190312035724201	-2.747030393301186
id578	sample1	obj218	1.099256112433527	1.4852263257611775	-0.47801963226869254	2.3234945430927008	-2.3256500210866093
id579	sample1	obj219	1.1742246937170728	1.5442826653036765	-0.3550831949496943	2.0864201014207353	-3.0995737977506526
id580	sample1	obj220	1.5291915908828666	0.9381690249297687	0.06382594059311508	2.1074379823748566	-2.520710709363496
id581	sample1	obj221	1.3554645541235049	1.4877830318049532	-0.08225388852017723	1.7594932892496011	-2.6536653568108313
id582	sample1	obj222	1.1269773483238401	1.4463789660757578	-0.11567367435199316	2.113936694311948	-2.3494017098802336
id583	sample1	obj223	0.9825822434411875	1.5948453680584906	-0.4818707972595718	1.9790297293992711	-2.830288101779301
id584	sample1	obj224	1.2817796169675253	1.2219353415634966	-0.5372471252491113	2.340527801684363	-3.0628525606043806
id585	sample1	obj225	1.1945148210927148	0.9690021618046292	-0.5554150015294359	1.7271950211718199	-2.712226736935972
id586	sample1	obj226	1.1834052174401712	1.476022354241047	-0.6270754911610498	1.7212271686577485	-3.0416135844748355
id587	sample1	obj227	1.4007525164518677	1.005193745801898	-0.047955388744718386	2.266862789459938	-2.9653988852561026
id588	sample1	obj228	1.2662285318385051	1.2347071259466547	-0.11869452361534949	2.2069790644146123	-3.047458645981302
id589	sample1	obj229	1.18997876349396	1.4654402584485955	-0.6320604020219927	2.3667303912621493	-2.5560108065423535
id590	sample1	obj230	1.5983464908295564	1.1868411200865592	-0.04559446356552754	1.8373234809401822	-2.679740330878891
id591	sample1	obj231	1.6062647163394934	1.487186695706301	-0.718479106390226	2.1863655022758963	-2.3511108638099616
id592	sample1	obj232	1.0248724849664672	1.3122542044656749	-0.05427793241574641	1.790903479829519	-2.4234801292020145
id593	sample1	obj233	1.7208699535123313	0.9822552446935011	-0.49796155845511453	1.9748216981103863	-2.558082486725562
id594	sample1	obj234	1.1438115239902167	1.3391912117710651	-0.5855056696619733	2.1157156796029386	-2.9818451707305784
id595	sample1	obj235	1.6597324701665845	1.6476210455976186	-0.6740575081576116	2.312241893388374	-2.501587699880081
id596	sample1	obj236	1.187490435502337	1.3057228950210296	0.035571873886778405	2.0782884383244458	-2.366131452512778
id597	sample1	obj237	1.003762151318673	1.297508129200717	-0.6772008658746764	1.9246497368836892	-3.0544405174789366
id598	sample1	obj238	1.202047903425637	1.2506435079049494	-0.2082701232897043	1.8342537568201436	-2.6718425258972314
id599	sample1	obj239	1.7610832278525665	1.2395842045370022	0.044143577964266045	2.3279104838461344	-2.9318583355095273
id600	sample1	obj240	2.314418056579612	2.4453783627115233	-2.1595874603789467	-0.7752156276219675	-0.6023281265802931
id601	sample1	obj241	-0.8912038072221091	-2.0128192242512535	-1.9391606762444917	2.895565269721129	0.5441880129382128
id602	sample1	obj242	1.3451677721883772	0.5557611215750633	2.071979945532629	3.0057339233572913	-2.240255061091198
id603	sample1	obj243	0.9427560910501269	0.1797303794607591	0.31623065955265683	0.966641557148106	-1.4621162644129253
id604	sample1	obj244	-1.434884431127	2.887453878980907	1.5931455237902714	1.694203744421091	-0.9832388547018387
id605	sample1	obj245	0.9089534175197762	1.0755320063649125	-1.467834933966552	0.7306135654571628	-2.3247129717320467
id606	sample1	obj246	1.904782242829958	-2.311407296495503	-0.767875271542646	3.0135127068691965	-1.9432449152997753
id607	sample1	obj247	0.8666931616842781	0.9716830812603086	2.683720546377307	-2.524787772344439	-0.01789126290017437
id608	sample1	obj248	-2.8001119025008294	2.5267671336830073	-1.1713691583063461	1.159754734771944	0.08313232775312152
id609	sample1	obj249	2.909202751702356	2.0058468367510023	0.3211676486540711	1.4008132924067431	1.1193765853236173
id610	sample1	obj250	1.6085055574443352	2.854134281265558	-3.109142604222078	-1.197621188545641	-0.42793696864919256
id611	sample1	obj251	2.7132727185820147	2.0864663452539864	-2.453287210889953	-0.23241460181121756	-1.8237315994925314
id612	sample1	obj252	-1.026105790064247	2.330539071348385	-1.255990103983282	-0.6225257441571677	2.5038209656869723
id613	sample1	obj253	0.7587269731533584	-2.471112068968675	-2.6493235019726895	-2.6534988528883297	0.7700095635074238
id614	sample1	obj254	1.85306619071419	-0.36681308481970404	2.5593279561805633	-1.8007537004464256	-0.3206585473708524
id615	sample1	obj255	-2.3601442206929573	-2.6131617169785386	0.3785886431186989	1.2772745114033035	1.9175385220346044
id616	sample1	obj256	-2.8259912230283013	-1.454912568177773	-2.882248158234016	2.7119066902051703	-0.7405028314487601
id617	sample1	obj257	-0.7360861265362848	-1.9768999600333734	0.47430912433555983	-2.5525981506204927	-3.0402761119282977
id618	sample1	obj258	0.25423977573709305	1.3130354392333317	2.5033109891619576	-1.8372045842216196	1.0966046984302842
id619	sample1	obj259	-1.5154415678216728	-0.5898661322439257	1.2434215127492556	-2.8910714141102622	2.1374679250254673
id620	sample1	obj260	-2.726313876465183	-1.915116837548604	2.3203635667318263	-2.1477281324205144	1.7666409287702256
id621	sample1	obj261	2.717487676037381	-1.1955241944258386	-2.1586585909264113	-0.42423499859237834	0.14433446163756491
id622	sample1	obj262	1.1906506269990924	-2.7079245048554923	0.6496723509486099	-0.3076806892879366	-1.8610007255634182
id623	sample1	obj263	0.02957184003937663	1.292920069119589	-1.6213602441698445	2.408003116804935	3.0479672628469374
id624	sample1	obj264	2.647061755789297	1.784917025558731	1.0458764659771003	3.00070138056451	1.1020177720355266
id625	sample1	obj265	-1.0892434702229454	-1.460057477456565	2.550033570385523	-1.1143397186863675	-0.5507186239553042
id626	sample1	obj266	1.435696409481665	2.1341092271316158	2.859396066963197	-2.181076057458331	2.241883128804291
id627	sample1	obj267	-2.709499034522886	-3.168031047897708	0.26265936739117157	-1.2212233556788106	-3.067703512093422
id628	sample1	obj268	-1.8137064403178407	0.993292318417082	2.146594343336029	2.2494985177986573	-0.8239622372865331
id629	sample1	obj269	-2.260710664494817	0.35359217800420206	0.7241420756490299	-2.108774108297756	1.1778064498237713
id630	sample1	obj270	-2.2606236838533142	-2.484563161964169	-2.6981975578788546	-0.728376918901428	-1.7226975778618194
id631	sample1	obj271	-2.176129651877856	-1.0363600785083262	1.9434292097415158	-2.3693403817798853	-0.7685933980106584
id632	sample1	obj272	-1.7326747970428906	-0.09599217866084264	2.073505945902424	0.656174950320967	-1.3197446220117495
id633	sample1	obj273	0.6166370494987639	2.766243090343643	0.6203916053553182	3.2565889695474985	-1.2774787900968025
id634	sample1	obj274	-0.09577550093291587	1.1621686892333503	-1.8342394480460875	0.033915042966443376	-0.19310472639074366
id635	sample1	obj275	-0.2195030834038897	0.9761852076702219	1.0081231732883609	0.38390878065448575	0.7490345580598932
id636	sample1	obj276	-1.0270805524739512	0.7154391172540252	2.40718999329096	-1.1206867864033208	2.235438470035778
id637	sample1	obj277	2.177503525879068	0.8224969799975874	-1.3897670758947156	0.15259516555295238	-2.3737730724015282
id638	sample1	obj278	1.0444716114790196	-2.9080214663589445	-1.0926297693589464	-0.40802224483680727	0.6966739342784406
id639	sample1	obj279	-0.26952760054474717	1.8644150703049256	0.14101475614134418	2.1795364078065536	1.3345010518103655
id640	sample1	obj280	-1.192016599845109	-2.4519200792100797	0.008959736822355235	-0.4448994589657558	1.2303055394046793
id641	sample1	obj281	-1.81892592787545	2.6356255127414476	-2.322747682741039	2.4304108011619645	1.0046491125205446
id642	sample1	obj282	1.1249814015173851	0.4538163317369263	-2.9402384627439604	-1.7763365476624964	-0.3359411880156439
id643	sample1	obj283	2.7460491971380803	-2.6064188248119757	1.545863035435471	1.7143732241448804	1.500204402185227
id644	sample1	obj284	1.3308806499637327	-1.5343586268504819	-0.17058105340003316	0.07367867391759209	2.9672041754138148
id645	sample1	obj285	1.917002608148422	1.1192923817352614	0.032152379164719025	1.3194774692069826	1.973037797641475
id646	sample1	obj286	-2.653571979369141	-1.1991042620703234	2.1193283924962314	0.5880238197048809	0.1349607916964335
id647	sample1	obj287	1.451765464686855	-1.9407445300104829	-0.7990605214873006	-0.9390838032308388	3.091352535240335
id648	sample1	obj288	-3.224405104363299	-1.0833343911165274	-1.4184788448360504	3.256247296559689	-0.28032560154011554
id649	sample1	obj289	0.17085855039744596	-1.5237100913985273	-1.6297338470080585	2.877227510873312	-2.089611335033929
id650	sample1	obj290	2.675604055791685	2.536567503884902	1.5738898597880153	-0.8518614344229734	-2.9413723894648145
id651	sample1	obj291	-0.4633033055572369	0.6124097824926645	2.7691181846351833	-2.967234938354285	2.548521846134724
id652	sample1	obj292	-0.9467167462752456	2.8493482071219547	0.7176453508056837	2.6381604405375865	-2.4419883564308034
id653	sample1	obj293	1.3226266599475691	-2.721860612263552	1.7821147149824355	-1.399616391206575	-1.2506659334318424
id654	sample1	obj294	-1.7853297535639876	-1.8605119250302242	1.3519388122056162	0.1955724392519338	-1.3396055863579348
id655	sample1	obj295	1.371765190361523	1.1638168204110781	0.0022504866570166038	-1.3798785147662918	-0.7108234729003002
id656	sample1	obj296	-1.3020709150123733	2.8503146847878833	-1.5548739928725634	-2.96995218216795	-0.48738115151587347
id657	sample1	obj297	0.8311560637930717	-0.10442159678154123	0.7755652579155679	-0.3474070796807602	1.5965491395629177
id658	sample1	obj298	-1.8394209952863851	-0.9962110383449553	1.4483149914328755	-0.15717064871202036	-2.692600261224755
id659	sample1	obj299	2.0855861662516215	-0.11068063807012085	-0.14165527074788709	1.2459996031388305	1.6823336900118957
id660	sample1	obj300	-2.6405252275715605	-1.2813561191066811	-2.3279064588448453	-0.6417083285373864	-2.3788952234723433
id661	sample1	obj301	-7.534709417982288E-4	-2.7713733630625423	-2.321304281203888	0.27056687743226115	-2.3321832656789336
id662	sample1	obj302	-1.7741713456814134	-0.4782514305699082	-2.3796931047921186	1.7107213201403284	-0.6802509837342502
id663	sample1	obj303	-0.2746230461586898	0.8274343404407425	0.6918621808033636	-2.717535308977747	0.8011000834171088
id664	sample1	obj304	1.3489877405842343	1.309474971498357	2.1954060457917235	0.2779885623285371	0.44376261630882663
id665	sample1	obj305	-1.0816403599911362	0.13609917897793822	-0.9344871602907471	-1.519184405494778	-2.436308703422427
id666	sample1	obj306	2.3741219610374347	0.39076666730678183	-0.5506380939647164	-2.2393869644184274	-1.320469359221172
id667	sample1	obj307	0.9650014160935101	-0.8068182773100699	-1.2182553408094647	2.617393015855161	-2.389142928201666
id668	sample1	obj308	-1.0959140071382096	0.46708378365858594	2.3248733392885996	-1.4941835399520784	-1.266770815170415
id669	sample1	obj309	-2.1412627552314274	-0.5218981426156485	-2.617774560746649	-2.908504495626639	1.315998085316807
id670	sample1	obj310	0.16943035313227062	-1.3567627563842302	0.9272545264897332	-0.7929449353570488	-2.227488327253342
id671	sample1	obj311	0.6202698651792995	2.2269477975629464	-2.6714199633509494	2.2759126361520345	0.4864184879162889
id672	sample1	obj312	-1.3309810199883616	-1.9846388108313884	-1.7171020578667244	2.0370335035379727	-0.6921977709545236
id673	sample1	obj313	3.100010137344093	-0.33877981405495583	-2.350184665525175	1.8188031237443008	-0.3977985431123151
id674	sample1	obj314	-2.0556178796277615	-0.622787206342153	1.2517336292448378	1.2943613545344825	0.3422615464727764
id675	sample1	obj315	2.192160278177188	-2.5453821236582774	0.8816118079178088	1.376863048873891	0.5495284897393778
id676	sample1	obj316	-3.0275270419402927	-1.315827480607369	-2.473922771270508	-1.8098779280926829	-2.9959386239393213
id677	sample1	obj317	-3.1108280570261897	-2.785218544950045	1.1791976779746696	-0.03522699540000107	2.8539729294819445
id678	sample1	obj318	-1.0361812908754362	2.4075504379325023	3.105344982374935	-0.4687643406649855	-1.8561260329929383
id679	sample1	obj319	-0.2183248672252922	-0.84486902808036	0.1480962891111539	1.8432768174524556	0.6786177125580235
id680	sample1	obj320	1.2373413307523533	-1.6768778669227689	-1.7947662651258667	-0.2356051965392813	-1.5268872967716542
id681	sample1	obj321	-0.7329064436713298	-2.5722544586040548	-0.341690255082722	2.283261877060966	1.6780869986656786
id682	sample1	obj322	-0.8082188051318395	1.2615259774334988	1.742291352830745	0.15059685536882245	1.7543791828503164
id683	sample1	obj323	0.20559294316056753	1.0140347720328133	0.4918047428983906	0.28706307987044744	2.565780068719544
id684	sample1	obj324	-2.5296262841582906	2.1897991012795543	-2.487234998202136	2.3001757771217712	0.7359459562857824
id685	sample1	obj325	0.3215505661716217	1.6394469437079142	-0.6439876574364207	-0.6466813411633938	2.662067480156571
id686	sample1	obj326	2.1651153193006523	-0.29029989896781094	0.7218714379355591	-0.30269805121991133	2.4293613124718836
id687	sample1	obj327	1.9904224664855645	-2.413461625928441	0.14426896260400746	0.7517433299950845	-2.7185196876142466
id688	sample1	obj328	0.45578619500322654	-0.30237944589859267	-0.738878757798143	1.4979623721276143	2.2270688903168483
id689	sample1	obj329	1.8040286290588872	0.20358727030702983	-1.0642624645404186	1.5240631270702245	-0.5461927111070544
id690	sample1	obj330	-1.1656993015242847	-1.6478828878359875	-0.8967957441367242	-2.6554889962584536	-1.809783688768968
id691	sample1	obj331	-0.06758637716287108	-3.0990155110159163	-2.3683392743616283	1.123260079668236	0.8555514394903249
id692	sample1	obj332	0.01559123535789142	-3.0310593536823545	0.4936454927328068	0.6822763747721573	-3.0682475794627906
id693	sample1	obj333	-0.21062475040544942	1.0335448725659773	0.6823598934486873	-1.6973775137433202	-0.8163209316879073
id694	sample1	obj334	-1.1479638615700583	2.6717139446220535	-1.2453783293684497	0.7999854642765214	-2.9160911645963394
id695	sample1	obj335	-0.7154747660055696	-2.296418591581655	2.1619978220533915	2.407553622372033	-2.606417187151801
id696	sample1	obj336	1.500573680785906	-1.5378612864706243	-2.151069394086817	1.7877053131638503	-0.4391080858429455
id697	sample1	obj337	-1.638342461510433	0.18824447704321634	2.6188188041611444	0.9265882329921967	-1.9605496126168673
id698	sample1	obj338	-2.5274692312798037	-2.7788868932932833	-0.06771758655608764	0.8866576888628565	-1.8229927833205422
id699	sample1	obj339	-2.8332015317986863	-2.122339168789619	1.3216616266367323	2.1247712908863208	1.420852607629067
id700	sample1	obj340	1.9395146258439244	-2.1730537283926683	-0.8177305431735258	1.2989332531049036	1.5086652885487086
id701	sample1	obj341	0.17638496484136112	1.5714983714854809	2.8245628136566276	-0.805114517502986	1.5086182221095954
id702	sample1	obj342	-2.2306245329148955	-2.1742288765573687	2.046231738108554	2.6673587079943184	1.5281991879569579
id703	sample1	obj343	-1.9053709038748536	-2.13435360673365	0.19700992329837658	-0.816351051820629	1.2815008001976893
id704	sample1	obj344	0.20043332483819537	-2.4096798433563125	-0.20730293667019617	-0.7066421464175345	0.001834885001917863
id705	sample1	obj345	1.178552856860576	1.8939026926476785	1.66593848882659	0.4258664550816416	2.469568190044553
id706	sample1	obj346	0.8872910308665408	-1.9342489362189403	2.158304664178474	-2.4683665363824367	1.3284102953304675
id707	sample1	obj347	-0.02001795410275431	-1.5206580323026317	2.1661667202443216	-0.22422950650045498	-1.8813118132121571
id708	sample1	obj348	-2.693707177186882	-1.9142841214680135	2.7115455319564683	-1.1858134397136433	-0.024281252365910888
id709	sample1	obj349	2.9477607332220384	0.18504728341359283	1.8091855839760518	1.4688573901708901	-0.057733542723289843
id710	sample1	obj350	-0.48703208158621525	0.6401830032327576	-1.7550588795084532	1.3731262275733154	0.8050729637206492
id711	sample1	obj351	-2.6163654342950298	0.30406735964279896	-0.30213413948142465	0.8680916984372276	1.8220318563199296
id712	sample1	obj352	-1.5012172070748027	-0.988337907483064	1.2783531462465383	-1.35629865877694	-2.9994794765211275
id713	sample1	obj353	0.6959508941597856	2.3449656161243535	-2.590242289733632	1.215317672880468	2.5009852932655368
id714	sample1	obj354	-1.1173612585312882	2.922775277770873	1.6091538246577777	0.059057864049699815	1.757009913681856
id715	sample1	obj355	-2.6179151028978214	-1.6154041041912859	1.5485221390606112	-2.626723364013916	-0.8483428994481468
id716	sample1	obj356	-2.6425291834551325	-1.4589163243853194	1.2623924154667083	-2.4493199733068503	2.432889102926137
id717	sample1	obj357	0.6601173269797911	-1.1125747666668282	1.957224471629348	0.6381858232639843	-2.8941376942928634
id718	sample1	obj358	-0.16105604844063204	2.683534294095025	1.4395615954844758	2.828872122821147	-2.681174978448385
id719	sample1	obj359	0.9608073543829528	-2.574234666469875	-1.2344980387218318	0.6410754093998705	2.833749124307046
