id0	sample0	obj0	0.025519764538652012	2.001182487760726	-0.9549996478927618	-3.1664901340253366	-1.9246121295587706
id1	sample0	obj1	0.15036449051661605	1.5764166515066562	-0.7724770252399913	-3.312175556849139	-3.350340030310135
id2	sample0	obj2	1.018992204069036	1.6208827699182764	-0.6703030000882557	-3.381559017341372	-1.9714819179867298
id3	sample0	obj3	0.32948406119996976	2.2773703499766187	-1.420193028588257	-3.0838675704558893	-2.298301043980405
id4	sample0	obj4	0.1601235970791176	1.476981217979623	-0.39411513913535967	-1.8180352606999848	-2.95307510205173
id5	sample0	obj5	0.6939727868833967	1.6062771155377769	-0.6689440439518597	-1.9540098382474949	-3.256118111202424
id6	sample0	obj6	-0.06927914208743896	2.8060873353725686	-0.6074469445142359	-2.9880055780456187	-1.927317733248758
id7	sample0	obj7	0.4363995359001013	2.734848495742999	-1.3106795467576413	-2.056328046960828	-2.4325141433423716
id8	sample0	obj8	-0.12942105937554144	1.8670505639229849	-0.8625977621391903	-2.7530360007176156	-1.905456018420701
id9	sample0	obj9	0.48657141173213214	1.6089899547640072	-0.30120846135165724	-3.025605285734933	-2.3949583395888823
id10	sample0	obj10	0.9995436346975228	1.8386461361855737	-0.5503344170568749	-2.5558586717620466	-2.5966975274096518
id11	sample0	obj11	0.8618261300128092	2.1781646893675237	-1.8054839898008863	-2.9816628694223883	-3.278240766758613
id12	sample0	obj12	-0.29931555677443855	2.5752090836614405	-0.23484175476543045	-2.364202631984389	-3.0178649042589636
id13	sample0	obj13	0.4129314923950167	1.5173983422463198	-0.7554599914959366	-2.716964954041123	-2.0509065370809134
id14	sample0	obj14	1.0495870967145324	1.4712424104735482	-0.773779561501672	-2.921837763083877	-3.025240803652845
id15	sample0	obj15	-0.23611713454607453	1.8874806265973794	-1.7120721501621872	-2.575884212007593	-3.058446418286163
id16	sample0	obj16	-0.3361619268373639	2.0375861974478218	-1.5267164460767613	-2.5253373902445726	-3.086718909962574
id17	sample0	obj17	1.0579520717915376	2.6554839277254616	-1.1838334719324215	-3.2121032801002998	-2.1980775102238486
id18	sample0	obj18	0.085835848420872	2.7932992525085414	-1.191150359031058	-2.718502735872799	-3.2233135928473162
id19	sample0	obj19	0.786404053249635	2.3242796681818554	-0.6654724320668928	-3.259064024416835	-1.9658859472718688
id20	sample0	obj20	0.10112594299959432	1.3289652867728132	-0.391261775510366	-1.8198304564075238	-2.6100188664238924
id21	sample0	obj21	0.49035923679419413	2.0962969067755326	-1.3209785841971207	-2.5468141223265297	-2.853040026582084
id22	sample0	obj22	0.8335200684654407	1.6986995064265065	-0.48048389702646643	-2.2718414786199452	-2.4369438696994807
id23	sample0	obj23	0.8903434653798128	2.623330140233934	-1.0463588131009043	-3.247038184635519	-2.953720867222139
id24	sample0	obj24	0.947320923501765	1.6496931986534291	-0.9049110055596848	-1.824526711072419	-1.8925906266909054
id25	sample0	obj25	-0.38787212079245803	2.4707647800781496	-1.8083440260255697	-2.826497868932176	-2.1833540491995853
id26	sample0	obj26	-0.37396188041146416	2.799697194109849	-0.3105042638387969	-1.9386035841551008	-3.342076417685538
id27	sample0	obj27	0.34152609122500643	1.9511524573793728	-0.4662241332733832	-3.1375435501961215	-2.1916640510931984
id28	sample0	obj28	0.5860418931509692	1.324406146306742	-1.1629911278057405	-3.117713692761619	-2.3340412985524077
id29	sample0	obj29	0.35487588158249483	2.1586302305736624	-1.3449268303242363	-2.5727965423128243	-1.8910103865498786
id30	sample0	obj30	0.4226645725107945	2.218270411772421	-0.7852926723181866	-2.95213015616044	-2.180918043446346
id31	sample0	obj31	-0.46400247584126186	1.4622400106718763	-0.8383926512520217	-2.5595392519422853	-1.9064018021636573
id32	sample0	obj32	0.6753226629712565	1.543821955638054	-1.80325016871808	-2.0799807135759405	-2.3181803716811933
id33	sample0	obj33	0.004481265145877156	1.5927678369505986	-0.48323642326220395	-2.567788109379831	-2.789522718394321
id34	sample0	obj34	0.9372929368443237	1.4861656834191828	-1.6263597665614191	-2.445429518249742	-2.059121937282918
id35	sample0	obj35	0.5442210536291228	2.7842841496831596	-0.4536231618435862	-3.2544609695635685	-2.725043269848881
id36	sample0	obj36	-0.27515854183788846	1.680848779826164	-0.5761621454056585	-2.3566989846572053	-2.3226556654813773
id37	sample0	obj37	-0.2648281821142051	2.6081297055228654	-0.6892234370362134	-2.964488984468393	-1.8934219520069724
id38	sample0	obj38	1.0594639000565682	1.5848833838434548	-0.810870584895707	-2.7202494260367533	-3.0225626168764133
id39	sample0	obj39	-0.3446275274913133	2.5636531173	-0.6790511256509035	-2.558159473287823	-2.6403472215399013
id40	sample0	obj40	0.2060603419593683	2.212260314881414	-1.2807593903376484	-3.2508729793526974	-3.0675539462999333
id41	sample0	obj41	1.0343373705240217	2.1665699654535366	-1.2849235014784086	-2.6324153028930635	-1.9389026426872118
id42	sample0	obj42	0.9489287132268895	1.756854946510646	-1.184771525589794	-3.2308948507769912	-2.132450191266069
id43	sample0	obj43	0.8029824008750222	2.2023745156185472	-0.8992215460533723	-2.452271968344029	-2.1164760086961385
id44	sample0	obj44	-0.023475263956017067	1.6771871258592292	-0.9847418627262565	-2.1151126361273977	-2.5217167957996565
id45	sample0	obj45	0.8993147271740534	1.3887982212956789	-1.2925658750878029	-3.306952607429719	-2.254372398613671
id46	sample0	obj46	-0.2150025124944197	2.519061385544884	-1.5695699671250514	-2.551542376081021	-2.757534726557857
id47	sample0	obj47	0.15317629097323537	2.7178721509051025	-1.3179607941026559	-2.9537777530802067	-3.254027131665324
id48	sample0	obj48	-4.2663532771725077E-4	1.703674748414069	-0.6476142980797772	-2.6114769271418536	-1.9855207566095354
id49	sample0	obj49	0.28739545417881374	1.6247118005206853	-1.5988967224222845	-3.1112844423493864	-1.8996528714723693
id50	sample0	obj50	0.15192291024310545	1.5103430007814667	-1.281516068331448	-1.995800264362572	-3.1021502490995485
id51	sample0	obj51	-0.2632377397702368	1.4567065141485425	-0.8398389615085684	-2.6114870730561788	-3.333092014962246
id52	sample0	obj52	-0.059291998012536595	2.5345579011951322	-0.665600301018022	-2.7079383110950337	-2.268872921175265
id53	sample0	obj53	0.7003060690104397	1.2933572118696537	-0.8584675540832777	-2.019629223101574	-2.3925837416707183
id54	sample0	obj54	1.0415689182016443	1.6036508560642564	-1.7819368399374045	-2.157264864970731	-2.3888489172554643
id55	sample0	obj55	-0.39358359553142686	1.3935692802573798	-0.8499716933253326	-2.878213740242411	-3.453091980247198
id56	sample0	obj56	0.02187374307660639	2.2839012472710913	-1.6570839825188464	-3.080218393594255	-2.58317090647938
id57	sample0	obj57	0.9844108923307668	2.823769996547186	-0.554638195155507	-3.0305358405097262	-3.3417784783842075
id58	sample0	obj58	-0.3453852704716387	1.5144892679416795	-1.577472763856943	-2.4398230286369516	-1.9143745756515183
id59	sample0	obj59	2.1572627838961633E-4	2.5467814996591454	-1.310912138759834	-3.127381079137661	-2.9881419466472816
id60	sample0	obj60	0.7148991424702025	2.3552566242107127	-1.6073289738645768	-2.587744683200316	-3.1659778679537993
id61	sample0	obj61	0.42788780842975904	2.6279440675860926	-0.6370448579386196	-2.0189878801763994	-3.1042830329079334
id62	sample0	obj62	0.18154385534898432	1.9368001214381163	-0.8889665868469067	-2.0464506399024573	-3.3977267117819037
id63	sample0	obj63	0.5927689863330576	1.441546020327157	-0.7953822458934119	-3.0828118762250174	-2.976690999275478
id64	sample0	obj64	0.2553466187833726	2.6529864299881147	-0.8912244528618196	-3.0924783968611265	-2.6571624131657847
id65	sample0	obj65	0.23612644612197387	1.4371794690628743	-0.35428288748891323	-2.0360664033608193	-3.386886305164433
id66	sample0	obj66	0.9446682184797515	1.4375380950822698	-1.8077545529367296	-2.0952572063381485	-3.4390636831411037
id67	sample0	obj67	0.31519490927887417	2.552203563652861	-0.4735946467061982	-1.8304515965558354	-2.7641906536138743
id68	sample0	obj68	-0.04197694667871393	2.617903739990614	-0.6928091232498406	-2.2893632863284754	-3.245253126846721
id69	sample0	obj69	0.6665991087648107	2.3330593524692405	-0.9005543385754071	-2.6249213011566486	-1.9098333391841846
id70	sample0	obj70	0.48243779881854854	1.5411878860506527	-0.45810995160304846	-3.331526628143513	-3.30819627053536
id71	sample0	obj71	0.02519813543750471	2.8547428849004395	-0.4739136071770087	-2.9807753173835083	-2.617540421532189
id72	sample0	obj72	0.5154005164317461	2.1184785204328285	-0.7403218411176122	-2.417145856503739	-2.602758223495813
id73	sample0	obj73	1.1044542396600032	2.6043057098869085	-1.2950306320614557	-2.3218012516791213	-3.2516907907450503
id74	sample0	obj74	-0.44271505652381193	2.4354722195845664	-0.8845889003846914	-3.1045039319645746	-3.2814207714442145
id75	sample0	obj75	1.1084930294312645	2.2208145966339568	-0.6356064438198807	-3.150628298287667	-2.2300605410127265
id76	sample0	obj76	0.060197061348363445	1.4288605015340594	-0.2755301987935188	-3.1183161724467876	-2.4291998841560263
id77	sample0	obj77	-0.43991718889325737	1.9607641009872898	-0.9126797459813304	-2.5108923755358754	-2.394114562024342
id78	sample0	obj78	0.46825413075745614	1.5295018169852124	-1.5830287991939938	-2.8776781998057452	-3.145442009593315
id79	sample0	obj79	-0.10717515709029207	1.584499240825806	-1.272434370188352	-2.933250005901511	-2.2357421310040064
id80	sample0	obj80	3.0587034015668615	-3.1241888305383383	2.1260192835041622	-2.4078907283213438	-0.6222480006619773
id81	sample0	obj81	2.355242709581018	-2.613390016639513	2.2167967588415696	-2.0926855772089255	-0.6869045694521465
id82	sample0	obj82	3.335002518256597	-1.9535407761137953	1.9081565745025946	-2.0322819593147594	-1.2887708976114531
id83	sample0	obj83	3.2411742962694534	-2.236078195101389	2.336271703288435	-2.4162022096987386	-1.0531594365882495
id84	sample0	obj84	3.504091822633363	-3.1192620846759933	2.5524471071072217	-3.073964026083107	-0.8858959130167717
id85	sample0	obj85	2.766977868761271	-3.341030141199201	2.1105359820016405	-3.388801024684725	-1.5422888295816732
id86	sample0	obj86	3.0224074501123983	-1.8229900903838703	2.4250031410706967	-2.286934693545742	-0.38953874205794614
id87	sample0	obj87	3.4933819168350526	-2.4360940907710553	2.2956698920336027	-3.0701288948619805	-1.3679863105354577
id88	sample0	obj88	2.6709908110960776	-2.909276880150877	2.5835118830662775	-2.5433352674298435	-1.2189467808550485
id89	sample0	obj89	3.390616081676729	-1.8741501452576028	2.0474229489345466	-3.2165745659964675	-1.6017057945065207
id90	sample0	obj90	2.3670653270660504	-1.9126665688116067	1.8161725149400902	-2.166736381981296	-1.742997346029908
id91	sample0	obj91	3.7174756505249937	-2.646439127587738	2.1994278263860725	-2.541653228991011	-1.7973858478728337
id92	sample0	obj92	2.505864442418235	-2.7870587499728776	1.3882516599730779	-3.061552401094678	-0.6698690662568128
id93	sample0	obj93	2.596383456422309	-2.1422354376865878	2.0354830202115015	-3.4827492471417214	-0.6611431324575039
id94	sample0	obj94	3.780219322458164	-2.803832628372108	2.641423657396869	-2.1711532046262354	-1.814763061768665
id95	sample0	obj95	2.6452406323384894	-2.5668065822251394	1.3268515203923585	-2.099754613003399	-1.6223316879870229
id96	sample0	obj96	3.7144795218455906	-2.5536436708800356	2.5051242148933364	-3.420678963406541	-1.0012896615809568
id97	sample0	obj97	3.0409194824792514	-1.8330409994584012	2.844585734537585	-3.2295771949557777	-0.49830170629500814
id98	sample0	obj98	3.688400717356921	-2.5852431419073163	1.3432080659869743	-2.4740012613492155	-1.063073574293506
id99	sample0	obj99	2.253314286980198	-1.8155617831306288	1.445950376698259	-2.868931231799813	-1.3311294836554057
id100	sample0	obj100	2.4156973536282393	-2.3631067048406535	2.3732646284659045	-3.1577117665937044	-0.2730672241336065
id101	sample0	obj101	2.602929197101127	-3.27958300913565	1.7730783543558146	-2.1562597212312005	-0.7105275546009353
id102	sample0	obj102	3.081019386132357	-2.724097287024577	1.3600074325344966	-3.078456107628451	-1.039000201395314
id103	sample0	obj103	3.359043478560413	-2.5702009568711937	1.9910570643386452	-3.0720755407717246	-0.4830812076000588
id104	sample0	obj104	3.2281757996671865	-1.8618244241948059	2.598215671336079	-2.3833697040898287	-0.5643305721012226
id105	sample0	obj105	3.3095581083653443	-2.271252175729175	1.4317045175451413	-2.675446124469137	-0.8838959236473496
id106	sample0	obj106	2.631489632969253	-2.2657989424046234	1.964769216476273	-2.186808218008623	-0.5849996196863867
id107	sample0	obj107	2.597689571606861	-2.9163059220037075	1.898357687814657	-2.3427837218404988	-0.4126765922007627
id108	sample0	obj108	3.5712313765942527	-3.190921010073523	2.0333805259240547	-2.3100036086743847	-0.4532317221876325
id109	sample0	obj109	2.7347395240609282	-2.6577974213348896	2.126058229998772	-3.473540903066956	-0.4121978888256683
id110	sample0	obj110	2.9731411193865243	-3.3312756493072566	2.3096893147870974	-2.453714679669419	-1.5505557266536525
id111	sample0	obj111	3.4622309005670417	-2.9737449269094918	1.2805820203087332	-2.675848378777833	-1.2930622260497433
id112	sample0	obj112	3.561111384672916	-2.220647693196731	1.9584486132666574	-3.1473771171607283	-1.6731639302150256
id113	sample0	obj113	3.150764728325139	-1.8149314110231576	1.6188230583599896	-2.743569683832772	-1.2845791206436001
id114	sample0	obj114	2.3111650817867258	-2.4806063646792222	1.358593161497551	-2.3916970310759575	-0.4436612221346803
id115	sample0	obj115	3.287012866196263	-2.2688697313378223	1.322103770583222	-3.1846850707410974	-0.27753768066118245
id116	sample0	obj116	3.4839266162308946	-3.1854459392881807	2.0360437747519984	-2.0350687278032007	-1.3641943270490118
id117	sample0	obj117	3.714325786329936	-2.0403065127871436	2.4530461258926537	-3.2593538061290808	-1.1605811073760302
id118	sample0	obj118	3.1518453287640433	-2.911707630261903	1.9881636870602493	-2.5976348686185777	-1.236889225773042
id119	sample0	obj119	3.256496026238117	-3.2214585486053986	2.7757013597478095	-3.0344424186897743	-1.8378293459902646
id120	sample0	obj120	2.4264936952587037	-1.8884443462316605	1.9278451374108019	-2.88024501605746	-1.7384617852891475
id121	sample0	obj121	3.7682810016983295	-3.348612315474907	1.8176976886750678	-3.0597432814105385	-0.45133471134213643
id122	sample0	obj122	3.5303250158966444	-2.0628283483405516	2.339267530171151	-3.2690059825982076	-0.9468044542677821
id123	sample0	obj123	2.520351409355447	-3.2151552223777955	2.242228474106708	-2.51954560875616	-1.417891050051566
id124	sample0	obj124	2.4463379892756345	-2.244138761137062	1.4514306397607357	-3.169554753791052	-1.3782892156943727
id125	sample0	obj125	2.54039298576557	-3.1345440623720604	1.7367655970711797	-3.111658581058057	-0.3256560728717104
id126	sample0	obj126	2.9181578890495024	-3.187603229607042	2.6996286117946853	-2.6786223235997153	-1.6054644299456229
id127	sample0	obj127	3.4961538369510663	-2.1201544576357136	1.8144450014010527	-3.054423706729481	-0.7219827969426478
id128	sample0	obj128	2.262106395436894	-2.528006478510265	2.159093463420974	-2.423894362494642	-0.7857609645475434
id129	sample0	obj129	3.3202894229698523	-2.172392043555232	2.563134954751572	-2.120690864985892	-1.7597947985376132
id130	sample0	obj130	3.7918952442530887	-3.071414781912788	2.1990994030366586	-2.676612071851359	-1.0427603756008845
id131	sample0	obj131	3.0409226606502107	-2.136883277096244	1.6662580815736836	-3.246170476596369	-0.5557760429115695
id132	sample0	obj132	3.245640524750854	-2.5018037058303233	2.4198806918422355	-2.9647941237258473	-1.602515047370316
id133	sample0	obj133	3.395896408040988	-3.2210025086969694	2.358503150446019	-2.65801092510995	-0.9495845550056993
id134	sample0	obj134	3.0439577362584163	-2.0578138696210226	1.598779962208945	-2.8883978377894133	-0.8983483267363912
id135	sample0	obj135	3.772760306693332	-2.0294281769850375	1.5686231760369518	-2.217888843115479	-1.5392368566951091
id136	sample0	obj136	2.8969597651940693	-2.1832965736024024	2.4861048824439056	-2.06117585151745	-0.918500043806606
id137	sample0	obj137	2.6305946896112333	-2.5028590824796435	2.7405796567885403	-2.7723365157586493	-1.6037460408419288
id138	sample0	obj138	3.0170423659222885	-2.1537489626745874	1.6552344647625434	-3.277421087612153	-1.0819195558666823
id139	sample0	obj139	3.423838380718151	-1.817458975973683	2.5133555422218175	-3.351468750973847	-1.0100363255197986
id140	sample0	obj140	2.583404783355802	-2.629176056361919	2.825578409945275	-2.9252315334284367	-0.8884471401044023
id141	sample0	obj141	3.1623482071586286	-2.7260358045826676	1.3788213078785319	-2.855708547770348	-1.8370920880791983
id142	sample0	obj142	3.5433147679603545	-3.3823539262745017	1.3410555756143734	-2.3413624524934704	-0.7005612334074529
id143	sample0	obj143	3.7059815453656504	-3.195398199368948	1.6261016955237966	-3.2185490015771276	-1.2362381105601519
id144	sample0	obj144	2.3241909811625066	-2.699906235312376	1.8008201346942654	-2.826172774741829	-0.6748066314142149
id145	sample0	obj145	3.506055553930275	-2.3177709313726536	1.3199526525746932	-2.7318257349121655	-0.982385426167275
id146	sample0	obj146	2.369636545096297	-3.3520442199459413	2.2030262564141774	-3.410608146370529	-1.071956741677627
id147	sample0	obj147	3.7700988169005543	-3.3475868850798376	2.749720995084524	-2.8684122835795187	-0.4570135265251576
id148	sample0	obj148	2.2016221931326436	-2.9752561617839777	2.376485004799188	-2.5906019233945776	-1.3358996206734473
id149	sample0	obj149	3.5403740269372572	-3.138412013293445	2.1245213202849493	-1.9356877521317057	-0.8395985859269997
id150	sample0	obj150	2.950077710540111	-3.0106721794310007	1.5391294168815342	-2.7177127112593915	-1.2421760300961842
id151	sample0	obj151	2.9407128628297823	-1.828196356783921	1.4793275196499946	-3.041564037810159	-0.2701338941953413
id152	sample0	obj152	3.180214605628495	-1.9892654555303368	2.7362662054715576	-2.958253673022674	-1.0780343335833293
id153	sample0	obj153	3.6602663125431283	-3.3444819453693135	2.195738747287614	-2.953297173769455	-1.0813262257926308
id154	sample0	obj154	3.386964473581893	-1.953490236905913	2.2756551577314434	-2.9066075878363553	-1.62680546386293
id155	sample0	obj155	2.606836696369912	-2.9746361713259364	1.4302420242373182	-2.0777448137761656	-1.6849902902419553
id156	sample0	obj156	3.7149805517461294	-3.153393312924832	2.0905199041018507	-2.4618581289951056	-1.090337440740763
id157	sample0	obj157	2.5765197667608835	-2.469616159111315	2.0818560453749186	-2.390169810168994	-0.9330996083030069
id158	sample0	obj158	3.1017119414759975	-3.05367338477132	2.225655668611536	-2.4503059090528696	-0.594167947595984
id159	sample0	obj159	2.3504480517239132	-2.323207988425917	2.120104036562696	-2.0871263411665923	-1.759890598122678
id160	sample0	obj160	2.9788695405366434	1.743479515195377	-0.895052462023151	1.543390340069119	0.5019992730319152
id161	sample0	obj161	3.092235167644065	1.8879598495036352	-0.9175906169474046	2.005861455490018	1.0356954511289431
id162	sample0	obj162	3.065438848949435	1.4959311457001754	-0.4409176624508657	2.3974118895206042	1.8736666370344608
id163	sample0	obj163	3.0425581655609357	1.3843249330138834	-1.404521187848506	1.6898244311839163	1.5406654288642552
id164	sample0	obj164	1.9981359520359958	1.6089611175604528	-0.2629228865367328	2.1724167806336228	1.4490107726175707
id165	sample0	obj165	2.8450547959323944	2.22217795727061	-0.35492234504794706	2.0392078198124173	1.5932524219840731
id166	sample0	obj166	2.278134119340838	1.6805911313483652	-0.5286524668498196	1.587989949013841	0.5250349565053214
id167	sample0	obj167	2.095645026495575	1.2540185719242416	-1.3102988242513551	1.3054705459889409	1.851687245517064
id168	sample0	obj168	3.008083106475109	2.127433614223841	-1.2019358677261458	1.2051312867626218	1.3787786482940203
id169	sample0	obj169	2.4275794286439787	2.2525617249908922	-0.42932833222676625	2.158680323782751	0.526117797984736
id170	sample0	obj170	2.2088249091172765	2.1334763519623294	-0.6321698358115015	2.3819957477922875	1.4149861339890095
id171	sample0	obj171	2.2849004060575355	2.2853405953568284	-1.470524102439775	1.1913504227441485	1.003360055695091
id172	sample0	obj172	2.435501647775891	1.6763462635495436	-1.2606317689646032	1.449520392387638	1.5120434465692216
id173	sample0	obj173	2.3922919666726696	0.7639817090176262	-1.174188193344031	1.9131836608794193	1.9395701067707827
id174	sample0	obj174	2.0030635662548457	1.407078751479771	-1.3361172372058423	1.836869730566287	1.034005500896543
id175	sample0	obj175	2.6446085501625722	1.1387086824702024	-0.710207916195809	2.2736863394257667	1.7269414131794172
id176	sample0	obj176	2.6202508172166192	1.5109792083036626	-1.2181739575135335	1.45319382647252	1.315598517428099
id177	sample0	obj177	3.15343662543153	1.485193455394704	-1.4191856002649703	2.051178163828765	1.304592865229965
id178	sample0	obj178	3.3701828562070872	1.4787282659043324	-1.4821407206740957	2.6587553525992487	1.8161447669037263
id179	sample0	obj179	3.2521053796593917	1.9574370631270577	-1.3853295447592582	1.5982854215782616	0.7978765726567065
id180	sample0	obj180	3.164753360046155	1.76844284474513	-1.6261380382936814	2.0350451609862517	0.5774196637609118
id181	sample0	obj181	2.3746242122748242	1.4569238355063892	-1.04047158787378	1.4355678159452876	0.43439580946601564
id182	sample0	obj182	2.239089760146585	0.8409689114253969	-1.1160942120907515	2.090067797723097	0.7095130283407549
id183	sample0	obj183	2.688089000846543	1.6948557766703534	-0.6095134334995733	2.0364924063081706	0.9990874353897305
id184	sample0	obj184	2.7414006250379135	2.2022435053071163	-0.39082855758150203	1.4115410397522115	1.3678299549069326
id185	sample0	obj185	3.1721600223772395	1.7008361828611882	-1.7685427193484138	2.4485295070980984	1.754783876077115
id186	sample0	obj186	3.0125943726880875	1.4881266250143261	-1.4851508044197774	1.2073164307586992	1.473427872570883
id187	sample0	obj187	3.30327761954384	1.7579341506028858	-1.5977959943620799	1.9467084386091964	1.4687340804694273
id188	sample0	obj188	2.9391179159362952	2.07866573212385	-1.7148727943229265	2.6488894338117355	0.8679498854556753
id189	sample0	obj189	2.415344550603835	1.920624348822262	-0.7725839951191307	1.5175340350757685	1.7496237776306236
id190	sample0	obj190	2.4015239491051723	2.030318339029866	-1.003566839849007	2.5604314210384276	1.8834768459271296
id191	sample0	obj191	3.372665261887866	1.49865805967917	-0.7462322479265233	2.4227262249570103	0.9136989778541147
id192	sample0	obj192	2.930339730555315	2.066220637836733	-1.5168421329448631	1.5723370411142894	1.64668239883636
id193	sample0	obj193	2.404996579134555	2.166485634164151	-1.2400266223917802	2.5938082623567165	0.6626584026501571
id194	sample0	obj194	2.219872110329235	0.7661523733723528	-1.7058479508796875	1.2848441213815878	1.8257388673225874
id195	sample0	obj195	2.0186249957258298	1.4844109371905618	-1.6660923136903327	1.3601318273889595	0.5700437707852273
id196	sample0	obj196	2.939645506765822	1.7494110004832746	-0.4476506234355926	2.0638450483164186	0.7674832548610749
id197	sample0	obj197	3.2114493032930493	1.1942227261890461	-1.3700707323144852	2.2144887264014934	1.1369185611358024
id198	sample0	obj198	2.1222333868730257	0.9453704731053998	-0.30606765259921476	2.4175711027780675	1.8614159147079503
id199	sample0	obj199	3.1841101153819515	1.6786090407058816	-1.3913977730703797	1.572022719672314	0.5916889025991284
id200	sample0	obj200	2.895305093898526	1.1980625769818047	-0.8224810199186185	2.0793943380970283	1.1061665587755476
id201	sample0	obj201	2.1532687334785305	0.8502243717847187	-1.1999228636454862	2.379716578390342	0.8729827231660567
id202	sample0	obj202	2.064772597367575	1.2526810624847515	-1.5820882617814447	1.5485528000377715	0.6431248168313316
id203	sample0	obj203	2.1372026618055786	0.8628403599229513	-0.7785476375542575	1.3852921861204597	1.5485655821337116
id204	sample0	obj204	2.2449848906643	1.0234717932574053	-0.9869880346213502	1.3171693955339516	0.6609952991737514
id205	sample0	obj205	3.2979449760457795	2.2135751426549946	-0.6824981927124381	2.275924255810747	0.7873341166302223
id206	sample0	obj206	3.070979564719826	1.3440339121827667	-0.20343405554965854	2.3384951070195026	1.5640991794507682
id207	sample0	obj207	2.3882597289542833	0.8317573708700817	-1.1167846498296785	2.148730364153623	0.7154907799818577
id208	sample0	obj208	2.5168636893050502	2.152620118066114	-0.23652896733296935	1.8678710075122482	0.836307296455775
id209	sample0	obj209	1.8658060721064071	2.026543987342104	-0.4343378411208747	1.8765630604835501	0.952065772035186
id210	sample0	obj210	3.283459082812307	1.4665864462993154	-1.5215669578465167	2.4344658184502324	1.0215516718451345
id211	sample0	obj211	2.500907488704792	1.6919740373918783	-1.3682508277789087	1.8841914031961524	0.43301464250209887
id212	sample0	obj212	3.4074089405789567	2.1517044083350214	-1.4071717929597896	2.3784080219881565	1.4809259681108167
id213	sample0	obj213	3.2184046037058094	1.5447017236159928	-1.7724907284021887	1.2515226553997136	1.7971829400399655
id214	sample0	obj214	2.6830058142080784	1.1936109680360154	-1.041314296897279	1.3144942450275074	1.4754460709646304
id215	sample0	obj215	3.0781326579683337	2.1962163939305954	-0.456383324873775	2.3120771959790276	1.42149064628976
id216	sample0	obj216	2.7770630395770546	1.3302340218334117	-1.0572303785143755	2.6602179630559224	0.46260658668608956
id217	sample0	obj217	2.112626853637301	1.9379174638731542	-0.6591107182913452	2.216491473142382	1.2567533862154467
id218	sample0	obj218	3.0562144966985167	1.1055939485361241	-0.29219917225013736	2.3924252431648356	1.683929849350226
id219	sample0	obj219	3.004721972112505	1.8439770986164763	-0.6214000056162599	2.4823875720721262	0.7296182257258681
id220	sample0	obj220	3.3350898820587265	1.8569442114902157	-1.5580772578536712	2.4734666375112004	1.5597674724862909
id221	sample0	obj221	1.9017745972176394	0.7734838290968433	-1.7725179893828868	1.7535090373453917	1.3401552390222027
id222	sample0	obj222	2.992875341812952	2.04877612132521	-0.41842315339387026	1.3142768086168881	1.6966767399260116
id223	sample0	obj223	2.4272989234499946	1.879924137064259	-1.0616246770719602	2.242586730221971	1.598708518172182
id224	sample0	obj224	1.9948315178007106	1.1187758938381116	-0.6129836474233312	2.618376326202462	1.2517563796319056
id225	sample0	obj225	3.3648697056760772	1.3126213135700284	-1.7234758199298101	2.2339592018838053	1.209672478271306
id226	sample0	obj226	2.4944042997929214	1.8023843003572715	-0.8062509544669941	2.3773517243258535	1.3873893843008926
id227	sample0	obj227	3.1532084838683465	1.1213129572429033	-1.0794023884203905	2.3735361688682897	1.3239221368855345
id228	sample0	obj228	2.280624828782134	1.7541717946576383	-1.3227367856165668	2.4649334468826334	0.5889021254883757
id229	sample0	obj229	2.045431269932367	1.9516112625022883	-0.4354318963478083	1.4752551781174084	0.6456881334516787
id230	sample0	obj230	3.374559039745303	2.185804582012951	-0.867547987230588	1.4033531627442934	0.5067124871206743
id231	sample0	obj231	2.3494992491750426	2.1456530145179498	-1.1503545369136146	1.4247440940708958	1.9937301526616422
id232	sample0	obj232	2.567628762034972	1.9919392192737264	-0.7167846247116378	1.2522245069920133	0.7236013763874676
id233	sample0	obj233	2.980975364811198	0.7388080035759439	-1.70747448880351	1.262465724431535	1.3807250526912442
id234	sample0	obj234	3.233689377723695	1.6369468357755528	-1.0982198765353064	1.7967540773247404	0.6368055221442994
id235	sample0	obj235	3.0232533785251414	2.1698779237870642	-1.1347237034090945	2.480181027778425	1.3888474207792267
id236	sample0	obj236	2.9358110793871965	0.7269288902943553	-0.6686579937590942	1.2886514834242007	1.8836904131552124
id237	sample0	obj237	2.9044875797010112	0.698779654177277	-0.37875375977930537	1.3661329034799363	0.5835845620749279
id238	sample0	obj238	1.9877735140522577	1.4930507757407536	-0.7303044709059576	1.3196705814546215	1.8288262828131026
id239	sample0	obj239	2.7645141837382647	0.9522695421570927	-0.8495584446263369	1.885912012902944	1.7218886355523608
id240	sample0	obj240	-2.888683087962761	2.34427522077291	1.594661015937082	-0.15955147404057024	-2.1205662801273677
id241	sample0	obj241	2.223044014080846	-1.5845325351402788	-3.142447532685196	0.8757742563732964	2.880491337984383
id242	sample0	obj242	-0.5658607272391909	2.9775985619131564	1.9353981677125216	2.2102399906541184	1.6861311971842077
id243	sample0	obj243	1.3414324133341688	-1.0035249562842483	1.4769422195841526	-0.4601620919724931	-2.2371044261119133
id244	sample0	obj244	3.199611409761812	-1.4940800527897689	-0.5834484736019874	-2.246455082346928	3.306099541884616
id245	sample0	obj245	-0.941434043698353	-1.7068430877294847	-1.4942912658982999	0.3070130195269929	-1.5456303695813673
id246	sample0	obj246	-2.3946230517931326	-0.511115890447607	0.04499860159476421	0.14330603349473336	0.24811612558266005
id247	sample0	obj247	1.7902019124054518	-2.0513393625421497	-1.3473691518810051	0.03483644707265532	1.0800932367143856
id248	sample0	obj248	2.033381291800305	-1.505445695416174	2.730710645440836	-0.5303548527796084	0.35673721983980733
id249	sample0	obj249	2.014064769077435	-1.1012641056759551	-2.687274231356031	-3.0290832552755216	-0.20071569693267755
id250	sample0	obj250	0.2659875572896859	1.968532688783205	3.065937890370817	0.5048032138407438	1.7499023938964564
id251	sample0	obj251	1.2491120121293295	-2.3922057023902425	-2.2118940403367824	0.021046619163008318	-0.17013034431151086
id252	sample0	obj252	1.4355613790335493	0.29228820292829183	-3.1351126078868115	-2.5968499294953453	1.361860631461484
id253	sample0	obj253	-2.2807068003632427	2.4577647260593767	-1.9118156390295065	-1.3233468429378852	-1.186241438059151
id254	sample0	obj254	0.4785652733776643	1.7344011528250598	-1.1991881899955068	-1.8571986531891234	0.13390643986702166
id255	sample0	obj255	-0.621866387615365	-0.9811295027764007	-1.362046409867445	1.449697090564954	-2.2724731417265898
id256	sample0	obj256	1.6304503411269726	-2.288780230019725	-1.4884960196976054	-1.5434234740948622	-1.013485139462394
id257	sample0	obj257	-0.029475796198743076	1.166375378703187	0.6830341898013319	-2.11673451003114	-0.8022097021917042
id258	sample0	obj258	2.3420131279304934	1.4416488999321364	1.7564228056738749	-0.45164850594666905	1.5577539297098009
id259	sample0	obj259	1.5262157309953386	-1.8277517198066864	1.6392382322009151	1.3824446398660089	-0.545631113324266
id260	sample0	obj260	3.2277055929651466	-1.0563692293862816	-0.33013493528206317	-0.8397330646111489	-1.3438829028566204
id261	sample0	obj261	-0.7675414889304006	1.511176157531867	-0.43304210836808865	0.39254368177830057	-1.8408973991410473
id262	sample0	obj262	-1.9006394284012513	-2.1480725992185903	1.870744671912784	1.6835390801644845	2.2046854304808283
id263	sample0	obj263	2.7698507350930677	1.6033694372265683	2.9868431671394946	0.19854650710841726	-2.2048067320699856
id264	sample0	obj264	0.04063600660210942	-0.863092154192467	-1.7624080747219082	2.4708786445260014	-1.4439969801961245
id265	sample0	obj265	1.3833179916572649	-1.6321408116637595	-1.5582005933374434	-1.042238026371515	1.5213045872621191
id266	sample0	obj266	-1.5473670335413212	0.38975675791565845	-2.7169442944779876	-1.7894341181711066	-1.1898187560234408
id267	sample0	obj267	-1.1144207900306429	0.9439259284029451	0.11890507181932164	-0.09727091453291847	3.1351746215775056
id268	sample0	obj268	-1.4671835622597948	0.24718084734632817	-3.220077748716127	-1.0213506155836942	1.8182438125534388
id269	sample0	obj269	0.6585461336687282	3.588139235429769	2.659731558337932	-2.2720551039145054	-1.279238168669163
id270	sample0	obj270	-0.21048819690480225	1.613380056794509	-1.2163368055998525	1.432847598862305	-0.2869677357553716
id271	sample0	obj271	-0.24733689040350226	-1.7278318468407419	-1.8861563514732669	1.8351594657841634	2.357290557497188
id272	sample0	obj272	-1.53643012510237	0.27259121033652045	3.2167535510791163	-0.2953732770335029	-1.635675656338026
id273	sample0	obj273	-0.8721796860400695	1.0627575359640271	1.1517699740311271	-0.6402664156288613	-3.4469511336959338
id274	sample0	obj274	-0.9832610453869313	1.2644846482397005	-0.45186122587685773	1.458419044405069	0.15511312536035615
id275	sample0	obj275	2.0934845724417754	-1.1004989615913487	-0.206932577465482	-0.3943758570484356	3.45526787095016
id276	sample0	obj276	-0.08893769271143681	-3.1715636686149344	-1.393234300528785	-0.18836982963124071	-2.557023129827344
id277	sample0	obj277	-3.0298410459491167	2.7064832603356073	2.6835602546463493	-0.8816298927191213	0.5224411812608893
id278	sample0	obj278	1.8721799473115621	3.3412634419187652	1.6691883431551298	-3.3427346033076972	-0.10643491198179156
id279	sample0	obj279	-2.191946168670466	-1.542534222421668	-2.846489006029091	-1.5677725581905189	-2.211645985933288
id280	sample0	obj280	-1.9025356116774281	0.8252611495791278	2.0849084317661846	0.032789699648698045	1.9106683101413966
id281	sample0	obj281	1.879483626572146	-1.6932463284639276	3.504202225381716	-1.3837236545311735	0.3779778496560502
id282	sample0	obj282	1.0915913118216627	0.2219159064242444	0.7035300816840124	0.8973602375030172	2.336244323100437
id283	sample0	obj283	0.948072283604733	-0.027384993008697123	3.644362365677833	1.1485004460667227	1.7979694894786977
id284	sample0	obj284	1.353748858960452	0.3049894356234597	1.837468785049753	-0.37661413139166133	-0.5709424345517338
id285	sample0	obj285	0.7942376520654986	-2.9619574168663787	2.320533744608242	-1.8074771178904023	-1.5192677204969511
id286	sample0	obj286	-0.29508858205561495	-2.0151267301270965	0.5079097186094176	-1.3854031467662893	2.6347481652598517
id287	sample0	obj287	1.9614505171702505	3.4839339039868964	-1.5338685550751763	1.220305033614423	0.9211240066297595
id288	sample0	obj288	-1.566387038089092	0.6017280560866411	-1.3933041772413328	1.5658834710512295	2.3633940992299833
id289	sample0	obj289	-1.6399130994217601	2.7753694176478017	0.5034257814925531	0.8293754614089106	-1.527932359174414
id290	sample0	obj290	2.3443317938209303	0.25915669363897	-1.3601064208088287	0.8823871398735156	1.8102880701299404
id291	sample0	obj291	-1.6146208793219394	0.4192196445537233	-2.487998766397771	1.4572546267925386	-1.728405474794439
id292	sample0	obj292	1.9683952067281945	-0.3340641103205819	1.0442236700007654	3.2459428773959274	2.802388706626807
id293	sample0	obj293	-0.6485318363695378	-0.012239091639519861	0.12291749180653344	2.6098712806949633	2.040371867000747
id294	sample0	obj294	-0.9039025480018141	-0.027699935914525853	1.6603012308271667	-0.5458115642961412	-2.188990321683162
id295	sample0	obj295	1.8473409020058993	-0.043263927493492726	2.795281685393586	2.602118257623172	2.4205134632587555
id296	sample0	obj296	2.773635781506679	1.637716789263623	-0.8833030961828017	1.0903235140895735	0.8359820096135402
id297	sample0	obj297	-2.2102954130890167	-1.5342173173873115	1.0890920258367291	1.9490663426033201	-0.393731050136221
id298	sample0	obj298	0.7271665447165697	-2.139292141057529	-0.7454412255145775	-1.428403433054286	-1.213735673966936
id299	sample0	obj299	-1.0328091299593025	3.2597569403839506	2.1126006890910483	2.0390755646555094	-1.483927516367308
id300	sample0	obj300	-0.49042117208406977	-1.6643451984264814	3.1522376152248706	0.09464719511154085	-0.23056689430639854
id301	sample0	obj301	1.5766133204019743	-1.5587459175510001	1.096865826432496	-1.446150927894045	2.6561472511882056
id302	sample0	obj302	1.1532460663319208	1.5322711219553729	0.4446086057597902	-0.36470497960783743	-2.334613703998042
id303	sample0	obj303	2.209774276480844	-0.0748547684668226	-2.269677451751955	0.524203356608456	1.8553628014599004
id304	sample0	obj304	-1.0096145574375455	2.1349847231934724	-0.4098477243937527	0.8149347553738197	1.5968037226465348
id305	sample0	obj305	1.9917325651954672	0.5215396908595755	1.7365487459777806	2.2915486868029356	2.20502683691256
id306	sample0	obj306	2.12679313942978	-1.7849481893730248	0.6566765581473784	-1.970159166644588	-1.962026171404688
id307	sample0	obj307	1.500452652142904	-2.0106729245771966	-2.8678498085611595	-1.6298824225493644	-1.61977641678617
id308	sample0	obj308	1.3984666757081152	1.3897770204651945	1.3289020721552114	-2.063412307963901	0.36087302069258564
id309	sample0	obj309	3.384069113107045	-1.5778276973940273	-2.6392276632088025	-0.6210739738153728	3.2843810447928257
id310	sample0	obj310	-3.6034388696814212	2.171434763923827	-0.1381648140619659	1.348422708032804	-1.8420751688526906
id311	sample0	obj311	1.475064361482648	-1.1048817806050106	0.03439258422814362	-1.8408761058635166	-0.7520853069468674
id312	sample0	obj312	1.0255544623870658	-2.1871538772296395	3.0054829941986183	-1.3555175462308326	2.6785245904704826
id313	sample0	obj313	-0.4113227090783861	-0.6258837837412932	0.8636824145950375	0.15437970877835383	1.8957679511294054
id314	sample0	obj314	0.29253453879966373	0.7752457185223769	2.3203552593064343	0.5156729814657499	-1.736257207354689
id315	sample0	obj315	-2.8372103641301205	-2.6470674058037753	-0.2664165836832654	-2.029443249791942	2.11688501718278
id316	sample0	obj316	2.8609583307088675	2.6040423801804096	-0.4805680405145756	1.1260488879710289	1.4719720655839836
id317	sample0	obj317	1.794081401976177	-2.1691983643778796	-1.8447561031268902	-1.4737261322662867	2.0293313206169503
id318	sample0	obj318	2.3076768974894373	1.6950357467248327	-0.5403314180389072	-0.4164281987547851	-1.512290815640681
id319	sample0	obj319	-0.13515128970349932	-1.7025138782722724	1.146836901098574	-0.04318101708426414	0.7148618252068364
id320	sample0	obj320	2.5837818627605493	-0.26795669650983056	-0.9677402364697467	-2.31508848260889	0.8450226673915071
id321	sample0	obj321	2.419759553357747	-1.2136037625156884	-0.22203857547875017	-0.04212609927509442	-1.6580645628615671
id322	sample0	obj322	1.6029931514220066	-1.0900641165741973	-0.44790822682909026	-2.7100673979648424	0.4440948076090232
id323	sample0	obj323	0.19391464053587393	-0.8538158590220535	-1.3614638991372088	-2.9110434432353656	-2.5790633481055774
id324	sample0	obj324	-0.5102979581248335	0.22671298556124264	-0.4718130174258017	1.9258687217343828	-1.3200984773649556
id325	sample0	obj325	-2.1663930370439086	0.840601265837536	-0.9847298213767484	-0.24554696845156876	1.3228991719812315
id326	sample0	obj326	0.6549854057216482	-2.5948110439457617	2.332288456848892	1.020911278266115	1.9416621903678573
id327	sample0	obj327	1.4785720620992457	0.5079587108219037	-1.7023571343435524	2.416434630378685	-2.6047214955963494
id328	sample0	obj328	-0.07979025019168828	0.08830837164038807	1.342562414200665	0.5737900863075591	-0.0020278598767331513
id329	sample0	obj329	-1.831688170014031	-0.7070224755354293	-0.3699978211196997	-0.13289507667203515	-1.5556561014038375
id330	sample0	obj330	1.4097943945013038	-0.2955943884789629	-0.16923272993575922	1.8918441318692127	-0.09505440202088189
id331	sample0	obj331	-2.4180392018359367	-1.4684625562033555	-2.498142450850696	-0.4995728450928756	0.2616227881434309
id332	sample0	obj332	-0.7621070602783251	1.1976450220160992	2.0309629297645646	1.2623072618960343	0.4471625147816406
id333	sample0	obj333	3.223211011053348	-1.9287507931547352	-2.67937101644639	-0.9352107920439859	0.6375548806788092
id334	sample0	obj334	0.6316870891405493	-0.5733556905700494	-3.272268912368727	1.0323922488391717	-0.9629579696906263
id335	sample0	obj335	1.4348406410721213	-0.8165028220872971	1.1949044500412198	1.6534088701016674	-3.0662323142287415
id336	sample0	obj336	0.018401910514405317	1.0775537853358892	1.5177342878380606	1.4328328882885786	-2.6629488830207255
id337	sample0	obj337	-3.064115189712153	0.413043801593319	1.2370057571738309	-2.4617423407366212	-1.8261056537290812
id338	sample0	obj338	-2.4043315934545597	-1.352916505312817	-2.228552056961026	0.5384115386641308	-1.245089075035876
id339	sample0	obj339	-1.466831240592419	-2.695755517169556	1.244702622993712	0.3868673121731623	-0.8249205464882404
id340	sample0	obj340	-0.24100494473986012	-2.0279383528892976	-3.542667222081753	0.11988709211581461	-2.002857258009456
id341	sample0	obj341	-1.26086805691999	-0.05973284608093754	-2.8560321581809167	2.0536919914401914	-3.537907780048589
id342	sample0	obj342	3.006404415597082	-2.506204013771872	-2.997410635407605	0.07413509269711493	1.9392600551110593
id343	sample0	obj343	0.9620825618849009	-1.4012579672308525	-2.401229373010247	1.1182739321639605	-1.7011183265444285
id344	sample0	obj344	1.261995011094569	-2.1549900350915747	-2.59537906920185	2.6806113895180648	1.4433171835553342
id345	sample0	obj345	2.083532799766587	-3.439348406246579	0.5003278076675015	2.9659196727371224	-2.6047038178713104
id346	sample0	obj346	1.2276145822443287	2.240250529752924	1.7797645135142326	-1.9366033875908537	0.02978778633472723
id347	sample0	obj347	-1.2937636387965812	0.5339335426856922	-2.6498565190419243	1.0018739998303658	0.4772392892237114
id348	sample0	obj348	2.360033008327207	-1.2871971697490792	1.6427285185773597	1.4737708826738745	-0.34611838696441755
id349	sample0	obj349	-1.9128686079157804	2.9330688240821057	-2.0685264193355053	2.5040907338910543	1.6030281517625755
id350	sample0	obj350	-0.8461856392252477	0.5242630371864885	-0.09341849045352069	-0.6682564803637434	1.4827415242731896
id351	sample0	obj351	2.6322595792251198	-3.1852868155464393	-1.1754974025186882	-1.0422945829502186	2.1003486899990347
id352	sample0	obj352	-1.919925759736699	3.3977071017440066	0.9529008970226298	1.7281512217558779	-0.1254281698727917
id353	sample0	obj353	-2.5346375971563715	2.749772740108277	-2.5677771454048925	-2.7999505126879027	2.088934851857963
id354	sample0	obj354	-1.700187892777823	3.0813089109469614	2.33738044814475	-2.8874462555829816	-0.10253533917955804
id355	sample0	obj355	-1.5035633200746237	-3.124448353808611	2.3862123002494635	-2.01890252019684	1.414630735676229
id356	sample0	obj356	-2.8324010073785626	-0.7054915201726035	2.779150854633796	-1.834347613428078	-2.212912860648785
id357	sample0	obj357	2.288025559054379	2.8977920286124297	1.702416075047457	2.671912501838495	-3.1097256720091186
id358	sample0	obj358	1.8159056449412665	-2.7296375765943943	1.7623621862628307	-2.7634708372123056	-1.1602024618212146
id359	sample0	obj359	-0.6088783956365645	1.0004097903684046	0.23360803532201113	-1.786943835308954	-0.8739177736905726
id360	sample1	obj0	-0.07435227943067813	2.638739332841026	-0.26554622487733637	-2.384116693686979	-3.36463053871428
id361	sample1	obj1	-0.03179327542099131	1.6158837378304778	-0.6733378334555078	-2.4427956802457946	-2.295147466594258
id362	sample1	obj2	1.0278915259094867	1.6448791141847228	-1.6309838998528465	-2.807633202984699	-2.957854153381012
id363	sample1	obj3	0.06855345159595383	1.2769786735016697	-1.6335505935387302	-1.8628595942445108	-2.4645292761014765
id364	sample1	obj4	0.7031470330369545	2.6398069695968944	-1.2441880940988064	-2.411133889493824	-2.65324802721203
id365	sample1	obj5	0.017864534225613182	1.4026783183202178	-1.7988119280272317	-3.252126070846725	-2.9375509566156373
id366	sample1	obj6	0.4964614604550197	1.3007954489951294	-1.7448975860125675	-1.9235195068428141	-3.2565929405376806
id367	sample1	obj7	0.792354744105541	2.5239942951902847	-0.6145790204085486	-2.311726150253431	-3.0589031625465433
id368	sample1	obj8	0.938659952865933	1.3626701219244772	-1.6598720784080934	-1.8751952902648854	-2.098668621589245
id369	sample1	obj9	-0.1565315337234715	1.7683205941095	-1.0831109030154298	-2.560642834587774	-2.7145634006122954
id370	sample1	obj10	-0.22158595950136262	1.3803378879644073	-1.364527273991655	-3.2552651768118945	-2.158011544576694
id371	sample1	obj11	0.9470022483777578	1.4708334785479895	-1.2822561833377464	-2.60447090146083	-3.276342647033489
id372	sample1	obj12	0.3543385890720685	1.466951912562767	-1.1738528706507556	-2.30829979798652	-3.147501850418129
id373	sample1	obj13	1.055854235165752	2.8518844839702275	-1.0135967791583944	-2.3389405663106757	-2.4927561360878348
id374	sample1	obj14	-0.4715451535807933	1.8731910588826346	-0.46236974866943537	-2.9200433868671194	-3.1231290424873697
id375	sample1	obj15	-0.20273015003758688	1.6766456728228336	-0.9476729976787878	-2.6742894205757373	-2.440036647082583
id376	sample1	obj16	-0.39607964107328175	2.837195319970208	-0.8863194440501279	-3.0523620956518567	-2.9217230819423485
id377	sample1	obj17	0.7820151971374023	2.7023296672446393	-1.6824514002382824	-2.852503815295488	-2.47054632176295
id378	sample1	obj18	0.3014882861896384	1.7487605065124106	-0.7047167711580424	-2.048674538251076	-3.2328762489060794
id379	sample1	obj19	0.4694724703494695	1.8573692774708837	-0.32963565233226566	-3.0653889366626044	-2.0692799556487147
id380	sample1	obj20	-0.02927839175548591	2.5354584369351034	-1.6693342202343422	-3.3420416997191067	-2.5587171170409695
id381	sample1	obj21	0.3592138725497884	2.286004044019847	-1.3918568900799153	-2.6673636564600787	-2.852591161280393
id382	sample1	obj22	0.9635504420744154	2.4924107720945887	-0.5771235572748241	-3.359031743054529	-2.1136370511413105
id383	sample1	obj23	0.5561733539388902	2.2307830715373043	-1.1922189028238392	-1.8128146972274524	-2.616709317949601
id384	sample1	obj24	0.49932223294274714	1.9415078682059912	-1.1520183272109308	-3.0234124040350374	-2.4645054144918683
id385	sample1	obj25	-0.31690245813472817	2.414556939771336	-1.3661094873185988	-2.833781200817295	-2.9670533059385207
id386	sample1	obj26	0.20205839473744214	2.5199260855370307	-0.8464982028646221	-2.8246611460101816	-2.010349007515816
id387	sample1	obj27	0.8905203125137866	2.5225929900644983	-1.7236281556108501	-2.309678648377163	-3.232785575517311
id388	sample1	obj28	0.7921921304701007	2.1618594126535355	-1.426732951666231	-1.92722100126869	-2.44890699910544
id389	sample1	obj29	0.7410675831231566	2.5745118378887666	-1.7394170886496083	-2.36670900994688	-3.09448707426209
id390	sample1	obj30	-0.033374013889672594	2.1514439751082626	-1.8285625699688501	-1.8573670046850967	-2.37591190955146
id391	sample1	obj31	0.2214609675431346	1.814804023357968	-0.6251199680162196	-3.0805406199683554	-2.2262718103247403
id392	sample1	obj32	0.5025088851514171	2.788916659631121	-0.7450066409551939	-2.315486212339723	-1.9113827635529406
id393	sample1	obj33	1.0621529875927653	2.439749932852931	-1.1881305630510837	-2.141779489771946	-3.2770962169839333
id394	sample1	obj34	0.4716960121735365	2.4261110802184787	-0.7294336875245044	-2.6225116807155304	-3.1456555774825707
id395	sample1	obj35	-0.07891332102707999	2.8176272116358865	-1.2787313213243645	-2.3796914099205178	-1.8894577019805197
id396	sample1	obj36	-0.24558323497233125	1.8914570384363416	-1.2719590240750436	-2.420187413221254	-2.8463135363253613
id397	sample1	obj37	-0.18536252893556998	2.4481532040306857	-0.9761582020977354	-1.925570525062257	-2.5771122811206646
id398	sample1	obj38	0.7922386281865919	2.238712032393442	-1.7300768600829843	-3.1057805695582097	-3.2656156492280513
id399	sample1	obj39	0.05535552269706712	2.7461719281255315	-0.5625673033576639	-2.1330888963632164	-3.3568799950812056
id400	sample1	obj40	0.3219773283074885	1.917715700201082	-0.567970246704731	-2.292792885587764	-2.036461781619254
id401	sample1	obj41	-0.3173092513942317	1.8236581478846583	-0.9823143582942085	-2.058898777019099	-3.453044432846269
id402	sample1	obj42	0.28376642243598627	1.8795208211539471	-1.4823793594179242	-3.3501617041693006	-3.0433683581266813
id403	sample1	obj43	0.5494443033902345	1.383173148951223	-0.8823976415147191	-3.3426957969316664	-2.366288824797998
id404	sample1	obj44	-0.20193872406494107	2.5923169260844388	-1.266346839943132	-2.783378527752912	-3.2033666479343106
id405	sample1	obj45	0.8532534975293407	2.424969405006333	-0.47835105241998943	-3.311890249712904	-3.1225502816048056
id406	sample1	obj46	-0.34208423777694597	2.2586248065715773	-0.2855956421724033	-1.8818902388990222	-2.49017376290068
id407	sample1	obj47	0.7789790946660125	1.3090040578489912	-0.38831149609129034	-2.2719702158014248	-2.7906103580705057
id408	sample1	obj48	0.1844317649442173	2.28830328612411	-1.015733353590725	-2.0680856675632837	-2.6834228391464903
id409	sample1	obj49	-0.15557355473116063	1.6021835256996453	-1.626423732944918	-2.829577915919169	-2.980677623412699
id410	sample1	obj50	0.9448445224535247	2.295971403180805	-0.8119132187542408	-2.5441078470363863	-3.4231776264497245
id411	sample1	obj51	0.9183951396285703	1.2802236006061019	-0.745181133679081	-2.7312584441624423	-2.0096556296150148
id412	sample1	obj52	-0.06573085903135034	2.5555123260670154	-1.1560204855286265	-3.34366942629287	-2.5983930367624293
id413	sample1	obj53	-0.09338683348545324	2.4425730522770928	-0.46474031421413176	-2.886777116770226	-2.7422275398615117
id414	sample1	obj54	-0.42630373453276804	2.1583873705205185	-0.6498900331832491	-1.9569869879525015	-1.8964218241729978
id415	sample1	obj55	0.7776753295999164	1.7379094207071808	-1.0256840215934764	-3.381839950709404	-2.590325112208252
id416	sample1	obj56	-0.321612921919615	1.2865510899812598	-1.7964987400164927	-2.107886358650802	-2.6891038583608395
id417	sample1	obj57	0.1276669428587136	1.3867806253536723	-0.9501438777592626	-2.3709879416428925	-3.176988425064742
id418	sample1	obj58	0.6023808036557716	2.824821009166385	-0.5345127055967918	-2.623069803095561	-1.9294132996075324
id419	sample1	obj59	0.2587176291745884	1.8270257553222722	-0.2946336174184676	-3.377374945760133	-1.9440596037889122
id420	sample1	obj60	1.0663900247218223	2.0016181486818527	-1.7650088829049724	-2.6444722815053305	-3.1810753074242824
id421	sample1	obj61	-0.4267086710937612	1.5966733519052982	-0.8263788667695222	-2.912075123885618	-2.5065911028781658
id422	sample1	obj62	0.32792129695308103	2.4610566134016123	-1.7326258414664333	-1.8965722524370454	-2.7020018653129387
id423	sample1	obj63	-0.4374182974952352	1.3080765681465003	-0.6533687403268051	-2.0615040860301885	-2.430287340386733
id424	sample1	obj64	0.9540222896104316	1.5334233821676508	-0.6968378570354179	-2.531459886664398	-2.650834236008822
id425	sample1	obj65	0.39394498075709394	1.6561072019816665	-1.6867911223167118	-1.9774753144562454	-3.131735214604645
id426	sample1	obj66	-0.29138255280206293	1.6851518727781887	-0.852482581776124	-2.6354025949711657	-2.1843162349815457
id427	sample1	obj67	0.8788639526374968	1.9422939869847458	-0.5129514048729593	-3.240350667912641	-2.3746169518261424
id428	sample1	obj68	-0.4320417270092861	1.993455245706575	-1.7321111516411776	-1.9915859893531078	-3.2616607860178424
id429	sample1	obj69	0.6294999497415019	2.385851683761138	-0.8002113648701381	-2.4516816372647816	-3.358536383861836
id430	sample1	obj70	-0.37072452210485185	1.4048478240556537	-1.146166133298476	-2.9546451228902995	-2.170508954252842
id431	sample1	obj71	0.888451860616287	1.7316115715724951	-1.0649234449913014	-2.1486751266306636	-3.2705265387630638
id432	sample1	obj72	0.07928418903348933	2.100845994264227	-1.6904311592509864	-3.3035389494818332	-3.3375190100204915
id433	sample1	obj73	-0.15709584771360935	1.3539245996003952	-0.2687720763048187	-2.218755519422502	-2.7927448275817994
id434	sample1	obj74	0.44075423487678766	1.308201628536973	-1.3736325366660804	-2.1002585033779573	-2.4850597711833218
id435	sample1	obj75	0.6109071818756617	1.3946730159680714	-0.5183716300831505	-3.2284317241957012	-2.433299048285559
id436	sample1	obj76	-0.18307855959181457	1.7550843684153024	-1.591511667522826	-1.892795700112748	-3.2439206254600976
id437	sample1	obj77	-0.48590222092220847	2.662586930110659	-1.4864084469016345	-2.0666159505312924	-3.270584860216299
id438	sample1	obj78	-0.1949221777911223	2.688691525949071	-1.297124184876763	-3.061739125042087	-2.1303876012506766
id439	sample1	obj79	0.32772780183642336	1.260125894453904	-1.4720513029018758	-2.838477899189945	-2.374953523302091
id440	sample1	obj80	3.637576418734437	-3.3153313335982006	1.9115467617627715	-2.411769021187946	-0.5461072864187659
id441	sample1	obj81	2.410768996880659	-1.8559091143366029	2.6353127500309084	-2.7228265274444237	-1.1965999526076854
id442	sample1	obj82	3.5627002056811596	-2.563111974999507	1.4274001690813605	-3.433469666839128	-0.746155764743508
id443	sample1	obj83	3.19807428653624	-2.2907065185909294	2.7117863732588354	-1.9051560000148515	-0.570557110694702
id444	sample1	obj84	2.771454447483278	-3.052106579819377	1.5049596291716676	-2.4821928976733045	-1.2034933320013317
id445	sample1	obj85	3.1551858325719513	-2.9586264003998117	2.2926544884694233	-2.3948078181791166	-0.3474463461796866
id446	sample1	obj86	2.7411583471003556	-2.025117272463085	1.2804391058915066	-3.397680189220929	-1.3392128221682769
id447	sample1	obj87	2.3861976274409953	-2.755582794145493	1.750482897623709	-2.0866758025336463	-1.274860360994993
id448	sample1	obj88	2.455020522319833	-2.1703377478140693	1.8557664438867911	-3.483051387376053	-1.1936379555345487
id449	sample1	obj89	2.9983877124526255	-2.382410201658813	1.6292891188058272	-2.897780880020799	-1.8349033485702648
id450	sample1	obj90	3.4163974214287336	-3.122631000832668	2.4935522718925656	-2.0123286837402583	-0.47743784160081226
id451	sample1	obj91	2.511851072357256	-2.1736367184986394	1.6638039195606962	-2.93460272625595	-1.0825242407480296
id452	sample1	obj92	3.275345754339733	-2.001280165142693	2.611291545777938	-3.383393502032669	-1.30180538434987
id453	sample1	obj93	2.6262749021693343	-2.7411241108642224	2.1791426148896353	-3.269784439886011	-1.0641586307638513
id454	sample1	obj94	3.351306822544638	-2.3562337210960003	1.5375417395498543	-2.203241781670998	-1.2835484344309624
id455	sample1	obj95	2.2482257570311486	-2.5538144612062155	2.7656604700792644	-2.751795124379062	-0.26799744882264176
id456	sample1	obj96	2.7373231367864124	-2.530804482261815	2.2193841373265064	-3.003340063366863	-0.6693811679597521
id457	sample1	obj97	3.608880190539294	-2.285761521215226	1.8753311156327792	-2.557071154751353	-0.380638261170525
id458	sample1	obj98	2.922750307011012	-1.8347184626458322	1.547037822206426	-2.843822927427539	-1.0221402861393436
id459	sample1	obj99	2.4786927551726397	-2.025562107511712	1.5875474857026113	-2.2300954068619756	-0.39831299427505074
id460	sample1	obj100	3.5729892550940963	-2.057347802385019	2.2880573671244724	-1.9762096341742206	-0.6600878449928365
id461	sample1	obj101	2.7120584670575463	-2.251239701712147	1.4438087281981005	-2.3428110103496946	-0.8643224030648204
id462	sample1	obj102	3.4563271490164613	-2.336899384471652	1.800108889791224	-1.9952545774179093	-0.638900793840206
id463	sample1	obj103	3.631588451362221	-3.235571137580109	2.352318415901241	-2.840703302092618	-1.0777459247935384
id464	sample1	obj104	2.5095370835115967	-2.437267537708726	1.5178810809093777	-2.5214848658314635	-0.6143839544636691
id465	sample1	obj105	3.2881805120433434	-2.6577837728877913	1.7150815976535987	-3.028821892699776	-0.3419327554346083
id466	sample1	obj106	3.685449464645134	-3.070198104927813	2.6862498401888972	-2.016915273990268	-1.6223811427346462
id467	sample1	obj107	2.2096290700188685	-3.2584883333245944	2.531651529917592	-3.386951396022573	-0.2947174125665406
id468	sample1	obj108	2.927270577695312	-2.036347296770681	2.338378831804571	-3.447367886014955	-1.8607968234175027
id469	sample1	obj109	3.277080500329882	-2.1856505358857845	1.4852386037936722	-3.389077629654235	-0.28574080284410397
id470	sample1	obj110	2.7659861675045403	-2.8447569422608767	1.4939996182649384	-1.9657618722862986	-1.557077167087971
id471	sample1	obj111	2.2452037808672367	-2.8403409568838063	2.318457273384232	-2.4382330880020087	-0.8396948204816619
id472	sample1	obj112	2.4387504196344034	-2.90620541305052	2.5796783168829167	-3.201676420052295	-0.7529387940908019
id473	sample1	obj113	2.9485074406178278	-2.9419421018936363	2.757548288849592	-2.913743293011607	-1.4677470545219262
id474	sample1	obj114	2.677723189235884	-3.381829971048587	2.749437608295694	-2.303426333547665	-0.936568477077679
id475	sample1	obj115	3.412797070920984	-1.993426489126017	1.8454772947170457	-2.7638328581684983	-0.8628378185979304
id476	sample1	obj116	2.8203811593803243	-2.304355646077755	2.5106661774301435	-3.189829067035837	-0.7009571676559239
id477	sample1	obj117	2.3173306116805126	-2.9382595252382617	1.7958721979765127	-2.8624879510889785	-1.437981709185091
id478	sample1	obj118	3.2438902004383814	-2.275200886393783	1.6368090414574135	-3.3297773269262794	-1.40546668588394
id479	sample1	obj119	3.129789600764399	-2.9614172119542497	1.581324789709151	-2.285408878334083	-0.6401407817661637
id480	sample1	obj120	3.727690027855198	-2.276670128714812	1.9748964134725642	-2.178670792312734	-0.7661676349789515
id481	sample1	obj121	3.362748895676172	-1.8979458983936122	2.4211447488392026	-3.1458246026961936	-1.695676174791343
id482	sample1	obj122	2.60000359666235	-2.7243787359977403	1.8325290891517976	-2.3616968758886463	-0.7989216819272422
id483	sample1	obj123	2.376888390121299	-2.773429983751423	2.5352161763396044	-2.066877873145206	-1.2168210018979648
id484	sample1	obj124	2.825546771141549	-1.8209950574756997	2.7555028850290983	-2.604888094601169	-1.1876214356963666
id485	sample1	obj125	3.7827538432574497	-2.411669791701081	1.9821694903187181	-2.953227637380371	-1.6220555817074822
id486	sample1	obj126	3.543276092290918	-2.7583206669283276	1.4838159387943006	-2.2758217309813604	-1.148436887913454
id487	sample1	obj127	3.7694356100980135	-2.005810335409409	1.7016443800318548	-2.2604525614830937	-0.5967032676232986
id488	sample1	obj128	2.964575173918547	-2.9506680909015404	1.3003654486755527	-2.8067640629614226	-1.8093559087511806
id489	sample1	obj129	3.0150970025427677	-2.460098198029126	1.6319815447971262	-3.046777469435135	-0.6435028032906229
id490	sample1	obj130	2.5938425081511918	-3.0684320677145194	1.4632030116007275	-2.033999669285249	-0.6227429641909024
id491	sample1	obj131	3.6108465052243464	-3.170381915774041	2.576243324143497	-2.927581167646681	-0.7463504521255298
id492	sample1	obj132	3.435005968154197	-2.3766887515557897	2.1387804045368926	-3.1980233659969453	-0.9770788545081434
id493	sample1	obj133	3.2560105956212757	-2.122409257205393	1.741026749693582	-2.4390826786223743	-0.8938430375655105
id494	sample1	obj134	2.9990521791212337	-3.369594170494177	2.430179724928708	-3.410210390404299	-0.7724801470611995
id495	sample1	obj135	2.4594259014932653	-2.147910330503465	1.7740938224757823	-2.2535394157321793	-1.4826899347172062
id496	sample1	obj136	2.329220948332683	-2.5272907608975896	2.720884528114084	-2.8025169474397194	-0.47303640735143326
id497	sample1	obj137	3.007932730307062	-2.0893953390383313	1.2784070900530828	-2.5742292931800157	-0.6444999527529163
id498	sample1	obj138	3.7120775556527663	-3.2079688858792648	2.4312113521002496	-2.137701745758662	-0.8474390252553579
id499	sample1	obj139	3.1398140261789957	-2.8855320813067866	2.7817211003936695	-3.4744249616676086	-1.7128866532755782
id500	sample1	obj140	2.244238692661111	-3.2236668277356983	1.6110830401961613	-2.168496553941584	-0.857814326284505
id501	sample1	obj141	3.48748609968412	-3.199905221961738	2.792442401419401	-2.930507703035701	-0.371272652988033
id502	sample1	obj142	3.1760893897131632	-1.934331066395633	2.3693878710200336	-3.2950901723256436	-1.755110171714573
id503	sample1	obj143	2.33031089297848	-1.9768984721044935	2.674033509535644	-3.0353039252978533	-0.8952116713477463
id504	sample1	obj144	2.355391723455784	-2.1305957851166832	2.366731683333776	-2.681229357983893	-1.587823296505174
id505	sample1	obj145	2.22496067766481	-3.019376744821479	2.6217987811794683	-1.963666588460341	-1.3264837398072207
id506	sample1	obj146	2.74524816251315	-3.361677959240602	1.4749514366041303	-2.7501765325141982	-1.8292922312314257
id507	sample1	obj147	3.057329870967525	-2.9437839612219414	2.02745269846687	-2.4982599418948155	-1.1896572835420822
id508	sample1	obj148	3.492444755133733	-2.9007220837498817	1.83332248326449	-3.09270205070865	-0.6772173984570811
id509	sample1	obj149	2.9865504240659795	-2.6792089668610384	2.368433079643341	-2.5094444593697998	-1.6852486913372726
id510	sample1	obj150	2.9737621326028365	-3.0258661753456986	2.107953119352319	-2.4802264816563335	-1.37750853538394
id511	sample1	obj151	2.2282298935723834	-2.8379097917526184	2.2604851976455604	-3.119095621985862	-0.7670479602483313
id512	sample1	obj152	3.649404804763016	-2.331237620269313	1.5874235902637264	-3.287165132499726	-1.0729963015678379
id513	sample1	obj153	2.750593780248824	-3.1957242955136094	2.863604040177238	-2.7641283454807573	-1.3346160599051695
id514	sample1	obj154	2.404261578256012	-2.768025971250572	2.0242882708973227	-2.387465766098719	-0.5759824294437668
id515	sample1	obj155	3.7337766995504404	-2.1817320573373933	1.4329855022421971	-2.411436016331036	-0.34539745196822347
id516	sample1	obj156	3.359272324839436	-2.651715920355978	1.6586228384162849	-2.5012666926708036	-1.7120412332446628
id517	sample1	obj157	3.269068147640575	-2.087470391917777	1.4581996384677112	-3.1618900298732164	-0.37432888881642534
id518	sample1	obj158	2.4867394815951043	-2.5575027297010604	2.236360789315349	-2.02854049128943	-0.48092110850956904
id519	sample1	obj159	2.451483098622561	-2.4669449758918196	1.5353603846838326	-2.0169849405374904	-1.422262105317535
id520	sample1	obj160	2.013730485269746	2.2182322291927274	-1.3891899639727667	1.8257388555815983	1.8542149435350017
id521	sample1	obj161	1.9943347921548242	1.7704687373419772	-0.3822842392043697	1.5756159193464045	0.6850919443413435
id522	sample1	obj162	3.1080554148683195	1.8060047096384269	-1.6512886161565332	2.5665734525014425	1.7581910749679068
id523	sample1	obj163	2.9298246004657464	1.0506320457416007	-0.7519505513478364	2.442582196942517	0.8112092983146675
id524	sample1	obj164	2.666543044102215	1.4422466483236687	-1.780460143906963	1.8933659970842747	2.0004376696203154
id525	sample1	obj165	3.20990476455305	2.155918074248806	-1.6413722360945906	2.2390500110007414	1.0598971869490779
id526	sample1	obj166	3.2707725826419756	1.5118748344945898	-0.5946493262158934	1.707869017238974	0.8162446641665329
id527	sample1	obj167	3.3921007974331383	1.7605482771056198	-1.291976422610596	1.9537461740039368	1.7074828525465944
id528	sample1	obj168	2.2831092107795694	0.9539113077739925	-1.0870049449150145	2.5030865516403447	1.4103495829128112
id529	sample1	obj169	3.227674557917124	1.1552748294921187	-0.6063249663581516	2.510811555388596	0.943280012141659
id530	sample1	obj170	3.2837774161003788	0.962024477589833	-1.3836813947944746	2.3210454759261205	0.7180908670754922
id531	sample1	obj171	3.1223920715373046	0.6940590752444499	-1.2501782816703655	2.669522968875949	0.7280937778823904
id532	sample1	obj172	1.8924942355067937	1.1364878000422598	-0.2738927783837546	2.259274893919037	1.6722633638756914
id533	sample1	obj173	2.6079499333316862	2.045023906526291	-0.5643844870420833	2.7400320055781124	1.9384332147168946
id534	sample1	obj174	3.1209995142725733	1.4780346431268387	-0.48697441007047115	1.8016274299524497	1.7423263413379968
id535	sample1	obj175	3.189928831920273	1.8869399107016533	-1.7293179402723313	1.8540370865453986	1.0076118020301772
id536	sample1	obj176	3.2043844980576095	1.1781500433121763	-0.6646454670949069	1.4381402754326125	1.9641771483030717
id537	sample1	obj177	3.2647063846066504	1.381567558678597	-0.4730301722922452	2.2433673241354404	1.8514816153299731
id538	sample1	obj178	2.110680982671383	1.3744031068119231	-1.3001038052357958	1.2776958220915584	0.7802656007897586
id539	sample1	obj179	3.3743228652671804	1.4912400653136308	-1.4127116845155279	2.3435189073095204	1.4931064967225018
id540	sample1	obj180	2.8297368918303296	1.9034860970385594	-0.3890209444727921	1.4463036110039158	0.961387157452465
id541	sample1	obj181	2.494857046659142	1.8001344459736466	-1.067502851143215	1.1532478061056262	1.8772440682668239
id542	sample1	obj182	3.2939656714704784	1.998688586302517	-0.3609431881916103	2.6028888569726973	1.6830554702790876
id543	sample1	obj183	2.730430808060839	1.9367402935346842	-0.2791275627628398	1.9453847415944394	1.4920678872243969
id544	sample1	obj184	2.785120309626122	1.4425976732437316	-0.233042504970556	1.6935347536823242	1.880916651919363
id545	sample1	obj185	1.9115244786507284	1.5840986712521676	-1.0252624862449171	1.3381006863192781	1.3921243296769656
id546	sample1	obj186	2.9328047279240526	1.4998779631768615	-1.0515975309219336	1.5041878426856483	0.5112312584113649
id547	sample1	obj187	2.7728467827206926	1.0034458762376819	-1.4089910557438057	2.2999144094932746	1.0430802473248928
id548	sample1	obj188	2.3119978662964495	1.6190471566079037	-0.5600236801396776	1.860899607765539	1.0940114686272495
id549	sample1	obj189	2.012566394988759	1.3859592002437913	-0.7561294858200485	1.6757950907888195	1.6853810054060443
id550	sample1	obj190	2.398428519746646	0.8062257883641979	-1.0557075656492512	2.6657381763843473	1.5179639926599322
id551	sample1	obj191	3.4112737372734028	1.1863647951372744	-1.0506494446617087	2.285776348842271	1.0405003390532366
id552	sample1	obj192	2.042201050445712	1.7379022861835791	-0.9713395494226823	1.945567746847315	1.937951762536684
id553	sample1	obj193	3.115605232526243	1.681229289432653	-0.5868595444510469	2.561559946960365	1.9600261836404225
id554	sample1	obj194	3.271635159024137	1.893816620236367	-0.2398752759202838	1.3299558457663467	1.6972492593387964
id555	sample1	obj195	2.9680237017348055	1.9338208811523476	-1.515444829528106	2.2506505000324206	1.0443892403961774
id556	sample1	obj196	2.3408449529358015	1.6551287290500545	-1.1756939774463238	2.463529874627647	1.3584302482095816
id557	sample1	obj197	3.390811686673727	1.7364860521941032	-0.5089021645953109	1.331624329138538	1.734603174159815
id558	sample1	obj198	2.886145170773495	1.2271001067920484	-1.6279604601770465	1.1971687036983805	0.5282872909024117
id559	sample1	obj199	2.8088970372923	1.7405525112406113	-1.070345457885186	2.548198864086645	1.1069483169227685
id560	sample1	obj200	2.057935084885656	1.2095798761939496	-1.13563293120407	1.1914755927497147	1.4137468608555488
id561	sample1	obj201	2.7226920451529555	1.6728302996412845	-0.25809283787391535	2.2838306988781745	1.777092971331254
id562	sample1	obj202	3.1462727622199664	0.8526484432230266	-1.7369984347752807	1.205043066679052	0.7473046642540058
id563	sample1	obj203	3.118690569602311	2.2768459560035	-0.9968860671576371	2.6626336841767655	1.5467088739837014
id564	sample1	obj204	2.7199154455124575	1.098834865792227	-1.3600539530306777	2.4290813498419084	0.47206981013131655
id565	sample1	obj205	2.3321296547615686	1.6060065124784995	-1.2950284777488708	1.3764704332137432	0.9021998507194611
id566	sample1	obj206	2.6501634395650804	0.8273867957866596	-1.3434887467170367	2.569045502376282	1.5780673598160753
id567	sample1	obj207	2.3525846942128266	0.7349542506174962	-0.7851664835618971	1.202133206714982	1.4017258427358237
id568	sample1	obj208	2.792408221377337	1.0801335800581113	-0.611461811627467	2.3629584519037152	0.9330130297666386
id569	sample1	obj209	3.289930028013539	1.8444328538024797	-0.6548768574945554	2.0865925177529316	0.7632656091585408
id570	sample1	obj210	3.3498479157141965	1.0625461444600095	-1.7488049511385626	1.4651896059120255	0.6523349132352798
id571	sample1	obj211	2.0946590474024207	1.774051203989997	-1.6316589781586768	2.2423552225336074	1.4930254538913792
id572	sample1	obj212	2.2453946224101777	1.3776599903751707	-0.6967200136504332	2.5135113062370187	1.9047800320504802
id573	sample1	obj213	2.6531200323129633	2.126391353329847	-1.4353695139481455	2.509034427956431	0.7700628223972847
id574	sample1	obj214	2.579362687546216	1.064589028011446	-0.8124757648946381	1.9363180950481111	0.4515065419636085
id575	sample1	obj215	1.8547876053061487	0.8449703100494524	-1.209574111734717	1.9012982846831126	0.8295564775822327
id576	sample1	obj216	2.852087319722856	0.7774226088008961	-0.4100486153523113	1.2459557432987995	1.6681241344880777
id577	sample1	obj217	2.3552508473398417	1.4776285186988136	-0.2917280245587204	1.3774257537652943	0.863717214288529
id578	sample1	obj218	2.4821868566453924	0.8543576082023971	-1.0220869241038542	2.403170083550359	1.100708156043956
id579	sample1	obj219	2.335162363545357	1.4759790701375604	-0.680535342602016	1.426760290762296	1.0858959726757218
id580	sample1	obj220	2.8527442409250314	1.290983027274385	-0.29701814792095527	1.7267476721232917	1.558375222634773
id581	sample1	obj221	3.181955097542678	2.270615681779316	-1.5072741553406874	2.2884149618047243	1.4800084983558837
id582	sample1	obj222	2.069245154845334	1.945694691727133	-1.4685543311773361	2.361483350284889	1.7465710042117586
id583	sample1	obj223	2.497695876106268	1.5008383831248828	-1.3163119740284168	2.277645220380307	0.6839581583371565
id584	sample1	obj224	2.614673699193747	0.8692816721582659	-1.1082893211447646	1.506671615666364	1.6967827183939759
id585	sample1	obj225	2.963007452025873	1.6667198959232898	-1.2084735607535475	2.2103679310561026	1.632300584410521
id586	sample1	obj226	3.1387279048352497	1.2647873292590477	-1.195518403320932	2.6463818567144317	1.1499518779197895
id587	sample1	obj227	3.363552914330783	2.0103970711433057	-1.2993610134110116	1.4803670361713779	2.0099579114592667
id588	sample1	obj228	3.119681100569017	0.847811648161108	-0.8118492131171899	1.3118396082178254	1.8024252396502438
id589	sample1	obj229	2.512139587484838	2.0225346801683552	-1.6931629013044187	1.9577901225003822	1.245350308395547
id590	sample1	obj230	2.4889767208484255	1.6914829268765246	-0.9916092185962615	1.8452984614787733	1.324844277332796
id591	sample1	obj231	3.0760609167969775	2.0089715432636392	-1.2709272934086018	2.7416015270410714	1.297877753093128
id592	sample1	obj232	1.9102067646523109	0.8043899065588125	-1.0324934079552601	2.2238502038902204	1.5159362032923174
id593	sample1	obj233	2.4458587468721498	1.8416210090940988	-0.2407106917045687	1.5127205298665698	1.4712453277911393
id594	sample1	obj234	2.455687239966638	0.9038281925716488	-1.4943330987073111	1.4406826436527622	0.8547314751780328
id595	sample1	obj235	3.358249359822527	1.3567606769327152	-1.1954524152237451	1.5986357338741297	1.510688957273051
id596	sample1	obj236	2.7254055204126137	1.9107762898961462	-1.3873040859093506	2.4303576134135803	1.4662964416226185
id597	sample1	obj237	3.2125203960570223	1.2529086430464669	-0.3728618049810233	2.674348997807046	1.9187208295160583
id598	sample1	obj238	3.404677891716287	2.2070806981427795	-1.4743300219421809	2.2637437198078283	1.7176306798425842
id599	sample1	obj239	3.096267898182459	1.3795459075773449	-1.110042305325	2.4885651045734987	0.9505762294954828
id600	sample1	obj240	-3.147982359902492	2.5797131534832394	1.867418069024458	0.4006785652469327	-2.457676488248637
id601	sample1	obj241	3.3010301965713893	-1.5612727451773094	-2.8147335566059533	0.6017636388519676	2.4269959624987796
id602	sample1	obj242	0.06754763688884968	2.5639884881832233	2.2642614968631936	2.5177434691145146	1.718765353722541
id603	sample1	obj243	1.3784547808157326	-1.1875267026666334	1.6109862852621173	0.4998626341819712	-0.8497056447956401
id604	sample1	obj244	2.260986201827077	-1.1859852281443397	-0.41498818747221433	-1.7263032938847331	2.5521665107996947
id605	sample1	obj245	-0.8678779899949176	-2.5632984980160747	-0.723797621636161	-0.37973695759733406	-2.4066880221236953
id606	sample1	obj246	-1.7929546565500336	-1.1323804473349701	1.1574300401232365	0.03759621808062663	-0.8116504925773124
id607	sample1	obj247	1.7859324326507942	-2.6752029806260973	-1.757542109061073	0.6608311638731086	0.9713510976374597
id608	sample1	obj248	2.405635917309683	-1.464937509432516	3.3724605734131234	0.6651717525441938	0.9651205569783714
id609	sample1	obj249	2.2285972705325037	-1.0128958902854999	-3.173782406390474	-2.182808143668552	-0.15812617234151705
id610	sample1	obj250	0.10569479880281307	3.2879197556845163	2.600909289054731	-0.03085499960416771	2.8343805909110085
id611	sample1	obj251	2.3699974604746785	-1.7513892505579551	-2.164943368914425	-0.32667345014731347	0.7477864426898131
id612	sample1	obj252	2.441719976218879	0.6641732873742722	-3.224003617283892	-2.5944155664135105	1.4397120202935292
id613	sample1	obj253	-2.147394500227794	1.3844695007605052	-2.644175992004213	-2.237551497902928	-0.6145739188876069
id614	sample1	obj254	0.9377558366955758	2.104433175352714	-2.1774321912460617	-1.3523928295952246	1.438707316102175
id615	sample1	obj255	-2.0593669112506934	0.3781397881452029	-1.483729935649114	0.7002244944782963	-2.3306134868412114
id616	sample1	obj256	1.3535178243131192	-2.0274940066474945	-0.5487037373281096	-1.5558897579076094	-1.2846316564198117
id617	sample1	obj257	-1.1362781882536492	1.429208660965769	0.8295333543935779	-2.2757175883993153	-0.8688560182353883
id618	sample1	obj258	2.162475155527007	0.935698375912677	0.9387164762016129	-0.6857313618448531	1.8015091857437064
id619	sample1	obj259	2.5820358819401905	-1.0201482851077501	2.5001382156604226	1.5468199162133147	-1.4767463357913324
id620	sample1	obj260	2.3577539790532267	-0.8287385300970653	0.25837992754902195	-0.8355985022845822	-2.5078566235995545
id621	sample1	obj261	-1.148799609957655	0.3218454176016783	-0.5128579784648146	-0.7008846014322279	-2.271648484655052
id622	sample1	obj262	-1.281115482473543	-2.687677435814524	1.8332823821561623	2.981765447070109	1.7643544860632803
id623	sample1	obj263	2.560012920818318	2.429497238912201	2.027367017685394	0.6885189835063164	-2.6838668322666503
id624	sample1	obj264	-0.3010833787382854	-0.939144309074228	-2.365541625145238	1.4524883228774588	-1.587155871257154
id625	sample1	obj265	0.6712946308296017	-1.1539769564221436	-0.8194186265881191	-1.0604645882907504	1.8944830045872847
id626	sample1	obj266	-2.9657936190635996	1.7067860994867037	-2.1865361128681053	-2.620493081362482	-1.8123268516685516
id627	sample1	obj267	-1.1845204128180697	1.4087177886643636	0.5491419484722451	0.5591027693178441	3.1243087248018995
id628	sample1	obj268	-2.1660544681736966	-1.2499668354671876	-2.845671616404858	-0.42887543779292836	2.4188656440988443
id629	sample1	obj269	0.8851497940963549	2.777452143920945	1.6457927146509417	-2.670938400339576	-1.20851521691546
id630	sample1	obj270	-0.3622853176703964	1.6937525655776378	-2.7408502909242642	0.48046366761026305	-0.1345192413761952
id631	sample1	obj271	0.8930199606338238	-2.653978698071928	-1.047372792820205	2.531829118870702	2.552450563139498
id632	sample1	obj272	-0.8298057730629056	-0.45143198865030315	3.2052999089408987	-0.3317497011792754	-1.9708149259378627
id633	sample1	obj273	-1.9590430528254281	0.4498922647869647	2.467968899212778	-1.2271387582017512	-3.0899853701317244
id634	sample1	obj274	-1.1253865325726018	0.8642581478615813	-0.8356197213357646	1.5223451401088608	0.18871941547627724
id635	sample1	obj275	2.777303308770356	-1.111118300387992	-1.2687842267854317	0.058835167777778974	3.2691289732975077
id636	sample1	obj276	1.0412711672790056	-2.1889672950985712	-1.544398187227608	1.302324430926243	-2.0248325808089307
id637	sample1	obj277	-2.7133638153940898	1.9799603972451472	2.2223231605143683	-0.6244531670107365	0.5238802871006507
id638	sample1	obj278	0.7039579787709306	3.3097374082491093	1.889835158836528	-2.5899800063660994	-0.7794675777389319
id639	sample1	obj279	-2.7285278653473437	-1.6668292235013191	-3.3548302304694855	-1.4949861145207952	-3.289467275674127
id640	sample1	obj280	-1.2364270194963307	0.02044050998898639	1.7846606448674875	-0.14014519923533242	2.7445411716744488
id641	sample1	obj281	1.6793930567669015	-2.3392342648274953	3.333884324983292	-0.7833623246744887	1.5197325973228148
id642	sample1	obj282	0.7176748945201779	0.06259470411807544	-0.7259584773976133	-0.1518213939423042	3.2474778341436235
id643	sample1	obj283	1.0028392699939976	-1.2864177457809753	3.06927164140589	0.6527054597301658	0.46116137849237837
id644	sample1	obj284	1.4968219243357412	0.664093196741268	3.15261542282857	0.1942755304615087	-1.3089630041704612
id645	sample1	obj285	1.015839796319732	-2.187584255818985	2.424897850742723	-1.715023576791378	-1.7787699060713928
id646	sample1	obj286	-0.5843530207363095	-2.325944498622892	-0.22980724229457528	-0.45091288127150686	1.363824634553688
id647	sample1	obj287	1.9914038565717882	3.469746561324011	-2.0139844835661393	0.2630076273856752	0.9939705841722188
id648	sample1	obj288	-1.2624577327344466	0.36699737849956326	-0.6684212965919996	1.6591959006911585	2.2756710816665935
id649	sample1	obj289	-1.426778476102	3.193895912388176	0.4113552471822919	1.1697195640285256	-0.9278465223821433
id650	sample1	obj290	2.5585043505784695	-0.3402507497448687	-0.6819024918695608	1.4542269674309216	1.952297587148741
id651	sample1	obj291	-2.495153105977019	0.12279243066348622	-3.4703097459937022	2.3173508083226144	-2.9578620502473476
id652	sample1	obj292	1.4816826562212435	-1.5115267773920171	2.064777042799899	3.446178135121916	2.8535927123204656
id653	sample1	obj293	-0.5801876241829549	-0.12213198855840779	-0.744023844397841	2.272966357604394	2.057205543387278
id654	sample1	obj294	-1.2208158698803142	0.28557795613962156	1.6396851647175907	-0.45893241793916173	-2.0742129159507328
id655	sample1	obj295	2.0114607057985827	-0.24391598096676748	3.1101147565719067	2.765106364329675	3.1383364704801924
id656	sample1	obj296	2.3340529338916753	1.7135597048791587	-0.7814606514443222	1.6444379289421776	1.1708840081086342
id657	sample1	obj297	-0.8082526262153413	-1.486193157429474	0.10315213988353633	1.5894353243531585	-0.6988109370209561
id658	sample1	obj298	0.901432741763287	-1.8923649806595106	0.5766099796193715	-2.459396863980283	-1.0721020051587902
id659	sample1	obj299	-0.4194530884698877	2.930502927945227	2.7275783717745967	1.9333991978310379	-0.9785685890498158
id660	sample1	obj300	0.0878260843678611	-2.467397093503819	2.689535832622643	-0.290704711746792	-0.686416536987784
id661	sample1	obj301	0.316735312490651	-1.105145843641055	0.6882578719224206	-1.3301571109749797	2.471260232314508
id662	sample1	obj302	1.5733594274409954	1.1397770637103652	0.40902990210084056	-0.7854791539962602	-3.1143689835727466
id663	sample1	obj303	1.6264705366660657	-0.5890037008618687	-1.7534119072963885	-0.3113664485459444	2.327381373092935
id664	sample1	obj304	-0.6571213003404626	2.7440172690639217	-0.3113448990446732	2.0171628224974856	2.180129192079685
id665	sample1	obj305	1.768353186585621	0.1769697900454339	1.3997062290165814	2.6236334011947364	2.073120853798289
id666	sample1	obj306	2.415108255907951	-0.9754389445879246	-0.7722838332540845	-2.1478638089577995	-1.632513893284501
id667	sample1	obj307	0.8139747841400886	-2.7412649558241773	-2.9753407805963517	-1.8112905025552934	-1.128359619277002
id668	sample1	obj308	1.3513338994083108	1.2509759477960611	1.5454225896184628	-2.7315982768351197	0.3158308822503353
id669	sample1	obj309	3.198955550425699	-1.4924400331875012	-2.0011515241655298	-1.5215684901496598	2.6191496777666696
id670	sample1	obj310	-3.6087880226548252	1.380306252750538	0.879166179325213	1.2203398404268941	-2.3842764782799835
id671	sample1	obj311	2.0458913297704813	-0.6986756238374039	0.4459908377578301	-1.4469817631037243	-1.3890139258716294
id672	sample1	obj312	2.127159110108844	-1.8346520239030724	2.925090645519817	-1.9449283612074801	1.3911462641662742
id673	sample1	obj313	0.13736865617499772	-0.8948756928621885	0.703225487024784	0.6680346616957185	2.5526877071906657
id674	sample1	obj314	0.03295632967483808	0.8276381310993345	3.3299467731768586	0.5642473571667249	-2.0957176821512586
id675	sample1	obj315	-2.1061739826055144	-2.6639194896560086	-0.31942938516328057	-2.4988695534704544	2.5746553566518577
id676	sample1	obj316	2.3680009388703485	2.7216527899755323	0.9431015162593184	1.7313064047225986	0.7793634569341477
id677	sample1	obj317	2.6457415063052174	-3.4072112048165817	-2.1218732717929423	-0.3366636685373283	2.4833966361097692
id678	sample1	obj318	2.36616340618259	2.357074004247254	-0.4921749449327866	-0.5543005811907165	-0.4335631831339921
id679	sample1	obj319	-0.6906422234239042	-1.8985289890954242	1.197455332195537	0.07242353581854344	-0.10587853002555203
id680	sample1	obj320	2.586265372706481	-0.16924325407145902	-0.8082918751316269	-1.4177475284327394	1.200622115914902
id681	sample1	obj321	1.9756299946994078	-0.7125769281402381	0.5583702428185873	1.1406505150330173	-1.2031856764697304
id682	sample1	obj322	2.167379708398328	-0.5050858677949293	0.02607064703040518	-1.9662889835018211	-0.13365193127684827
id683	sample1	obj323	-0.23225796926560793	-1.130608470039959	-1.3933192226943296	-3.062282380913346	-1.8622022391731672
id684	sample1	obj324	-0.7672192571983116	-0.732510532696758	0.1611128461699285	2.183205743049289	-2.3519686768811723
id685	sample1	obj325	-3.253406979145191	0.1823654750021516	-0.5633323314967811	-0.6005146513317954	2.4469315978656163
id686	sample1	obj326	0.47653234192142013	-2.642096220575052	2.083641577696149	1.7254215284574503	1.2562465761202946
id687	sample1	obj327	1.7480586040648234	0.06602972187653455	-1.5125496128961278	3.1503197900976545	-2.7285913083727897
id688	sample1	obj328	-0.07868157744729598	0.33599620634011007	1.9348223303928835	-0.1460061853246546	0.4389109524390846
id689	sample1	obj329	-0.7729415339624055	-1.1581154615124223	-0.03358933734441827	-0.3554841834097364	-1.3373529221653462
id690	sample1	obj330	1.1429770060741329	-0.8372860625458516	-0.09472677902476812	1.7476423258597302	-0.53919184819912
id691	sample1	obj331	-2.656866409097649	-0.030195061800174727	-2.350572676711407	-0.9451630900523744	0.4105832999875124
id692	sample1	obj332	-1.1801744627921886	1.9652566696940297	0.9348918304925	2.317905578842368	1.1500131111094793
id693	sample1	obj333	3.5246323251479996	-1.558078019872152	-2.406769354432227	-0.9910686331238234	0.41427787698686114
id694	sample1	obj334	1.5750321811140617	-1.763387068743632	-2.914643193184789	1.1106794891883345	-0.7395840179729019
id695	sample1	obj335	0.9712179506662781	-0.9006255916821431	-0.11403908564419962	1.0853186894830813	-2.631003663138425
id696	sample1	obj336	0.2479540871439435	0.7461933811003965	1.3754728198621486	1.0121201324235096	-2.704081593135853
id697	sample1	obj337	-3.5466385271999283	0.976322502205305	0.0990069998264001	-2.134258730310597	-1.8532406619233335
id698	sample1	obj338	-2.668818356840988	-2.636508606528535	-1.981254693456214	-0.5515947232704346	-1.6086843957996884
id699	sample1	obj339	-2.665961525692609	-3.261875982843522	1.6697094128356276	0.21175565693788734	0.1795463767499308
id700	sample1	obj340	-1.481644091363415	-1.3656238302123689	-2.6794646004813663	0.06074417082495076	-3.295992977260642
id701	sample1	obj341	-2.2037569513332453	1.1683515225545695	-2.64933715283081	0.6305282227166558	-2.6362986213606763
id702	sample1	obj342	2.7958200686867998	-2.635214334074071	-2.3173809281837006	-0.6998793631797924	1.475502628801013
id703	sample1	obj343	0.6173812226216009	-1.520246097661356	-2.0501493693145756	1.296367087279402	-1.612612069604526
id704	sample1	obj344	1.5708871009767384	-1.1258753252472469	-2.8400618928351724	3.1014737057912685	0.5904538859372286
id705	sample1	obj345	2.3164950017533967	-3.197771868679321	-0.10182780659068091	3.06334252813173	-1.806230566063404
id706	sample1	obj346	1.2094815940967076	2.316423979791077	0.7875936645617065	-2.2596741823812714	0.7388125025773218
id707	sample1	obj347	-0.8389145572736927	1.0943300429051614	-1.7682855333407175	-0.2432910897400613	1.1415481116734711
id708	sample1	obj348	3.2933821351393995	-0.7724473387444833	1.328060690806792	2.26568616912381	0.1431849046492063
id709	sample1	obj349	-2.9893019638802434	2.0101691950224843	-2.0392317646618574	2.326250799074053	1.2803662793072679
id710	sample1	obj350	-0.9114108576597464	0.20595455837770016	-0.7532243465413164	-0.5628710421422772	1.297333340722207
id711	sample1	obj351	2.4775854988642125	-2.8329444864064763	-1.0694435053192217	-1.7992987567145797	2.3670484126486366
id712	sample1	obj352	-1.7534658175154554	3.405699475907629	0.8949992365164994	2.9356982128110927	0.040650713984078046
id713	sample1	obj353	-3.0473550887371137	2.1560631387985763	-1.5568723278097771	-2.2646510419208505	2.7242100677718084
id714	sample1	obj354	-2.037225050189504	2.916059274105154	2.0672530703185643	-3.299058837620035	-0.8463610562817598
id715	sample1	obj355	-2.1018719967603383	-3.3084223937223487	2.357824933521356	-2.9500398779976176	1.5685731592718293
id716	sample1	obj356	-1.8639477198407584	-1.0079660262176695	2.7305064353855055	-1.5281309358113904	-1.193979477619279
id717	sample1	obj357	1.436806890392364	1.5994774366221098	1.6398717765071011	2.484986381403088	-2.035639966101506
id718	sample1	obj358	2.1654523177486267	-3.475272873519252	1.5362275939325367	-3.2513116936425255	-0.6540565294208474
id719	sample1	obj359	-1.2714636852218129	0.4081964110546852	-0.12762496761560804	-1.2466745707738103	-0.6918993388048607
