id0	sample0	obj0	-1.9485275255996872	0.529332484923865	-0.5110975132482494	2.6496769654362335	0.3423463390206811
id1	sample0	obj1	-2.8912186929532577	0.5969822808697698	-2.4889641129098283	2.681226726193217	1.974685276443616
id2	sample0	obj2	-2.571427509429431	1.4913954799659832	-1.8598867207087535	3.246039607252471	1.6841584394422957
id3	sample0	obj3	-2.240197939788813	1.4892709558478636	-1.6873095991485805	3.595725684500274	2.2621061479047513
id4	sample0	obj4	-1.5941480239799024	1.9735393843382187	-2.167903339352707	1.646136526404543	1.3759151122657234
id5	sample0	obj5	-1.117947032742841	2.139222903036149	-0.8954800162882963	3.7766147896007727	0.7151523039318276
id6	sample0	obj6	-2.4923911471684255	1.1049283514682182	-2.286669740422758	1.5595014696821539	1.0980439761777112
id7	sample0	obj7	-0.517064234903639	2.2795996380827175	-1.5151518298805065	1.8171057759787703	1.292091408765944
id8	sample0	obj8	-1.8970256084685757	0.5223482327569079	-2.0675570013722107	2.7502773591710263	0.07901279922603832
id9	sample0	obj9	-0.6118294477914359	1.2135126986598639	-1.8509204008164375	3.6085097927880456	0.5256334332347082
id10	sample0	obj10	-1.057607809350883	1.1361593941301953	-2.0464248810518897	1.7222460117216725	0.14864710056345165
id11	sample0	obj11	-0.7765975907568954	1.4451304260787576	-1.8272839272657697	3.4273435313078036	0.10969361638543473
id12	sample0	obj12	-2.023515811233191	1.859051392706929	-1.4626339593827573	2.900581991513052	0.5627757524057728
id13	sample0	obj13	-0.7372472015670797	2.320536781097495	-2.649387740744105	2.302252566735353	0.6010258396639161
id14	sample0	obj14	-1.7745554118204274	0.5897620989649257	-1.197807091446088	3.4833540553534794	1.1040628479031034
id15	sample0	obj15	-0.6176208123245874	0.9127027697435464	-1.7042322931179312	2.544322485135684	0.9480069359413099
id16	sample0	obj16	-1.899306427567962	1.2712680897440465	-1.4486213578968177	3.3006395998235583	0.07247831906667468
id17	sample0	obj17	-2.721803737455888	1.299374088493559	-2.740455855045485	3.276690119693791	1.954945498992458
id18	sample0	obj18	-1.4108806273378829	0.5452966185408231	-0.8018195153172811	2.5589628048258035	1.0624527746389385
id19	sample0	obj19	-0.9969909824713703	1.472521963598704	-2.73120778578238	1.9267125064342423	-0.03861676604118314
id20	sample0	obj20	-1.506171363546128	2.6023541945391093	-0.6585356607181823	2.0636093880241297	1.6823563915244388
id21	sample0	obj21	-1.2505999883131018	1.7828493229866864	-0.6160360587864571	3.346292764201023	0.7619506501208756
id22	sample0	obj22	-2.716079666947067	0.8788091586441422	-1.4589358199679354	3.6012164048095334	1.4055355754488865
id23	sample0	obj23	-1.5491926065210488	0.862686108119574	-1.7341173501748914	3.5033091264397216	0.7134315148050404
id24	sample0	obj24	-1.7606089184980116	2.2799106044706514	-2.487081022695143	1.8298771962588094	1.7507336128140727
id25	sample0	obj25	-2.6056762380525713	2.385453539490178	-2.802565533254694	2.1394332504554177	0.8717865033324168
id26	sample0	obj26	-1.5141256446153708	1.6099687983285933	-1.1898260261574451	1.6638474496879283	0.7733177088196729
id27	sample0	obj27	-1.1651593533789195	1.6097188742671293	-2.1599601513775633	3.6169715448898287	1.6729768108338428
id28	sample0	obj28	-1.6024902543112645	0.8682667671336513	-0.5224737368612151	1.9547805607905895	2.207325205453944
id29	sample0	obj29	-1.4287448992279033	1.6207076845771302	-1.4866425090286903	1.779703210171937	2.1175266916031448
id30	sample0	obj30	-2.4951688627611652	2.02161615734655	-1.8378110121926625	2.8612644374133334	0.3319393072798238
id31	sample0	obj31	-2.8084488063330264	1.521982859010269	-2.729733677686241	2.6300360000179914	1.0398527585384223
id32	sample0	obj32	-2.1218420064696693	1.9918136082966726	-1.464058014986304	3.0632772051237094	-0.055405385444390776
id33	sample0	obj33	-1.1853390622968571	0.9448447181641254	-1.5022345280721892	1.9771416517792502	0.8394860415411779
id34	sample0	obj34	-2.234433736655944	0.8985993760177732	-1.3711702841835847	1.9180199557290538	0.3065102282635086
id35	sample0	obj35	-1.7468962012833438	0.33284915112144886	-0.5919746263326997	3.1380783356835904	0.4224033894698872
id36	sample0	obj36	-1.5518894862012493	2.27606113713834	-2.603837134685801	1.9684318797900207	2.185038022416057
id37	sample0	obj37	-2.008502271287227	1.323685208609632	-1.607583002162912	3.4762505786233593	1.246779928962896
id38	sample0	obj38	-2.166438713194651	1.832772237802115	-1.6634283822458222	2.905534576309166	0.9508116469586783
id39	sample0	obj39	-0.5778717264585016	1.3904974837717494	-2.405059268875774	2.8389011457574753	1.4885686722629037
id40	sample0	obj40	-2.756483802803298	0.553295617144127	-1.1500461945871532	3.550596369890001	2.096271371516268
id41	sample0	obj41	-1.4001443636743844	1.3195810146817024	-2.379931031116394	2.2076726677325493	0.8384048493244894
id42	sample0	obj42	-0.8426626695639798	1.7410290949694247	-0.7297449973884913	2.0629522996166316	0.12573749278726953
id43	sample0	obj43	-2.6252658414506147	2.2912224322757897	-2.576388949910193	3.1036209563483457	-0.08757075488016364
id44	sample0	obj44	-1.4400394806848307	2.379711414561873	-1.6708906358711373	2.3941580706242984	0.725795292809198
id45	sample0	obj45	-2.2681880960516043	0.49530242780873723	-2.0561975729440802	2.690405991401976	0.10571587928873316
id46	sample0	obj46	-0.6007840936579087	1.3432522322958222	-2.5975330781041484	3.399000755774545	1.8583514348546286
id47	sample0	obj47	-1.8863285307323516	2.553120301733485	-2.486585219391981	2.096729306070865	0.7380851075525589
id48	sample0	obj48	-1.9081062041777566	1.3108924306784115	-1.73657589549912	2.7787318247366404	1.127312665628049
id49	sample0	obj49	-0.577632019252108	0.5317438708655144	-1.0477245538972242	3.0314311304247505	0.938175498712821
id50	sample0	obj50	-0.7736175152469082	2.5470461682470216	-0.5894310564016305	1.571733345355392	0.45343380742288386
id51	sample0	obj51	-1.5064871461821272	1.8270321808004528	-2.3268193760409126	1.8920042757060818	0.6827430491217951
id52	sample0	obj52	-1.0067009606735877	0.5825179615948106	-2.4377528680039275	2.2216702611714427	1.9504739378770473
id53	sample0	obj53	-1.093654127808619	1.8563227222455616	-1.6572209224868069	2.8696250353790687	1.9542485373860803
id54	sample0	obj54	-1.7658719698316376	1.4861340457802463	-1.9967532756030897	1.543026579027322	1.3293941986268165
id55	sample0	obj55	-0.9602672338631042	1.1416173592992265	-2.177402656614039	2.0311458446574076	1.1008884601614457
id56	sample0	obj56	-2.6685242687811606	2.6431685891369563	-1.0585045232742223	3.568767132171631	1.5659252010564824
id57	sample0	obj57	-1.094881872579129	1.3789464866418122	-0.9260290373776614	2.2108372530191436	1.9793190926706923
id58	sample0	obj58	-0.526856768850269	0.9592914168881228	-0.7215438019322253	3.5047084588578086	1.1504236822149152
id59	sample0	obj59	-1.9164424837375569	1.0794330329379251	-2.7557600067272463	2.9720115719085474	0.7314156763789974
id60	sample0	obj60	-2.494186851469156	2.586106177679068	-1.7819985539053387	3.6300295139687693	0.3975340593772585
id61	sample0	obj61	-1.3349528289665444	2.3324234713726124	-2.739838305198079	2.901003213925965	1.8925037353394063
id62	sample0	obj62	-0.5472596979167308	1.816691661065033	-0.6653591506078815	2.1731927158949316	1.6267628625689952
id63	sample0	obj63	-0.5655378935785886	0.9808947968322216	-2.8619147587838727	2.67332610405638	1.9495928063031456
id64	sample0	obj64	-1.19657053029586	0.5269038845005534	-0.5069309882744208	2.9573929927817573	1.7336680550586077
id65	sample0	obj65	-2.130491555916733	2.214191885691333	-2.7209711184166174	3.484169465328514	0.4642361881518151
id66	sample0	obj66	-1.3081224697241822	0.6405388603797175	-2.4429041965189437	2.1494939779267312	-0.04504023357075582
id67	sample0	obj67	-0.7878114095724704	1.4729927245694663	-1.949607277857092	3.76274106176937	0.045735104062769594
id68	sample0	obj68	-1.936449253655117	0.5738006339630666	-2.452886018422081	2.7612553257669212	-0.11059900695210301
id69	sample0	obj69	-1.8536275639714157	2.226241896067883	-2.035365991445982	2.792306242625795	2.006498348786371
id70	sample0	obj70	-1.1101381777817412	2.466862818369445	-2.1986466750249463	3.6414986999202714	0.2699931257293129
id71	sample0	obj71	-2.7398392971641776	1.2196386610386027	-1.2511736672689449	3.7351190397026235	0.052462639773064756
id72	sample0	obj72	-1.177494589464109	0.6376550511771062	-1.0327362457612914	3.562703431772899	0.3915219451375712
id73	sample0	obj73	-2.507178979846568	0.610106574119794	-2.4423831060582497	1.8137819595366345	1.457573109890622
id74	sample0	obj74	-1.0113962749931151	0.29535074009782547	-2.7045352760954566	2.245366984685028	2.281136032682162
id75	sample0	obj75	-2.4378295569255357	0.9905191860182542	-1.0843094007334628	3.6279173235063062	0.6424165624710765
id76	sample0	obj76	-1.2887913270010176	1.9283742173960756	-1.8702098632746518	1.5783088260338727	2.258221936971694
id77	sample0	obj77	-2.460627523187118	2.4737958589091393	-1.515557003338765	3.587375064051784	1.9231935081203622
id78	sample0	obj78	-1.8016999126521385	0.93409174474723	-2.716946254535027	1.4829402871947954	0.6634343849934947
id79	sample0	obj79	-1.315789765526327	2.3453294654745704	-0.9688422383116027	1.6205464715886393	0.4183100476229228
id80	sample0	obj80	4.088751570612906	-1.863158506793747	2.129239190456796	2.2443137787128142	-1.3874592931678618
id81	sample0	obj81	3.1867294198602014	0.2596982915286026	3.0075658191588497	0.6786449433084549	-1.3368297017500526
id82	sample0	obj82	2.4701589264252792	-0.12174273676874026	2.5990037856266826	0.2019773405942611	-1.0561168595880575
id83	sample0	obj83	2.075066719803641	-1.4175875510211688	3.1883465500509742	2.214525324054172	-0.7156055616887242
id84	sample0	obj84	2.8135348605014388	-0.16367857242752226	1.7562086424590948	2.417398707434555	-0.9017949143817973
id85	sample0	obj85	3.266891175750806	-1.4625707692946546	2.5984554718587134	1.525853721926102	0.342130746759558
id86	sample0	obj86	4.017606612910752	-0.5433033870636479	3.57973049335525	0.2764089794329807	-1.5490679045673241
id87	sample0	obj87	3.177115082959213	-1.664218463642199	3.99220606713832	1.3816244845218473	-1.1820253872046131
id88	sample0	obj88	2.6999083516025175	-0.1675408299189871	2.195456278747171	0.39811723123131826	-1.7221578997329756
id89	sample0	obj89	3.92648966172852	-0.19925852409706413	2.8551778465669817	2.551523067820818	-0.12565004769808308
id90	sample0	obj90	3.3339377012748717	0.2755641879276862	3.8797227695825542	0.45269777345931383	-0.3926972250462919
id91	sample0	obj91	3.7452754689436105	-1.2003562289447487	3.663886242865699	1.276082339666364	-1.7290461646857036
id92	sample0	obj92	3.1974103603926647	-1.1342403376801755	2.966470404663685	0.77492510547841	-0.8587022202776099
id93	sample0	obj93	4.019444551709282	0.02238508707451703	2.43665354571917	1.587555168800412	-0.6595927967496162
id94	sample0	obj94	3.9435030084962026	-0.7371358291212375	3.2164834131122055	1.2402295722106471	0.19385000926490026
id95	sample0	obj95	2.1612254892159797	-1.5656906296484778	2.1227267119136775	1.5588228378994702	-0.22085791103884445
id96	sample0	obj96	1.8405676849822503	-1.4043361709575883	3.5781855208959676	2.434890019565883	0.304044926631865
id97	sample0	obj97	2.2068971517770706	-1.7539673684688302	2.635281461862586	1.5100022264156543	0.10564998507264667
id98	sample0	obj98	2.5343948914608245	-0.05697027637978169	2.2155521196159116	2.2918228916138608	0.26444858711558195
id99	sample0	obj99	3.740829401078427	-1.4673955825385803	2.56754702862257	0.5297587880510001	-0.9906917273309577
id100	sample0	obj100	2.370696366321743	-1.7998000340110734	3.9997941456275736	0.47827208795306664	-1.635688810390717
id101	sample0	obj101	2.815864570549776	0.2992482805518166	2.4398771801063472	2.5706756678763285	0.159096858373182
id102	sample0	obj102	4.074071659232521	-0.42448544633170693	3.5575628951754257	1.711546675087614	-1.7194614048948447
id103	sample0	obj103	3.9862248892190957	-1.9692354474788456	1.70918995203128	2.455373331721542	-1.2373901699156553
id104	sample0	obj104	2.713318012905803	-1.009765411685574	4.039518371972037	1.0437976900268549	0.4580098785968405
id105	sample0	obj105	3.590227666636056	-1.6234743611722533	2.530789499878749	0.5824179214428058	-1.3381381062272926
id106	sample0	obj106	1.9915343811323831	-1.3435780344213826	1.8191978507812208	1.3966691426818765	0.20441076387347934
id107	sample0	obj107	2.616180953984026	-0.3871647883606859	2.796179617715013	0.5484002040136001	0.2234811240989738
id108	sample0	obj108	1.78306640189505	0.28519813762495994	1.7532148566043915	1.8415017728973397	-1.316651294366818
id109	sample0	obj109	2.0559281588903957	-0.11073160730477194	1.6790696950344925	0.3049105573794726	0.3269759465138511
id110	sample0	obj110	3.497931684206259	-0.4699541123546802	3.2299125265666593	0.3106121852470831	-1.676892938488041
id111	sample0	obj111	3.796602850878595	0.0054521289264137796	4.005370489513634	0.446479289288352	-1.6241443165315492
id112	sample0	obj112	2.2879587924137064	-0.8028399395067767	3.6046891617395	2.1900134541027674	0.2669909985444121
id113	sample0	obj113	2.6222493285190858	-0.42041016099636486	3.221568211820535	1.1778954307572151	-1.5475210817862044
id114	sample0	obj114	3.117467141241179	-0.1428012689660101	1.966307653157642	1.3837869855007294	-0.4251886455964893
id115	sample0	obj115	1.7930577459216677	0.35987804265105283	1.7694609547043096	0.836661198038415	-0.8914022927768863
id116	sample0	obj116	4.104908326912537	0.37012845975914055	2.099593736458762	1.355159984713225	-0.8563551261518919
id117	sample0	obj117	2.341056253067549	-1.705194673071627	1.8838344429824996	1.9486820023425253	0.02965880721353331
id118	sample0	obj118	2.500484503162704	-0.7127981227897826	3.4060224095095384	0.7391850547628831	-1.0503941412900413
id119	sample0	obj119	2.267197728727572	-1.1818299821884337	3.613247688168318	2.0726369244888807	-0.6679825652609288
id120	sample0	obj120	2.5983509013530806	-0.8785502207990306	2.0147851555505243	2.186764070737576	-1.5790450299685566
id121	sample0	obj121	3.4458696615952404	-0.3805065936448695	3.422693973536714	1.7408175632673935	-1.4516877149695355
id122	sample0	obj122	2.390605645195214	-0.11958718967324478	2.9630243528322797	0.5396005281609757	0.5364671119500295
id123	sample0	obj123	2.8389535081925747	-0.03964708500084524	2.4704948100382116	1.4315669368658073	-0.772654715621474
id124	sample0	obj124	2.0538625761188936	-1.9678175466966386	1.7450153846633942	1.650509631204443	-0.5984278976762447
id125	sample0	obj125	2.9926487252197878	0.16199998336564092	2.960378918608426	2.1107941655663254	-0.0790985261638033
id126	sample0	obj126	3.6177961051078427	-1.7718355420270924	2.526170418363863	0.9533582110590277	-0.21162236507866705
id127	sample0	obj127	3.536375271728435	-0.3705265285144477	1.8532935511031658	1.4573845261282763	-1.2489595406689027
id128	sample0	obj128	2.1986423925654712	0.033320823133448085	2.488831563410016	0.8517507941264341	0.6342754580060499
id129	sample0	obj129	1.7241582492038936	-0.5077385268531887	2.082085444877579	0.8396674643562115	-1.2525174971082327
id130	sample0	obj130	1.7892333869117574	-0.9830080092346601	3.1229148619674887	1.7354221645094703	-0.42257221769057773
id131	sample0	obj131	3.1549945514800948	0.2314102919531107	1.8457871478330392	0.83744960688673	-1.684192059910876
id132	sample0	obj132	2.780735039907748	-1.5652569466439312	3.3955604878505623	0.5481392623625843	-1.7339772887408293
id133	sample0	obj133	2.8797942396621545	-1.2721796610976628	3.7688344357791586	2.4064634731567685	-0.456719606307608
id134	sample0	obj134	1.7498534268918913	-1.2159786253950209	1.8300383466172567	1.3207607708755793	-1.1882173888671927
id135	sample0	obj135	2.9485826307562553	-0.5936851593508772	2.894135840873497	0.2594262406224699	0.1702000807489905
id136	sample0	obj136	2.178869042019564	-0.6562408452961179	3.7952513720424506	1.547945190334688	-1.2331974485766244
id137	sample0	obj137	3.4727440799612332	-1.835090080960278	4.03750991055992	1.090246346004259	0.5507854762446966
id138	sample0	obj138	4.084448982708755	-0.3896051633277664	2.353273670238375	1.1268420839460411	-1.4136107869191332
id139	sample0	obj139	3.673180818265549	-1.2314419292292915	3.364597110144758	1.0952601643379922	0.39867663916448737
id140	sample0	obj140	2.614785177064886	-0.2798665272177572	3.0334531237297155	1.1909461850520857	0.4991655222314566
id141	sample0	obj141	2.7563552362463684	0.1514820921443627	2.1599499592851377	1.2477240998072698	-0.04175370249941035
id142	sample0	obj142	2.933196612032369	0.29960920195478713	3.697703104866732	1.7621353510454976	-0.5607008568017908
id143	sample0	obj143	1.806276674994183	-1.5879418058658588	3.44159625285444	1.7591311861970642	0.4639991541605577
id144	sample0	obj144	3.9399299591096844	-1.4855435578171317	3.4327004112328927	1.7087599836726248	-0.3956930672489847
id145	sample0	obj145	2.801588172844455	-9.465160397330585E-4	3.9329655727971016	0.7132661594971698	-1.453566186901319
id146	sample0	obj146	3.792485625934666	-0.41235954464053615	3.950801789591563	2.437493173074136	-0.1145187699601169
id147	sample0	obj147	3.3630021471665326	-1.322136077048762	2.13766224086174	1.986254603398394	0.6138341256822197
id148	sample0	obj148	2.168389377431882	-1.0632585132953816	3.302583451271117	1.261495152833462	-0.5234220657066477
id149	sample0	obj149	3.10742809435102	-1.2697550718203747	2.671162004549254	0.6682079406896587	-0.21444737189989405
id150	sample0	obj150	3.3729254510443196	-1.4682689594743863	4.000003094959922	1.077289957522059	-0.2000006181304066
id151	sample0	obj151	2.3312279941082545	0.08086891922481487	3.587103445143005	1.879407666132374	0.47344035676381124
id152	sample0	obj152	2.3279381697131054	-1.0978787254305726	3.5202772789329533	1.4475952725724535	-1.1017007070754907
id153	sample0	obj153	3.766130855404863	0.058889330937611506	2.3944382042502315	0.3263176219889563	-0.5958270844209068
id154	sample0	obj154	3.7864053042507297	-0.5752860164713558	3.806660204611368	0.42719050454273844	-1.5775690577537695
id155	sample0	obj155	3.347429516739549	0.09253215909509094	3.795299218798145	2.3700555826112217	-0.8536851046880414
id156	sample0	obj156	3.001078698301868	-1.4994817025193505	3.803404732153316	0.8837515759225791	-0.693247317743017
id157	sample0	obj157	3.5051777801274335	0.19958302632390335	1.8820385847324403	2.582300053430142	0.25205954765504757
id158	sample0	obj158	1.934081558958919	-0.8182507381738482	3.658279241735568	2.055425293082339	-1.045600165938398
id159	sample0	obj159	3.2351993881482097	-1.9235215007438264	4.015481014396887	2.340951890968642	-0.25532633227545665
id160	sample0	obj160	-3.4778894842391637	1.5735848428431127	2.8045510427696683	-0.16441063433536374	-0.30049912568857473
id161	sample0	obj161	-1.6780211028285745	1.739974451708545	1.8724755796174217	1.7540431694835614	-0.48695165622432657
id162	sample0	obj162	-1.6386671971867066	2.5827661153689925	0.8283415329126893	1.5282763088648708	-1.843623285285484
id163	sample0	obj163	-2.5775543159727827	1.5102751920196973	2.932322159319019	-0.15908069593961227	-0.6940837334092844
id164	sample0	obj164	-1.3628833942375829	2.8272715173733642	2.104649031623902	1.1930204331735863	-2.155744482649818
id165	sample0	obj165	-2.9317873560210232	1.1541504566956884	2.036541267283142	0.062499428834832615	-1.7158113808735098
id166	sample0	obj166	-1.1134305106240532	1.498972375885229	1.220933993391903	1.5536673066084679	-0.8900368987017426
id167	sample0	obj167	-3.305835559373473	2.5717429685771256	1.7795535498246984	1.1357026061357594	0.011295134819856445
id168	sample0	obj168	-1.6887893879013924	2.4731864213875885	1.1387503028943537	1.744593387334215	-2.0206918166367256
id169	sample0	obj169	-2.3818552272527604	2.9002826422708656	1.3069236999516547	0.15353330602231385	-2.1428321835698187
id170	sample0	obj170	-1.6117580533274072	3.196591648515848	2.1337027652419334	1.3471882552702064	-0.3683228264501315
id171	sample0	obj171	-1.784871542052241	2.3329643239548234	2.675122355536476	1.9992255786461042	-0.8571960137805656
id172	sample0	obj172	-2.8283710045119794	1.3172381749111028	3.0272034313340628	2.071107925361715	-0.00912178908948813
id173	sample0	obj173	-2.740488965191102	2.37102529737336	2.4874489963932973	0.9320023084549982	-1.3616279380009872
id174	sample0	obj174	-3.4613694026475796	0.936321462009529	2.412151589317711	0.4408226311902558	-1.1754061272158025
id175	sample0	obj175	-3.2389222659775925	1.1304815946032494	1.3969135277206104	0.015518413944197396	-1.9853603166354024
id176	sample0	obj176	-3.1289889459212716	2.6887238756574874	2.745754448192773	1.4128246137563871	-2.14660588323468
id177	sample0	obj177	-3.4586936419559837	1.4398276692058056	2.325464747658891	0.4124015246532653	-1.556401445526481
id178	sample0	obj178	-2.3312380790831564	2.361674562759874	2.128800131884016	0.38870636021892047	-0.5461445153573248
id179	sample0	obj179	-1.907246197674529	2.3548463355866014	1.6825500765215577	1.0956466106639313	-1.8847464249299801
id180	sample0	obj180	-1.4222455612006268	3.03822282795681	0.9117889451541484	1.2041625116161878	-1.2010736288075168
id181	sample0	obj181	-1.4646314290764038	1.3815203446527504	0.874583333210178	1.829965298809639	-0.6163618534212931
id182	sample0	obj182	-3.128662975259969	1.8045625332653183	1.7644207850352338	1.9638133025599112	-1.2877285830895693
id183	sample0	obj183	-1.6703340590117428	1.1378806911660504	1.1804910587366688	-0.04646571126375476	-1.2237896457180928
id184	sample0	obj184	-2.6405137337054723	2.2875893416942996	0.9160328121731188	0.2565905121155706	-0.6780771747578538
id185	sample0	obj185	-1.5722038387520754	3.200470054403418	2.427103050697539	0.1429307742446878	-2.003120348085892
id186	sample0	obj186	-2.1922863000125377	2.2914169876153045	2.120672338133766	0.3262709254344637	-0.21784162415254316
id187	sample0	obj187	-3.4603708066213583	2.670944305942249	0.8317444507133729	0.7713869035448958	-2.275993723139468
id188	sample0	obj188	-1.5684758867893054	2.7789207502786897	1.521587129031041	1.586586407637811	-0.7088777772940367
id189	sample0	obj189	-2.237925152680411	2.3631776652250966	1.0879820718181556	1.472838717169811	-0.7491895198260421
id190	sample0	obj190	-1.709184589756251	1.1967227987599163	2.986004918027363	0.8601821583585123	-1.434704426512619
id191	sample0	obj191	-1.6340515720642128	2.2510822080854225	2.2540707994606355	1.3015888645111389	-0.5632787760498288
id192	sample0	obj192	-1.157797492236887	2.2693745525445816	2.4521721671624865	1.085540160620993	-0.7594798345616023
id193	sample0	obj193	-3.3442116080381195	1.5321947069788302	2.262239780712238	1.429746397379199	-0.3657110716097811
id194	sample0	obj194	-2.0841562547986805	2.8908382504143084	1.5767116061043585	-0.2241721387967972	-1.0471297847345433
id195	sample0	obj195	-2.085875716587534	1.351928783256983	1.5005515155283071	1.0519503206395295	-1.5726202566958167
id196	sample0	obj196	-1.233060565192129	1.4187105951499466	2.691455181145851	0.8284746524677162	-1.488737375057403
id197	sample0	obj197	-2.887211902624018	3.0982333607563826	2.3276613477559684	0.06922745448508727	-2.037537214761091
id198	sample0	obj198	-1.3893318730323363	2.3289776233573507	1.975001076302882	1.3741254170333237	-2.1927116167730607
id199	sample0	obj199	-2.2800446474182583	2.616242287274332	2.5643979332042712	1.2011790295859637	-1.224103929177491
id200	sample0	obj200	-3.2170816548202463	1.216432397068433	3.0153370358185647	1.6184603746973076	-1.8836570753949364
id201	sample0	obj201	-1.6473034993453668	1.5073443070163064	2.964679612411154	-0.17196591935822125	-0.48379054916730246
id202	sample0	obj202	-1.6222315748455292	1.728230518889832	1.7859674667957457	0.47021804082649066	-0.9722740974340796
id203	sample0	obj203	-2.379087960710901	1.6669452128181153	2.601875055227194	0.49145148337320477	-0.16852182173763297
id204	sample0	obj204	-1.5037399038866597	2.3954036221445723	0.8790734391740909	1.9635983539300244	-1.6000244847794018
id205	sample0	obj205	-3.1203799880706464	3.1800386654397874	2.815309931294921	0.585296144388878	-1.0620273239249332
id206	sample0	obj206	-1.7003946766914302	3.0794934828558205	2.035330989041583	0.6730699047956088	-0.9287052104565996
id207	sample0	obj207	-3.2473433613978817	1.4335459417102419	2.2452161612089565	1.544958796042966	-1.3926342410275405
id208	sample0	obj208	-1.106439632848023	2.6788135330906444	2.3811042713202752	0.08344621920080209	-1.0364766556199847
id209	sample0	obj209	-2.588054503591488	1.6192276564842008	0.9430126909782104	1.796132497152241	-0.09412943032419929
id210	sample0	obj210	-2.1207066045263483	1.4411887873157312	2.929825647856479	0.6179421542150679	-0.29830061426295473
id211	sample0	obj211	-1.7074149429426262	0.8908156569574224	1.3774020360320345	1.8513022952697107	-0.010222712981570625
id212	sample0	obj212	-2.2103327534169717	2.70736773687699	2.225467870421225	0.9417630800593262	-0.6701478039937092
id213	sample0	obj213	-1.8049041537329935	1.503855840845774	1.5653585873532077	0.644549426779553	-1.7920496833504183
id214	sample0	obj214	-2.4115482466759137	2.1616453074259208	1.5021077371292115	0.8486250754057414	-1.2627417047681728
id215	sample0	obj215	-2.427734722920136	1.9065967149884515	1.3406808722461547	1.87261344703696	0.08294082909176725
id216	sample0	obj216	-2.056426164570307	0.8935778581991929	0.8046733188674415	2.102447176240135	-0.5820116106604125
id217	sample0	obj217	-1.1808805099993334	1.365103050964957	2.9313714962482207	2.1625011241397853	-0.5615358330095177
id218	sample0	obj218	-3.105892187254208	1.7770162969691812	2.9620616815296668	0.6463003990142425	-1.029833716651833
id219	sample0	obj219	-2.8193533227670766	1.6956163628730254	1.5507032285782558	0.9132736097244727	-0.1879157726324714
id220	sample0	obj220	-1.5856984882483511	1.2500264330925333	0.9249075011894295	0.005542378631578693	-0.5000461604944093
id221	sample0	obj221	-2.3370108465729604	1.042028957476787	1.8154243053510448	0.26198735962155295	-0.8619578795372573
id222	sample0	obj222	-1.7634716213060873	2.5316096617025083	2.9763764775615043	0.30191030558322873	-0.7711286941970688
id223	sample0	obj223	-2.720083525335507	1.3761814466271234	0.6881471866290265	0.0011084434024100087	-1.4937411858573433
id224	sample0	obj224	-1.2713519235639794	1.2384809633608307	1.6954508889105566	1.2601878778365987	-0.08834597145788936
id225	sample0	obj225	-2.912515841665881	2.31353683313272	2.49956237118679	2.0270631461526563	-2.2003640801551967
id226	sample0	obj226	-3.170146206102407	1.467504800829389	1.8982695010039616	0.928906812564519	-0.6445577962328066
id227	sample0	obj227	-1.2441227237620354	1.7266295153111844	1.2397088210071754	0.4269316302553591	-0.6171274195960406
id228	sample0	obj228	-1.1673238449899423	1.6867328695668604	2.904176910545304	0.15138615657752397	-1.0103064851328507
id229	sample0	obj229	-3.3014679800064863	2.903529902773034	2.916129702990291	0.21263553193165396	-1.037890382365561
id230	sample0	obj230	-3.2425905245886444	1.2303322773745407	2.169230951975266	1.7132570190068175	-1.3301990001000341
id231	sample0	obj231	-2.5752788714748247	1.0384097318519319	2.3603329640421604	1.5893135008322465	-0.5441932375377985
id232	sample0	obj232	-2.8011828325779957	2.2200358018118926	2.601011168638426	1.7574642080866119	-2.0940054878180003
id233	sample0	obj233	-1.1971159591883433	1.4561366451809183	0.8225728412027875	1.096922853816935	-0.7866485105154974
id234	sample0	obj234	-1.5664293975352368	1.5380897976823569	0.7146653649160639	-0.10242070030011186	-0.7073040433294171
id235	sample0	obj235	-1.4819246415085063	0.9626707297892361	2.6285590405800674	-0.008550688548017105	-0.6110078199265856
id236	sample0	obj236	-2.739534957731818	1.454018885118988	2.411223627555997	0.27510379410887154	0.07209293333445665
id237	sample0	obj237	-2.0220002506154997	2.877879168534516	1.0802974787888007	1.8344503965107928	-1.2752171724019654
id238	sample0	obj238	-3.2959457382715147	2.859870957512327	0.7553044739647716	1.7962855852604978	-0.10071036396737054
id239	sample0	obj239	-2.7318054599516244	2.8472286301835426	1.2668570791731089	1.4370016766958686	-0.18268129990209814
id240	sample0	obj240	2.4721940248306367	-1.7618871605653301	-0.8118586899357471	1.3352015053333637	2.8136846257051906
id241	sample0	obj241	-0.738367871465381	-2.4036609214160705	0.09223408978142378	-3.0249296833601207	3.549812612185449
id242	sample0	obj242	2.0400904164657625	-0.10791313842407724	0.6630496514690458	-2.328559486611346	0.14498591903309577
id243	sample0	obj243	-1.1238498785768272	2.0191863410678828	-0.15429610921555503	1.4196271148366983	-1.0084654381364175
id244	sample0	obj244	-0.668424689414095	-1.2157281465807017	1.654698398090317	1.9271987921950857	-0.22069251316904182
id245	sample0	obj245	-1.5586728016767064	2.028884016692485	-0.6136918374953593	-2.4471833567820624	-0.2336428235962107
id246	sample0	obj246	-1.5437886562715666	0.08443239396988345	-2.7482994840424215	-2.172429761578923	0.9886462181399338
id247	sample0	obj247	-1.9107002566417592	0.26871876905862546	-3.2420481365044944	3.6045445807793968	1.3163272015545116
id248	sample0	obj248	1.3414016697377962	0.33420021501318353	0.3027831542230295	-0.37018846590218923	-1.973683096144706
id249	sample0	obj249	-0.5523818492054222	-1.7635922019774524	-0.8397558029102636	-1.992221279342714	0.3165065648630744
id250	sample0	obj250	-0.26491282282668227	1.293560242639771	1.443943991907464	2.7611877548696375	0.1821089401695406
id251	sample0	obj251	-1.6539355106688767	-0.06181515137195048	-2.2108688353124455	4.0844740059966345	-0.3025886195681713
id252	sample0	obj252	0.06215504152076545	0.9934805879097091	-2.467992860974551	-1.887378333871995	-2.536181406111864
id253	sample0	obj253	1.7181013639585885	0.19665774744039277	-0.34655719675930885	0.6688766379375	-3.681657931585061
id254	sample0	obj254	3.376560665114357	2.4116934876719154	3.6547535796623807	1.0729854807188501	-1.672766478156105
id255	sample0	obj255	-3.391305852927659	0.8354086438811245	-0.28333960010438053	0.06538510866117542	-0.9963228459114173
id256	sample0	obj256	-0.7205583065614727	1.154326805289675	-0.9038737258936311	1.8219219198219505	-2.6921785081786727
id257	sample0	obj257	-2.7679063281038103	1.7736266365288527	-2.499855853848951	0.3607800818823228	-1.2706430468357892
id258	sample0	obj258	1.6952971230570555	1.373426742220588	-2.8195375675433914	2.626318682370975	-0.12862298723373566
id259	sample0	obj259	-0.19486402639333356	0.32348326926447313	-1.5404760744157935	-2.1416854903471676	-1.2523370185140426
id260	sample0	obj260	0.22523906065245303	-1.7804594855352893	-1.632432613756042	1.1605267325682043	0.11646949428062792
id261	sample0	obj261	2.884533292039976	1.4014047786004953	2.036221461473352	2.2298964761024376	-2.860246119408073
id262	sample0	obj262	0.48709714231562806	1.4528936717053882	1.5582970906325169	-2.7847473060284056	-0.655467377766425
id263	sample0	obj263	-1.302103460154636	1.0109473126153468	-0.3810472819381323	3.1997544107822637	2.968277891815749
id264	sample0	obj264	-0.030018669509408236	-1.558273649701183	3.044161853297674	-3.095578108854002	-1.343325164339116
id265	sample0	obj265	-0.1623331186637218	2.0450857166527983	0.1734320122245252	-3.6263110099961917	-1.3154960612165703
id266	sample0	obj266	1.1101095657842812	-1.5972778257848663	-2.929095073731995	2.602318210835632	0.7420295891709832
id267	sample0	obj267	0.43644833206503386	-2.818534321797995	-1.386498580077884	-1.4363770378023266	2.9918790241507307
id268	sample0	obj268	-2.3919586433338527	1.5243134041446367	-3.131437964985912	-1.8164927149119436	1.728132409001963
id269	sample0	obj269	-1.9281617872669525	2.206153531797382	2.726258148951646	0.9615065317752356	-3.1413563887797817
id270	sample0	obj270	-0.3137248978299476	-2.3715175467512184	-0.13964005761372345	2.7408484354458005	3.133575459176204
id271	sample0	obj271	1.6418941866011891	0.20302934789030735	-3.8299883067727007	-1.0967147611086285	1.5957935489725126
id272	sample0	obj272	0.7335637172044496	-0.8010089119461814	3.0645759353692217	-2.094398879104248	0.4568759388333452
id273	sample0	obj273	-1.6122929100233807	-1.7532141735004019	1.94429532999005	-1.879073700001816	2.5736073336163505
id274	sample0	obj274	-0.22436210828702952	-2.85082811243603	2.493355392271748	2.624019371555881	1.773402806646171
id275	sample0	obj275	-0.022352927751754015	-0.4878149312422948	-0.4527333945915374	2.1487225685195335	-2.5545931609355432
id276	sample0	obj276	-1.5926616380819159	-2.993835987088063	-1.1643365321280683	-0.2879664702646656	1.9953623193432795
id277	sample0	obj277	-3.3518237606592467	-1.6004745053401166	-1.7012422844626836	1.647130681994308	-0.029527276023604943
id278	sample0	obj278	3.6621958217563995	-3.0438903402278465	2.065839355502642	0.3067205088228364	-0.2642494274281826
id279	sample0	obj279	-0.8162895808723121	-2.0125692770549852	-0.06282393208377812	0.8036988266021383	-1.765677756457464
id280	sample0	obj280	-1.780627060542917	-0.8771547047932146	3.3754991578942963	-1.999488893855511	0.9304659238706644
id281	sample0	obj281	0.5155797519837242	1.8461872419801755	-1.558096286288661	-1.4529833580977416	1.3441065227941915
id282	sample0	obj282	0.7445665131305053	0.897096936021678	2.0938369092046356	-0.9331042193896237	-1.030049713020404
id283	sample0	obj283	3.5419972781159244	-2.7583926209416427	-1.6696695101262775	1.2951186946548015	2.3568593227211103
id284	sample0	obj284	1.8542147615760334	0.0074112915588258055	1.7527180296543887	-1.1710598337410225	-0.013371213500829815
id285	sample0	obj285	2.1369404925872173	0.4658064705123741	3.4643814150977095	-0.7128219350281855	-0.09872479380454635
id286	sample0	obj286	0.9852363810091864	2.7370070360635013	2.9812287056597233	2.75920661546329	2.11175717734687
id287	sample0	obj287	2.4489033207870055	-0.594166073090852	-1.6194818471135526	1.2695097196549443	-1.0277134706745537
id288	sample0	obj288	3.3097462369747346	-1.8243761651541872	-2.772434931096285	-1.7274583389448084	-1.2523216013610392
id289	sample0	obj289	3.0700163714665383	2.070795883986605	-3.027041195473968	-1.9436631661379522	0.6017706653558632
id290	sample0	obj290	-1.7261375414420947	-1.8723933582852286	1.2383709642801817	-1.442921028558677	-2.379811199750212
id291	sample0	obj291	-1.9610610362263192	2.3751810737542574	2.6432760718808983	2.9387306355588416	-2.771329623933747
id292	sample0	obj292	-0.747921403226661	1.7722451718920529	2.839354233679712	-0.6043495040448863	0.6167230420279828
id293	sample0	obj293	-1.4380786894294684	1.6889187829776078	-3.2189278086325808	-2.2098577423633854	-0.2983928121159708
id294	sample0	obj294	-0.4967399327118469	1.8447914972913353	1.7690160307785767	-0.35136001676179673	-1.4076794443527423
id295	sample0	obj295	2.271337617737187	-2.0445487017242674	0.8768615606528352	0.8536436693309504	-1.0615849826055572
id296	sample0	obj296	-0.7855016430656876	-1.408073215521298	1.9094528130677504	1.8269810195243987	-0.5151261066888908
id297	sample0	obj297	-0.3287780561503364	-2.615712537659921	-1.5410850253035688	-1.592126013850404	2.4936365921918457
id298	sample0	obj298	-2.074356312079327	2.6004313694744825	1.131356976694079	-0.5982600456447029	-2.5652191332388283
id299	sample0	obj299	1.015008817106835	-1.257042786807248	0.5148305415085446	2.276206483105142	0.7563212492435625
id300	sample0	obj300	2.1599816960950977	-3.252391013234421	2.6951305880087495	1.360171694522533	0.21539104579350454
id301	sample0	obj301	-0.7026491404903826	-2.4727093793222243	-3.707762311879702	2.512435322683624	1.7318277745459296
id302	sample0	obj302	3.9754022038318633	-0.22631546368076938	-2.3439673447892964	-1.3895225192000986	-3.1317127014916366
id303	sample0	obj303	-1.4834659972680229	1.6636118025984483	3.8600384859600316	2.714096841643092	-1.8399005058290818
id304	sample0	obj304	-2.7092032320285533	2.8559648546761016	0.055862746356626136	-2.0591838038035215	1.856811403676229
id305	sample0	obj305	1.654187826929451	0.7421069075046931	2.489940561184481	-1.394056473653508	1.2698339841101811
id306	sample0	obj306	-2.0308078450723057	-2.203664719451865	0.805683274277524	-0.5525386745666251	-0.20514672127665068
id307	sample0	obj307	-2.2476280189573536	-1.8432791600137395	2.7284619054133623	-0.7901934821680439	3.676432777799138
id308	sample0	obj308	-0.7050582320197822	-1.5229322233417422	0.9777710590483746	-2.7181800976774655	-1.6520872028299316
id309	sample0	obj309	0.5410086765483737	2.10253495155267	-2.1452584924996128	-0.9516013620334021	-0.8938400219034035
id310	sample0	obj310	3.576593781035726	1.8847834267293477	0.3536816855427294	-0.3246904629426015	0.002895264006293141
id311	sample0	obj311	0.9830817907036624	0.30670226101701714	1.3470451319899444	0.7815055996891536	1.843736134673716
id312	sample0	obj312	-2.5842754750363097	0.43562818409733106	-2.837488716796809	1.7199237947655672	0.55984758069955
id313	sample0	obj313	-0.5315116274824205	4.166045942820162	0.3431593327988318	0.9255806507070958	-1.2101104431336733
id314	sample0	obj314	1.6799670711607884	-0.40673882822847407	-0.5569630398115224	1.6274996019323613	-2.1665749760335684
id315	sample0	obj315	-0.27356992022951077	-2.3773256817584807	1.1687231014441277	1.155737035727991	1.9867041092203261
id316	sample0	obj316	1.8611404171512258	-0.11525934123157122	1.1498518231931394	-1.780553079112639	-2.014217755924168
id317	sample0	obj317	-2.1057815416673367	-2.6010504010080027	1.0698637124702817	1.5178193910388433	2.4208041466732055
id318	sample0	obj318	0.5213615520129082	2.036284807794498	-3.2812934641968496	1.7581463434137345	0.2620381334063684
id319	sample0	obj319	-3.345059507794899	-0.8775343390875724	-2.345678224740687	2.5875043707142824	2.5115381809405544
id320	sample0	obj320	2.0086255103519024	-0.6149935789523232	-2.9307120110176434	0.41532983732417295	-1.8922925227728014
id321	sample0	obj321	-0.019512153629225315	-0.6512053830573963	-1.6305713268336957	2.2809015704516167	-0.8177222104185836
id322	sample0	obj322	2.2146484490563556	0.3833763805244861	0.4955486744960822	1.888386391366821	-1.9447444313607616
id323	sample0	obj323	0.9717462872346694	-0.6739431344507187	2.0327017203130175	-0.7147049168751085	0.37621886161935025
id324	sample0	obj324	0.4229762389092352	3.8003548090069437	-2.0757708708727405	-1.9046412232141963	-0.9383360630360633
id325	sample0	obj325	2.1666070836354967	-3.4880934008674074	-0.04859700024675706	-3.4401612008904623	-3.22649894430206
id326	sample0	obj326	-2.4444356921063672	1.414314252914907	-0.10711820639053549	0.7091709459014917	2.304734230226032
id327	sample0	obj327	1.6186909130364768	-0.6017002001063327	-2.648938190401044	0.39176023760895706	-2.7938652041687995
id328	sample0	obj328	0.8453489494992924	4.0243382162846455	2.9642790246450383	-0.502122103918003	2.1556865166573145
id329	sample0	obj329	-0.40115181291036905	0.37222681036506144	-1.6303252098257417	1.12485214796003	-1.5021075463607774
id330	sample0	obj330	3.52775164713411	-0.7029393818091181	1.1576735161809084	0.40231358610212276	-3.058023547333023
id331	sample0	obj331	-2.150645032204749	-2.392531901113564	0.9860590726854808	2.8375334283920823	-0.6810383169232161
id332	sample0	obj332	2.4355996878751394	4.0922720424823735	2.2087104990388635	-1.5946296774889055	1.8298622815611911
id333	sample0	obj333	2.187807878134522	-0.9455574715090443	-1.935313867951773	-0.23847143983210217	1.6458896075132985
id334	sample0	obj334	1.118227243837811	-2.2147634307720887	-1.3816745992780228	-2.494979416206405	2.6595175629701178
id335	sample0	obj335	-2.8762914066123857	-2.7502487424021442	2.904471771326145	-0.4122650191505083	2.2937878319715046
id336	sample0	obj336	0.10349191162380644	-2.1949116362953287	-2.6575269891530855	1.1151630857598926	-0.15099019614002218
id337	sample0	obj337	-0.9958668807416833	1.3469156720234936	1.9383954183624141	-0.17325044463689365	1.476645717780946
id338	sample0	obj338	-2.1572061634979676	1.9632061290708847	-1.3607334458481573	-2.034210831186459	1.5034928728223078
id339	sample0	obj339	0.7766245544235434	0.03038829351251282	1.2048541260616692	-1.3702463026724407	1.262586099370867
id340	sample0	obj340	-1.680248355289169	1.479682111514757	-3.842896147459184	-1.297925171325468	0.2781332375966945
id341	sample0	obj341	0.23582763673205576	-0.6949625841180047	3.1272502359905534	2.03659349639749	2.9476331690382023
id342	sample0	obj342	-0.8126377891376615	-1.8227906838819627	-0.9494273889279481	0.47192608565397953	-0.4650225663815766
id343	sample0	obj343	-0.8254527977345755	-2.227823625726282	1.588381109893066	-2.4439036437418764	1.1666491311877272
id344	sample0	obj344	-2.7560395886728086	-0.6297754536049027	1.1569745105087814	-1.2389637606457993	-0.25838226364196504
id345	sample0	obj345	-0.919870894586053	-3.380814560443162	-2.543475330624731	2.929565653608191	1.0662809026019355
id346	sample0	obj346	1.3434575923241225	1.3314989390395189	1.838199224638663	-3.1010185025286026	0.49508013010605967
id347	sample0	obj347	-0.6381184687425183	-1.712661777084199	-0.08969070947398827	0.5177318871333867	-3.2717118754122234
id348	sample0	obj348	-0.5577034307466213	-2.4973239679062624	2.0349438186110698	-1.7450347650453066	2.4399695628665157
id349	sample0	obj349	-3.136766851693603	-2.129377354058218	1.7779008012019257	-1.78501445523912	1.4016010800815046
id350	sample0	obj350	-1.3388276764235778	-1.0259378040936362	2.4434927385560687	3.6480858432289214	-0.1523052149054278
id351	sample0	obj351	1.9644847569933892	2.0314973599216586	-0.08725448741610597	0.8536695545930224	-0.5530936113547051
id352	sample0	obj352	-0.9308078846589829	-1.6712348280920746	1.7408409616455116	-2.181695661550971	-3.1741741176685325
id353	sample0	obj353	-0.8617958827315996	0.485731551425698	-1.552497087663436	-1.6043198887961194	-0.1328535476365511
id354	sample0	obj354	2.7695535335014285	-3.4132126091404866	-0.4107959454149255	-3.962915797066274	-0.29674264953149
id355	sample0	obj355	-0.9403136819946716	-2.2082610236481957	-0.131826515375414	-1.3808746979968514	-1.991956673296386
id356	sample0	obj356	-1.8231132122093046	-3.17476830536875	2.9676628586796188	0.21026815260911424	1.9825984027474683
id357	sample0	obj357	2.049554920137594	-2.326519224551015	2.9875180825855487	3.245151301950057	-2.4220961828870022
id358	sample0	obj358	1.3066645737213842	1.2172575170555642	-0.1734314556669838	-0.24047513378644747	-1.4099642561159091
id359	sample0	obj359	1.2205566614485492	-0.7178134667701662	0.030403978194078807	-1.574460357941125	2.5721038765501434
id360	sample1	obj0	-1.5985237498094058	0.5929669218797435	-1.687213254719348	2.804476997734199	1.5472101162043002
id361	sample1	obj1	-1.4574009797236656	2.2495053847445616	-2.4835230734580467	3.089797365776888	0.8709183756516921
id362	sample1	obj2	-0.96351203047173	1.5074567686857177	-0.601575710672692	2.635549371639598	2.1797685277612793
id363	sample1	obj3	-0.8226761318028954	2.4578241766331104	-2.158660735573004	1.6707267506068717	0.3590917512690446
id364	sample1	obj4	-1.3875521941358893	1.9759449574696817	-2.3305602808034602	3.5181318886872726	0.6116103531524212
id365	sample1	obj5	-0.5539543555234212	1.7102545741780109	-0.7126624610085999	2.021508377198023	0.8733743639380509
id366	sample1	obj6	-0.7104078574840778	0.8117654408798514	-2.8519583604000256	3.5943516146536583	2.027094463134024
id367	sample1	obj7	-1.6903480784741292	1.243739986818925	-1.7346555600767979	2.3748947026477256	1.0970549230154043
id368	sample1	obj8	-1.7683496437884194	2.576258601581575	-1.4051976771346704	3.209397345485761	-0.10299294062205022
id369	sample1	obj9	-0.7806792938276013	0.2835985081895933	-0.5687393660626314	3.551964173570357	1.2536726660175106
id370	sample1	obj10	-2.2527022542831894	2.4008993835857133	-2.469497392932529	2.1785269166424404	0.40232607030370404
id371	sample1	obj11	-0.7101466037937179	1.6253357222071647	-0.9332891579714397	1.9676883361527766	1.1934593617083862
id372	sample1	obj12	-1.579344711643977	1.4182901737463318	-1.917881213296369	2.7916861668848014	1.5943707379211087
id373	sample1	obj13	-0.7972356838023658	2.0186685951605017	-2.445915418498699	1.4641380818896805	2.137737223713833
id374	sample1	obj14	-0.5215332098951591	2.3408609862738095	-2.731058015773448	3.772317597076915	2.269437017018219
id375	sample1	obj15	-2.33394377254829	0.5187769834931043	-2.2900409456365365	3.332827567640351	0.8761687145181909
id376	sample1	obj16	-2.356068791210648	1.5722136617621851	-2.4153339958030227	2.190528941170079	0.41336330153434053
id377	sample1	obj17	-1.9525464512956185	1.1033885600970317	-2.4317133945291562	3.358789623770548	0.8766008049136419
id378	sample1	obj18	-2.2954929464294094	1.4571401652185254	-1.2538790246860139	3.289386815889406	0.9238144852493659
id379	sample1	obj19	-2.8372897272601016	2.562901981531958	-0.5929283956057512	3.3650675918998	0.6070875563515412
id380	sample1	obj20	-2.2266463226413027	1.872438978130485	-1.7308231291565503	3.5166933309305177	1.5454164921191478
id381	sample1	obj21	-0.8595481813233825	1.3543418932603897	-2.210393075473164	2.1574055992710797	0.18452060490581346
id382	sample1	obj22	-1.4485841455692845	0.731747598562535	-2.5028184294400067	3.7631984930548317	2.1552161372132432
id383	sample1	obj23	-1.600144814688698	2.5685371401254704	-1.056317642452633	3.7650099418353085	0.45413930636141164
id384	sample1	obj24	-0.8004982866631136	0.5237023250363627	-0.7528554964572438	1.491793561605476	0.1132862573588771
id385	sample1	obj25	-1.3326857755932031	0.3935045077398496	-2.870477680847177	3.0443501714658554	0.9690373180622291
id386	sample1	obj26	-2.892950983134453	0.3238312363961773	-2.2462807795092985	2.9008254310189416	0.5456392612544119
id387	sample1	obj27	-2.776918108718961	1.2656155894296024	-2.8504469695814976	1.6590607235914547	0.6786251305141835
id388	sample1	obj28	-1.5033827729333358	2.616678299450661	-1.3191178628304057	3.0982654436343386	1.9539554158891752
id389	sample1	obj29	-1.9912761963338936	0.2837175871099684	-0.5695557817558725	1.5700990960753298	1.0498525615353491
id390	sample1	obj30	-2.1695116211339736	1.7357526696124106	-1.3639509414763353	1.8720595616416962	0.048976883156779394
id391	sample1	obj31	-1.7589376088926116	1.2199729097456107	-1.6397879890290223	2.46640922666741	1.0348385911902864
id392	sample1	obj32	-2.011899428702394	2.574988484800574	-1.7387858880217628	1.425581158330692	0.5817618865531317
id393	sample1	obj33	-1.6318664102857996	1.3947756132532827	-1.409483233997954	3.6374326414335156	-0.03660038688565148
id394	sample1	obj34	-2.23961486388162	1.2464966242994653	-2.6094598219773646	2.405700537083006	1.1993363884034103
id395	sample1	obj35	-0.632477277611186	2.3916966401647217	-1.7833702472739985	2.0349041946250743	1.678811314414101
id396	sample1	obj36	-1.2405808296319945	1.9554812845971066	-2.2463273408297892	2.084579941971689	0.9786262614757026
id397	sample1	obj37	-1.4727106377650785	1.6720048594728878	-2.6751110203464474	3.4924627543744284	1.049982577373396
id398	sample1	obj38	-2.030848253441071	1.7342900402620414	-0.9311064481978868	2.06489653265481	0.2948945647599599
id399	sample1	obj39	-2.635465354842067	0.6069021773335388	-1.85019308568426	3.2677005448260044	1.9830642389938555
id400	sample1	obj40	-2.734697417716748	1.2236584776039225	-1.8899246560512055	1.9617882008504401	1.4582536560418884
id401	sample1	obj41	-1.973491251756253	2.4792068561786937	-2.189662987094722	2.0423690709632147	0.22035874555848656
id402	sample1	obj42	-1.0901207580074044	1.0103048408586717	-1.3537618103451707	2.9734131055574373	0.9041653438410615
id403	sample1	obj43	-2.2159998464927178	2.414812454998664	-0.5028506137679869	3.4625533400047983	1.3542402724904885
id404	sample1	obj44	-0.9219002104476237	0.7261233035798893	-1.3576413219450716	3.0856054600029386	1.4511856003479349
id405	sample1	obj45	-0.933409486948749	1.1878422394415167	-0.9398893106836685	2.021719059431552	1.7986398176696015
id406	sample1	obj46	-1.6971465595925923	1.7853197619810965	-1.8250794681933005	1.8647048179497294	0.2415545623064146
id407	sample1	obj47	-1.0957949279103618	0.802015013074301	-2.0024948576745514	1.9856328551160045	1.9504920421079301
id408	sample1	obj48	-0.875826012856604	1.0819247902799538	-1.6444575428754367	3.3762303757317036	0.45757638664961975
id409	sample1	obj49	-1.370769677822904	1.6843297579196992	-1.9241203053500433	3.529246912124642	1.638385554131252
id410	sample1	obj50	-1.1914535416562568	2.591216223551542	-2.6291375572276703	1.9256641986919307	-0.040923427046966054
id411	sample1	obj51	-0.9416846414698681	0.8357716474799375	-2.388261601007598	1.701736129632139	1.7955010839841856
id412	sample1	obj52	-1.6447910353132331	1.0146735777814953	-2.26330018369837	2.651202016584284	2.01456904729091
id413	sample1	obj53	-1.0871830605314015	2.5673355087059466	-2.7763452810836267	2.456966527463562	0.7087667950871118
id414	sample1	obj54	-2.666042714828491	1.5791831285661346	-2.570637571993662	3.506924057552543	0.30110818864098066
id415	sample1	obj55	-1.8483080409791421	2.5082559482242495	-1.5842837121746183	2.1827702255971815	0.9860027848244399
id416	sample1	obj56	-2.1986972016776116	0.8473046481951444	-2.103191635890629	2.858431161469219	1.125145717383529
id417	sample1	obj57	-2.419515519293181	2.6069276603966944	-0.7194424397004868	2.1334937172907105	0.14767125377925117
id418	sample1	obj58	-1.980822699926414	2.5165055551789433	-1.5327846515833792	3.371586778504305	1.9690545926237126
id419	sample1	obj59	-1.6351007849974883	2.253593577235849	-2.0874181740680946	2.5163817769504213	1.089692006725492
id420	sample1	obj60	-2.0472760314410854	1.281360947248269	-0.6376429874950571	3.7085970877885037	1.3953280037555478
id421	sample1	obj61	-0.8827044358574916	1.23747085774341	-1.400683570606156	3.503451889837099	1.3786276451803896
id422	sample1	obj62	-2.048944809036916	0.9038126738897198	-2.0119749415605166	1.5542572675120465	2.2428025372878246
id423	sample1	obj63	-2.3607184225612396	0.8095802894333229	-2.288810304960751	3.3366080683064103	0.03038476413494884
id424	sample1	obj64	-1.5827960791915692	2.082673931648892	-1.386416047472995	2.678784544624973	0.7266015958791427
id425	sample1	obj65	-2.006569863180637	1.2561365854275768	-0.9626392300723225	2.1648372556303066	1.8884236126999174
id426	sample1	obj66	-1.549163362427679	0.7346593725322116	-1.6324139168317329	3.502252591351594	1.3058354827547178
id427	sample1	obj67	-1.058016641633022	0.8959526021793769	-1.4824211897146535	3.098424568452387	2.1573104367596443
id428	sample1	obj68	-1.8003576169813873	1.0953153684647172	-2.1337800535736346	1.7592358295404409	0.21044093699095212
id429	sample1	obj69	-2.2697446633126694	2.298902952181633	-1.302609792807642	1.986217681412095	1.8622914584508794
id430	sample1	obj70	-0.6173464780752356	2.619317117821436	-1.6437920444273106	3.370865322608952	1.7208858721792109
id431	sample1	obj71	-1.0927128475806713	0.38108631330685405	-1.8136430082400634	3.4180642103930987	1.395410548978279
id432	sample1	obj72	-2.4489005250531823	1.805695687287889	-1.4063869169362564	2.315093182583448	0.271807779843124
id433	sample1	obj73	-1.4338489200435438	0.665920584069656	-2.6737062178627458	2.8256405420101407	1.4735377299846542
id434	sample1	obj74	-0.6702622755558367	0.5946485898009711	-0.6051413309530111	2.1445538956198495	1.4029997137580408
id435	sample1	obj75	-0.7488542525952087	1.6089975404033199	-1.421127082250424	2.900982610067249	1.573517401519384
id436	sample1	obj76	-1.8660501672667706	2.278683980320098	-2.113891064993395	3.6350066842833337	1.5085001784356245
id437	sample1	obj77	-2.5810333199501736	2.0681179987430993	-1.1807066865499782	2.0731247502351082	0.4244907583874854
id438	sample1	obj78	-1.3147653555786407	1.5419412782021928	-1.8579992946084312	2.0559361480733602	0.2368879331461402
id439	sample1	obj79	-1.4442181486956045	0.5585218928140476	-1.2249500603865162	2.679345284465431	1.8272894621478788
id440	sample1	obj80	3.461813088183365	-0.9602265137080022	2.31454914432636	0.9484290445902077	0.2404326338271725
id441	sample1	obj81	3.4537221334860595	-0.5809279935061784	3.246173854273727	1.1485589530244722	-1.6971509772206947
id442	sample1	obj82	3.1162301628706843	0.28672507915312884	1.77798304520903	2.184407779456005	-1.347352796316928
id443	sample1	obj83	4.032970831161693	-0.5413045866531148	2.9557444969540243	0.6908586293831719	-1.2590157330148024
id444	sample1	obj84	1.8907015180001798	-1.7877281530267146	1.7748394670176897	2.023789617920354	0.012480384008322964
id445	sample1	obj85	2.4819953997864634	-0.6688786884911855	1.826552391946824	0.21719704211514368	-0.8529379808488622
id446	sample1	obj86	2.777432493335278	-1.010449443101205	4.063940713667116	0.24657654604776358	0.1034823011696464
id447	sample1	obj87	3.992446382803852	-0.3806839781230327	3.8825803753451478	1.4611351837127373	-0.6782983943653851
id448	sample1	obj88	2.2843443195257467	-1.1863679294231848	2.3602710785494967	1.8686317840289366	0.20586980573318048
id449	sample1	obj89	4.065955429245001	-0.03016083060107233	3.2508687832652914	2.3938359705681256	-0.47427424433542353
id450	sample1	obj90	2.497468220739125	0.031846759736658514	2.3018842202155603	0.3995984287852503	0.5004115085267105
id451	sample1	obj91	3.9883895513134213	-0.16919723021322142	1.871942177739672	0.5606796244601266	0.41107906306143405
id452	sample1	obj92	2.8657844614225887	-0.4101896446971267	2.7587254664866183	0.5046419538841305	-0.13915336726863226
id453	sample1	obj93	2.789136111385708	-1.8042473934719239	3.5942284756006226	2.158604485241668	-0.4162744801567104
id454	sample1	obj94	2.949888248728115	0.07574294186294872	2.393110599533592	1.9303420170390646	0.6066881918581639
id455	sample1	obj95	4.006096368952721	-0.6377625351915097	3.0102590842778723	0.35942187187990626	-1.7128283080599307
id456	sample1	obj96	2.978207583736036	0.29176801266870567	2.4214461583685893	2.1386560389969143	-1.7343950225638511
id457	sample1	obj97	3.1669111661665976	-0.552576461345188	3.819781703747303	2.0554471049245957	-1.6398925145431444
id458	sample1	obj98	2.0318434026327528	-0.2980284395849717	2.141619073906649	1.0514682923344147	-0.7530798373428423
id459	sample1	obj99	4.061783797323778	-1.488292934030924	2.5072613596672153	0.6498843747630894	-0.3385012353940491
id460	sample1	obj100	4.031443834103413	-0.6969049014713424	3.180329494939202	0.44183325173377763	-0.8448913915875955
id461	sample1	obj101	3.023110911634531	-1.175129143639648	1.8985892737649717	2.5354949215652947	-1.6286884834738398
id462	sample1	obj102	3.826870454118912	-0.36516907101456053	3.579482174729078	1.2166152369777736	-1.525481484732365
id463	sample1	obj103	2.9419747152432816	-0.9320762430659619	2.9141620305685016	0.5011727080330103	-0.6351111957787205
id464	sample1	obj104	2.7927567828250464	-1.6072194288244526	3.3805958127585516	2.1188203580670617	0.13388650692353798
id465	sample1	obj105	2.241394346666156	-0.5026423180192188	3.1628387051295395	0.47714555256425717	0.023847632218752857
id466	sample1	obj106	2.6104028756445175	-0.5717680598034502	3.2810359983346213	0.43651037563324424	0.21155927285235943
id467	sample1	obj107	2.091076736542557	-0.8928519307716072	3.1236257027523235	1.5756130489035676	-0.8137944399113134
id468	sample1	obj108	2.568794890793705	-0.5849957495281917	3.6257165839549415	1.1387814264885274	-0.8303212109283415
id469	sample1	obj109	3.7882531068510295	-1.7925807201368316	2.1392843946988145	2.5047267447084445	-0.1467097367088981
id470	sample1	obj110	3.744880998526413	-1.8652965258568797	4.062763342361678	0.2678859940608873	0.10793159030958943
id471	sample1	obj111	3.4440290063308625	-1.4027101915121403	2.898399169478359	2.5299112333437908	0.56083011724231
id472	sample1	obj112	3.6255793323688317	-0.022175283509549892	3.0314726048984886	1.400167303208344	0.204806370914286
id473	sample1	obj113	3.304520391523389	0.24300532256668084	2.509787692231642	2.227619390963974	-0.01353348608297722
id474	sample1	obj114	2.31133718719485	-0.5207679159539294	3.265745337465926	2.5470722888489785	-0.6333517615254698
id475	sample1	obj115	2.6008925279497594	-0.718938489928874	3.4754795443743403	1.1227079604822179	0.40577344531681203
id476	sample1	obj116	1.993404737957165	-1.8973606664345564	3.8860179411283093	1.4011007335533718	0.5321409457895536
id477	sample1	obj117	2.5622609729638386	-0.35038666406705943	3.2458316059683305	0.7217140494333577	-1.5762877444244596
id478	sample1	obj118	1.7243302206422282	-1.7401895492449928	2.217556518640668	1.3401429241315512	-1.7178065408477703
id479	sample1	obj119	3.340258830768427	-0.28994041154182226	2.1926942662835236	2.0504058659344544	-1.6017048688529625
id480	sample1	obj120	2.4035265332163593	-0.30370994456604605	2.4128246666709434	1.4872516636706221	-1.6174507586608708
id481	sample1	obj121	3.4839174779004525	0.2542866859002333	1.9638848299580054	1.3750767793379715	-0.06192792985786988
id482	sample1	obj122	3.9771045115249217	-0.3034299277269654	2.8704780390064073	2.1814884815813005	0.6387824311623957
id483	sample1	obj123	3.268352119775605	-1.0983515031484528	3.68456826232266	0.3331426204153698	0.594902939845319
id484	sample1	obj124	3.703510313115423	-0.7423086416974307	3.9333835521167346	1.2490773728708309	-0.2293132156436717
id485	sample1	obj125	2.420587031733108	0.07335333989982673	2.3484907593545086	2.019698866129601	-0.811683077499226
id486	sample1	obj126	2.1638488009596566	-0.7486273021771872	3.8129044173648623	0.4726927624668351	-1.2845916153433479
id487	sample1	obj127	1.800699413134369	-1.3094774571549317	3.5943530636541423	1.8727859355518255	0.08760789380691714
id488	sample1	obj128	2.098118876840452	-1.5591457027335764	2.9265355786592897	0.8403035263992608	-0.5539834106584935
id489	sample1	obj129	2.5863038668825955	-0.9242206084422149	3.489955917145595	0.6712055889801973	-1.3573440446699534
id490	sample1	obj130	1.7259295839640076	-0.1602642955935223	3.6508187190742563	0.31358662340164645	0.44455122837944816
id491	sample1	obj131	3.07324443450417	0.2468200149654216	2.1490934284352186	1.80482493724109	-0.00568914450489677
id492	sample1	obj132	2.9626106988099075	-1.903817950563279	3.4813092000066117	1.389519851254815	0.19592730151785598
id493	sample1	obj133	3.145203112216101	-0.32598700854545015	2.38351293997663	0.5983987636862182	-0.28998419641696493
id494	sample1	obj134	3.8689740287522367	-0.043033198433339415	3.5562108284039446	2.0373547158458205	0.07142395959125447
id495	sample1	obj135	3.779779712652177	-1.967334178367702	2.3446056405991778	0.26603294804534316	-1.7198058945969847
id496	sample1	obj136	3.7753261949250296	-1.5880878627410775	2.6401387836922234	0.27676643543760937	-1.452174236845133
id497	sample1	obj137	3.248439809269387	-1.28580623656933	3.036833279670662	1.0445085897459567	-0.3242357316508493
id498	sample1	obj138	2.797677662717436	-0.3596175065986853	3.7793143020112216	2.521569793106482	-1.739369475370065
id499	sample1	obj139	2.1325719935467964	-0.9309839364736876	3.287243199863946	1.3997766217650367	-1.4930052585307112
id500	sample1	obj140	2.5164353983871037	-0.8224200019972405	3.729338527846121	1.6469849433320718	-0.08292048257078743
id501	sample1	obj141	2.317739677558983	-0.8623979203879721	2.2327644641223996	1.3220292664253306	-1.1612488424683454
id502	sample1	obj142	3.415211463141441	-0.2105146919696823	3.9215366226308888	2.547029829728241	0.5971113819475258
id503	sample1	obj143	2.343056079066955	-0.015319098156963973	2.239324482895039	2.020846918716366	-1.5929668053507364
id504	sample1	obj144	2.4797231717490575	-0.008620960737849792	2.573707481649187	0.7322104078592384	-0.35231626412731054
id505	sample1	obj145	2.4724547985164325	-1.9147763150850214	1.7941669847609945	1.003013459535694	-1.153456384173431
id506	sample1	obj146	1.9341037148704436	-0.23402447109172053	2.9659574306693735	1.6762730640544514	-1.5717493319435643
id507	sample1	obj147	4.019472000824702	-1.0806000161522276	2.715097536695119	0.961686239006836	-0.021127189269512403
id508	sample1	obj148	1.8442866602980994	-1.5667079568584856	2.89214034104017	1.9543779815122837	-1.0074721488211287
id509	sample1	obj149	2.797000758219305	0.017304777341892397	1.7977257436661176	1.1267012460297257	0.22572905542049004
id510	sample1	obj150	2.0454713981675328	-1.2045285810579007	2.8622707150845548	2.5236453326622925	-1.00597912152418
id511	sample1	obj151	2.4783204823021707	-0.04715455289506343	2.5741170669447273	0.7218873275039397	-0.9985144366477275
id512	sample1	obj152	2.5530193431789283	-0.7741303867102398	2.571119129338456	1.7806200744508371	-1.5198635291749345
id513	sample1	obj153	2.1455496165043795	-1.5802280559374837	1.7836113242275733	2.3463574916111622	0.504161847602407
id514	sample1	obj154	3.093476236521961	0.0928137254518775	3.263044700817588	1.2887955405896105	-0.40796080342974816
id515	sample1	obj155	2.566512080598082	-0.46857207391276257	3.858908442619952	2.442838321435104	-1.1362017788887833
id516	sample1	obj156	4.044757656933164	0.004529257879500648	3.5129606668098434	2.302928565751816	0.514760622181144
id517	sample1	obj157	3.780853365091393	-0.1306072430340226	4.007865535635304	1.3371935209225485	-0.2779718794768231
id518	sample1	obj158	2.9018803643217086	-1.96717084569192	2.0081757181415707	2.0254737969890577	0.3244116863551392
id519	sample1	obj159	3.5910840490337588	0.16478013550368487	2.7237937974930055	0.6293896079581058	0.6064947310867972
id520	sample1	obj160	-2.018870965329678	1.9556708048171498	1.3631377491881798	1.6978879826241993	-2.109031250000437
id521	sample1	obj161	-1.4617618046171692	2.065970106580118	2.7918294484908133	1.3710781458688106	-1.4371198305855044
id522	sample1	obj162	-1.9062590551273508	1.724846564929071	1.161852780356915	1.1013374181129616	-1.1924853505362007
id523	sample1	obj163	-2.8524741641595375	1.7002122402412423	1.4091980390050436	1.024247329271994	-2.0927748327213798
id524	sample1	obj164	-2.0500105330026797	2.3259674336997236	2.9688925598799254	0.03537151601282873	-0.9360421539023112
id525	sample1	obj165	-2.153343236589873	2.984932162851904	1.970832528968513	1.2769305575263827	-1.9041411682245044
id526	sample1	obj166	-3.013867775129109	1.8943272672482176	1.9542519175912247	-0.18234188108276528	-1.2140662369842259
id527	sample1	obj167	-3.3214002507427844	2.028499671068072	2.9636533227658832	2.1539866352745776	-1.6995594871151045
id528	sample1	obj168	-1.7952064872179814	2.7709940851769423	0.7776578820269291	0.3655314240566313	-2.263400919251784
id529	sample1	obj169	-2.3838583942455913	0.8684775709747627	3.0006585204037175	0.4661264118210283	-1.1598802539815425
id530	sample1	obj170	-2.9807632401791855	1.7397698446750096	2.1364762843841665	1.4182603935388145	-1.8884248958483885
id531	sample1	obj171	-3.126999426813655	3.239164375621872	1.1720178784858262	0.1260148918921844	-0.9571311045997297
id532	sample1	obj172	-1.696519040168477	2.4366867897265947	0.7233074896710592	0.1793508577124825	-0.47542681184660784
id533	sample1	obj173	-3.1947559034877138	2.0987705619744794	1.6198085686571497	0.8681835286126864	-1.9371824230467316
id534	sample1	obj174	-3.316608357843334	1.7583829601215255	1.3967620479040277	-0.11704085733234115	-0.4506965567500576
id535	sample1	obj175	-3.3825619548500008	2.168743133863067	1.4879296345156052	0.22175318249947118	-1.5640131204146144
id536	sample1	obj176	-1.4937765966927536	1.341793549973974	2.8087504437704984	-0.027912430754898576	0.060610064925805895
id537	sample1	obj177	-1.5221978472210067	2.6713467485300804	1.6260779375070182	1.4560590886936804	-1.37833621314437
id538	sample1	obj178	-2.496568300981667	2.808688017511563	0.7464669149019294	1.934826709000322	-0.9298777128986622
id539	sample1	obj179	-3.1885145378655495	0.960203838109382	2.629010651969393	0.06536561318063439	-1.3834979726277268
id540	sample1	obj180	-2.4860815096241726	2.264677813447768	1.4370888549155696	0.1785028382823285	-1.0209477896316717
id541	sample1	obj181	-2.519076052355164	1.2220894918073804	1.3696640274275111	-0.0200500241568643	-0.05672337350775414
id542	sample1	obj182	-3.2377823548911295	1.5134112717422847	0.8280584497338022	1.030182427486708	-2.0268846052911416
id543	sample1	obj183	-3.322917875176662	2.286870504088113	2.7370409266855567	0.08692991522875027	-0.49393447128107115
id544	sample1	obj184	-2.1115290217050724	2.9927684618001047	1.3956564426709774	1.035580204901489	-1.1381069075828858
id545	sample1	obj185	-2.564772316850493	2.016072332190001	3.0171247554702156	-0.18469775855352366	-1.63152545156888
id546	sample1	obj186	-1.7956108530341552	1.3609602295475012	2.549421431156457	-0.21299037594747028	-2.1826998433247864
id547	sample1	obj187	-2.046270912951236	3.1491510977311536	1.2574193873958701	1.0857545579625387	-0.548635016316247
id548	sample1	obj188	-3.2982640273578188	2.156531161285845	1.38981293862282	1.7446098402537538	-0.6068356200851961
id549	sample1	obj189	-2.4657878784145426	2.4701410345371	2.6330607809400766	1.646904692937287	-1.1386118968736327
id550	sample1	obj190	-3.0327828494143043	3.0273588150187676	3.0413582802070227	0.7236758441305431	-1.6897315894791956
id551	sample1	obj191	-1.423746675406153	1.3159429666285254	2.8847867415557147	0.11571753852072919	0.0514738848352676
id552	sample1	obj192	-2.8400003501893276	1.6698361428136366	0.8233694606749951	0.7045129994254051	-0.031451398494805494
id553	sample1	obj193	-1.7503668453132009	1.1811110963561122	1.3263979672839223	1.1109414016828043	-0.12073497042022896
id554	sample1	obj194	-1.214568879258685	2.8405167480764177	2.1351577448249075	0.979830348897774	-0.29951119305661167
id555	sample1	obj195	-1.167984839681303	2.682591103150285	1.721685616009802	1.3145011659280148	-1.1306686102581036
id556	sample1	obj196	-1.6491283675741468	1.398597774924232	2.1225192798245915	1.588281475091857	-1.7929092394555242
id557	sample1	obj197	-1.1602391948887736	3.031455324521956	1.508144119206373	2.1168778275866273	-2.200156345287339
id558	sample1	obj198	-2.6831041878470607	2.5087076632908922	1.557107107341714	0.8913545353820616	-0.17985307478758705
id559	sample1	obj199	-2.0055658866124153	1.6172740102711525	1.1971331267435663	1.2985988465182632	-0.07577187200548896
id560	sample1	obj200	-2.3405353384462417	1.4795603363970162	0.7001502334886771	1.8344078020050574	-1.1881150522401074
id561	sample1	obj201	-1.4426072555858644	0.9443570607101115	0.9074952231405782	0.971056697134425	-2.096830132426459
id562	sample1	obj202	-2.7639875480473606	2.635131435227876	1.236822939565716	0.8912401587606151	-1.8746029797493642
id563	sample1	obj203	-1.570291829498173	2.9676925222774964	1.0919796619251747	0.5459679555508491	-1.9378270621517426
id564	sample1	obj204	-2.199263711321378	1.9111052981960799	0.8574122946609979	0.7251801473934789	-0.1733894997096519
id565	sample1	obj205	-2.7455019396891163	3.2600032141401716	2.3931667500070435	0.2238770268145105	-2.0952675572314226
id566	sample1	obj206	-1.4582800986836413	1.140435434412938	2.5262746881096882	0.20827013682563278	-1.919098883201542
id567	sample1	obj207	-1.226398621304752	1.399936083170114	1.2179308185090356	1.5882045338848825	-0.49898463501470935
id568	sample1	obj208	-3.3851320369011497	1.6379552545939116	2.9194163900384718	0.02371769095951426	-1.6652074849763294
id569	sample1	obj209	-1.1196328392689703	1.1049925923903237	3.0468240145718553	1.3624327326227383	-0.5632085750828315
id570	sample1	obj210	-2.673030128958924	1.515069446952047	2.326377133928129	1.8353771189233747	-0.16446979059813382
id571	sample1	obj211	-3.224825439098589	2.341402174688919	2.29710572228256	1.034114234293672	-0.15280094905694663
id572	sample1	obj212	-1.6274442093153776	2.3516491873352625	1.1019388525842666	1.941621448792899	-1.7513376086071633
id573	sample1	obj213	-2.0298573975372896	1.1267347796443532	0.9354877046607408	0.4704850222463136	-2.125224846817587
id574	sample1	obj214	-1.143447543684614	2.8233502157198056	1.1180259193056898	0.03955504637656626	-0.2638976283316492
id575	sample1	obj215	-3.3956651414878127	1.399642663635843	1.9890077596759934	-0.1534451907506431	-0.11897903112052233
id576	sample1	obj216	-2.8629112133190917	1.2286641847978839	1.0060069400557794	0.20911482496654465	-1.365507378540102
id577	sample1	obj217	-2.979394501925142	2.364713712027114	1.0297884851333254	1.9776435622430923	-0.09437945172826345
id578	sample1	obj218	-1.3998542742853959	1.5811093169123596	2.8944515604140912	1.6851979389826768	-0.5739668048567605
id579	sample1	obj219	-3.1799217237119084	2.9290141730521464	1.4117823280843598	1.6944249760321015	-1.592728490950008
id580	sample1	obj220	-1.4699110836194353	3.028058854335872	1.437240073185223	1.4195500074239709	-0.7787185869570692
id581	sample1	obj221	-2.3499066918451783	3.0304920755783495	2.314946593178685	1.4196321724921872	-1.1650682060773498
id582	sample1	obj222	-2.1325349246545087	2.628800490809352	2.391766728765322	1.2427418677350766	-0.9242266208677807
id583	sample1	obj223	-1.8036993343809566	3.0170048342963627	2.104636828358637	1.001675183451896	-1.9318695389253178
id584	sample1	obj224	-1.9522113072928704	0.9705130312019128	1.0468219925830131	1.6201539376015277	-2.06033826077598
id585	sample1	obj225	-2.1605772751647376	1.1683305871138325	1.5413508126341768	1.5315126991279626	-0.970167553459045
id586	sample1	obj226	-1.1076126472493668	3.1219407306278724	1.2145821302714208	0.35448461658052355	-2.1080920558913667
id587	sample1	obj227	-3.1979479453668938	1.9621146139860375	2.778297559859384	1.3152142756118708	-1.784806050985338
id588	sample1	obj228	-2.1252798225028746	1.220639040115564	2.0909787920353473	2.1208900240387765	-0.8620898324645139
id589	sample1	obj229	-3.0493058847405665	1.7682974430982132	1.6616122968538214	1.7957438017098595	-0.9056144493168308
id590	sample1	obj230	-3.1870756650302123	3.160760229073345	1.4535651036270982	0.22945772378104579	-0.7482065900502426
id591	sample1	obj231	-2.0668905785945912	1.515163271581867	1.000378866899695	2.0135880240359976	-0.06249315222439722
id592	sample1	obj232	-1.6583080040530058	3.1944393095691828	1.0058375802313442	0.2933099910317737	-1.0780697053795276
id593	sample1	obj233	-1.179148465057599	2.703743373645845	1.6009677529979616	0.5669479303308802	-0.02554232976123072
id594	sample1	obj234	-1.4060790233597167	1.1809367918120146	2.791817715118356	1.3392266752726047	-0.7893937506499202
id595	sample1	obj235	-1.708257127591034	2.755900620300915	0.7625393221404486	-0.021695814798353585	-1.4575233154286784
id596	sample1	obj236	-3.2250724505970867	2.1137858631595474	1.6945414617282544	2.131270691478127	-1.333914450420874
id597	sample1	obj237	-3.373126561427176	2.065016460246194	2.207907296337937	1.49526281714512	-0.8110991770819644
id598	sample1	obj238	-1.260646755008097	2.4272885836538443	0.8969468086037705	-0.11350643492065515	-2.2723211317511813
id599	sample1	obj239	-2.7884500530496585	1.87679506044662	1.0763000633066193	0.6496786779325808	-0.6134572506973273
id600	sample1	obj240	1.0669683717803278	-1.3480229809419526	-1.5259006277160916	2.2462688400348325	2.0110653549866826
id601	sample1	obj241	-0.7537815127187792	-1.8227401251215576	1.5316714126364992	-4.045156043210054	2.0335729882846927
id602	sample1	obj242	1.1995228877629824	0.6474311846250357	0.8318298000984578	-0.4159150665097362	-2.021076265339569
id603	sample1	obj243	-0.899362127716719	2.01814063630028	0.029290825840346146	2.6605743616234205	-1.2342978491699252
id604	sample1	obj244	-0.02143241955207631	-1.6357810090381166	2.4417843530383605	1.4891735706189888	-0.05788266779587503
id605	sample1	obj245	-0.27157511253985067	3.7969797217306667	-0.7202245296758165	-1.2054174609150665	-1.0123961978703515
id606	sample1	obj246	-1.8928584936211617	-0.5014599576417931	-2.2355687618948146	-1.9536473923263267	0.852361075716664
id607	sample1	obj247	-0.4903995918391375	-1.1507258734055152	-2.2808438102083004	2.388356006386853	1.3085835948868798
id608	sample1	obj248	0.48617743006651426	-1.4785694038348367	0.06812286015099867	-0.507043241982222	-1.7110985989559875
id609	sample1	obj249	-2.0885867787470977	-1.0123948935853873	-2.04537034850968	-3.399455805179864	0.19178536883197495
id610	sample1	obj250	-0.910069363600276	0.13498297424398786	0.862705402500112	2.048485640768998	-0.8535145017520251
id611	sample1	obj251	-1.9826902531960402	0.61955180215244	-1.2644596655002538	1.9251453948647228	0.06515390691722311
id612	sample1	obj252	0.917881693590715	1.4875750354301966	-1.4171758368487124	0.10111370276663245	-1.7533702980845634
id613	sample1	obj253	0.7881233044479334	1.832909829479976	-0.7925273216564165	-0.5212437807567535	-3.5712581175886773
id614	sample1	obj254	1.558453200249755	2.692289600432202	1.736469843729942	0.23303672648089646	-2.2048384238666134
id615	sample1	obj255	-2.0403693081738385	0.9276055979057503	-0.2949737904877757	2.0454033672375296	-1.5076794648158454
id616	sample1	obj256	1.2164791971913946	-0.03297352461185832	-1.6518473313820272	1.7835553374756443	-2.80992062785885
id617	sample1	obj257	-1.493547365560512	2.8528984982298806	-3.408341140600689	-0.03553367684146158	-1.8013265531573692
id618	sample1	obj258	-0.26486801036907726	2.176987260486665	-2.4609752063025008	3.179522549940275	0.36011880689468545
id619	sample1	obj259	0.7369938042352029	0.5858429622728712	-0.5499910235590937	-1.2014698609031889	0.07291763504618709
id620	sample1	obj260	0.9435902569047359	0.01340742682565188	-1.8400592385827848	1.1579363161027774	0.639510036018254
id621	sample1	obj261	2.1167375693100086	1.2880359831015724	1.450486866070522	0.59428255803023	-2.271386157947497
id622	sample1	obj262	1.545871158981767	2.03897239497556	2.436273121979341	-2.2086079861826367	-0.4556469343431224
id623	sample1	obj263	-2.424418159338175	0.3725520416775989	0.2584933030731247	0.9227802748439871	3.1287956950817133
id624	sample1	obj264	0.9382934226665749	-1.6682385722562936	1.7308796278622394	-1.174445325080334	-0.5296203496258525
id625	sample1	obj265	0.6207208889842633	1.4653222814120783	-0.44851279373152353	-3.6028957191203714	-0.7698017504653658
id626	sample1	obj266	1.3905810393652018	-1.1835096874795852	-1.6171780026245717	2.2856005929364462	2.13416131364306
id627	sample1	obj267	-0.9193368591869302	-1.7639293169029455	-1.060089663956768	-2.001275978489328	1.829456729760945
id628	sample1	obj268	-1.5254772345887953	2.4539422113480436	-1.612175769347908	-2.1926856600501283	3.58682128804865
id629	sample1	obj269	-0.4992104915149238	1.7721094839552514	2.8712741592363935	0.41792012082227403	-2.658913631856867
id630	sample1	obj270	-1.6930945780994509	-1.4892918025494841	-0.04716581563699418	2.034128245184988	1.762200516074171
id631	sample1	obj271	2.761304680382712	-0.1250896976197593	-2.0544979940104264	0.03688085591970247	2.340638777045055
id632	sample1	obj272	-0.20767195449086362	-2.126534868125599	2.604735283174697	-0.4135767783668054	-0.24353512158961155
id633	sample1	obj273	-0.01236549098100359	-1.0059136065449787	1.4916047173015943	-1.7714128633257278	2.847096057147582
id634	sample1	obj274	-1.0221770830745438	-2.1084471633876825	2.080151139452896	2.404953332659624	1.21472907868263
id635	sample1	obj275	-1.847632429053216	1.58152429895595	0.8060652399202357	1.7741263829127578	-2.0243213194235996
id636	sample1	obj276	0.0140941592142656	-2.7819499307165025	-0.9235428139011559	-2.025551040969064	3.4545947410188758
id637	sample1	obj277	-3.945319425150551	-1.692343864381836	-3.441698505089963	2.8024834401032024	-1.0381418654917067
id638	sample1	obj278	2.051875088737915	-2.6969207051357	3.854732952720666	-1.2680032746515062	-0.11884520396614295
id639	sample1	obj279	0.6092499420786213	-2.679954807112358	1.5237826091338647	0.5938527598479832	-1.375533261251456
id640	sample1	obj280	-1.2577420201691916	0.03893047570860508	2.5030636274931637	-0.9333163842490588	1.986372283189787
id641	sample1	obj281	-0.6784086139920829	2.3329384058911815	-0.9247348438336238	-2.0511351565706235	-0.14356941440280657
id642	sample1	obj282	0.9845119005546443	1.3286318198712144	1.6369856137066892	-1.3366840745735054	-0.0735814036986826
id643	sample1	obj283	2.2137136427088615	-3.3790212262119828	-1.6699429500916358	-0.3174637788359581	3.2861444390678365
id644	sample1	obj284	1.747302264202488	-0.29012508019601424	-0.23551214869631454	-0.5883794360263885	1.1348019740947493
id645	sample1	obj285	1.499083524474955	1.1753918699773156	2.4211950190577545	0.03553385731729475	-1.4809297256069358
id646	sample1	obj286	0.8436614413482968	2.820231367255409	1.7754726256107296	3.963032311147808	1.4699199110632382
id647	sample1	obj287	2.1514834772613183	-1.542821221925828	-1.2773793366882755	1.2275306814104467	-0.5348238027189944
id648	sample1	obj288	2.8173187829953896	-2.016470613349468	-1.8573553129410485	-1.6668127666207584	-0.365463573167353
id649	sample1	obj289	3.1914240858254894	2.5364172839196364	-3.3768348442456406	-1.1703093780249807	0.9911529203419138
id650	sample1	obj290	-1.9318607862993993	-1.8054552454740442	3.378307140289748	-1.816755461060316	-1.7687942420142715
id651	sample1	obj291	-1.8392346613260777	1.8648524936862279	2.441246508314819	2.942193451688338	-3.810441057631988
id652	sample1	obj292	1.0647914149250661	2.1206635219218266	1.602984213328939	-0.9211640124282242	0.032507563948766416
id653	sample1	obj293	-1.2409384051862244	1.6616526463932346	-1.157393237349576	-2.236470690515525	0.8794237948339669
id654	sample1	obj294	0.5197872629838323	2.063786746551559	2.2627405145599297	0.33558613223087286	-0.5838047873650118
id655	sample1	obj295	1.4071123244019372	-0.32494778053860784	0.7321796434634493	1.3456169382882024	-1.3028066482193776
id656	sample1	obj296	-0.547005459280373	-0.7055293532472054	2.0114391003957826	0.9090997982145046	-0.0558033183326081
id657	sample1	obj297	0.2316950843278741	-1.0784842200081146	-2.406414014142887	-0.5862942748006399	2.544121856935508
id658	sample1	obj298	-2.5802667331340303	1.5649018664825052	2.317290952547417	-0.7800556494416013	-2.690475873361968
id659	sample1	obj299	0.9162535956611382	-1.4399958632149483	-0.08890590074781723	1.7567341360420117	-0.0023863572779476705
id660	sample1	obj300	0.8075547061392768	-3.4031516451991832	2.838523484937385	1.4439482321848915	-0.0017298489399326655
id661	sample1	obj301	0.7676100886425381	-0.9962442122635518	-3.1562921836866895	2.371838499525614	3.0289966694018435
id662	sample1	obj302	3.2010382832250506	0.9415415071351656	-2.9480430119699896	-2.5075413377905873	-1.8141813910272135
id663	sample1	obj303	-2.0262394730385274	2.3245805363700947	2.506397472665819	2.436196532442828	-1.436321975128803
id664	sample1	obj304	-2.5845920712358788	2.0188392556898895	0.5624821667775397	-1.2975727687556506	2.9660423644670346
id665	sample1	obj305	2.219105660705142	2.9050188398156203	1.5855352451421725	-1.3999007380340869	2.53638003688663
id666	sample1	obj306	-1.008729090336524	-3.1382907587027864	0.772460047175225	0.4392062313120568	-1.5131817844624857
id667	sample1	obj307	-3.0291586697574324	-1.7471309341974108	2.883070670508399	-1.2687646819263938	3.4553507036860367
id668	sample1	obj308	-1.1323481741606873	-0.4382919809253696	2.2826611891966824	-3.0875875452509685	-1.932608068937371
id669	sample1	obj309	-0.8570180502586572	4.002414718715672	-2.5394774607192616	-0.8789646613567931	-1.3929307647576197
id670	sample1	obj310	2.982142676094027	0.6027043480672227	1.0710114035878826	0.01791777143765061	0.13694060844132538
id671	sample1	obj311	2.1074581400856527	-0.6134012059125503	1.919714063484909	0.4057727901084356	3.3414796659061894
id672	sample1	obj312	-2.3395632516113514	0.4782067493457094	-2.231584389138052	2.924112939915716	0.3586514193806525
id673	sample1	obj313	-0.9668051364543967	3.0299372061981065	-1.4674650944301644	1.8095471940825427	-0.4069441994688143
id674	sample1	obj314	2.492470759563439	-2.2477027218495573	-1.2461048075893395	0.8078509418859023	-1.2960577886255258
id675	sample1	obj315	-0.17421441897195922	-3.3711557489310104	1.045649763160736	1.1474266419200627	2.420740475933372
id676	sample1	obj316	2.5582490014267707	-0.2663498587991624	2.133397974906924	-0.4872897421200981	-1.613738814409359
id677	sample1	obj317	-2.2301686696002534	-3.0845420042366323	2.605044142549783	3.2204548423097634	3.931804153828975
id678	sample1	obj318	1.0043585148953182	2.1221174607001307	-3.1956303301609346	0.9594458612180312	-1.005139577159405
id679	sample1	obj319	-2.275353708083617	0.37244407403453605	-2.3612179349535567	2.9371477411724918	2.5969235092217176
id680	sample1	obj320	3.143242720861451	-0.7355038903421403	-2.1523266660415565	0.8023134482524992	-2.4841051863588732
id681	sample1	obj321	-0.7861525704930197	0.22597933368227618	-3.6952794080031817	0.861173972160666	-0.6738786326964676
id682	sample1	obj322	2.2458590763730784	-0.6715139202386065	1.0091925094094119	2.877463611084716	-3.2779246626673966
id683	sample1	obj323	0.5400223193028659	0.5459314146415095	2.332426560397799	-0.9247440737593269	0.33808379892691276
id684	sample1	obj324	0.24309877548417502	1.9787403045863363	-2.7474380480616647	-1.238194625501867	-1.5934179311991896
id685	sample1	obj325	1.5083952391862576	-1.3133575719582844	-0.5484932858627004	-3.235512687828136	-2.7063569074323093
id686	sample1	obj326	-0.5378421407229033	0.9371666396596487	-0.14890731103891341	0.6070995584379635	2.6651725737276406
id687	sample1	obj327	-0.12330388932174552	0.48910573932605206	-2.570469552336271	0.6162121143600898	-2.5423447072371372
id688	sample1	obj328	2.110564502501096	1.8664196474654426	3.7016403960151276	-0.5671490009360676	1.8401951955481095
id689	sample1	obj329	0.3385622614283903	-1.4744575590315567	-1.3613472305049743	2.7473114892478043	-1.3195544053912358
id690	sample1	obj330	3.144630281926047	-2.7084261513423344	0.8443081304925898	-0.2775724299549801	-2.819923116325554
id691	sample1	obj331	-2.286415036933243	-1.2052472765135218	1.1186217381489296	2.235606928501949	-1.1746439562536852
id692	sample1	obj332	3.1815293782299956	3.6058186158856538	3.88659604628561	-3.3778265607911613	0.047905588704858504
id693	sample1	obj333	2.16097724226241	-1.6068009013812006	-1.286429977954768	-0.7432306874230732	2.1986914803533466
id694	sample1	obj334	-0.045000487665025846	-2.728878043776787	0.4351047530810226	-2.9150736805177297	2.77791688387343
id695	sample1	obj335	-1.6939986559967954	-1.9229892316388844	1.6366866535085725	-0.9090471263522888	2.206198766819796
id696	sample1	obj336	0.8425318443372785	-2.408798933345296	-0.9976474819656258	1.2977967237015624	-0.9104066303561591
id697	sample1	obj337	0.8339841330031177	1.4631157431322346	2.794274292425417	-0.7087142565610467	3.533254161753568
id698	sample1	obj338	-0.7309867731120765	2.2653316245041575	-0.9393268827316981	-2.3226510222119416	1.285642069513916
id699	sample1	obj339	0.23301715026937053	-1.1141405451544308	0.3290474351996865	-2.2723242863853024	0.7356046934180929
id700	sample1	obj340	-1.0021084997279517	1.5359990245058495	-3.9318877820263163	-2.4868436339686126	-0.003946844131118787
id701	sample1	obj341	-1.1492463052341966	-1.1430045388664891	2.184901773108881	2.73046385498623	3.205545296867853
id702	sample1	obj342	-1.6126930976990776	-1.8294018741769458	-1.7508642199751416	1.1568578711709094	-0.7025795117850524
id703	sample1	obj343	-0.8197201682667036	-2.862193891829394	0.6054685187324502	-2.365125631563921	0.23312946928555112
id704	sample1	obj344	-2.883704812450281	-0.9810333727224174	1.270667359562906	-1.5571684880888097	-1.2478252074343357
id705	sample1	obj345	-1.7804499605861392	-1.792454204148632	-1.6570480337130007	3.372623319649002	-0.014974728039307772
id706	sample1	obj346	1.4075904484210826	0.6895823036544826	0.8487905738307895	-2.0642432983380328	0.10916177880480049
id707	sample1	obj347	0.31752512811580136	-1.1926663786964191	0.48152733918708157	0.0114175045476973	-3.583939370588986
id708	sample1	obj348	-2.4910302100734834	-0.6692424925794922	1.5354493327498417	-0.9527842113178482	1.6817744342344794
id709	sample1	obj349	-3.045412981015547	-0.5737414686061202	2.563181959423762	0.05049217883034918	0.7803526911007772
id710	sample1	obj350	-0.7564700173382732	-2.2899834956586953	2.221503439647067	2.952829697832057	1.3384910739963005
id711	sample1	obj351	2.14969242203201	1.6802057062635092	0.1265369231594431	-0.00759145330140143	-1.3135600656951398
id712	sample1	obj352	-1.6613699868526592	-1.8301265124412178	1.4580393573774002	-3.987695709924514	-1.87941653245957
id713	sample1	obj353	-0.5505012583761336	1.0882300500397637	-0.30777740257348807	-1.1327206524750568	-0.1758345264329948
id714	sample1	obj354	1.4337026920813751	-3.14519382505133	1.4217182252631202	-2.3941758251739604	1.5933770802364575
id715	sample1	obj355	-1.029153904666844	-1.9356155586582244	-0.43932796257537265	-2.5784597086920287	-2.5563818350538003
id716	sample1	obj356	-1.8876118072137489	-1.5057575744894616	1.798264787007108	1.634734685783718	2.6615888002523143
id717	sample1	obj357	1.6493829259911383	-3.0717239920503188	2.2757163682774917	3.367716550409127	-2.469886663232116
id718	sample1	obj358	1.5053604814491646	0.6367695050788578	-1.8746894536885916	-1.4184994098915356	-1.516116860766725
id719	sample1	obj359	1.9714341274384504	0.784197872540177	-0.2659443196511694	-0.3883116792920005	3.8875141334863965
