	-1.8625033455825504	1.1167678568838595	1.9020247874028493	-1.5485590257911621	0.4469947771944507
	-0.9639360939408985	-0.4282719310166918	-0.781988653903293	-0.2480246276793605	1.904341434364435
	2.787834200312387	-2.482193772612379	1.1157113039908197	0.6237616730612352	1.6058361486075503
