obj0	obj0
obj0	obj7
obj0	obj57
obj0	obj72
obj0	obj79
obj0	obj103
obj0	obj153
obj0	obj265
obj0	obj271
obj0	obj281
obj0	obj286
obj0	obj309
obj0	obj351
obj1	obj1
obj1	obj5
obj1	obj19
obj1	obj31
obj1	obj77
obj1	obj152
obj1	obj231
obj1	obj271
obj1	obj277
obj1	obj282
obj1	obj288
obj1	obj304
obj1	obj308
obj1	obj327
obj2	obj2
obj2	obj21
obj2	obj39
obj2	obj46
obj2	obj96
obj2	obj136
obj2	obj141
obj2	obj143
obj2	obj160
obj2	obj190
obj2	obj197
obj2	obj299
obj2	obj303
obj2	obj315
obj2	obj336
obj2	obj352
obj2	obj353
obj3	obj3
obj3	obj56
obj3	obj59
obj3	obj63
obj3	obj71
obj3	obj75
obj3	obj87
obj3	obj94
obj3	obj125
obj3	obj144
obj3	obj253
obj3	obj269
obj3	obj305
obj4	obj4
obj4	obj87
obj4	obj125
obj4	obj215
obj4	obj235
obj4	obj259
obj4	obj263
obj4	obj264
obj4	obj347
obj5	obj5
obj5	obj11
obj5	obj43
obj5	obj66
obj5	obj81
obj5	obj95
obj5	obj97
obj5	obj183
obj6	obj6
obj6	obj80
obj6	obj118
obj6	obj134
obj6	obj179
obj7	obj7
obj7	obj25
obj7	obj42
obj7	obj80
obj7	obj92
obj7	obj105
obj7	obj122
obj7	obj143
obj7	obj221
obj7	obj287
obj8	obj8
obj8	obj12
obj8	obj115
obj8	obj152
obj8	obj153
obj8	obj214
obj8	obj337
obj9	obj9
obj9	obj40
obj9	obj42
obj9	obj72
obj9	obj82
obj9	obj92
obj9	obj253
obj9	obj288
obj9	obj331
obj10	obj10
obj10	obj25
obj10	obj68
obj10	obj72
obj10	obj83
obj10	obj92
obj10	obj95
obj10	obj123
obj10	obj124
obj10	obj173
obj10	obj287
obj10	obj317
obj10	obj354
obj11	obj11
obj11	obj24
obj11	obj46
obj11	obj48
obj11	obj51
obj11	obj79
obj11	obj226
obj11	obj237
obj11	obj254
obj11	obj325
obj12	obj12
obj12	obj20
obj12	obj102
obj12	obj114
obj12	obj154
obj12	obj156
obj12	obj157
obj12	obj177
obj12	obj246
obj12	obj327
obj13	obj13
obj13	obj103
obj13	obj231
obj13	obj258
obj13	obj357
obj14	obj14
obj14	obj46
obj14	obj60
obj14	obj120
obj14	obj135
obj14	obj137
obj14	obj265
obj14	obj268
obj14	obj295
obj15	obj15
obj15	obj21
obj15	obj62
obj15	obj63
obj15	obj84
obj15	obj89
obj15	obj109
obj15	obj123
obj15	obj172
obj15	obj242
obj15	obj333
obj15	obj347
obj16	obj16
obj16	obj108
obj16	obj129
obj16	obj156
obj16	obj255
obj16	obj279
obj16	obj301
obj17	obj17
obj17	obj38
obj17	obj49
obj17	obj59
obj17	obj114
obj17	obj128
obj17	obj155
obj17	obj264
obj17	obj281
obj17	obj286
obj17	obj290
obj17	obj320
obj18	obj18
obj18	obj34
obj18	obj56
obj18	obj75
obj18	obj85
obj18	obj118
obj18	obj128
obj18	obj265
obj18	obj302
obj18	obj344
obj19	obj19
obj19	obj68
obj19	obj71
obj19	obj91
obj19	obj100
obj19	obj159
obj19	obj168
obj19	obj234
obj19	obj243
obj19	obj309
obj20	obj20
obj20	obj33
obj20	obj68
obj20	obj105
obj20	obj138
obj20	obj161
obj20	obj221
obj20	obj241
obj20	obj253
obj20	obj279
obj20	obj311
obj20	obj354
obj20	obj359
obj21	obj21
obj21	obj62
obj21	obj80
obj21	obj115
obj21	obj182
obj21	obj202
obj21	obj299
obj22	obj22
obj22	obj29
obj22	obj55
obj22	obj156
obj22	obj162
obj22	obj199
obj22	obj242
obj22	obj292
obj22	obj314
obj23	obj23
obj23	obj44
obj23	obj46
obj23	obj54
obj23	obj142
obj23	obj244
obj23	obj257
obj23	obj303
obj24	obj24
obj24	obj69
obj24	obj109
obj24	obj308
obj24	obj311
obj24	obj334
obj25	obj25
obj25	obj52
obj25	obj103
obj25	obj104
obj25	obj132
obj25	obj194
obj25	obj215
obj25	obj251
obj25	obj304
obj26	obj26
obj26	obj67
obj26	obj69
obj26	obj76
obj26	obj90
obj26	obj147
obj26	obj197
obj26	obj254
obj26	obj256
obj26	obj345
obj27	obj27
obj27	obj31
obj27	obj105
obj27	obj115
obj27	obj307
obj27	obj310
obj27	obj346
obj28	obj28
obj28	obj29
obj28	obj183
obj28	obj221
obj28	obj241
obj28	obj256
obj28	obj258
obj28	obj321
obj28	obj331
obj29	obj29
obj29	obj82
obj29	obj302
obj30	obj30
obj30	obj67
obj30	obj110
obj30	obj142
obj30	obj159
obj30	obj207
obj30	obj222
obj30	obj245
obj30	obj305
obj30	obj326
obj31	obj31
obj31	obj100
obj31	obj101
obj31	obj141
obj31	obj153
obj31	obj277
obj31	obj294
obj31	obj327
obj32	obj32
obj32	obj44
obj32	obj74
obj32	obj118
obj32	obj127
obj32	obj337
obj32	obj340
obj33	obj33
obj33	obj34
obj33	obj36
obj33	obj66
obj33	obj70
obj33	obj101
obj33	obj115
obj33	obj249
obj33	obj297
obj33	obj337
obj33	obj356
obj34	obj34
obj34	obj86
obj34	obj120
obj34	obj255
obj34	obj261
obj34	obj263
obj34	obj338
obj35	obj35
obj35	obj93
obj35	obj98
obj35	obj150
obj35	obj249
obj35	obj298
obj35	obj326
obj35	obj335
obj36	obj36
obj36	obj79
obj36	obj133
obj36	obj162
obj36	obj226
obj36	obj269
obj36	obj286
obj37	obj37
obj37	obj135
obj37	obj177
obj37	obj253
obj37	obj318
obj37	obj345
obj38	obj38
obj38	obj122
obj38	obj124
obj38	obj176
obj38	obj211
obj38	obj283
obj38	obj355
obj39	obj39
obj39	obj68
obj39	obj76
obj39	obj131
obj39	obj244
obj39	obj295
obj39	obj316
obj40	obj40
obj40	obj81
obj40	obj128
obj40	obj135
obj40	obj142
obj40	obj156
obj40	obj161
obj40	obj224
obj40	obj243
obj40	obj354
obj41	obj41
obj41	obj97
obj41	obj122
obj41	obj123
obj41	obj152
obj41	obj205
obj41	obj228
obj41	obj240
obj41	obj270
obj41	obj305
obj41	obj310
obj41	obj348
obj41	obj355
obj42	obj42
obj42	obj62
obj42	obj64
obj42	obj150
obj42	obj153
obj42	obj184
obj42	obj210
obj43	obj43
obj43	obj69
obj43	obj70
obj43	obj97
obj43	obj103
obj43	obj108
obj43	obj118
obj43	obj129
obj43	obj156
obj43	obj189
obj43	obj229
obj43	obj303
obj43	obj304
obj43	obj357
obj44	obj44
obj44	obj82
obj44	obj153
obj44	obj205
obj44	obj240
obj44	obj257
obj44	obj280
obj45	obj45
obj45	obj90
obj45	obj148
obj45	obj265
obj45	obj290
obj45	obj302
obj46	obj46
obj46	obj67
obj46	obj70
obj46	obj110
obj46	obj255
obj46	obj283
obj46	obj316
obj46	obj357
obj47	obj47
obj47	obj50
obj47	obj119
obj47	obj128
obj47	obj139
obj47	obj237
obj47	obj273
obj47	obj294
obj47	obj334
obj47	obj335
obj47	obj359
obj48	obj48
obj48	obj72
obj48	obj212
obj48	obj286
obj48	obj289
obj48	obj315
obj48	obj336
obj49	obj49
obj49	obj75
obj49	obj184
obj49	obj307
obj49	obj343
obj49	obj352
obj49	obj356
obj50	obj50
obj50	obj83
obj50	obj90
obj50	obj91
obj50	obj160
obj50	obj162
obj50	obj222
obj50	obj244
obj50	obj287
obj51	obj51
obj51	obj127
obj51	obj179
obj51	obj231
obj51	obj242
obj51	obj245
obj51	obj268
obj51	obj279
obj51	obj338
obj52	obj52
obj52	obj66
obj52	obj77
obj52	obj104
obj52	obj120
obj52	obj141
obj52	obj147
obj52	obj165
obj52	obj315
obj52	obj316
obj53	obj53
obj53	obj54
obj53	obj78
obj53	obj154
obj53	obj187
obj53	obj202
obj53	obj324
obj54	obj54
obj54	obj100
obj54	obj111
obj54	obj128
obj54	obj133
obj54	obj175
obj54	obj198
obj54	obj297
obj54	obj320
obj55	obj55
obj55	obj77
obj55	obj196
obj55	obj201
obj55	obj223
obj55	obj225
obj55	obj253
obj55	obj260
obj55	obj335
obj55	obj338
obj55	obj344
obj56	obj56
obj56	obj65
obj56	obj95
obj56	obj99
obj56	obj242
obj56	obj261
obj56	obj355
obj57	obj57
obj57	obj59
obj57	obj114
obj57	obj133
obj57	obj192
obj57	obj235
obj57	obj259
obj57	obj274
obj57	obj299
obj57	obj338
obj58	obj58
obj58	obj63
obj58	obj84
obj58	obj91
obj58	obj108
obj58	obj111
obj58	obj173
obj58	obj188
obj58	obj291
obj58	obj325
obj58	obj343
obj59	obj59
obj59	obj120
obj59	obj134
obj59	obj137
obj59	obj155
obj59	obj283
obj59	obj317
obj59	obj328
obj59	obj330
obj59	obj345
obj60	obj60
obj60	obj61
obj60	obj69
obj60	obj111
obj60	obj120
obj60	obj172
obj60	obj266
obj60	obj329
obj60	obj345
obj61	obj61
obj61	obj68
obj61	obj123
obj61	obj135
obj61	obj144
obj61	obj237
obj61	obj278
obj61	obj298
obj61	obj331
obj62	obj62
obj62	obj67
obj62	obj89
obj62	obj158
obj62	obj266
obj62	obj313
obj62	obj338
obj62	obj345
obj62	obj355
obj63	obj63
obj63	obj75
obj63	obj83
obj63	obj101
obj63	obj106
obj63	obj117
obj63	obj257
obj63	obj283
obj63	obj287
obj63	obj308
obj63	obj336
obj64	obj64
obj64	obj75
obj64	obj94
obj64	obj97
obj64	obj142
obj64	obj146
obj64	obj285
obj65	obj65
obj65	obj74
obj65	obj78
obj65	obj79
obj65	obj89
obj65	obj106
obj65	obj108
obj65	obj302
obj66	obj66
obj66	obj97
obj66	obj149
obj66	obj159
obj66	obj172
obj66	obj242
obj66	obj306
obj67	obj67
obj67	obj83
obj67	obj333
obj67	obj337
obj68	obj68
obj68	obj89
obj68	obj130
obj68	obj252
obj68	obj259
obj68	obj267
obj68	obj298
obj68	obj300
obj69	obj69
obj69	obj83
obj69	obj94
obj69	obj118
obj69	obj148
obj69	obj160
obj69	obj255
obj69	obj281
obj69	obj287
obj69	obj288
obj69	obj296
obj70	obj70
obj70	obj71
obj70	obj76
obj70	obj81
obj70	obj97
obj70	obj136
obj70	obj202
obj70	obj221
obj70	obj279
obj70	obj295
obj70	obj324
obj70	obj335
obj70	obj354
obj70	obj356
obj71	obj71
obj71	obj79
obj71	obj158
obj71	obj299
obj72	obj72
obj72	obj76
obj72	obj94
obj72	obj96
obj72	obj227
obj72	obj243
obj72	obj261
obj72	obj292
obj72	obj322
obj72	obj340
obj72	obj347
obj73	obj73
obj73	obj151
obj73	obj153
obj73	obj163
obj73	obj186
obj73	obj216
obj73	obj232
obj73	obj258
obj73	obj278
obj73	obj289
obj74	obj74
obj74	obj108
obj74	obj116
obj74	obj135
obj74	obj160
obj74	obj166
obj74	obj265
obj74	obj326
obj74	obj344
obj74	obj348
obj75	obj75
obj75	obj85
obj75	obj96
obj75	obj139
obj75	obj307
obj75	obj314
obj76	obj76
obj76	obj80
obj76	obj97
obj76	obj108
obj76	obj110
obj76	obj153
obj76	obj198
obj76	obj276
obj76	obj311
obj76	obj327
obj77	obj77
obj77	obj78
obj77	obj158
obj77	obj243
obj77	obj254
obj77	obj265
obj77	obj303
obj77	obj359
obj78	obj78
obj78	obj106
obj78	obj112
obj78	obj261
obj78	obj265
obj78	obj321
obj78	obj341
obj78	obj342
obj79	obj79
obj79	obj83
obj79	obj85
obj79	obj105
obj79	obj153
obj79	obj187
obj79	obj248
obj80	obj80
obj80	obj93
obj80	obj135
obj80	obj205
obj80	obj266
obj80	obj272
obj80	obj341
obj81	obj81
obj81	obj121
obj81	obj124
obj81	obj130
obj81	obj134
obj81	obj228
obj81	obj298
obj81	obj327
obj82	obj82
obj82	obj102
obj82	obj116
obj82	obj140
obj82	obj150
obj82	obj164
obj82	obj219
obj82	obj246
obj82	obj280
obj82	obj283
obj82	obj344
obj83	obj83
obj83	obj127
obj83	obj133
obj83	obj259
obj83	obj261
obj83	obj296
obj83	obj309
obj83	obj340
obj84	obj84
obj84	obj113
obj84	obj133
obj84	obj148
obj84	obj173
obj84	obj246
obj84	obj281
obj85	obj85
obj85	obj91
obj85	obj100
obj85	obj116
obj85	obj147
obj85	obj228
obj85	obj287
obj85	obj312
obj85	obj330
obj86	obj86
obj86	obj111
obj86	obj114
obj86	obj124
obj86	obj146
obj86	obj148
obj86	obj167
obj86	obj184
obj86	obj203
obj86	obj204
obj86	obj273
obj86	obj314
obj87	obj87
obj87	obj90
obj87	obj175
obj87	obj264
obj87	obj266
obj88	obj88
obj88	obj124
obj88	obj136
obj88	obj146
obj88	obj158
obj88	obj166
obj88	obj179
obj88	obj264
obj88	obj295
obj88	obj333
obj89	obj89
obj89	obj102
obj89	obj105
obj89	obj138
obj89	obj141
obj89	obj156
obj89	obj187
obj89	obj258
obj90	obj90
obj90	obj98
obj90	obj103
obj90	obj128
obj90	obj139
obj90	obj178
obj91	obj91
obj91	obj98
obj91	obj195
obj91	obj249
obj91	obj268
obj91	obj274
obj91	obj314
obj92	obj92
obj92	obj93
obj92	obj102
obj92	obj112
obj92	obj125
obj92	obj142
obj92	obj150
obj93	obj93
obj93	obj120
obj93	obj139
obj93	obj141
obj93	obj182
obj93	obj286
obj93	obj308
obj94	obj94
obj94	obj100
obj94	obj160
obj94	obj198
obj94	obj218
obj94	obj332
obj94	obj344
obj95	obj95
obj95	obj128
obj95	obj162
obj95	obj165
obj95	obj308
obj95	obj330
obj96	obj96
obj96	obj170
obj96	obj243
obj96	obj249
obj96	obj335
obj96	obj353
obj97	obj97
obj97	obj108
obj97	obj114
obj97	obj139
obj97	obj198
obj97	obj219
obj97	obj247
obj97	obj291
obj97	obj319
obj98	obj98
obj98	obj113
obj98	obj123
obj98	obj182
obj98	obj260
obj98	obj293
obj98	obj304
obj98	obj332
obj99	obj99
obj99	obj120
obj99	obj133
obj99	obj193
obj99	obj256
obj99	obj291
obj99	obj354
obj100	obj100
obj100	obj114
obj100	obj116
obj100	obj127
obj100	obj150
obj100	obj172
obj100	obj212
obj100	obj355
obj100	obj356
obj101	obj101
obj101	obj138
obj101	obj194
obj101	obj195
obj101	obj201
obj101	obj202
obj101	obj245
obj101	obj350
obj101	obj359
obj102	obj102
obj102	obj108
obj102	obj151
obj102	obj261
obj102	obj265
obj102	obj273
obj102	obj277
obj102	obj323
obj103	obj103
obj103	obj254
obj103	obj291
obj103	obj304
obj103	obj316
obj104	obj104
obj104	obj114
obj104	obj138
obj104	obj277
obj104	obj315
obj104	obj341
obj104	obj343
obj105	obj105
obj105	obj123
obj105	obj127
obj105	obj132
obj105	obj133
obj105	obj157
obj105	obj184
obj105	obj188
obj105	obj243
obj105	obj262
obj105	obj293
obj105	obj322
obj105	obj352
obj106	obj106
obj106	obj124
obj106	obj154
obj106	obj155
obj106	obj288
obj106	obj351
obj107	obj107
obj107	obj116
obj107	obj301
obj107	obj351
obj108	obj108
obj108	obj119
obj108	obj246
obj108	obj280
obj108	obj281
obj108	obj349
obj108	obj352
obj109	obj109
obj109	obj115
obj109	obj125
obj109	obj144
obj109	obj203
obj109	obj305
obj109	obj323
obj109	obj333
obj109	obj346
obj110	obj110
obj110	obj190
obj110	obj221
obj110	obj257
obj110	obj269
obj110	obj288
obj110	obj313
obj111	obj111
obj111	obj122
obj111	obj156
obj111	obj262
obj111	obj281
obj112	obj112
obj112	obj120
obj112	obj212
obj112	obj230
obj112	obj265
obj113	obj113
obj113	obj114
obj113	obj124
obj113	obj169
obj113	obj176
obj113	obj292
obj113	obj298
obj113	obj323
obj114	obj114
obj114	obj133
obj114	obj313
obj115	obj115
obj115	obj136
obj115	obj144
obj115	obj214
obj115	obj219
obj115	obj317
obj116	obj116
obj116	obj124
obj116	obj127
obj116	obj135
obj116	obj150
obj116	obj184
obj116	obj265
obj116	obj298
obj117	obj117
obj117	obj144
obj117	obj224
obj117	obj317
obj117	obj350
obj118	obj118
obj118	obj119
obj118	obj144
obj118	obj169
obj118	obj282
obj118	obj302
obj118	obj306
obj118	obj316
obj118	obj323
obj119	obj119
obj119	obj125
obj119	obj127
obj119	obj306
obj119	obj330
obj120	obj120
obj120	obj127
obj120	obj159
obj120	obj201
obj120	obj214
obj120	obj225
obj120	obj273
obj120	obj282
obj120	obj294
obj120	obj330
obj121	obj121
obj121	obj236
obj121	obj277
obj121	obj287
obj121	obj304
obj121	obj339
obj122	obj122
obj122	obj215
obj122	obj293
obj122	obj299
obj122	obj352
obj123	obj123
obj123	obj150
obj123	obj167
obj123	obj232
obj124	obj124
obj124	obj138
obj124	obj231
obj124	obj238
obj124	obj272
obj124	obj304
obj124	obj328
obj124	obj355
obj125	obj125
obj125	obj212
obj125	obj221
obj125	obj226
obj125	obj253
obj126	obj126
obj126	obj127
obj126	obj189
obj126	obj220
obj126	obj293
obj126	obj304
obj127	obj127
obj127	obj171
obj127	obj224
obj127	obj290
obj127	obj327
obj127	obj332
obj128	obj128
obj128	obj132
obj128	obj158
obj129	obj129
obj129	obj146
obj129	obj156
obj129	obj340
obj130	obj130
obj130	obj225
obj130	obj257
obj130	obj303
obj130	obj357
obj131	obj131
obj131	obj134
obj131	obj155
obj131	obj248
obj131	obj264
obj131	obj280
obj131	obj300
obj131	obj321
obj131	obj346
obj131	obj357
obj132	obj132
obj132	obj262
obj132	obj287
obj132	obj302
obj133	obj133
obj133	obj150
obj133	obj155
obj133	obj175
obj133	obj329
obj133	obj339
obj134	obj134
obj134	obj136
obj134	obj155
obj134	obj160
obj134	obj300
obj134	obj332
obj135	obj135
obj135	obj252
obj136	obj136
obj136	obj258
obj136	obj304
obj136	obj334
obj136	obj347
obj136	obj350
obj137	obj137
obj137	obj140
obj137	obj147
obj137	obj263
obj137	obj281
obj137	obj303
obj137	obj305
obj137	obj308
obj137	obj317
obj137	obj340
obj137	obj349
obj138	obj138
obj138	obj140
obj138	obj147
obj138	obj149
obj138	obj158
obj138	obj256
obj138	obj338
obj139	obj139
obj139	obj243
obj139	obj285
obj139	obj309
obj139	obj341
obj140	obj140
obj140	obj166
obj141	obj141
obj141	obj146
obj141	obj159
obj141	obj171
obj141	obj212
obj141	obj240
obj141	obj298
obj141	obj335
obj141	obj349
obj142	obj142
obj142	obj170
obj142	obj326
obj142	obj327
obj143	obj143
obj143	obj158
obj143	obj206
obj143	obj265
obj143	obj283
obj143	obj321
obj143	obj328
obj144	obj144
obj144	obj207
obj144	obj305
obj144	obj348
obj145	obj145
obj145	obj341
obj145	obj344
obj146	obj146
obj146	obj156
obj146	obj216
obj146	obj220
obj146	obj224
obj146	obj310
obj147	obj147
obj147	obj151
obj147	obj159
obj147	obj228
obj147	obj231
obj148	obj148
obj148	obj198
obj148	obj202
obj148	obj254
obj148	obj259
obj148	obj292
obj148	obj337
obj149	obj149
obj149	obj222
obj149	obj280
obj149	obj304
obj149	obj343
obj150	obj150
obj150	obj156
obj150	obj244
obj150	obj249
obj150	obj296
obj150	obj338
obj151	obj151
obj151	obj158
obj151	obj293
obj151	obj315
obj152	obj152
obj152	obj268
obj152	obj324
obj153	obj153
obj153	obj214
obj154	obj154
obj154	obj249
obj154	obj279
obj154	obj319
obj155	obj155
obj155	obj192
obj155	obj193
obj155	obj287
obj155	obj296
obj155	obj310
obj156	obj156
obj156	obj232
obj156	obj237
obj156	obj268
obj156	obj325
obj157	obj157
obj157	obj171
obj157	obj255
obj157	obj261
obj157	obj332
obj157	obj338
obj157	obj349
obj158	obj158
obj158	obj296
obj158	obj299
obj158	obj352
obj159	obj159
obj159	obj167
obj159	obj172
obj159	obj207
obj159	obj226
obj159	obj303
obj159	obj306
obj160	obj160
obj160	obj190
obj160	obj213
obj160	obj215
obj160	obj217
obj160	obj224
obj160	obj245
obj160	obj302
obj160	obj350
obj161	obj161
obj161	obj261
obj161	obj291
obj161	obj306
obj162	obj162
obj162	obj191
obj162	obj222
obj162	obj240
obj162	obj243
obj162	obj253
obj162	obj256
obj162	obj259
obj162	obj315
obj162	obj335
obj163	obj163
obj163	obj255
obj163	obj306
obj163	obj310
obj163	obj358
obj164	obj164
obj164	obj188
obj164	obj224
obj164	obj243
obj164	obj250
obj164	obj319
obj165	obj165
obj165	obj190
obj165	obj325
obj166	obj166
obj166	obj174
obj166	obj183
obj166	obj242
obj166	obj245
obj166	obj253
obj166	obj292
obj166	obj326
obj167	obj167
obj167	obj173
obj167	obj179
obj167	obj180
obj167	obj187
obj167	obj192
obj167	obj218
obj167	obj262
obj167	obj268
obj167	obj331
obj167	obj344
obj168	obj168
obj168	obj181
obj168	obj182
obj168	obj229
obj169	obj169
obj169	obj206
obj169	obj226
obj169	obj241
obj169	obj277
obj169	obj327
obj169	obj329
obj170	obj170
obj170	obj184
obj170	obj193
obj170	obj224
obj170	obj231
obj170	obj264
obj170	obj301
obj170	obj353
obj171	obj171
obj171	obj173
obj171	obj181
obj171	obj191
obj171	obj192
obj171	obj204
obj171	obj228
obj171	obj275
obj171	obj298
obj171	obj305
obj172	obj172
obj172	obj199
obj172	obj217
obj172	obj222
obj172	obj314
obj172	obj345
obj172	obj346
obj172	obj358
obj173	obj173
obj173	obj191
obj173	obj287
obj173	obj352
obj174	obj174
obj174	obj194
obj174	obj217
obj174	obj246
obj174	obj250
obj174	obj260
obj174	obj266
obj174	obj289
obj174	obj295
obj174	obj312
obj175	obj175
obj175	obj176
obj175	obj177
obj175	obj184
obj175	obj200
obj175	obj223
obj175	obj229
obj175	obj341
obj175	obj359
obj176	obj176
obj176	obj177
obj176	obj235
obj176	obj236
obj177	obj177
obj177	obj185
obj177	obj211
obj177	obj236
obj177	obj288
obj177	obj301
obj178	obj178
obj178	obj189
obj178	obj195
obj178	obj334
obj178	obj351
obj178	obj358
obj179	obj179
obj179	obj182
obj179	obj258
obj180	obj180
obj180	obj221
obj180	obj226
obj180	obj243
obj180	obj262
obj180	obj313
obj180	obj316
obj180	obj332
obj181	obj181
obj181	obj195
obj181	obj215
obj181	obj228
obj181	obj247
obj181	obj344
obj182	obj182
obj182	obj211
obj182	obj241
obj182	obj276
obj183	obj183
obj183	obj213
obj183	obj221
obj183	obj305
obj183	obj330
obj183	obj347
obj184	obj184
obj184	obj193
obj184	obj220
obj184	obj302
obj185	obj185
obj185	obj237
obj185	obj246
obj185	obj313
obj186	obj186
obj186	obj218
obj186	obj266
obj186	obj275
obj186	obj288
obj186	obj296
obj186	obj327
obj186	obj332
obj187	obj187
obj187	obj193
obj187	obj228
obj187	obj236
obj187	obj269
obj187	obj341
obj188	obj188
obj188	obj219
obj188	obj231
obj188	obj308
obj188	obj332
obj189	obj189
obj189	obj210
obj189	obj249
obj189	obj263
obj190	obj190
obj190	obj191
obj190	obj286
obj190	obj295
obj191	obj191
obj191	obj285
obj191	obj288
obj191	obj313
obj191	obj354
obj191	obj357
obj192	obj192
obj192	obj244
obj192	obj301
obj192	obj325
obj192	obj351
obj193	obj193
obj193	obj199
obj193	obj214
obj193	obj285
obj194	obj194
obj194	obj220
obj194	obj235
obj194	obj294
obj194	obj321
obj195	obj195
obj195	obj220
obj195	obj296
obj196	obj196
obj196	obj227
obj196	obj252
obj196	obj263
obj196	obj277
obj196	obj315
obj196	obj328
obj197	obj197
obj197	obj200
obj197	obj213
obj197	obj239
obj197	obj262
obj197	obj306
obj197	obj314
obj197	obj334
obj197	obj344
obj198	obj198
obj198	obj245
obj198	obj248
obj198	obj254
obj198	obj275
obj199	obj199
obj199	obj284
obj199	obj328
obj200	obj200
obj200	obj210
obj200	obj232
obj200	obj255
obj200	obj259
obj200	obj273
obj200	obj306
obj200	obj312
obj200	obj316
obj200	obj329
obj201	obj201
obj201	obj225
obj201	obj258
obj201	obj265
obj201	obj305
obj201	obj332
obj202	obj202
obj202	obj221
obj202	obj229
obj202	obj236
obj202	obj261
obj202	obj284
obj202	obj302
obj202	obj329
obj202	obj356
obj203	obj203
obj203	obj204
obj203	obj214
obj203	obj220
obj203	obj237
obj204	obj204
obj204	obj232
obj204	obj234
obj204	obj306
obj205	obj205
obj205	obj210
obj205	obj250
obj205	obj341
obj206	obj206
obj206	obj252
obj206	obj263
obj206	obj288
obj206	obj305
obj206	obj346
obj207	obj207
obj207	obj211
obj207	obj225
obj207	obj301
obj208	obj208
obj208	obj224
obj208	obj279
obj208	obj303
obj208	obj319
obj208	obj321
obj208	obj338
obj209	obj209
obj209	obj270
obj209	obj327
obj209	obj334
obj209	obj342
obj209	obj350
obj210	obj210
obj210	obj237
obj210	obj332
obj211	obj211
obj211	obj232
obj211	obj251
obj211	obj269
obj211	obj340
obj211	obj358
obj212	obj212
obj212	obj242
obj212	obj355
obj212	obj357
obj213	obj213
obj213	obj289
obj214	obj214
obj214	obj254
obj215	obj215
obj215	obj258
obj215	obj275
obj215	obj279
obj215	obj325
obj215	obj326
obj215	obj330
obj215	obj354
obj215	obj359
obj216	obj216
obj216	obj229
obj216	obj315
obj216	obj325
obj216	obj339
obj216	obj344
obj216	obj354
obj217	obj217
obj217	obj226
obj217	obj237
obj217	obj259
obj217	obj276
obj217	obj334
obj218	obj218
obj218	obj225
obj218	obj231
obj218	obj243
obj218	obj267
obj218	obj336
obj219	obj219
obj219	obj263
obj219	obj290
obj219	obj310
obj219	obj328
obj220	obj220
obj220	obj263
obj220	obj333
obj221	obj221
obj221	obj222
obj221	obj227
obj221	obj239
obj221	obj272
obj221	obj292
obj221	obj341
obj222	obj222
obj222	obj306
obj222	obj344
obj222	obj347
obj223	obj223
obj223	obj233
obj224	obj224
obj224	obj273
obj224	obj284
obj225	obj225
obj225	obj236
obj226	obj226
obj226	obj336
obj227	obj227
obj227	obj236
obj227	obj237
obj227	obj286
obj227	obj295
obj227	obj312
obj227	obj354
obj228	obj228
obj228	obj235
obj228	obj241
obj228	obj252
obj228	obj284
obj228	obj294
obj228	obj319
obj228	obj321
obj228	obj331
obj229	obj229
obj229	obj273
obj229	obj280
obj229	obj322
obj229	obj324
obj230	obj230
obj230	obj236
obj230	obj308
obj230	obj351
obj231	obj231
obj231	obj247
obj231	obj292
obj231	obj330
obj231	obj337
obj232	obj232
obj232	obj280
obj232	obj339
obj232	obj341
obj232	obj344
obj233	obj233
obj233	obj250
obj233	obj278
obj233	obj297
obj233	obj310
obj233	obj329
obj233	obj346
obj234	obj234
obj234	obj252
obj234	obj261
obj234	obj270
obj235	obj235
obj235	obj261
obj235	obj284
obj235	obj300
obj235	obj332
obj235	obj348
obj235	obj353
obj236	obj236
obj236	obj252
obj236	obj255
obj236	obj263
obj236	obj277
obj236	obj294
obj236	obj306
obj236	obj310
obj236	obj322
obj237	obj237
obj237	obj261
obj237	obj276
obj237	obj285
obj237	obj344
obj237	obj359
obj238	obj238
obj238	obj297
obj239	obj239
obj239	obj295
obj239	obj349
obj240	obj240
obj240	obj261
obj240	obj310
obj241	obj241
obj241	obj268
obj241	obj287
obj241	obj310
obj241	obj355
obj242	obj242
obj242	obj261
obj242	obj276
obj242	obj289
obj242	obj332
obj243	obj243
obj243	obj248
obj243	obj276
obj243	obj279
obj243	obj281
obj243	obj285
obj243	obj303
obj243	obj319
obj243	obj324
obj243	obj325
obj243	obj354
obj244	obj244
obj244	obj279
obj245	obj245
obj245	obj259
obj246	obj246
obj246	obj260
obj246	obj270
obj246	obj275
obj246	obj333
obj246	obj346
obj246	obj357
obj247	obj247
obj247	obj279
obj247	obj328
obj247	obj339
obj247	obj357
obj248	obj248
obj248	obj277
obj248	obj299
obj248	obj308
obj249	obj249
obj249	obj282
obj249	obj290
obj250	obj250
obj250	obj255
obj250	obj319
obj251	obj251
obj251	obj267
obj251	obj294
obj251	obj314
obj252	obj252
obj252	obj267
obj252	obj305
obj253	obj253
obj253	obj271
obj253	obj283
obj253	obj297
obj253	obj348
obj254	obj254
obj254	obj273
obj254	obj293
obj254	obj318
obj255	obj255
obj255	obj312
obj256	obj256
obj256	obj348
obj257	obj257
obj257	obj270
obj257	obj289
obj257	obj314
obj257	obj331
obj257	obj347
obj257	obj354
obj258	obj258
obj258	obj292
obj258	obj302
obj258	obj332
obj259	obj259
obj260	obj260
obj260	obj325
obj261	obj261
obj261	obj304
obj261	obj328
obj262	obj262
obj262	obj327
obj262	obj337
obj263	obj263
obj263	obj349
obj264	obj264
obj264	obj285
obj264	obj295
obj265	obj265
obj265	obj267
obj265	obj350
obj266	obj266
obj266	obj319
obj267	obj267
obj267	obj330
obj267	obj344
obj267	obj359
obj268	obj268
obj268	obj275
obj269	obj269
obj269	obj338
obj269	obj355
obj270	obj270
obj270	obj340
obj270	obj345
obj270	obj346
obj271	obj271
obj271	obj280
obj271	obj287
obj271	obj355
obj272	obj272
obj272	obj308
obj273	obj273
obj273	obj292
obj274	obj274
obj274	obj307
obj274	obj341
obj275	obj275
obj275	obj293
obj276	obj276
obj276	obj294
obj276	obj343
obj277	obj277
obj277	obj342
obj278	obj278
obj279	obj279
obj279	obj293
obj279	obj299
obj279	obj311
obj279	obj336
obj279	obj356
obj280	obj280
obj280	obj296
obj280	obj347
obj281	obj281
obj282	obj282
obj282	obj313
obj282	obj346
obj283	obj283
obj284	obj284
obj284	obj296
obj284	obj315
obj284	obj346
obj285	obj285
obj285	obj319
obj285	obj339
obj286	obj286
obj286	obj292
obj287	obj287
obj288	obj288
obj288	obj324
obj288	obj327
obj288	obj330
obj289	obj289
obj289	obj296
obj289	obj333
obj289	obj341
obj290	obj290
obj290	obj306
obj290	obj359
obj291	obj291
obj291	obj301
obj291	obj333
obj291	obj349
obj292	obj292
obj292	obj294
obj292	obj306
obj292	obj324
obj293	obj293
obj294	obj294
obj294	obj306
obj294	obj329
obj295	obj295
obj295	obj358
obj296	obj296
obj297	obj297
obj297	obj312
obj297	obj314
obj297	obj350
obj298	obj298
obj298	obj306
obj298	obj332
obj298	obj352
obj299	obj299
obj299	obj327
obj300	obj300
obj300	obj307
obj300	obj321
obj301	obj301
obj301	obj352
obj302	obj302
obj302	obj308
obj303	obj303
obj303	obj306
obj304	obj304
obj305	obj305
obj305	obj344
obj305	obj356
obj306	obj306
obj306	obj328
obj306	obj342
obj307	obj307
obj307	obj313
obj307	obj325
obj308	obj308
obj309	obj309
obj309	obj311
obj310	obj310
obj310	obj338
obj310	obj346
obj310	obj348
obj311	obj311
obj311	obj346
obj312	obj312
obj312	obj317
obj312	obj343
obj313	obj313
obj313	obj315
obj313	obj329
obj313	obj355
obj314	obj314
obj314	obj320
obj315	obj315
obj316	obj316
obj316	obj338
obj317	obj317
obj318	obj318
obj318	obj319
obj319	obj319
obj319	obj338
obj320	obj320
obj320	obj341
obj320	obj346
obj321	obj321
obj321	obj334
obj321	obj347
obj321	obj355
obj321	obj358
obj322	obj322
obj322	obj341
obj323	obj323
obj324	obj324
obj324	obj327
obj325	obj325
obj326	obj326
obj327	obj327
obj327	obj359
obj328	obj328
obj329	obj329
obj329	obj333
obj330	obj330
obj331	obj331
obj332	obj332
obj332	obj333
obj332	obj344
obj333	obj333
obj334	obj334
obj334	obj357
obj335	obj335
obj336	obj336
obj336	obj348
obj336	obj357
obj337	obj337
obj337	obj346
obj338	obj338
obj339	obj339
obj339	obj347
obj340	obj340
obj340	obj346
obj341	obj341
obj342	obj342
obj343	obj343
obj344	obj344
obj345	obj345
obj346	obj346
obj347	obj347
obj348	obj348
obj348	obj358
obj349	obj349
obj350	obj350
obj351	obj351
obj352	obj352
obj353	obj353
obj354	obj354
obj354	obj355
obj355	obj355
obj356	obj356
obj357	obj357
obj358	obj358
obj358	obj359
obj359	obj359
