obj0	obj1
obj0	obj11
obj0	obj25
obj0	obj39
obj0	obj65
obj0	obj79
obj0	obj152
obj0	obj307
obj1	obj17
obj1	obj124
obj2	obj15
obj2	obj39
obj2	obj48
obj2	obj66
obj2	obj82
obj2	obj85
obj2	obj139
obj3	obj7
obj3	obj52
obj3	obj177
obj3	obj226
obj3	obj230
obj4	obj7
obj4	obj27
obj4	obj31
obj4	obj55
obj4	obj111
obj4	obj140
obj4	obj183
obj5	obj21
obj5	obj43
obj5	obj54
obj5	obj72
obj5	obj81
obj5	obj83
obj5	obj106
obj5	obj119
obj5	obj123
obj5	obj155
obj5	obj288
obj6	obj52
obj6	obj75
obj6	obj144
obj6	obj155
obj6	obj156
obj6	obj194
obj6	obj197
obj6	obj256
obj6	obj341
obj7	obj213
obj7	obj236
obj7	obj304
obj8	obj29
obj8	obj69
obj8	obj79
obj8	obj84
obj8	obj213
obj9	obj95
obj9	obj98
obj9	obj139
obj9	obj159
obj9	obj168
obj9	obj172
obj9	obj190
obj9	obj321
obj10	obj32
obj10	obj55
obj10	obj157
obj10	obj192
obj10	obj308
obj11	obj15
obj11	obj36
obj11	obj52
obj11	obj80
obj11	obj150
obj11	obj171
obj11	obj257
obj12	obj80
obj12	obj102
obj12	obj110
obj12	obj134
obj12	obj136
obj12	obj140
obj12	obj147
obj12	obj158
obj12	obj179
obj12	obj198
obj12	obj313
obj13	obj55
obj13	obj81
obj13	obj152
obj13	obj206
obj14	obj21
obj14	obj76
obj14	obj88
obj14	obj132
obj14	obj330
obj15	obj16
obj15	obj31
obj15	obj38
obj15	obj62
obj15	obj99
obj15	obj152
obj15	obj164
obj16	obj46
obj16	obj47
obj16	obj100
obj17	obj37
obj17	obj38
obj17	obj43
obj17	obj58
obj17	obj89
obj17	obj94
obj17	obj116
obj17	obj175
obj17	obj204
obj17	obj231
obj18	obj63
obj18	obj115
obj18	obj119
obj18	obj121
obj19	obj27
obj19	obj116
obj19	obj154
obj19	obj156
obj19	obj157
obj19	obj161
obj19	obj218
obj20	obj20
obj20	obj73
obj20	obj248
obj20	obj327
obj20	obj350
obj21	obj58
obj21	obj81
obj21	obj99
obj21	obj151
obj21	obj176
obj21	obj221
obj22	obj66
obj22	obj74
obj22	obj95
obj22	obj97
obj22	obj124
obj22	obj142
obj22	obj151
obj23	obj40
obj23	obj59
obj23	obj120
obj23	obj135
obj24	obj38
obj24	obj54
obj24	obj62
obj24	obj103
obj24	obj134
obj25	obj45
obj25	obj83
obj25	obj136
obj25	obj322
obj25	obj354
obj26	obj44
obj26	obj55
obj26	obj63
obj26	obj64
obj26	obj103
obj26	obj109
obj26	obj167
obj26	obj192
obj26	obj237
obj27	obj71
obj27	obj98
obj27	obj143
obj28	obj112
obj28	obj129
obj28	obj139
obj28	obj156
obj28	obj302
obj28	obj329
obj28	obj355
obj29	obj62
obj29	obj69
obj29	obj82
obj29	obj140
obj30	obj30
obj30	obj78
obj30	obj160
obj30	obj167
obj30	obj178
obj30	obj296
obj31	obj32
obj31	obj49
obj31	obj75
obj31	obj76
obj31	obj96
obj31	obj108
obj31	obj139
obj31	obj155
obj31	obj162
obj31	obj180
obj31	obj187
obj31	obj232
obj32	obj36
obj32	obj55
obj32	obj81
obj32	obj112
obj32	obj124
obj32	obj350
obj33	obj34
obj33	obj65
obj33	obj75
obj33	obj126
obj33	obj170
obj33	obj203
obj33	obj225
obj34	obj56
obj34	obj81
obj34	obj90
obj34	obj109
obj34	obj117
obj34	obj271
obj35	obj66
obj35	obj97
obj35	obj156
obj36	obj41
obj36	obj71
obj36	obj85
obj36	obj112
obj36	obj143
obj36	obj151
obj36	obj164
obj36	obj178
obj36	obj195
obj36	obj212
obj36	obj235
obj37	obj56
obj37	obj70
obj37	obj94
obj37	obj140
obj37	obj151
obj37	obj153
obj37	obj331
obj37	obj352
obj38	obj45
obj38	obj112
obj38	obj180
obj38	obj194
obj38	obj332
obj39	obj45
obj39	obj107
obj39	obj173
obj39	obj205
obj39	obj338
obj40	obj55
obj40	obj57
obj40	obj65
obj40	obj70
obj40	obj75
obj40	obj118
obj40	obj126
obj40	obj194
obj40	obj202
obj41	obj43
obj41	obj44
obj41	obj55
obj41	obj79
obj41	obj110
obj41	obj111
obj41	obj144
obj41	obj174
obj42	obj99
obj42	obj104
obj42	obj128
obj42	obj130
obj42	obj216
obj43	obj54
obj43	obj102
obj43	obj103
obj43	obj110
obj43	obj146
obj43	obj203
obj43	obj322
obj44	obj57
obj44	obj195
obj45	obj48
obj45	obj50
obj45	obj127
obj45	obj152
obj45	obj196
obj46	obj151
obj46	obj258
obj47	obj57
obj47	obj58
obj47	obj61
obj47	obj64
obj47	obj69
obj47	obj74
obj47	obj110
obj47	obj128
obj47	obj264
obj48	obj95
obj48	obj192
obj48	obj194
obj49	obj61
obj49	obj76
obj49	obj111
obj49	obj199
obj49	obj204
obj49	obj272
obj50	obj52
obj50	obj57
obj50	obj92
obj50	obj96
obj50	obj145
obj50	obj153
obj50	obj157
obj51	obj56
obj51	obj94
obj51	obj99
obj51	obj162
obj51	obj191
obj52	obj74
obj52	obj97
obj52	obj169
obj52	obj179
obj52	obj219
obj53	obj58
obj53	obj77
obj53	obj123
obj53	obj138
obj53	obj155
obj53	obj265
obj54	obj57
obj54	obj119
obj54	obj170
obj54	obj183
obj54	obj268
obj54	obj272
obj54	obj280
obj55	obj86
obj55	obj88
obj55	obj144
obj55	obj190
obj55	obj285
obj56	obj63
obj56	obj91
obj56	obj108
obj56	obj150
obj56	obj156
obj56	obj269
obj56	obj312
obj57	obj61
obj57	obj89
obj57	obj148
obj57	obj218
obj57	obj233
obj58	obj60
obj58	obj80
obj58	obj84
obj58	obj179
obj58	obj222
obj59	obj143
obj59	obj153
obj59	obj175
obj60	obj75
obj60	obj85
obj60	obj100
obj60	obj103
obj60	obj113
obj60	obj205
obj61	obj67
obj61	obj90
obj61	obj95
obj61	obj159
obj61	obj190
obj62	obj136
obj63	obj102
obj63	obj159
obj63	obj193
obj63	obj206
obj63	obj227
obj63	obj307
obj64	obj72
obj64	obj113
obj64	obj194
obj64	obj220
obj64	obj241
obj65	obj82
obj65	obj94
obj65	obj122
obj65	obj158
obj65	obj190
obj65	obj234
obj66	obj76
obj66	obj84
obj66	obj123
obj66	obj136
obj66	obj211
obj67	obj138
obj67	obj154
obj67	obj171
obj67	obj186
obj68	obj121
obj69	obj84
obj69	obj87
obj69	obj149
obj69	obj156
obj69	obj179
obj69	obj203
obj69	obj289
obj70	obj75
obj70	obj90
obj70	obj186
obj70	obj211
obj71	obj141
obj71	obj154
obj71	obj350
obj72	obj114
obj72	obj121
obj72	obj149
obj72	obj204
obj73	obj117
obj73	obj126
obj74	obj93
obj74	obj94
obj74	obj109
obj74	obj124
obj74	obj144
obj74	obj155
obj74	obj186
obj75	obj122
obj75	obj231
obj75	obj331
obj76	obj79
obj76	obj112
obj77	obj135
obj77	obj189
obj77	obj198
obj77	obj224
obj78	obj138
obj78	obj143
obj78	obj156
obj78	obj158
obj78	obj222
obj78	obj226
obj79	obj140
obj79	obj313
obj80	obj90
obj80	obj118
obj80	obj150
obj81	obj117
obj81	obj150
obj81	obj184
obj81	obj185
obj81	obj295
obj82	obj102
obj82	obj133
obj82	obj158
obj82	obj234
obj83	obj148
obj83	obj187
obj84	obj105
obj84	obj110
obj84	obj199
obj85	obj100
obj85	obj111
obj85	obj143
obj85	obj151
obj85	obj191
obj86	obj88
obj86	obj98
obj86	obj107
obj86	obj144
obj86	obj151
obj86	obj155
obj86	obj188
obj87	obj91
obj87	obj124
obj87	obj142
obj87	obj217
obj87	obj280
obj88	obj93
obj88	obj124
obj88	obj169
obj89	obj103
obj89	obj167
obj89	obj216
obj89	obj340
obj90	obj137
obj90	obj144
obj91	obj120
obj92	obj96
obj92	obj137
obj92	obj293
obj93	obj116
obj93	obj125
obj93	obj163
obj93	obj227
obj93	obj306
obj94	obj142
obj94	obj153
obj94	obj159
obj94	obj346
obj95	obj186
obj95	obj188
obj96	obj107
obj96	obj136
obj96	obj154
obj96	obj234
obj96	obj236
obj97	obj97
obj97	obj109
obj97	obj140
obj97	obj196
obj97	obj284
obj98	obj156
obj98	obj188
obj98	obj237
obj99	obj209
obj99	obj227
obj100	obj297
obj101	obj109
obj101	obj120
obj101	obj122
obj101	obj232
obj101	obj272
obj102	obj119
obj102	obj121
obj102	obj156
obj102	obj160
obj103	obj146
obj103	obj148
obj103	obj149
obj103	obj155
obj103	obj157
obj103	obj176
obj103	obj181
obj103	obj320
obj104	obj112
obj104	obj143
obj104	obj159
obj104	obj164
obj104	obj219
obj104	obj232
obj105	obj107
obj105	obj112
obj105	obj180
obj105	obj292
obj106	obj139
obj106	obj154
obj108	obj109
obj108	obj123
obj108	obj250
obj109	obj272
obj109	obj318
obj110	obj113
obj110	obj125
obj110	obj132
obj110	obj191
obj110	obj235
obj110	obj247
obj112	obj116
obj112	obj159
obj112	obj229
obj112	obj236
obj113	obj129
obj113	obj143
obj113	obj219
obj113	obj226
obj114	obj218
obj114	obj333
obj115	obj158
obj115	obj207
obj115	obj219
obj116	obj145
obj116	obj149
obj116	obj234
obj116	obj287
obj116	obj314
obj117	obj125
obj117	obj133
obj117	obj158
obj117	obj159
obj117	obj353
obj118	obj180
obj118	obj187
obj118	obj208
obj118	obj261
obj119	obj152
obj119	obj154
obj119	obj273
obj120	obj152
obj120	obj154
obj120	obj158
obj121	obj158
obj122	obj202
obj122	obj357
obj123	obj129
obj123	obj229
obj125	obj147
obj125	obj157
obj125	obj168
obj125	obj219
obj126	obj144
obj126	obj147
obj126	obj159
obj126	obj232
obj127	obj128
obj127	obj156
obj127	obj231
obj128	obj142
obj128	obj153
obj128	obj310
obj128	obj341
obj129	obj132
obj129	obj154
obj129	obj159
obj129	obj349
obj130	obj211
obj130	obj224
obj131	obj163
obj131	obj204
obj131	obj309
obj132	obj133
obj132	obj150
obj132	obj350
obj133	obj152
obj134	obj231
obj134	obj320
obj135	obj180
obj135	obj201
obj136	obj159
obj136	obj163
obj137	obj138
obj137	obj143
obj137	obj151
obj137	obj268
obj138	obj139
obj138	obj227
obj140	obj225
obj141	obj269
obj141	obj341
obj142	obj158
obj142	obj161
obj143	obj166
obj143	obj208
obj143	obj231
obj143	obj281
obj144	obj151
obj144	obj279
obj145	obj153
obj147	obj258
obj148	obj157
obj148	obj168
obj148	obj233
obj149	obj203
obj149	obj218
obj149	obj265
obj150	obj153
obj150	obj185
obj150	obj202
obj151	obj159
obj151	obj198
obj152	obj188
obj152	obj196
obj153	obj230
obj153	obj261
obj154	obj177
obj154	obj257
obj154	obj343
obj156	obj165
obj156	obj225
obj156	obj255
obj157	obj289
obj157	obj358
obj158	obj193
obj158	obj269
obj159	obj293
obj160	obj160
obj160	obj165
obj160	obj178
obj160	obj181
obj160	obj242
obj161	obj196
obj161	obj203
obj161	obj209
obj161	obj211
obj161	obj232
obj162	obj169
obj162	obj171
obj162	obj179
obj162	obj184
obj162	obj196
obj162	obj200
obj162	obj220
obj162	obj222
obj162	obj232
obj163	obj196
obj164	obj208
obj164	obj227
obj164	obj228
obj165	obj168
obj165	obj170
obj165	obj195
obj165	obj199
obj165	obj231
obj166	obj186
obj166	obj220
obj166	obj237
obj167	obj193
obj167	obj209
obj167	obj340
obj168	obj190
obj168	obj202
obj168	obj208
obj168	obj239
obj168	obj352
obj169	obj180
obj169	obj202
obj170	obj172
obj170	obj217
obj170	obj219
obj170	obj221
obj171	obj220
obj171	obj236
obj172	obj178
obj172	obj324
obj173	obj173
obj173	obj205
obj173	obj297
obj174	obj175
obj174	obj185
obj174	obj207
obj174	obj214
obj175	obj207
obj175	obj210
obj175	obj220
obj175	obj222
obj176	obj185
obj176	obj230
obj177	obj220
obj177	obj224
obj177	obj229
obj178	obj207
obj178	obj226
obj178	obj321
obj180	obj214
obj180	obj222
obj180	obj318
obj180	obj326
obj181	obj184
obj181	obj206
obj181	obj233
obj181	obj326
obj182	obj198
obj182	obj201
obj182	obj213
obj182	obj214
obj182	obj352
obj183	obj220
obj183	obj301
obj183	obj352
obj184	obj217
obj184	obj219
obj184	obj222
obj184	obj324
obj185	obj186
obj185	obj196
obj185	obj235
obj186	obj191
obj186	obj212
obj186	obj216
obj187	obj222
obj187	obj229
obj187	obj232
obj187	obj321
obj188	obj193
obj188	obj199
obj188	obj223
obj188	obj238
obj189	obj190
obj189	obj198
obj189	obj226
obj189	obj236
obj191	obj196
obj191	obj198
obj191	obj204
obj191	obj212
obj191	obj220
obj191	obj227
obj192	obj212
obj192	obj235
obj193	obj205
obj194	obj208
obj194	obj250
obj195	obj202
obj195	obj230
obj197	obj219
obj198	obj200
obj198	obj206
obj199	obj210
obj199	obj213
obj199	obj230
obj200	obj239
obj200	obj335
obj201	obj201
obj201	obj203
obj201	obj210
obj201	obj224
obj201	obj352
obj202	obj215
obj202	obj225
obj202	obj227
obj202	obj230
obj202	obj233
obj202	obj237
obj202	obj245
obj202	obj324
obj203	obj207
obj203	obj221
obj203	obj227
obj204	obj264
obj205	obj209
obj205	obj220
obj205	obj235
obj205	obj271
obj206	obj206
obj206	obj227
obj206	obj347
obj207	obj218
obj207	obj230
obj208	obj229
obj208	obj232
obj208	obj349
obj209	obj308
obj210	obj229
obj210	obj230
obj210	obj235
obj211	obj233
obj212	obj212
obj213	obj249
obj213	obj333
obj214	obj216
obj215	obj265
obj215	obj303
obj216	obj226
obj217	obj219
obj217	obj238
obj218	obj219
obj218	obj230
obj218	obj299
obj219	obj223
obj219	obj287
obj220	obj244
obj221	obj234
obj221	obj235
obj221	obj236
obj221	obj315
obj222	obj334
obj223	obj265
obj223	obj270
obj223	obj350
obj224	obj236
obj225	obj334
obj227	obj264
obj227	obj348
obj228	obj235
obj229	obj288
obj232	obj239
obj233	obj236
obj233	obj342
obj234	obj244
obj238	obj354
obj239	obj245
obj243	obj323
obj245	obj296
obj247	obj334
obj248	obj326
obj248	obj339
obj251	obj357
obj253	obj254
obj253	obj292
obj256	obj273
obj266	obj279
obj267	obj278
obj267	obj280
obj268	obj318
obj273	obj293
obj273	obj315
obj273	obj321
obj276	obj288
obj278	obj312
obj280	obj311
obj282	obj283
obj282	obj337
obj282	obj349
obj285	obj355
obj289	obj341
obj291	obj296
obj295	obj298
obj300	obj334
obj301	obj338
obj302	obj332
obj306	obj331
obj319	obj330
obj323	obj358
obj329	obj332
obj329	obj342
obj330	obj359
obj331	obj358
obj332	obj333
obj333	obj333
obj335	obj354
obj359	obj359
