id0	sample0	obj0	2.085448321025453	1.1239650369495564	-3.843472227510067	0.565525988962652	-2.3862814367825615
id1	sample0	obj1	2.5882214161797172	2.354010345573921	-2.736303573716958	-1.2359131922286188	-2.0139698655537233
id2	sample0	obj2	2.5751993214684443	2.1047569430789164	-1.57853154557264	0.39618803181600915	-1.8505212241462319
id3	sample0	obj3	1.379754765308202	2.5709040163860886	-2.9587957953781556	0.2779760496328201	-1.5490767458231296
id4	sample0	obj4	2.747530507589965	2.0207489691921645	-3.2549338247033974	-1.661860597694124	-2.0524489550150156
id5	sample0	obj5	3.1139673177698826	1.6152124187965828	-3.9126705903175187	-0.7566647862126816	-2.286995964812563
id6	sample0	obj6	3.546389108126845	1.6980892362532525	-2.280840247053291	-1.5103444232523593	-3.033425830375382
id7	sample0	obj7	1.5887439837780988	0.8885732627443297	-1.5632392478499975	-1.1022535307964199	-2.2406864520811256
id8	sample0	obj8	1.7821908608498613	2.527716266862603	-2.109235078138563	-0.8527061791480035	-1.3996504778778316
id9	sample0	obj9	2.845156353269755	1.6369873670532447	-3.133973852384664	-1.1426941000555815	-0.9450763180532251
id10	sample0	obj10	2.6471042503988502	1.9480814897993326	-3.3320897258038125	-0.4919661682769847	-0.8674769272202492
id11	sample0	obj11	3.0534117662413447	0.45469124791998206	-3.4363848452748145	-0.9579198521144672	-1.0637114085826178
id12	sample0	obj12	1.2942651442980293	1.102684947313648	-2.4976696292848084	0.19734235952749568	-3.1214870146507323
id13	sample0	obj13	1.9457283484047299	1.3461311537094387	-3.458991140745685	-1.6784811603834497	-2.9161773916404474
id14	sample0	obj14	1.5209370660340762	2.5114622287850787	-2.4144836728243266	-0.9069411507179763	-2.508583370723574
id15	sample0	obj15	3.4560726666645554	2.0768736414563134	-2.5402106866516094	0.010264957608173031	-1.8921411400277868
id16	sample0	obj16	3.5292245497487844	1.0224043087037176	-2.6342845843669838	0.3798442263808235	-1.2827757987163821
id17	sample0	obj17	3.247790210722071	2.359131954991039	-3.6914080235103732	0.19715309955508942	-1.0217614976772158
id18	sample0	obj18	3.0465426074683255	1.3121362214174401	-3.360433074465829	0.20877664525762918	-0.9317405211544465
id19	sample0	obj19	1.6062530679980405	1.807429707996241	-3.1027394255599163	-0.6824736279363979	-2.5011273444075295
id20	sample0	obj20	2.371637297356069	2.581523035137012	-2.6068454819944153	0.3515239106493022	-1.5576369924161328
id21	sample0	obj21	1.7447421409008836	1.764768632820095	-3.955844009736393	-0.018652320702073677	-1.1252859822058217
id22	sample0	obj22	3.370548077369678	2.2447176861954565	-3.8366513459736016	0.6283646763086053	-0.9510748948935668
id23	sample0	obj23	2.7178755974032196	2.6395105280237257	-3.7838350504369647	-1.1530748990625754	-1.3603317613431245
id24	sample0	obj24	2.6804945169777064	1.3374060681098008	-1.9385925439087976	-1.1458258883765373	-3.088527723963898
id25	sample0	obj25	2.4579886948748477	0.5080267410349475	-1.760451034454295	-1.5175858785946497	-1.3899310792511628
id26	sample0	obj26	3.5882648867013396	1.8723506382748476	-2.4531028597183004	0.3863348958308561	-2.299898750566001
id27	sample0	obj27	1.9459647116318974	2.228012629803735	-2.2666343793567787	-0.9153962161875905	-3.1005653833358355
id28	sample0	obj28	2.033277323216935	0.8476770548936494	-2.0389127426776104	-0.7266232464575192	-1.0943481847047967
id29	sample0	obj29	1.3991082764542353	1.1722087437501232	-3.474209173212041	0.4268367867321772	-1.423681451800735
id30	sample0	obj30	2.344078537607657	2.265691205310574	-2.074929808742902	0.2929918617630525	-0.9988993153563361
id31	sample0	obj31	3.604749271888431	2.732112732269984	-1.7027382166449263	-0.5147410893544635	-2.1318431503622906
id32	sample0	obj32	2.0506382860832715	0.9473595456228019	-2.0210530337629384	0.2329177281553938	-1.5557454001341795
id33	sample0	obj33	1.7493566517904657	0.7561119506642024	-3.547044332307081	-1.555065304829877	-1.2898856808565562
id34	sample0	obj34	3.2233913435564316	1.7299271096124138	-2.3154830525687253	-0.7919777602340317	-2.4405877061283032
id35	sample0	obj35	2.0890360767816034	0.6763080558528412	-2.2392871812475015	-0.3852879653446817	-2.490980011687321
id36	sample0	obj36	1.8735737983318832	2.4124934457328155	-2.164999625538657	-0.17823037922519824	-2.7057386340637652
id37	sample0	obj37	3.578379835627663	1.443150329510734	-3.200893867868067	-0.21793908452323363	-2.5614199217068334
id38	sample0	obj38	1.8079925074323988	2.1667092720497516	-2.388580866649308	-1.6299100915716223	-3.0181328056069585
id39	sample0	obj39	2.32073004752748	1.7268379188779874	-3.4560476012228825	-1.2835444316682625	-1.7968529066021408
id40	sample0	obj40	1.3649613103234466	2.2571005928920123	-2.303647865785952	0.4505179362879812	-3.053792772487619
id41	sample0	obj41	2.0240104565288295	0.5592941117324359	-2.9198438249520176	0.08221367284599479	-1.3965795415177793
id42	sample0	obj42	1.8667314819660654	0.4178707524220153	-3.6981216894501747	0.07931202650225311	-2.12670470121066
id43	sample0	obj43	2.1423761247750743	2.680360772544538	-2.1406318941888705	-0.8509516808293046	-0.9914539936363636
id44	sample0	obj44	1.4073368426986554	2.510375303461278	-3.4103887805307087	-0.4658941859107557	-1.471463271025446
id45	sample0	obj45	3.055023469581499	0.7167032979295895	-3.267463588886495	-1.209065146147411	-1.4148247606980613
id46	sample0	obj46	2.7533685431067827	1.1378071413054731	-3.3431751282897593	0.629490930431692	-2.565453036197893
id47	sample0	obj47	1.2795973731627281	1.1617623027062467	-2.829978881737927	0.5412355372848989	-2.5448592329168895
id48	sample0	obj48	1.2687877669487944	0.7209742046586254	-3.2662361821411787	-0.20222816355259376	-2.2677389588517536
id49	sample0	obj49	1.7387256277541783	2.539929211620967	-2.359463195703831	0.12437066751183479	-1.5505043088316102
id50	sample0	obj50	1.4834784470800788	0.5413949591973211	-2.7166767278335344	-0.4130230102798085	-2.368245077411519
id51	sample0	obj51	1.2943046569607217	0.5279695203644128	-2.746218797399605	-1.4883313863883143	-2.402238849275526
id52	sample0	obj52	3.2088359601928476	0.6352812153454284	-2.884619828226266	-0.7969435264046109	-1.582206837311542
id53	sample0	obj53	2.9352541691363863	0.5715594032055019	-1.719797359401788	-0.6486310917293447	-2.26268309974989
id54	sample0	obj54	3.1622815845357364	1.3743214090678717	-1.975850923309147	0.11303702017980011	-2.0912886168273754
id55	sample0	obj55	2.350552829942864	2.0746453425683344	-3.3550480964163922	9.936180226088887E-5	-1.9510331549296103
id56	sample0	obj56	1.496185877207724	0.49652122271083576	-3.771969746306201	0.29075171641165043	-2.824164146891666
id57	sample0	obj57	1.7404592206405676	1.1541811791908327	-2.8483420887264868	0.33548895653845556	-0.8791979544207422
id58	sample0	obj58	2.8352781627801806	2.4527016626325002	-3.3624878075043796	-0.37339606307004325	-2.985764350257265
id59	sample0	obj59	3.2149184273333047	1.2426393545318353	-1.774738844793472	0.6569241119198079	-0.8864196692515021
id60	sample0	obj60	3.210213236108049	1.0115994800618475	-1.902216687235531	0.1376691359967681	-2.6858025381228563
id61	sample0	obj61	2.3992454290428737	2.4855381108630663	-2.628268541297947	0.4837986943532726	-1.4530671437667888
id62	sample0	obj62	3.2335597758554666	2.7188580456935876	-2.5511981872598932	-0.49571791374298746	-2.0835935120248226
id63	sample0	obj63	1.913273677801571	2.7210692725431116	-3.4639083502118213	-0.062047969529459124	-0.8531962125045836
id64	sample0	obj64	1.5980686640267852	1.2325396829095636	-2.883333089213067	-0.4758988465270091	-1.4575900313536012
id65	sample0	obj65	1.4112473378224804	2.44375531602431	-2.301239147348591	-0.15066683355030452	-1.5093784059392847
id66	sample0	obj66	1.485673947102625	0.36013649820141636	-1.8037723618232675	-1.6855166161209527	-1.6244648904038805
id67	sample0	obj67	2.265832377675267	0.3439084229671583	-3.4161729718396394	0.5512731988788444	-1.142205070636139
id68	sample0	obj68	3.359271587921068	1.599397194235913	-2.994040570360933	-1.4911490797573772	-1.9739746532570255
id69	sample0	obj69	2.75071396703225	1.9795076712769881	-3.338550668776453	0.5340909345821026	-1.4607803697349082
id70	sample0	obj70	3.267916272192548	1.7376349426051498	-3.707767152420466	-1.5174306396614738	-1.6522465556029933
id71	sample0	obj71	3.3223416764435205	2.67695384632499	-2.489812039852449	-0.49689836616950633	-3.119422961648935
id72	sample0	obj72	3.029669449991664	0.39152153842193016	-2.5688082423003817	-0.9912944616111269	-1.7175357032328615
id73	sample0	obj73	1.7224774186441019	1.2720066948373105	-3.736350280785648	-0.8605580281069592	-2.66970244995343
id74	sample0	obj74	3.4649255505668526	2.6717190970754086	-3.6774468121065613	-0.7161258483395463	-1.6089078377158161
id75	sample0	obj75	2.1192959415693795	0.9920504669186715	-2.500566519071193	0.18946744049058428	-1.0658423834394923
id76	sample0	obj76	2.2366374434334686	1.6340439373475455	-2.4092669865182463	-0.420772854733235	-1.209707091888854
id77	sample0	obj77	1.7758799453624734	0.8456807401545375	-2.863047893422988	-0.38917665083601327	-2.735428736469731
id78	sample0	obj78	2.612456157762632	1.2311999201347243	-3.5952021127937455	0.06148323201486994	-2.5540756526048587
id79	sample0	obj79	2.3810466622772877	2.5254459906305495	-2.3056973998148256	-1.2193662709449944	-1.3062685550644646
id80	sample0	obj80	-2.002162952375356	3.428879681594453	2.4489676037574135	2.6234103863380165	2.582583614036359
id81	sample0	obj81	-1.8010196340086166	1.9668391985131475	2.162080753663046	3.2532681010530258	0.21463227005160457
id82	sample0	obj82	-2.005351822626757	1.695464254355738	1.7775595313626265	2.9953151115662395	2.3604314268478115
id83	sample0	obj83	-0.6128714175028627	1.2395674302394701	3.2417038545881347	2.774785457468286	0.49362407222119664
id84	sample0	obj84	-0.5672563434079205	3.2226268371009725	2.041143875689583	3.4470467065515535	0.3035453576192617
id85	sample0	obj85	-2.187753783656509	3.3827013280730274	1.536181870801243	1.8866121841453403	2.4586645187716867
id86	sample0	obj86	-0.5349974310023591	3.3019389401302712	2.747132399307496	1.9413486694559052	2.340274434120108
id87	sample0	obj87	-1.5749901309462642	3.450599969586416	1.9452319343832378	2.3898321661741297	1.191160559822511
id88	sample0	obj88	-2.1345167990790963	2.6944717423234428	2.408756808666191	3.802753841814817	2.182023732896546
id89	sample0	obj89	-0.20972485880516412	2.4359010696477714	3.5948640317097516	3.732332769696227	1.8427514127447242
id90	sample0	obj90	-2.330396130381588	2.361999055729473	3.0507031557159916	2.6829516647915743	0.6760746481552322
id91	sample0	obj91	-0.5431916590799515	1.4549788339856482	1.9333756335481864	3.8852812318320806	2.0950609062657417
id92	sample0	obj92	-0.7180353164909679	1.4626616692138699	2.5046896066009605	1.7261021204870897	0.41811176287857943
id93	sample0	obj93	-1.2754695617353577	3.1030275184509275	3.4782160390383474	1.9854542486244007	0.6180107861410638
id94	sample0	obj94	-1.264424095113047	2.0438812872838805	2.8752373535153506	2.6977450262381053	0.9449405013583866
id95	sample0	obj95	-0.1870403415393891	1.2033545737186784	1.5326398184069387	3.8676150000729184	1.1046018272201505
id96	sample0	obj96	-0.2801497004075644	1.892655979256634	1.6269766542763269	3.905794972963359	0.8364715602010028
id97	sample0	obj97	-1.3443671529061898	1.7903127160939662	3.149665414166188	3.263475781721278	1.3561608116619075
id98	sample0	obj98	-0.8966874035161128	2.005712673631564	2.190925162058173	3.3819576226580614	0.4396442790200008
id99	sample0	obj99	-0.8586205193979088	3.1551433041954384	2.754446182739497	2.871127869903021	1.1631462969054112
id100	sample0	obj100	-1.039428746651193	1.5193359874528607	3.0082682402966685	3.606745438636292	2.285552538743378
id101	sample0	obj101	-0.8055830969990421	3.148846879612078	2.9447568699969784	2.7011644485952626	1.7727002824762943
id102	sample0	obj102	-1.4283077494463594	2.2910363560233695	2.3262659948484856	2.8511155437341227	1.6046322266044797
id103	sample0	obj103	-0.7686728543196875	3.2760416127570524	3.2728909545462916	2.883065832065819	0.35522510434831234
id104	sample0	obj104	-0.5042911444710565	3.2525646682885165	2.8320040041868246	3.172596282339148	1.8533621663435627
id105	sample0	obj105	-0.7459285661401891	1.4286121412041604	2.0708585401250783	2.8677601165926854	1.8783605038010602
id106	sample0	obj106	-1.1714060673437907	1.5561236294081642	2.5557998392514123	3.0436116653630143	2.249524542301132
id107	sample0	obj107	-1.0657087013966342	2.7977976930745347	2.2143683515504766	2.289615856651288	1.3678278250123619
id108	sample0	obj108	-0.2603841882690159	1.4129705466847224	1.997170573809404	3.9045582800800336	0.37166424421888933
id109	sample0	obj109	-1.2847613265458808	1.9682094747264354	2.329670923161542	3.05346778085363	0.48070366574096357
id110	sample0	obj110	-0.8614074937088105	3.175948877941088	2.922359811116479	2.2240314052062136	1.7119808350046837
id111	sample0	obj111	-1.5962281468496247	3.2371130121439657	2.3309338725091773	3.889619580240341	0.8377774938018353
id112	sample0	obj112	-1.739847272838293	3.044831627906516	1.7535179383826522	1.9134419580743076	2.4804801010365605
id113	sample0	obj113	-1.8540522741954866	2.0171540661244336	2.7344137960520385	3.6721117766156635	1.8577427567607843
id114	sample0	obj114	-0.9402944407121088	2.5757009106988633	3.515721145678188	2.1831091522118804	0.7418060288660934
id115	sample0	obj115	-1.3241665618153067	2.170550111279672	3.729283308484786	1.8228868604580464	1.3070641684521875
id116	sample0	obj116	-2.400585065804647	2.952933798835528	2.5291101126793443	2.7417575058180708	1.3247678839396586
id117	sample0	obj117	-0.3017431994206976	1.887614250877617	2.0935655723780253	1.5268269890749253	1.2254576569484703
id118	sample0	obj118	-0.5389314015787152	1.7347071193126444	3.0295221669033237	2.4311907211700654	2.2781710965277
id119	sample0	obj119	-2.3876948363640755	1.0623210428012846	1.7272215432659463	2.65998366610393	0.30801290312452134
id120	sample0	obj120	-0.7436754923583542	1.910278606868944	1.8720845840442855	3.352758522718811	0.9551537072643864
id121	sample0	obj121	-1.4965204215256338	2.832468363690304	3.2330304846428843	2.6856625169197947	2.2210832751038465
id122	sample0	obj122	-1.486587244212978	1.4096441344349708	2.418331069781331	2.2820765843365605	1.6918242280322031
id123	sample0	obj123	-1.7714977694611784	3.441831954409257	2.0094965800544866	2.1003699601402555	0.5001601231626684
id124	sample0	obj124	-1.1970374796107108	2.08351611842915	2.4284956865388514	3.4833033713122874	0.5045912896477944
id125	sample0	obj125	-2.3121295335793834	1.4465552851147372	3.528608585094789	3.5139723247606236	0.22404356414925264
id126	sample0	obj126	-0.8757797034697175	1.4239109199537034	3.2767346478132033	3.5241208556781656	1.264167228791552
id127	sample0	obj127	-1.9726562618141736	1.527858054723796	2.054874312000818	2.525761847011209	1.3807145109165662
id128	sample0	obj128	-2.0934836135447847	3.122976887158166	3.078117198512839	3.3574107442955823	1.612824144245308
id129	sample0	obj129	-0.8693562024795083	2.987993334323641	2.6206434255276077	3.810467678959193	0.3364074755919533
id130	sample0	obj130	-0.7105672384523265	1.570038893820575	3.162323497569581	2.175461369860734	0.27507219928204085
id131	sample0	obj131	-1.838258019776818	2.7962250978305576	3.6063280610739676	3.655593409115773	0.8904765545230205
id132	sample0	obj132	-2.1712822446220756	1.3641787516626502	2.1500786820632993	2.957382985947282	0.3705253970760809
id133	sample0	obj133	-0.5137979962071351	2.216442452292615	3.582722428493015	3.793807243185878	0.24474117033231102
id134	sample0	obj134	-0.16641284007331492	1.0720142097445098	2.6844482411294592	1.62025542026071	1.4713132719703024
id135	sample0	obj135	-0.15286154106432348	2.187870994459301	1.5562183492045882	2.351453415858278	2.237092136410408
id136	sample0	obj136	-0.4253545705240829	2.3876835478857865	1.4402110216131634	1.849372827450864	2.454990245929335
id137	sample0	obj137	-2.4075519151512754	3.345184449779473	3.6163050070604292	2.0865988593082765	0.7852316345964996
id138	sample0	obj138	-0.18974583144635138	2.354386949549906	3.780622925477031	3.2227964444773507	0.8874888694085383
id139	sample0	obj139	-0.7539389308755584	3.054164027385326	3.218338088477687	2.2173710962832645	0.25751529689504826
id140	sample0	obj140	-1.9372316433624857	2.5841777572394733	2.751975697950722	1.5602688111874174	2.329256474596196
id141	sample0	obj141	-1.6129434040856925	2.5038973193630722	2.1431534992021364	2.8436885501927973	2.0339572163411077
id142	sample0	obj142	-1.5653447979524238	1.4650428790104317	3.202449478056498	3.1163865971356035	0.5913088119688474
id143	sample0	obj143	-0.1534219794306526	3.336351153510127	2.9586982072785752	3.0428271421952973	1.4415546376847397
id144	sample0	obj144	-0.9118956675463568	1.571653409389271	3.6828532728441674	3.502773829697632	2.376527409011402
id145	sample0	obj145	-0.9464210746411164	3.1089972236381858	1.9674418130076765	2.3716117892624	0.9441790686178375
id146	sample0	obj146	-0.9796689591281145	3.298511640770256	2.632938394085724	2.863839979896413	0.5251221146642517
id147	sample0	obj147	-0.4434768528242492	3.2760129953808397	3.356927879929357	3.1353639360750245	0.33837912650594704
id148	sample0	obj148	-0.34963151911676316	2.3115632071813317	2.3780658172675837	3.2455519649722016	2.041772783713591
id149	sample0	obj149	-1.0807425393468784	3.1384241767103447	3.779416616346732	2.986081589915341	2.3525294622804855
id150	sample0	obj150	-1.008261029811639	1.9666877345376097	2.2571016984771908	3.8864921300760056	0.6155594617798033
id151	sample0	obj151	-0.864632346763285	2.7533988436723913	1.8701655032472533	2.5896703660294147	1.2678574994492406
id152	sample0	obj152	-2.3810128706185596	1.970825280652723	2.373508168266613	1.7253189657216574	0.45238217342943954
id153	sample0	obj153	-1.5735762129335218	1.9077460860894169	2.07248659303338	1.6543890497340916	0.5759713657944554
id154	sample0	obj154	-1.3553476131157112	1.6638380329928388	2.8076916234719604	1.7585899477049236	1.7231666815589977
id155	sample0	obj155	-2.414386536529124	2.550518183984945	1.771314855782968	3.3400165631919894	2.0586068613169397
id156	sample0	obj156	-1.0931480476570248	1.176552914481655	2.0497633018233747	1.7977507078592752	1.389746368783379
id157	sample0	obj157	-1.3006442137495657	2.54445593830971	3.145614152076095	2.3695905986056065	2.2214049147845207
id158	sample0	obj158	-0.4737618713952616	2.7727719511377367	3.3079613130559933	1.86393764454697	1.8039025480573212
id159	sample0	obj159	-1.674417148242186	2.8358628741432548	3.533541456642614	2.442912868808757	1.1346252706535316
id160	sample0	obj160	0.3023372834984901	-2.727699146286259	0.811231059839683	0.3245308289756127	1.0679121197263555
id161	sample0	obj161	1.6061166001654696	-3.68074496825107	1.4550392505804584	1.4038034030468538	1.21406543719024
id162	sample0	obj162	-0.31566555222043924	-1.679034318302702	0.5254756344576437	-0.2878807870473912	1.638648323061405
id163	sample0	obj163	-0.0568721987032208	-2.6704475670942474	2.0250379842677866	0.03731425531599697	1.65665389174969
id164	sample0	obj164	0.26556813294752446	-3.3488006826351557	1.7593192033579534	0.5907391772612187	2.885560816260978
id165	sample0	obj165	0.3713634184833079	-3.540307782749551	2.2342847606346874	0.3848095412472198	3.160964812835618
id166	sample0	obj166	-0.008082668268392434	-3.037988422999379	1.4059231296763195	1.4084990773551087	2.196978342542567
id167	sample0	obj167	0.286246003788444	-2.525727040518623	0.9330095668415488	0.4265715535289756	2.134519727996909
id168	sample0	obj168	1.9255322175092477	-2.3583882558019007	1.2638864190869645	-0.3438616377740793	0.9872474897862817
id169	sample0	obj169	1.9267186404215562	-2.528203923907986	1.736631856130431	0.7495284288820483	2.6353115784354566
id170	sample0	obj170	0.4833483926107309	-2.1419709183818476	0.7911159669638365	0.7815584526863057	2.9711286255242735
id171	sample0	obj171	0.17719739417166724	-3.4623528635719696	1.6710659048246794	0.9356875220733534	2.196394298441371
id172	sample0	obj172	0.09695356118470078	-2.0461567330835044	1.3117266491850654	-0.17167597737304585	1.0203599952492026
id173	sample0	obj173	0.9676215690663197	-3.0717742089793854	1.9288558198867292	1.3123201897369419	1.1183699891478502
id174	sample0	obj174	0.42132147714557555	-1.8284367670096284	1.3999697521950896	1.055532975950408	2.7666227799350107
id175	sample0	obj175	1.4190385072529108	-3.495440765660797	0.6988116496998527	0.18184240664112294	1.1514293493051273
id176	sample0	obj176	1.753520777716376	-3.836464579491806	2.636283352128558	0.06129565191950259	1.923734703781807
id177	sample0	obj177	0.9032532785468756	-2.251422306459184	0.9904108006737709	1.701679469078474	1.5846943596463392
id178	sample0	obj178	1.4311018815692775	-1.8573923471144769	0.7766502209821102	1.1719084020955806	1.4854926303609313
id179	sample0	obj179	0.9811672474185698	-3.1149253727470962	1.707823197481471	0.011746613930780914	2.431705087492957
id180	sample0	obj180	0.2634573205892542	-1.6928818214176438	1.5975440972961332	1.673650551518653	2.1141793111644125
id181	sample0	obj181	-0.24447720899211856	-3.8027820512599595	1.9370129504665519	1.8095205546224433	2.446989104532401
id182	sample0	obj182	1.5080448356847573	-1.6738780700588507	2.0748380590582247	0.6539766707217733	1.7683424072508294
id183	sample0	obj183	0.5198668029320209	-3.436678236739765	1.2929613139102125	1.150022496120983	1.3297414140201242
id184	sample0	obj184	0.33695751306218724	-3.6018879509406183	2.526143426046678	1.3837209045979593	2.1270479532499493
id185	sample0	obj185	-0.2933630612489797	-1.8425668811674683	0.8326516203767935	0.40037438120529056	1.4667405565877798
id186	sample0	obj186	0.3479171625358157	-3.101163638418197	0.6921394841962875	1.111772930906292	2.051404035641669
id187	sample0	obj187	1.4333707091483707	-3.6538696791996044	1.0730490775556671	0.8059359158606392	2.9377184370262013
id188	sample0	obj188	1.8573624810634624	-3.0888460715161052	1.2535505183475721	0.05852935277907412	2.18274468684423
id189	sample0	obj189	1.41712956547422	-3.3212252880270627	1.661902715745203	1.027373134554129	1.0524945761769535
id190	sample0	obj190	1.2718964376835447	-1.8177812574717545	1.17651865039084	1.884268285123185	1.4104570293304333
id191	sample0	obj191	-0.3266754418871394	-2.0916996079155723	2.4327901219677734	0.6853521135878671	2.0102810510555207
id192	sample0	obj192	0.167951229371471	-2.1193765012308377	1.7502150300632595	0.9734378590402777	0.9510290788963547
id193	sample0	obj193	0.03622437049139671	-2.005528635801187	2.3344203225329374	0.40189660492888757	2.1676564774458056
id194	sample0	obj194	0.4181229466235027	-3.8715218178435586	1.8266265134632602	-0.08430622680828459	1.1634889729910378
id195	sample0	obj195	-0.0654811046456687	-2.168622777834334	0.6578019881445454	0.8547913020005999	1.072802163648796
id196	sample0	obj196	0.9862221819676737	-3.739256581393562	1.1935474790286795	0.7793650067402496	2.385000051900893
id197	sample0	obj197	0.4264070319794684	-3.394214899200549	2.4934808306641068	-0.23624429795167856	1.0696868018291878
id198	sample0	obj198	0.07167956900586836	-2.083518843517928	2.6079010922919625	-0.2371304831954978	0.8039710458759242
id199	sample0	obj199	-0.1552307873882519	-2.3671931363403766	0.6346399082032725	1.1044590638144691	2.096980053300829
id200	sample0	obj200	0.7175401587618846	-2.6059702106357623	1.7876082781544698	0.9744466074918692	2.0966321038753195
id201	sample0	obj201	0.1240811455936981	-2.5698145140971103	0.40045486179547396	1.1987882297872456	1.3025689101902438
id202	sample0	obj202	2.00487397624296	-2.5955454911920377	1.4063143906754922	1.8304155290472355	0.8366239795150978
id203	sample0	obj203	0.9768166653541281	-3.9176519197060324	2.487685456013417	0.857126172968047	1.265644815338086
id204	sample0	obj204	1.140022768472556	-3.3650333337285567	2.6563810605513916	1.07701464261265	2.145739281914426
id205	sample0	obj205	1.958183095937711	-3.589782841135354	1.9670818530139604	1.8507414916312561	1.164422979106391
id206	sample0	obj206	-0.3003011029848983	-1.6136491627317227	1.841640359707368	-0.06928226604870957	1.6875490639847657
id207	sample0	obj207	0.9041258351039203	-2.0973855891015383	2.124775868476026	1.269732969055255	2.548648825447875
id208	sample0	obj208	0.8325431031711903	-2.624219316562802	2.532504841955732	0.09676960758190845	2.914242368789717
id209	sample0	obj209	1.2486312018919405	-2.820063878068741	0.8074223357172059	-0.4256825130121522	1.4721414249109785
id210	sample0	obj210	0.9243451412429162	-3.801249499490754	1.2621201133843756	0.6655251819307344	2.8605993627002224
id211	sample0	obj211	0.3224537912729474	-3.249377253745055	1.8634483838008988	1.7745934237054286	1.6117156946152913
id212	sample0	obj212	-0.08227826920308257	-1.6788102040404034	1.363339932305998	-0.09897876941289319	2.937612891337537
id213	sample0	obj213	1.1064834128613599	-2.0142112421562577	1.5813632439754215	0.17625457196585115	2.24492082380314
id214	sample0	obj214	-0.06435788220240535	-2.774823658648175	2.542397793850525	0.9260530969100516	2.3118664119166974
id215	sample0	obj215	-0.14093442553240043	-3.422777580175811	0.5096746673292116	0.70707404657224	2.580124093592514
id216	sample0	obj216	0.09178463869224418	-3.7409978459680424	1.556243196754872	-0.12712752634308488	2.165371001547956
id217	sample0	obj217	1.9576792724555212	-3.5411901819576816	1.1015505942554373	0.19132179175693453	3.1285654410418307
id218	sample0	obj218	1.5793011623659967	-1.9553048727820366	2.706603531456489	-0.39153338553370576	1.4141569390440418
id219	sample0	obj219	0.19147141097460674	-3.1387198902324935	2.4609608693061937	0.6666217861753305	1.1790996153149103
id220	sample0	obj220	1.7131608576031583	-1.6265609771082874	0.5849272382202687	1.6582220199215547	2.3225099986726843
id221	sample0	obj221	0.8122410167477345	-1.9649866219810799	0.6756249959749385	1.3400999906892042	1.382437205078445
id222	sample0	obj222	0.9598368577769687	-2.2283189259712772	0.798457521885503	0.24162068721747165	2.283334858077576
id223	sample0	obj223	0.49755976114464817	-2.584503998327194	2.005687473200485	0.6580173428347875	2.772791321609437
id224	sample0	obj224	0.32169575758302493	-2.0519420755467532	0.8787783328595429	0.1984599230398526	1.0437242750431286
id225	sample0	obj225	0.4008082182846908	-2.3791476253699404	1.355635067904919	0.615425317000672	1.0509268283719662
id226	sample0	obj226	0.552040608203513	-2.2663832780651294	0.8202707893372692	0.22393042669491026	1.6384034517602366
id227	sample0	obj227	0.45900295977799677	-2.5392746886503916	0.3905647114328974	0.8597272800424003	2.8237069115097024
id228	sample0	obj228	-0.03964573619612932	-2.4948502822256122	1.117008566758967	0.24573189055446865	1.0523149738353061
id229	sample0	obj229	0.10038175494442969	-1.6993786879974564	1.5665035940395822	1.3443693178095835	1.9413220015060348
id230	sample0	obj230	0.8258824542099115	-3.9661942035489384	0.562717462683554	1.3662478049662234	2.7672029808969496
id231	sample0	obj231	-0.3601917898750515	-2.134319078913587	1.028078082620464	0.8662315124423694	1.8944821025209688
id232	sample0	obj232	1.271289572442448	-3.971514044869578	0.8495168442899905	-0.24235331948059746	1.0556479062985455
id233	sample0	obj233	1.1711516042209171	-2.9173225889018504	0.38542086810294474	-0.0273681685846352	2.4299466292147587
id234	sample0	obj234	1.856715300651462	-2.8541269448666835	0.9472532931615164	0.23761864550015765	2.9695983622154705
id235	sample0	obj235	0.6618906717238429	-3.151108109653516	0.815799014061368	1.6511998249863071	3.11385871647266
id236	sample0	obj236	-0.26184826018557517	-3.2837096439849036	0.5663339482034953	-0.23169811353409608	2.8290396081287175
id237	sample0	obj237	1.8262838307610896	-2.1186447633954177	0.7440416517553843	-0.08177946733929797	2.718446659427391
id238	sample0	obj238	1.1926568827843722	-2.7130733704407892	1.5030559021300252	1.410795987472487	0.8500319942620713
id239	sample0	obj239	1.599543066659012	-3.560207174604475	0.9394360439921247	0.4983931967724984	3.028746864606324
id240	sample0	obj240	-0.3404219495420835	3.4389491150011544	-0.5662386616013008	0.9413822268708741	-1.5089948570646166
id241	sample0	obj241	-2.5325059732044664	1.7359594908181852	-0.24710153915732458	0.9342991052966125	-1.3481154281415286
id242	sample0	obj242	-3.5846578384001644	1.9904391482561008	2.1036531511292162	1.0718630026445766	0.41415148981660277
id243	sample0	obj243	0.1468913882444005	-0.8312699280933309	0.25895626282914264	-1.2585021942034043	1.4591702398682598
id244	sample0	obj244	-0.9847219216408922	1.9626701868473733	1.891013190705196	-2.242497835424991	2.0719890820301834
id245	sample0	obj245	-0.7782170772163228	-1.1416286255294399	0.19999578662996464	-0.2515514922286146	0.8941259543778403
id246	sample0	obj246	2.081511347782583	-1.8537465246035023	1.0014370203040528	3.8297720063359746	-0.5954140998277171
id247	sample0	obj247	-1.528628665660799	2.528956740505679	-0.436553816453062	2.1934855303483776	-2.5983937794176524
id248	sample0	obj248	-1.3540845858960333	-2.6375305226195915	1.3452929869159416	1.7218579231396827	0.7393895533803272
id249	sample0	obj249	1.1311655666904812	1.6620671522491637	1.4483154426234186	-1.647261850592205	-2.222387211460573
id250	sample0	obj250	-2.494618770643976	-1.2585644345321905	1.2098002587200993	-1.986615468233289	-0.7883104326459476
id251	sample0	obj251	1.7221794605939986	3.0832930484753946	1.8729093320424712	1.185714180496187	-3.4846111551044725
id252	sample0	obj252	-0.16158551526090714	-2.076337234386755	0.3253060483093927	0.38227672839543003	1.2761396286206028
id253	sample0	obj253	1.9175122358161771	2.372607735166849	2.0646300116284912	4.084743410044219	-0.928830831717766
id254	sample0	obj254	-1.520371822486159	1.3565199121453002	0.2799866107831164	-1.4572146240774053	-1.4736955025560627
id255	sample0	obj255	-1.061874658715478	2.9912013652016514	-1.5426001008584607	-0.8666365533422069	1.273237405404491
id256	sample0	obj256	-2.2372263979123446	1.7573126582347518	2.9029790543393856	-2.184996471895877	-1.2315703291571536
id257	sample0	obj257	-1.1871701647299617	-1.112962105391354	0.1824324812738214	-0.8152229373066198	-0.3660545022857701
id258	sample0	obj258	-2.3086861449895224	0.5348961155142555	-2.6985367658940946	-0.6710235808733893	2.2541673078734332
id259	sample0	obj259	2.812655095111792	-1.209024824076502	1.5768657644420618	1.912740063875124	1.2473480118210563
id260	sample0	obj260	1.0223446492341226	-1.0501046275085348	-0.7479859895868415	1.6277868090284544	-1.6591684347488804
id261	sample0	obj261	-2.2325790548838453	2.744350743121468	1.8060726055478618	-1.0313884416756434	1.2761954938704827
id262	sample0	obj262	-2.9095187675468996	-1.0568541358818724	2.9562801857097045	2.25772011990981	-1.5146061717867498
id263	sample0	obj263	-1.8169772636241295	-0.10733508147900905	-0.4973936768928964	1.437836552967921	-0.514743579259086
id264	sample0	obj264	-1.527445917868752	1.383393714391076	-0.5072960279671703	1.1733880538090813	1.0627612055760716
id265	sample0	obj265	0.20076934134087376	0.3102842763273994	-2.4680777626550636	-0.8862779995372103	-0.07468241256085562
id266	sample0	obj266	3.485595311582813	2.8969961595316587	-0.7426597365632196	-1.4463959768928796	0.801409703514715
id267	sample0	obj267	-1.9503211771450228	-1.0781027054019157	-1.92942920634797	1.4737623823057013	-0.22411818504145753
id268	sample0	obj268	0.5598748344856757	-2.831081213178458	0.371826330071676	-2.861767330120106	0.3778891496358544
id269	sample0	obj269	1.2198113284602303	1.5480449942377499	-2.9988839073073796	-1.1120517912106	-3.517133543363828
id270	sample0	obj270	0.7321514457960809	-0.9233865659290903	2.0854445782324906	-1.9182182351512047	2.4900761375894334
id271	sample0	obj271	0.8165984743124397	-1.32912490353586	-2.4295661687005206	0.8996810002833896	-0.7448482101997681
id272	sample0	obj272	3.414565423238271	-2.5265083216700015	0.9074789564470762	2.3070245919579477	3.2775422053326646
id273	sample0	obj273	0.03608557542143731	1.9950947480974761	2.3114162976096857	2.0446122717797204	-2.008535495406716
id274	sample0	obj274	-2.1792879372418197	-1.5799755956139145	0.6284466552115093	1.1685553504700308	1.472536076600104
id275	sample0	obj275	-0.9713619744797592	-2.573118623849595	1.2857947332179673	-0.38634741116354054	-1.1160661635243636
id276	sample0	obj276	2.737620787077052	1.3176297359998674	-2.5667519486136405	0.7452317082064968	-2.5004475839511566
id277	sample0	obj277	2.723780386780306	1.8517666790463718	-0.5223191948196948	0.6570117441462682	1.2920084651969004
id278	sample0	obj278	-0.9458026624186141	-2.7666133915996682	-0.09374544620089975	1.7521603257850957	1.66813454695027
id279	sample0	obj279	2.231387668321165	1.8241687217252474	0.6771515488342751	1.9535434619848775	-2.755463181278203
id280	sample0	obj280	0.959668179002475	2.777619425402828	1.848394851866101	-1.2805029917636048	1.7868130788617855
id281	sample0	obj281	1.563855740384362	0.6696388769736594	-0.12384964514932806	-1.005410573572682	1.9260906198772207
id282	sample0	obj282	0.23108482845810707	-3.4789698448504707	2.0183444676445212	0.345282101200062	0.934447408806285
id283	sample0	obj283	-0.1955758658456037	2.1160116748702333	0.8618793854442786	-0.028630260434537758	1.4435599539474158
id284	sample0	obj284	-1.778371891380306	-2.0042400638526674	-2.5753863388709517	1.1471994438657427	-0.8482569620161979
id285	sample0	obj285	2.4526243327250223	1.2139807203417963	1.912883100010387	0.3949578669483025	2.039419497061129
id286	sample0	obj286	-2.102286455737187	-2.9152756664165667	0.1233974623265508	2.1541092526852084	-1.4922777708144217
id287	sample0	obj287	-1.4672943484354195	-0.021314679085081556	-2.817151005795624	0.6076531216285066	-2.772938937371318
id288	sample0	obj288	1.4356505779876976	2.034299745810321	1.0856314139929035	-2.6062899310959096	-2.4857114696815343
id289	sample0	obj289	-2.76314257675772	-0.900192101281903	-2.782375576367146	0.7623739252687534	-3.113848170505436
id290	sample0	obj290	-2.066074076177505	-1.8923473839291314	-1.8064972209646313	0.03162009331845206	-1.5116614982149528
id291	sample0	obj291	3.2775965920024763	0.3546131911670283	-2.563256553896415	1.0496072322088912	-0.08165688633860635
id292	sample0	obj292	1.8669924738379078	0.9312320764861721	3.8854553580635915	0.5642921663182618	-3.8769821919699083
id293	sample0	obj293	3.0496735393708776	0.39807034825368937	-0.49336984313235743	0.6188268149185797	2.2884577896987484
id294	sample0	obj294	-1.974232940949539	-1.6329013119400473	-1.1850927436253016	1.2400899040897841	2.974617220763995
id295	sample0	obj295	-1.596316147347068	3.2435156189307186	-1.9525279655878902	2.4568952768114833	0.38092002587369844
id296	sample0	obj296	-1.7613202331952669	-1.077904753507318	2.362943147658201	1.027229949662054	-2.514808335349924
id297	sample0	obj297	-3.9176611286080907	-0.5487469154551872	-1.5173492523892054	-3.2317308819951878	-1.468849188273685
id298	sample0	obj298	0.7456332734550397	-2.921411038882212	-2.8442162594446856	-3.1343367617948896	-0.09858521415603616
id299	sample0	obj299	-1.4058918757105718	0.3278313421576182	-2.300828938366122	-0.32814125812335404	0.20259514096783326
id300	sample0	obj300	-0.1353231227729106	-3.035884434613023	-2.261879343028574	1.184121718809197	2.276099180379446
id301	sample0	obj301	-1.5135048228653187	-1.6792837676121897	-1.9153894354218581	-3.239766995739191	1.761626467501706
id302	sample0	obj302	-3.5401440664833532	0.7975062706077567	-1.2783847884252801	1.5825893077490791	-1.1913594513751944
id303	sample0	obj303	-1.057429389608157	-1.7402442250005727	-2.638674801428663	-3.705007855181188	-0.8807781457012369
id304	sample0	obj304	0.23340107857270298	2.1822550379211316	-0.35633449045652577	0.20438623513296994	-1.3671256108316698
id305	sample0	obj305	0.07212492871036247	1.6691933047125602	-1.1368576423858086	-0.0340288079766069	-2.1013606090380583
id306	sample0	obj306	1.7012443227161729	-2.810444179571963	-1.085573281505437	-0.4448125528158602	-1.0240130767294309
id307	sample0	obj307	3.048455044555686	0.047260403910845517	-2.0113635971345833	-2.4532619072142685	1.6674051040913807
id308	sample0	obj308	-3.521870496280409	-0.3060897748007889	1.4685090023860172	1.0296618011331156	-1.9522980345540928
id309	sample0	obj309	-0.18309403614423347	-3.0488583299966474	1.245465409797872	3.0106779653957307	-2.8462512244149645
id310	sample0	obj310	-1.9448355462815192	-0.17253570212441505	-0.10508226712226887	2.3181082734628244	-3.013714391919411
id311	sample0	obj311	0.7757043875843088	-3.098430400754106	-0.42414797873850985	-2.0419353668097306	-3.392606543709083
id312	sample0	obj312	3.953188204836657	-2.0589638985475847	-3.6409687224438305	2.3542101146371657	-0.25806564699768464
id313	sample0	obj313	2.9282976652351156	2.5110433643111842	-3.402726308215117	3.1402890517943813	2.6464911810124123
id314	sample0	obj314	1.1426454690431693	2.9747704555222274	-1.3572138201615718	-1.7518615897776963	2.1826554452670845
id315	sample0	obj315	1.2057857676276453	-1.8235266431231307	-0.5959137619721477	-2.6688409235907558	2.8091717052482337
id316	sample0	obj316	0.706530276165906	0.16553735212857568	-1.5294526258654386	-2.867422562241212	0.19785811390945107
id317	sample0	obj317	2.8849787078763507	-1.9294604557724497	3.599785985817012	3.5159799560221225	2.3581860622204456
id318	sample0	obj318	3.1994654265155935	-1.2769387985263587	1.3642373864726771	-3.9519683699412367	-2.4498362983581634
id319	sample0	obj319	-0.7401581374567268	-0.5217010203596864	0.5874196762973047	0.302846022916327	2.035717980740423
id320	sample0	obj320	1.6415119388431028	-0.9799417936159047	0.3942966673004573	-1.0204969202119245	0.19227845576190483
id321	sample0	obj321	3.0917235930752094	0.7725571157503908	1.8166604102690314	0.5822083947491232	-3.977306342871492
id322	sample0	obj322	0.020697805317472007	-0.5753308402517971	2.170568908961698	-1.5703512316345776	-1.882389988740078
id323	sample0	obj323	-2.364028968210378	0.2557677672396177	-4.161637756239336	-3.156003333377904	2.8649522545162744
id324	sample0	obj324	2.4158456090629827	3.233953720013945	0.7572539997957051	-0.18742249935255284	-0.9231255151247599
id325	sample0	obj325	1.8705566559380966	-1.6540527332916437	-0.5116271692781014	-1.8390538621825336	0.20918857668595336
id326	sample0	obj326	-2.364037278009333	-0.966358533415214	-1.1367854347051038	-1.102084875145324	-0.3980476757204565
id327	sample0	obj327	0.2743746222182124	1.1318866813016335	1.933205310784989	-0.6369415692809803	-1.315846522725174
id328	sample0	obj328	-2.797712604035815	-1.2620950112338853	1.0348583533067401	2.799279092389807	1.8711918364108875
id329	sample0	obj329	2.694649320386239	0.0983566652095762	-3.2114172403196255	-1.704568983660709	-1.6187444375423996
id330	sample0	obj330	-0.2235075194404803	-1.4571329993724265	0.5901287733285439	-1.127176094374567	1.6079913480309007
id331	sample0	obj331	-2.104254887745764	-3.0646848852606485	3.536439237435796	-0.6767472450967434	-0.9715681362808082
id332	sample0	obj332	0.2693875554098162	0.04500824342066423	-0.33176689567157347	1.1554826134578549	3.078634709693895
id333	sample0	obj333	2.8265807664457547	2.0334199756466065	-1.8107337305321758	1.0613611739223299	-1.2462347309384527
id334	sample0	obj334	-1.9760755127688334	1.422769838149482	0.10125657055558557	2.6489155123692716	1.7162240933690778
id335	sample0	obj335	-3.2889868708409224	-1.2977162235458968	-3.7574227401138787	2.25350118219202	-2.533544624850108
id336	sample0	obj336	3.4022134108069686	-0.19507280240838032	3.2510937357732077	-0.30254890122024647	1.8194211528687938
id337	sample0	obj337	-3.1340632690403454	-0.23685692079833598	-4.0050376905962	2.2122913962991033	1.0578457114040465
id338	sample0	obj338	-1.2017094902762873	1.8759743791014327	1.104708278329509	0.8035697850795451	0.01482079442066575
id339	sample0	obj339	-1.4375730548651116	1.8141611398897675	-3.1925624169419837	1.8087428608865856	-2.8500062061200118
id340	sample0	obj340	-1.5913575436201823	0.8751207477875615	2.4349757352553976	1.255385203395793	2.5185555334291196
id341	sample0	obj341	-3.3442590052534698	-1.0364320511962843	1.0221034973695395	-2.840488972819733	0.9828070083010765
id342	sample0	obj342	-2.4606064914691608	-0.10985217462586072	-3.4427022915115133	-1.0916369565204411	-0.4125544851099081
id343	sample0	obj343	-0.2694936891274926	-0.5210112434762049	3.088398042226521	0.8394031193762265	2.13761239758119
id344	sample0	obj344	2.310582639430891	-0.9524238087911914	3.485282702197309	-2.0355956141046607	-0.3298760819753761
id345	sample0	obj345	-2.6611687795126038	2.226949686221725	-2.121608487557997	2.482331972164664	1.09897086756295
id346	sample0	obj346	-3.8231554504429877	-1.7502144386259444	1.6701096883278144	-1.7979310532654567	2.1739422430412407
id347	sample0	obj347	-1.2338642992587434	-1.6696893267462374	0.7517822947572378	-2.6458447565053627	-2.4785700795501824
id348	sample0	obj348	0.4516726708895129	2.67948770742362	1.3587857635468	-3.3770612871356285	0.7941336641931943
id349	sample0	obj349	-0.04908911023325646	2.4292323916581293	3.5804959679481243	2.2482133578807675	1.1234274724860767
id350	sample0	obj350	3.4441426982106362	-1.9207148137759285	-0.9788891223772969	0.7571530212514764	1.4060864046186512
id351	sample0	obj351	0.7495150525113881	-3.173335389259621	-2.9179074843934076	-3.2809315641205288	0.9460363432771961
id352	sample0	obj352	-0.25887565631437637	-0.1840063855171199	-0.8663288139210104	-2.485754672932277	-0.2525855124089744
id353	sample0	obj353	2.075186098179897	2.78572798539582	-2.184933177106194	0.8230267044150554	1.8543405945904619
id354	sample0	obj354	2.2728600191792925	-1.71793469678126	1.1009429270933777	-2.302094931439078	1.6213154716244975
id355	sample0	obj355	2.036326320858831	3.046572259693984	0.13809913213604763	2.147297103356254	2.1171722609400994
id356	sample0	obj356	0.7926012237316971	0.6211912914358159	1.0748517072841721	-2.0369987584640885	-0.10610362610705981
id357	sample0	obj357	2.4129763352678104	-0.8177221032677939	-1.3160814532079221	-3.553045137735515	1.246388398895193
id358	sample0	obj358	-1.1673101124389977	0.8460176467436042	0.7202951482273738	-0.16931687591433087	-0.5734741106231227
id359	sample0	obj359	2.662083291832354	-0.6108017456006789	-3.578485253311487	-0.7152964726975917	-0.8283637508146819
id360	sample1	obj0	3.3473287893691266	1.9340229731386678	-2.3396016863076765	-1.300462232087213	-1.4819536229280084
id361	sample1	obj1	1.7152707295954726	1.7838307109392608	-2.2553082257234713	0.050174776127660525	-1.2242726791594267
id362	sample1	obj2	2.258734752436175	2.14284278956248	-3.4539596901775087	0.12161418926506484	-3.036636097355492
id363	sample1	obj3	3.1013170486822386	1.6230769566569385	-3.2136835673265587	-1.2984563223302472	-2.2167563483235533
id364	sample1	obj4	2.2942776994826093	2.585305974610246	-2.2770050283850787	-0.7539836168242953	-1.3385890462566865
id365	sample1	obj5	2.0992318483850387	2.3811107559089866	-2.7969448562110384	0.32443368349595203	-0.8650825113373066
id366	sample1	obj6	2.9778716110528576	2.257038946467274	-1.7461950718975119	-0.4138132375079535	-0.9163957996132999
id367	sample1	obj7	3.182454731173741	0.7275129159483895	-3.6844826878900143	0.5814753557799677	-0.8295421409253081
id368	sample1	obj8	3.4187353797450264	2.23014676357627	-3.6816147932172205	0.3170018505501979	-1.6507770813041711
id369	sample1	obj9	1.377776188781035	0.7758949308957807	-1.587536125152312	-0.15236697866965776	-1.1496502663609312
id370	sample1	obj10	2.888267442501904	0.8743131612748546	-3.1049307974246867	0.5125766582071847	-1.9748774679968806
id371	sample1	obj11	3.5976759799915055	2.6160013271050353	-2.545867870167323	0.6214815002394725	-2.5409831579033764
id372	sample1	obj12	1.5073537908810442	2.5823702123638785	-2.7456292074238067	0.2719747663723582	-1.4074051632411932
id373	sample1	obj13	1.7097428883172157	0.5670672050895067	-2.6805831805154012	-1.4871470832821285	-1.4673610700909008
id374	sample1	obj14	1.9386156180262657	2.261056265415613	-2.9216715416622296	-1.3787245138185482	-2.093649089780717
id375	sample1	obj15	2.3669791705069754	1.1893197395810113	-2.0921796272054407	-1.409773686061247	-1.2966037466975782
id376	sample1	obj16	1.8804482733688994	1.3937728498681425	-3.2418585100228725	-1.4359558286844984	-1.452053673344522
id377	sample1	obj17	1.9126373736397813	2.5241077744399494	-2.8655707226573592	0.24232909354998355	-2.6832436098927888
id378	sample1	obj18	1.437044452086769	1.4032465634834956	-3.2623482534923056	-1.4891547018473204	-1.471688856030285
id379	sample1	obj19	1.3380807171076239	1.0417360034432643	-2.041483457250002	-0.1454890487022653	-1.5817352246212275
id380	sample1	obj20	1.8909409443667158	2.3380942813217587	-3.739930819839846	-1.0479680454578606	-2.678608297686888
id381	sample1	obj21	1.5120018716941808	0.9596753907816643	-3.536284262322985	-0.8784538988986539	-2.1788582944316808
id382	sample1	obj22	1.4319700105489226	2.378385068047498	-2.059818391743341	-1.153361543506246	-1.4867444736889315
id383	sample1	obj23	2.71417911459457	1.5524136270643374	-2.3399467676921732	-1.4853876941750244	-1.1441668457214285
id384	sample1	obj24	2.9988411497519056	2.301384930348144	-2.3758666025137756	-0.6162026599071393	-2.9716477817495357
id385	sample1	obj25	2.0967918872718725	0.6078047604831825	-3.894527929212372	0.29128999849409865	-1.3324921473644014
id386	sample1	obj26	3.5669230080188514	1.6697647328363783	-2.9862965811916755	-1.6683046929713978	-1.853030175704621
id387	sample1	obj27	1.2611624862431368	1.0933698591951666	-1.7531786472311446	-0.5164821722887669	-2.6326660841686462
id388	sample1	obj28	3.368137819421521	2.100645538179002	-3.678147745024569	-0.27732362593203863	-3.044732121050833
id389	sample1	obj29	2.8776335420035455	1.779594261982194	-1.8423677192187882	-1.0804653441206717	-3.0417851062191223
id390	sample1	obj30	3.2562257019487646	1.9449488196643197	-3.8088426397649426	-1.268305367333653	-3.128387376770688
id391	sample1	obj31	2.9911345917273873	0.6258618744196189	-3.8976577811555266	-1.6680676214569283	-2.6544925612484342
id392	sample1	obj32	3.1329793339606216	0.8526131128396135	-1.7534055916362237	-0.9110879088831123	-1.9297159686041787
id393	sample1	obj33	2.3448365715376593	0.5682589544067258	-1.9160250237349892	-0.42496272738027097	-2.6919134616949547
id394	sample1	obj34	3.628393090747668	2.420332971201387	-2.0310309508625135	-1.3741682338236707	-2.224032409918986
id395	sample1	obj35	3.3191336490830006	0.9570754128123664	-3.3653730089249634	-0.8790689350787609	-2.155031507650112
id396	sample1	obj36	2.2800151965033226	2.0145680658085885	-2.3348528941776676	-1.6120507046853083	-3.070212424468388
id397	sample1	obj37	1.7230386091279328	1.0754236796090972	-2.614545668876046	0.5245176488145138	-1.7724544828224584
id398	sample1	obj38	2.684133983771257	1.3336665719913494	-3.2239266835675195	-1.4445004287675114	-1.5700174882349072
id399	sample1	obj39	2.2899202292512437	0.52899098458092	-3.1948018725994163	-0.15586621015143165	-2.2226711060066595
id400	sample1	obj40	2.893774956961056	2.119038105143594	-1.596585300135138	0.19747033131490688	-0.9723326498153624
id401	sample1	obj41	1.7193547477059403	1.2305315695591577	-2.076369254372606	0.07529686409471026	-3.14605765923398
id402	sample1	obj42	1.7158265186475992	1.046407737362598	-2.449493567802918	0.44264675877775184	-1.5895298826138733
id403	sample1	obj43	3.0717080945807878	1.2113033673807165	-3.941352138095039	0.5012764113859915	-1.6220493013969448
id404	sample1	obj44	1.7119591294775327	1.0242736404611978	-2.2368767771545186	-1.2149546661767898	-1.7658252011992763
id405	sample1	obj45	1.4619084556972797	0.7752426362538232	-2.856923894812906	-1.3147306900560747	-1.5720481616659876
id406	sample1	obj46	2.035343175252125	2.097787745092846	-2.1795580655945423	-0.8503104117375881	-3.1351532961801887
id407	sample1	obj47	2.9137134351674128	1.3702682375051407	-2.4003909762025524	0.6250530493880604	-2.158794478408727
id408	sample1	obj48	2.737517353589623	1.1023694998624243	-2.7335940788671405	-0.7717267223629088	-0.8287413321148007
id409	sample1	obj49	1.9256182141667266	1.3846975593940942	-3.1603713496827894	-0.03791568044129745	-1.6880861459215633
id410	sample1	obj50	3.2571008810279727	1.9324590170152205	-2.3134555932074825	0.6528507591955892	-2.7402177316295617
id411	sample1	obj51	3.164397536698922	1.685351859334712	-3.8359873396702264	-0.7168948370463089	-0.9788852169642832
id412	sample1	obj52	3.454388557835033	1.7869081612269977	-3.074855562588553	-0.39071198632975146	-0.8287503184611424
id413	sample1	obj53	2.342114716734705	0.6975220105981288	-2.07862769852623	-0.12658864061506137	-1.4530084133662977
id414	sample1	obj54	2.5832099873862755	2.623602304493901	-2.8974831167583037	-1.2991987614199285	-1.3383619215231568
id415	sample1	obj55	3.147277850887696	1.7855586219611654	-2.9684919550664883	-0.8229678639011468	-1.1057544732209628
id416	sample1	obj56	2.3937783226418063	1.30199967347713	-2.4680590167689163	0.4555044151535663	-1.7342304291506285
id417	sample1	obj57	2.690664519768919	1.8264459320272053	-2.5907840291151985	-0.3098355279787106	-0.8539761425927168
id418	sample1	obj58	2.337598623833478	1.3133679180940363	-1.9492834363229752	-1.5695201868537372	-0.9044338846573539
id419	sample1	obj59	3.2911823054628666	2.377310827452213	-3.5740803763172866	0.2602979392847111	-1.3182627718997422
id420	sample1	obj60	1.9978482191219322	1.1945927370966944	-2.330403755100349	0.5984802678242589	-1.7482600097506882
id421	sample1	obj61	1.9669739292912678	0.5214130903117606	-2.676052956562931	-0.41543947528797576	-1.4810545794777026
id422	sample1	obj62	2.395986120153334	2.4925256361346735	-3.7902862500429544	-1.5880345138932377	-1.2698539109951874
id423	sample1	obj63	2.71182191421152	1.7357567534888676	-1.949383929905282	0.09690980236129976	-2.6726654523704
id424	sample1	obj64	2.9276923742482674	2.691932530778703	-3.2640315815157024	-0.7772322770466767	-1.918634318279339
id425	sample1	obj65	1.7267491372736443	1.5570558422147451	-2.69336531609969	0.004886577610985654	-2.7723493479819012
id426	sample1	obj66	2.758581127102376	0.6411989371121375	-2.28933054434936	-0.8057226893480177	-1.5655662356579947
id427	sample1	obj67	3.4415571498896735	2.4313812339085725	-2.894333265488866	-0.41725687318624094	-1.1716990018812126
id428	sample1	obj68	3.362476128444018	1.306039914419456	-3.3189122584933592	0.47663039405771657	-1.7770323128221315
id429	sample1	obj69	3.4008871268998657	1.3164103435125145	-3.7807421143079374	0.14885108697165617	-2.532824356964511
id430	sample1	obj70	1.312379753153308	2.352558244326768	-3.6205940276564537	-0.9760227730568392	-2.9457027567493848
id431	sample1	obj71	2.9042319782018615	1.5637936891210107	-1.8663403969302903	-1.1486122675542736	-2.6839120725849934
id432	sample1	obj72	3.0366118751314417	1.1070871482974507	-1.8465977789188333	-1.5834993149526848	-1.5604592983115664
id433	sample1	obj73	2.8791723759907013	1.3427467262584443	-2.627567208063798	0.25739423956360574	-1.529926340871704
id434	sample1	obj74	3.6299376132499654	1.6613476296471	-3.7389539211862592	0.4084506199929294	-1.445085218442602
id435	sample1	obj75	2.4319522137234393	0.7745695128994418	-3.1589428924886946	-0.013608992508583828	-2.0163647315937223
id436	sample1	obj76	2.7618467515737035	1.0875449553507504	-3.047971056036374	-0.14294783892585605	-1.9680895069671749
id437	sample1	obj77	3.2593545755435924	0.6313896726048269	-1.7728850270818228	0.6508321871144871	-1.7691409916906866
id438	sample1	obj78	2.2514921621104937	0.4991211846628272	-3.1759043772406943	-1.004260532184551	-2.4236898757149534
id439	sample1	obj79	2.620681005199434	0.9110185852238574	-1.7580365462021497	0.16177185923762472	-1.8438225241902202
id440	sample1	obj80	-1.0184179204988446	3.36139213323204	2.231019044749059	2.5284343786089796	1.9921472626209578
id441	sample1	obj81	-1.3410736567782464	2.1558198341382235	1.7662835314177192	3.8588823402576633	1.546176098093384
id442	sample1	obj82	-0.30224634064086353	1.9204786431693335	3.389976786888859	2.0724753756718144	2.3475812208768874
id443	sample1	obj83	-1.278026543519521	2.7351726341804357	3.0203118654108367	3.462354077498958	0.8012121676733827
id444	sample1	obj84	-2.2983671790608424	2.085767661926645	3.4577154395042875	1.534512680406207	1.321420161236187
id445	sample1	obj85	-2.016190112121403	2.2654370729288544	1.8886874418400288	1.7884124712803313	1.5748775114357534
id446	sample1	obj86	-0.9424264450654816	2.4876814032927657	2.0900921703691364	3.573754917134991	1.1140076634917468
id447	sample1	obj87	-0.33494389288009496	1.815371515637146	3.56255113248229	2.4277602732674795	1.5818159675704253
id448	sample1	obj88	-2.2490317530762094	2.1631766750567154	2.8590674793192212	2.3290685485223124	1.3408938055208444
id449	sample1	obj89	-0.8425060587319455	2.563095884353662	3.3085166437174873	3.095868961792487	0.49661396137166003
id450	sample1	obj90	-1.1959676626433966	1.9717602682050175	1.9842825392427228	2.1219135769843565	1.4056378239231317
id451	sample1	obj91	-1.6872044920799663	3.10855950836262	2.444694903751672	1.5870229311808328	0.9319088203200409
id452	sample1	obj92	-1.8895793577236426	3.2978107587058263	2.6701253382403696	1.9883948444086152	0.6669068589635294
id453	sample1	obj93	-1.301393174307674	1.58597403102638	2.6252224318349153	2.692819232887554	2.090174232339975
id454	sample1	obj94	-1.1230680977643754	2.243673961103158	2.7549027992448183	2.572631717469725	1.91859516728729
id455	sample1	obj95	-0.26046057781297427	3.2568521755943545	1.937957391883801	2.0122467416617367	0.6747065566557675
id456	sample1	obj96	-0.3370971313862412	2.0640932842756454	2.718578343715096	2.1972417259389525	0.6790341133881779
id457	sample1	obj97	-1.2495320427857306	2.2978849445895726	1.847350182110815	2.5515624958616767	2.2101774851992273
id458	sample1	obj98	-1.7147647474949055	2.713631360609461	1.4103785618344136	2.3853282371061812	1.1377057730365097
id459	sample1	obj99	-2.065625416001363	3.306484586739666	2.516838947022644	3.558277088403317	1.8629629617933605
id460	sample1	obj100	-0.6906556615278119	2.074830507941245	2.5474166429337357	2.141955139065812	1.7352163545833899
id461	sample1	obj101	-1.143174403888811	1.6304146927552912	1.922464211188253	3.354653325163077	1.966302542615466
id462	sample1	obj102	-0.7263388613451984	1.9059561372687326	3.7003238993506917	2.511685558658714	1.6546312262367326
id463	sample1	obj103	-1.0759919750307108	1.586521325557131	1.4217413546491406	2.2322187860699927	2.545186129980128
id464	sample1	obj104	-1.202336864613184	1.5932589817727418	1.9217236912232312	2.7123563198694547	0.3796146202263837
id465	sample1	obj105	-1.4188996927976578	1.1671741572448497	2.6691719094370367	3.3398835143192005	1.6007098800825141
id466	sample1	obj106	-2.499246636888513	1.2137858963621937	3.1882274759349842	2.5038517222239216	0.727163259276084
id467	sample1	obj107	-0.8874085455034846	1.3416194892625644	3.5721200913220406	2.5443504797877985	1.7534855321310556
id468	sample1	obj108	-0.18834897649697147	2.210864854455478	3.216474377112533	2.784235938095536	1.3900645252638695
id469	sample1	obj109	-1.7339902596075938	1.143041314361476	1.9581231175724763	2.0625983068639218	2.2605325095917994
id470	sample1	obj110	-0.3247001661564821	1.9554798895220271	3.7785816050879646	1.7141955971999803	0.42655598456949884
id471	sample1	obj111	-2.3646353877149404	2.7907194138310945	1.9770489228914205	2.062310999612091	1.2099250045625947
id472	sample1	obj112	-1.7333546187363291	1.2128493252585535	2.982214394412008	2.5543387395102237	1.5120047652902222
id473	sample1	obj113	-2.169551294374333	2.9302690195492986	1.9888582584044299	2.597221601190746	0.26231002071915954
id474	sample1	obj114	-2.1020242182863753	1.854611118947998	3.695330331472297	2.6584896980769184	1.719769958439927
id475	sample1	obj115	-0.27700844606765496	2.6835379054703727	2.990071094306037	1.9904322197247502	1.6482567684873715
id476	sample1	obj116	-1.441137110561247	2.8531155609630368	3.785495085841119	3.099713337407753	0.7257555267294311
id477	sample1	obj117	-1.0994996149487193	2.583332883688735	2.309382034347416	3.8998649517753634	2.245240946906379
id478	sample1	obj118	-1.444912825630129	2.4654170934055832	3.5085102831677304	3.6143957774128994	0.2335032551297509
id479	sample1	obj119	-2.526534622900459	3.4267394824363997	1.9552133002668932	2.1960930883420264	0.8479109909063515
id480	sample1	obj120	-0.48472922169997257	2.7606523944018635	3.620939493716377	1.533302348987856	1.4940212541076794
id481	sample1	obj121	-0.6285463956917747	1.8143941239213308	3.0253359339845836	2.053895627305038	1.4101285263675587
id482	sample1	obj122	-2.188711562784775	1.2655848631116826	3.0059600880051676	1.727127984912252	2.04688495341346
id483	sample1	obj123	-0.9715436674714271	3.251660031657746	2.591036274576134	2.1049705046129317	1.0771163720709647
id484	sample1	obj124	-2.0091300543535144	1.0991892381344734	2.3918140746919376	3.327647616344973	0.23649337805327675
id485	sample1	obj125	-1.102299406899794	3.371253282095835	1.445645732467556	2.9203387090907285	2.0408948287027533
id486	sample1	obj126	-2.051850361942367	2.738244753619896	2.7069734412911948	2.0941692130057756	1.659705553153668
id487	sample1	obj127	-2.2490216553683045	1.895458652560538	3.659597704636015	3.0870612972172715	0.6420265741354281
id488	sample1	obj128	-0.9397347680772372	2.301997514026813	3.155981116690504	1.9785856541425042	2.278427114564325
id489	sample1	obj129	-1.5926092887076662	1.5896684955752103	2.0115184986238734	3.7149882936041054	2.5055382987675756
id490	sample1	obj130	-1.4045514486773185	1.7650482291161107	2.4147698840544543	2.5009144343724263	1.6830594560506098
id491	sample1	obj131	-0.7987512392557885	1.667571788576311	1.8672021136097716	3.755351034587396	2.438727600662501
id492	sample1	obj132	-1.6496021742519271	3.0037136938712963	3.2341075488330517	1.5808086895627793	0.9200685292668219
id493	sample1	obj133	-1.0612847676886017	1.0919144101916762	2.355664310077412	2.4341022997177237	1.1334096352370273
id494	sample1	obj134	-1.697937760129662	1.252204895322361	1.8046596129414816	3.279117563753978	0.7992745822504014
id495	sample1	obj135	-1.2923832707237812	1.1733452577925572	2.9438130411898644	1.7990042969720388	1.0050008879587358
id496	sample1	obj136	-1.3386851105976794	1.5910587332569484	2.0770039129261075	2.4871653816037873	1.0738056374571059
id497	sample1	obj137	-1.50530221610673	1.203456296277773	2.938617636288341	3.450556570339298	1.165680822954143
id498	sample1	obj138	-0.7066667336858308	1.7113530174174953	1.4447762914864215	3.5600156316203666	1.9380043822319593
id499	sample1	obj139	-0.2705655284692272	1.1667192309419172	2.248002219129619	2.1729509779757303	1.3687172357838446
id500	sample1	obj140	-1.1781491767361825	3.3943290474685073	2.988969813163866	2.823577139636547	0.5159193939048765
id501	sample1	obj141	-1.786634372633773	1.8596141879816117	1.9090328219180688	2.6023330014764543	1.17588289811326
id502	sample1	obj142	-0.7382145956573609	1.9171396181748352	3.2462533076939804	3.394005496695595	2.0153564394495733
id503	sample1	obj143	-1.7912525624896674	1.8038404986109124	2.4443108042628188	3.2657447657106164	1.189736964259022
id504	sample1	obj144	-1.0729036504897398	3.3415338295060986	3.204019809299199	2.031444575328994	0.7998092909245397
id505	sample1	obj145	-1.4498229986374944	3.3740924829825643	2.234830007293051	2.89521629765789	1.157386818333666
id506	sample1	obj146	-2.1619360559405023	2.3633840489277147	2.7397181807971416	3.0087488697365736	1.98293347747424
id507	sample1	obj147	-2.0923225146908804	2.369477916289661	1.9998978837276926	2.867567459243093	0.2921902979910571
id508	sample1	obj148	-0.4954708632969609	2.8970540199367996	3.411865372566509	2.8094192389503383	0.4775686497912006
id509	sample1	obj149	-2.0304209504646797	1.841249661883034	3.552064899133474	2.1415751775123386	2.2747025696386007
id510	sample1	obj150	-2.011023983833946	1.4397009018677795	2.174980830349912	3.077579641758632	2.133661736010653
id511	sample1	obj151	-2.4716255156727254	3.1481153154992887	1.647350796559441	1.5602553241162664	1.4840140973741995
id512	sample1	obj152	-0.844318122654357	1.1066977465510972	3.6305276385103857	3.6264155854338345	0.6767840557881466
id513	sample1	obj153	-2.357428030554309	1.7439832604088599	2.1783986389137135	2.457102145633631	0.475472116211513
id514	sample1	obj154	-2.4104950617626533	1.2504567106101254	2.0407896058539277	3.2700889493535987	1.011280830800592
id515	sample1	obj155	-0.9875887134328474	2.511597215295286	2.1605330764537216	3.351221410851557	0.7606194208842431
id516	sample1	obj156	-1.7797778341150046	3.371027060737946	3.3224560574426176	3.377737945702643	0.8794350769643581
id517	sample1	obj157	-0.5528464733129284	3.1391051292032603	1.7380419509205187	3.337387708177434	1.1600301984167605
id518	sample1	obj158	-1.78432550928737	2.1979356816813733	3.6015312013512206	1.7567633113986865	2.470371224080182
id519	sample1	obj159	-1.7835027662104823	2.0952023197578615	3.3903438624909032	1.973149915040697	1.589564625696707
id520	sample1	obj160	1.9869676242936418	-1.669251046600581	1.6431819582467537	-0.04335623331951188	2.3340388061841137
id521	sample1	obj161	1.7461677859522162	-2.046000722163154	0.4372034909736646	1.0366484292409148	1.689679496795975
id522	sample1	obj162	0.9827856622573703	-2.986493074338368	1.8399027420355842	1.7399955851297968	3.0180644397294327
id523	sample1	obj163	1.1390324652604127	-2.7040629153192013	2.0994192218166043	-0.12821810885724494	2.7573804394037182
id524	sample1	obj164	-0.067176286313672	-2.885459846083699	1.3664573488124088	0.7105438317288009	1.8422906286484302
id525	sample1	obj165	1.973545151043831	-2.205067306090811	0.6839913355184528	0.36781210798214437	2.6249303952237324
id526	sample1	obj166	-0.18998624554451427	-3.612836749714778	1.4495063169908853	0.08067126381200052	2.478686517813073
id527	sample1	obj167	0.6284917855301906	-2.6065800545000437	0.9897240244745437	1.500995479243599	1.76979697226268
id528	sample1	obj168	1.4012374076592764	-3.200056706738976	1.8650659616599248	-0.23960149764712035	2.7311366784373763
id529	sample1	obj169	1.3905268291676154	-3.9323437890461856	1.3819564547286667	1.2525166072211942	1.4546414259148182
id530	sample1	obj170	0.022958257090559986	-3.6539313459679126	0.7565542049034313	-0.30111210825884016	2.692271088483145
id531	sample1	obj171	0.4352301570514394	-2.406007448493476	1.5522234151959935	1.1537374482109908	1.4663090253602689
id532	sample1	obj172	0.5140838292879368	-1.929140055538739	2.4010988394333914	0.5462736307536524	1.9717389987278302
id533	sample1	obj173	1.3557916551634341	-3.0561795332718193	2.7010685800461562	0.13398776453330707	1.1275209571972966
id534	sample1	obj174	0.18806444220568308	-3.934359729658331	1.1244749640109295	-0.3882282665787635	1.5084023869939194
id535	sample1	obj175	1.8506279544572302	-2.5684154992102153	1.242424100347029	0.941771079454002	2.060539920329842
id536	sample1	obj176	-0.07141988176348257	-2.2777226831521182	2.304881272127303	1.3776144151676653	3.056268386438101
id537	sample1	obj177	-0.32892202025881834	-1.6261548478717012	1.6553128627608198	0.9813536139504344	2.746925545132118
id538	sample1	obj178	-0.10949157341090365	-3.3361987248676135	2.3206090801699735	0.6869497766349346	3.1863235347973826
id539	sample1	obj179	0.19516917183420535	-3.7740321326896886	2.4109739762774405	1.152798178196589	1.0673398304965311
id540	sample1	obj180	0.3202130723631661	-2.5374009983317265	1.5865015166174086	0.35743898262058416	1.3737767168698038
id541	sample1	obj181	0.83328878660648	-2.853389631959145	2.580856656731023	1.2045974829722206	2.5202060762325793
id542	sample1	obj182	0.6365337714583035	-3.6712242502359276	2.0889439464714004	-0.2191208017502111	1.8425617258274947
id543	sample1	obj183	0.48643969734379977	-2.1012281024319774	2.1832692041835857	0.6041571198251887	2.3078691193249172
id544	sample1	obj184	0.71620370697503	-2.6026276593860063	1.468970725487008	0.2527721936159941	1.5162933773360303
id545	sample1	obj185	0.26760229873664576	-3.4702364867168383	2.553816292565013	0.40246955863301237	0.9437474500949303
id546	sample1	obj186	-0.2952366429467943	-3.935782908013974	2.1179170157791436	1.134354308954207	2.477215255416289
id547	sample1	obj187	0.6615693683152355	-3.6189491067862662	0.4270990145481368	0.015417191138830222	1.4738129580113442
id548	sample1	obj188	0.4263844381879336	-3.783712970400276	1.1398880772248385	1.2831948018920545	1.1620216279892601
id549	sample1	obj189	1.8384637556747443	-2.13748354768647	2.1944980968548564	0.8652330146471872	1.0205763796319216
id550	sample1	obj190	1.593360258228682	-2.426454174505843	2.6001622492668566	-0.30293358148993854	2.525777695965207
id551	sample1	obj191	1.9509921520439553	-2.3157206288544243	2.155202230997699	1.6217446971456273	2.147601214297012
id552	sample1	obj192	1.1183630679862753	-3.2946795268591247	2.0184874333925404	1.599382467589107	1.5825094295428348
id553	sample1	obj193	1.3353330512922215	-3.527192172376263	1.7049893137438115	0.5541184402518409	1.7074124677463418
id554	sample1	obj194	0.30991350184493405	-2.9946288343756584	1.7810751717812157	-0.34690871473218143	1.483374103282304
id555	sample1	obj195	1.0003995932511653	-3.8933499321533445	0.9096108355830765	1.2499150970554531	1.5755096877603387
id556	sample1	obj196	0.9838487946402581	-3.39409551621457	2.634939353905297	1.8235105258607172	2.220670037539027
id557	sample1	obj197	1.230062787360148	-1.9092945020457088	2.586973379113973	1.4793629309900267	2.988038264664119
id558	sample1	obj198	1.5509233439970793	-1.9181285055688766	0.6930710312574118	0.01917939483547293	1.1482846828784727
id559	sample1	obj199	0.5377629642031536	-2.1534499939668765	2.274656049478814	0.8788471586730728	1.2905168803600517
id560	sample1	obj200	-0.05698441163337131	-1.7570115693246848	1.4187842417004524	1.0233986337619767	2.186526849213349
id561	sample1	obj201	0.20278295229800525	-1.8700754784326354	2.486645007979784	1.7987077787489196	1.1698616229805299
id562	sample1	obj202	0.8177614293219109	-3.2679909496072708	1.8724114981854958	-0.2122760001318239	2.8316299239450387
id563	sample1	obj203	1.5822983822577716	-3.7049113295494287	0.8655110888162174	0.7065333769601483	2.2817918946898677
id564	sample1	obj204	1.8337774942784846	-3.456126085509477	1.2933713598887568	0.8922707146499349	0.9175583926941158
id565	sample1	obj205	-0.06683438185051949	-3.590664995893451	2.4135997778323657	0.5582301735822384	1.6005473599807898
id566	sample1	obj206	-0.28402001237432484	-2.0485466398572374	1.0554745632856224	1.2862817188349918	1.2800936137825158
id567	sample1	obj207	0.7922505990576518	-1.7204454698726452	2.339146337867379	-0.054758516320189354	2.6076878454115624
id568	sample1	obj208	0.1328511488661408	-3.130303873504557	0.9731784376608382	1.9060051991182576	2.850517426026491
id569	sample1	obj209	0.2539462406634553	-1.9136645372635968	0.5805734002993526	1.3973839811590947	2.201592098611777
id570	sample1	obj210	1.6848461989707098	-3.3889110143095538	2.651343087272253	0.6255211442900741	2.058557364893619
id571	sample1	obj211	0.3483698870700873	-2.870326028195846	2.574571331752533	0.16686335025246224	1.549116680310973
id572	sample1	obj212	1.5554803045127332	-2.9185737999592902	1.6608875199946134	-0.17024950109664272	2.7515998748275052
id573	sample1	obj213	-0.03642477624944096	-2.226033741450924	0.5109055247977359	-0.25987561748017685	2.6157168826780515
id574	sample1	obj214	1.0039759361089726	-3.864018260979482	1.5875862138305292	0.30747384723265614	0.9395224416615422
id575	sample1	obj215	-0.030042325951034954	-2.161451958577116	2.3692392014813	0.8202842689529799	3.000179099069389
id576	sample1	obj216	0.8806975946423676	-3.9377294473344753	0.841091366164181	1.145780659139919	0.9518384522495418
id577	sample1	obj217	1.9948758146330656	-2.7863615550527223	1.660603141374638	0.9939918512530144	3.164953851627024
id578	sample1	obj218	1.1239420676864478	-2.02332047237937	1.926109689770857	0.4659634963040442	1.2461937884055374
id579	sample1	obj219	1.2603549040838458	-3.8098581369430318	2.1984879913815267	1.1426497907662603	1.792926163569215
id580	sample1	obj220	0.9489982088347386	-2.081658454964856	0.667505855400593	-0.22553374942718207	2.3345957065821317
id581	sample1	obj221	0.6365824379933387	-2.924647469653296	1.4018787303972131	0.27902948587439036	1.6163009088848943
id582	sample1	obj222	0.5677324788203177	-3.8052784999702682	1.6459491425523725	0.21108742476182585	1.6961010264953815
id583	sample1	obj223	-0.021250526814076354	-3.2747980287664644	1.3848940904542422	1.6864031229126717	2.0531260553682564
id584	sample1	obj224	1.9793009787249278	-3.9205256716692922	1.4405631517398751	-0.3397643562013226	1.5220317514416268
id585	sample1	obj225	1.104635374506056	-2.342717121583547	1.8150378507773333	1.2084099771844405	1.1518199002082818
id586	sample1	obj226	0.44993258120083435	-2.3157681841121667	0.7898819836320723	0.34962598847022264	3.092131805114382
id587	sample1	obj227	0.03517659290620634	-3.3825239137169025	2.624412849319996	1.6839696385115823	2.083912127126668
id588	sample1	obj228	0.1520710969874719	-3.477934130704311	1.672260961238945	0.394401208583655	2.9074217636250483
id589	sample1	obj229	-0.039894340398685335	-1.7433979882575834	0.9355914395620143	0.6426461032157129	2.7400528976247327
id590	sample1	obj230	1.860507773303467	-2.0485279506728933	1.9717324348651093	1.753254673695569	1.2078517905548882
id591	sample1	obj231	2.005587446459007	-2.467889127349056	1.816181391836977	1.0719626994478921	0.8741866155719806
id592	sample1	obj232	0.005480703360538186	-1.6641904953622986	0.43514225808552665	0.44672606312833574	2.380197698914981
id593	sample1	obj233	1.8706266264042533	-2.4165796903259236	1.5034677827961385	1.3392604414606895	1.3056323378851424
id594	sample1	obj234	0.3600598182005573	-3.4257726121058667	1.6412451139549227	1.4464342085388802	1.013987340247517
id595	sample1	obj235	1.1638615822901066	-2.261897593498862	1.3428582102585565	-0.20321424653428344	2.7286554296491223
id596	sample1	obj236	0.191480612295447	-3.143798038296209	0.69228133134313	1.177605934207699	2.1905901513372994
id597	sample1	obj237	0.012205450137876772	-1.8102840079115399	1.2611988046396525	-0.18021100434615467	0.8939590209152894
id598	sample1	obj238	-0.1665663812025162	-2.137097593898776	2.3034018371112497	1.0858527606062094	1.5929447708988005
id599	sample1	obj239	1.827637283034895	-3.4533257690641954	1.5483753576733617	-0.3764937881041215	1.916368435085022
id600	sample1	obj240	-0.4225407774897856	2.385702457650226	1.1539702541923782	1.9799336334884072	0.052358420040885756
id601	sample1	obj241	-1.4349826525640688	1.6649029535248279	0.8415941198279271	-0.4667883504147545	-0.09119046376185236
id602	sample1	obj242	-3.465217022652003	0.6978425956883074	0.2891116713776638	2.342039864389359	1.7038401813582913
id603	sample1	obj243	0.5182524555073853	-1.9519092118697667	0.4681368453470989	-2.798376316727354	3.6200089790792083
id604	sample1	obj244	-1.3973409037580193	1.9387914161037565	1.174712092535974	-2.626885225122736	2.249763081307314
id605	sample1	obj245	-1.3821544122415816	-0.4361121374037704	0.23261267338011893	0.5299199682664633	0.8801442940419996
id606	sample1	obj246	0.9298289758375898	-1.8513874366640632	2.9676060847734442	1.8201378916524276	1.1420582841960754
id607	sample1	obj247	0.018514770149480553	1.9887906644369024	0.3961276430470957	1.8529325726846857	-2.5996941926738657
id608	sample1	obj248	-2.0428166077271057	-2.2673038261287988	0.5367065727740254	2.3914104435415524	-0.9979494212380159
id609	sample1	obj249	0.6198004624142824	2.009280357082438	-0.32093651096491416	-2.696954266406543	-1.4604672628659559
id610	sample1	obj250	-1.6900999004740813	-0.18763694662597508	1.3577918405442422	-1.6304817178248974	0.2642380179921111
id611	sample1	obj251	0.8556073691104498	3.783898291524105	1.354973277833039	0.9303011551368987	-2.9409723147436218
id612	sample1	obj252	0.414983556543018	-2.1868576040737358	-0.4217064572167608	-0.3147117211172257	-0.4840827577896163
id613	sample1	obj253	1.624931990712529	0.7284722865096271	1.2829682924449248	1.869006090176169	-1.0486343899713269
id614	sample1	obj254	-1.5991260033866443	0.4564306060755272	2.082195259904358	-1.7972978182469403	-1.0863137932282734
id615	sample1	obj255	-1.524174387618722	1.0745487251869097	-1.2355480294731982	-1.5542474892964653	0.5521257327067088
id616	sample1	obj256	-2.273007401382726	1.4694404348985017	3.07130856287164	-2.068832705535874	-2.1126662802248055
id617	sample1	obj257	0.14372290206346672	-0.6572886342337481	1.8059112665763863	-0.6184335342182601	-0.7225048633001849
id618	sample1	obj258	-1.1316634720301109	0.6626863385436594	-3.3106472042291886	-1.0344317777458	0.34260485892471904
id619	sample1	obj259	2.071012912807289	-1.409937938002409	2.591910540663001	-0.4504830514616389	0.32303300978192684
id620	sample1	obj260	1.2182080681759377	-1.5986857629734015	-1.1928174269323413	1.3556565626877195	-1.2891096498312986
id621	sample1	obj261	-1.8073529336406455	2.0057092984236613	0.6550627384044496	-0.4641666645083222	1.1748706272919067
id622	sample1	obj262	-3.0832418620985873	-1.3690373468150676	2.992827415999604	0.753573032995263	-2.3123449526537216
id623	sample1	obj263	-4.067441508691296	1.0849966177466885	-0.14388694053727735	0.7170685937172941	-1.1542689081710806
id624	sample1	obj264	-1.7132632285092955	0.7739374112497788	0.43419598144383653	1.3816586885663205	1.3000811482613552
id625	sample1	obj265	-0.054632182868279644	0.3523581418987276	-2.8875061737848786	-0.6276491142274314	-1.3165015356811778
id626	sample1	obj266	1.313422307520788	2.4244257594770158	0.8618828488144181	-1.2669574004150188	1.1882183562126036
id627	sample1	obj267	-2.349385702880869	-1.8731878027144844	-3.3751151076797496	0.9447706326649565	-0.10947399418965309
id628	sample1	obj268	1.5521226334905542	-2.014392795434638	0.7871972378244338	-2.7980819624505324	0.8693624733363459
id629	sample1	obj269	-0.1578003689429598	1.8922131950618741	-3.3581818432022077	-1.6478056140925	-2.175471497444568
id630	sample1	obj270	1.1491428609342889	-2.643544205334837	2.1353164671649085	-2.4177113465432707	2.0351855174132245
id631	sample1	obj271	0.9197200639119602	-1.838320239750414	-0.5282045757255467	0.48425335210839937	-0.6798529916531738
id632	sample1	obj272	1.7421773169540795	-3.052360115049022	-1.1194256702853744	2.9228873493321075	2.8142744460252915
id633	sample1	obj273	-1.3070016893504026	1.68361838203964	2.5066124417648163	2.5241735290647402	-1.7263120542487878
id634	sample1	obj274	-2.158553306153709	-1.4537027400228562	0.10182424545929958	1.137813866824765	0.5844634076553206
id635	sample1	obj275	-2.125225054256519	-3.846825524839637	1.0707004504474538	-2.227035764098848	-1.3220065547938007
id636	sample1	obj276	2.517546267033225	1.2269836611452158	-1.5517196737676138	0.40929641066589917	-1.0388808683565556
id637	sample1	obj277	2.9203523365209207	0.6813381859061797	-0.30354994240933064	0.21975715101363125	-0.7136021115849044
id638	sample1	obj278	-0.7375621995608191	-1.546581975580019	-1.368147958012672	2.05583001511724	3.026213339574485
id639	sample1	obj279	0.1941904868413844	3.3781441020964458	2.1171611198437272	1.669582945808487	-2.580822018268391
id640	sample1	obj280	0.6059159530430469	3.037820788629992	2.384364416914341	-0.37548558576848423	2.2944421128202173
id641	sample1	obj281	0.46867028710573577	0.2610136298822676	-0.5422236323690084	-0.3194363626114487	2.5982463649319025
id642	sample1	obj282	0.9509987555887556	-2.089410515862493	2.406756820616145	0.28751786988461525	1.148565455938525
id643	sample1	obj283	-1.9820380756596392	2.2278420712518208	0.9956950894226135	-0.13441770147505794	1.1052357424922237
id644	sample1	obj284	-1.4520396973170084	-1.7488657380190085	-0.7047252259567627	0.8017376354228942	-0.7266750552431434
id645	sample1	obj285	3.4357431250088784	0.5364748317780825	1.384386379380285	1.1471032417402973	2.4116246062653484
id646	sample1	obj286	-2.073816159268116	-1.5631973182577839	0.32353702632203873	2.4049082130566433	0.10861305279590794
id647	sample1	obj287	-1.3976787442796885	-0.5661134014965965	-1.9754448397610975	0.28900522252754013	-2.759567574656245
id648	sample1	obj288	3.2133618711914123	1.9712732263403665	1.4219314736179143	-0.461238386498785	-3.28467416391333
id649	sample1	obj289	-3.1262352104891704	-1.8189685938937297	-3.7346736927912447	0.26586406219435865	-2.0835129097732223
id650	sample1	obj290	-1.3963483117689302	-1.8813796510597287	-1.9632613036956605	0.6052703249735722	-2.2981434421881763
id651	sample1	obj291	2.2025620477394563	-0.9898369539170135	-3.432446995437845	-0.44045138012311846	1.0054408644398642
id652	sample1	obj292	2.7290365807224743	2.1541774212115423	3.776958899568365	-0.20809371718938408	-2.7428688142538924
id653	sample1	obj293	3.1977318959150614	1.5684420001253003	-1.0384173483510362	0.7776900821601742	3.9163311308342026
id654	sample1	obj294	-1.6665254832286036	-1.3010112001577765	-0.9248553678781368	2.354688476349099	3.332313751249205
id655	sample1	obj295	-1.4627509647265053	1.1904017339389266	-3.095223290346027	1.1457615284897216	0.2121133239039421
id656	sample1	obj296	-3.355601314129296	-0.946730748504101	2.7683376698018685	-0.15100395786250287	-2.892177649917011
id657	sample1	obj297	-4.060103606057243	-1.5838378699428577	-0.36596503524134616	-2.5789637037898645	-3.0954778991380874
id658	sample1	obj298	2.2306716224742553	-2.2965036715901563	-0.9375470213201098	-2.4078411702271314	-1.3524669788462336
id659	sample1	obj299	-1.1733934618972688	0.07500079837086648	-2.102837843205201	-1.7404313392320763	-0.17237045056538403
id660	sample1	obj300	-0.2218171052917226	-1.8187335347941243	-2.0300060379098452	2.3477203958800477	2.314799881377097
id661	sample1	obj301	-0.7348274063365949	-0.9488225163825872	-0.9210861474783723	-1.1951059304249008	3.095769221939415
id662	sample1	obj302	-2.779368515520952	0.5673747001710587	-0.8863797098699198	2.5905655080036087	-0.6656916744671462
id663	sample1	obj303	-1.1447768612886848	-3.6598185776067993	-2.8431229140354444	-2.3162202824641454	-0.815045437565683
id664	sample1	obj304	-0.08186268214566228	1.7637296042951536	-0.5222299024087164	0.9423361314278931	-1.6996319164279208
id665	sample1	obj305	-0.020001019038721757	1.0528362114221788	-0.0812590117347507	0.6430982904502867	-3.0654431280194485
id666	sample1	obj306	1.2133958202968667	-4.027858706326476	-0.150583439829151	1.139990326850717	-1.1305872372340544
id667	sample1	obj307	2.2240993863501313	-1.3496710484686236	-0.26073926351297283	-2.092860554583156	0.8902912785172251
id668	sample1	obj308	-2.0905994532062127	-0.7721994901592569	1.1858941816653397	-0.26805482958810956	-1.637173485645229
id669	sample1	obj309	0.12263741321325838	-2.948118950239448	2.0233672207346496	1.2110710877797897	-1.9814404972531725
id670	sample1	obj310	-1.8188187062797032	1.5472177957103546	-0.21827881116991388	1.4630002299588125	-0.9640309213184006
id671	sample1	obj311	1.2973088785899327	-2.070265654216049	-0.3884607107160196	-3.8743488058000364	-2.8338461819233145
id672	sample1	obj312	2.5303911165721518	-2.1724102442917403	-3.7490571922648153	2.784072542036789	-0.5709553848854553
id673	sample1	obj313	1.2499345548845213	2.431256832066966	-1.3825760932929498	1.388066170344302	2.8095651568981204
id674	sample1	obj314	-0.39009555024498965	1.093163888635069	-2.8776716754880765	-0.22118943994548368	1.9646055654704382
id675	sample1	obj315	0.5758646571037795	-2.0998327433579558	-0.5176469608912484	-3.2796765011811972	2.897109553907529
id676	sample1	obj316	1.4725468135843374	1.0101840740995567	-1.1341781587016968	-2.455129192396502	-0.11622501268466112
id677	sample1	obj317	1.7559879913249483	-2.9621735219142042	2.7665908395267405	1.701558474593426	2.3388578023646343
id678	sample1	obj318	1.9644988786168094	-1.2743460508550637	0.35458349114180954	-2.4129885063247847	-1.4629269265468836
id679	sample1	obj319	-2.1665674515135427	-0.9679164297101299	-0.15689016411835244	2.5385488564203156	2.77789783716774
id680	sample1	obj320	1.9572701561141832	-0.7849370374045492	0.6828898163996104	-0.28617197703531794	-1.233635769947883
id681	sample1	obj321	3.0555233476400456	2.2721656165974977	2.0883762704560103	-0.9876232748357301	-4.165420040841414
id682	sample1	obj322	0.4311138708962591	-1.196622418048681	1.5033516553859108	-2.621089458396553	-1.8286590271402836
id683	sample1	obj323	-1.1730376830616487	-0.5082338498260142	-3.464589288050018	-2.237458256193527	2.3797523006416883
id684	sample1	obj324	1.3695734020248083	3.5003434190623546	0.4199648142858171	-0.3065861672875301	1.041965193784941
id685	sample1	obj325	1.8438004189170547	0.2730286706141467	-1.8608096753730277	-3.414728275214129	-0.8749688097441337
id686	sample1	obj326	-3.750996199437212	-1.16339214251232	-2.7433120662692585	-1.5519821682499697	-0.8263986724546029
id687	sample1	obj327	-0.37836554376868303	0.37316783783839935	1.2656105649675284	1.4355275529696365	-2.7909654059383966
id688	sample1	obj328	-0.9695398858216777	-2.1532381120435495	1.4196333342108987	1.7813441896264741	3.5614765161665947
id689	sample1	obj329	3.313601674618254	-1.1959235638480095	-2.086784157917524	-1.369925645746743	-0.5097363484207527
id690	sample1	obj330	-0.953015563774829	-3.3469324886097893	1.2077787923748962	-2.36946846481968	1.6364419749145083
id691	sample1	obj331	-1.0185984242509358	-2.2836048140633864	3.47076105420318	0.6253843694823968	-1.5205421008883095
id692	sample1	obj332	-0.693430359644678	-0.5173356960645046	0.5218098936962345	1.7582175186338576	3.793794009045918
id693	sample1	obj333	2.821436999932103	2.1863526390084127	-3.1681655493193825	1.361859222116612	-0.9507558750566973
id694	sample1	obj334	-0.496432540026438	2.2306516627162716	0.3723364759998391	1.2635279626425029	0.45857179557286765
id695	sample1	obj335	-2.9638725894176274	-1.653120554469069	-2.734960247830406	0.8966709630210404	-2.585074926613784
id696	sample1	obj336	3.0190793240283957	1.2560361820783814	2.285360759105654	-1.7386688575733178	3.7894901633828955
id697	sample1	obj337	-1.43199740606889	1.8918051976622354	-3.3588783704135685	1.7758252065112718	0.06186071788381908
id698	sample1	obj338	-1.9897767502994754	1.5084829250177016	-0.9364676117263222	1.222571165048488	-0.01990085908166339
id699	sample1	obj339	-2.819683906486237	2.293630422521955	-1.9724641250849724	2.678339659153183	-3.164484017900097
id700	sample1	obj340	-1.6060016768215823	3.046825286337413	0.7567928516028802	2.570028607794123	2.064691777549306
id701	sample1	obj341	-3.165029325449145	-1.008830719891232	1.7739694590672246	-1.0873773393176218	0.9942741125561261
id702	sample1	obj342	-1.0768424925307432	1.7452249663093387	-1.5053145613543288	-2.1315229571022103	0.024461997973947658
id703	sample1	obj343	-1.1868851950666834	-0.14129988432972396	1.923280662190006	2.633352979950911	2.319619730434955
id704	sample1	obj344	2.5511797020554883	-0.5906031804202467	2.593962677087388	-2.240980011429553	-2.4490156181281657
id705	sample1	obj345	-3.3687280051375597	0.8430188959715789	-2.7274983910390547	1.3416322178731341	2.2585861587032334
id706	sample1	obj346	-2.4427978472810548	-1.521830880467031	0.948633971958257	-0.1868257218407281	2.3200896616651008
id707	sample1	obj347	-3.1173931561845976	-2.1358043919481124	0.7271465976845837	-2.396018885566839	-3.7742920966314877
id708	sample1	obj348	0.5738206083766791	2.043131991501008	0.618472700552868	-3.420810363841409	0.6915690927544134
id709	sample1	obj349	-1.2951238510115815	2.8957378587299374	2.6731074695461423	2.7792956219710936	-1.1861725600849349
id710	sample1	obj350	3.4010581403215427	-1.4271968827775998	-2.3789875696728817	0.0854575587161075	0.8220240587267582
id711	sample1	obj351	1.3737106987763592	-3.988386438733961	-2.313272953864699	-2.843870943318262	0.7822476762989556
id712	sample1	obj352	1.5991061645865958	0.9262036402405585	-0.8362723316038206	-2.501781661092666	-1.45583344201738
id713	sample1	obj353	1.8645624269681327	1.6921217907239818	-2.659546763227759	1.1729176935209722	2.1558275933088678
id714	sample1	obj354	3.5005333957088087	-1.489186350040493	1.0111367734313583	-2.7893915637129085	-0.4712401681450007
id715	sample1	obj355	2.7831488276509133	2.7334234958207313	-1.9777611033619782	2.03269943724542	0.3082685269501576
id716	sample1	obj356	-0.11684208519571715	1.969613184539105	0.42481467993800903	-0.40402965718108264	-1.3283843525812873
id717	sample1	obj357	2.375034825848277	-0.3754055744472884	-0.43517059807938296	-2.967450288055235	0.4288331948439239
id718	sample1	obj358	-0.6949650166260466	0.8709013905717826	0.27251093493929357	-0.14963627031370685	-0.5726083892072782
id719	sample1	obj359	1.6541435255884245	-0.3940496166426055	-2.732813009274272	-0.28661398997338594	-0.8662531520095389
