obj90	1
obj91	1
obj9	0
obj8	0
obj7	0
obj94	1
obj95	1
obj92	1
obj93	1
obj98	1
obj99	1
obj96	1
obj97	1
obj2	0
obj1	0
obj0	0
obj6	0
obj5	0
obj4	0
obj3	0
obj199	2
obj198	2
obj197	2
obj196	2
obj195	2
obj194	2
obj193	2
obj192	2
obj191	2
obj190	2
obj78	0
obj79	0
obj72	0
obj73	0
obj70	0
obj71	0
obj76	0
obj77	0
obj74	0
obj75	0
obj189	2
obj80	1
obj188	2
obj187	2
obj186	2
obj185	2
obj184	2
obj183	2
obj182	2
obj181	2
obj180	2
obj89	1
obj83	1
obj84	1
obj81	1
obj82	1
obj87	1
obj88	1
obj85	1
obj86	1
obj179	2
obj178	2
obj177	2
obj176	2
obj175	2
obj174	2
obj173	2
obj172	2
obj171	2
obj170	2
obj169	2
obj168	2
obj167	2
obj166	2
obj165	2
obj164	2
obj163	2
obj162	2
obj161	2
obj160	2
obj159	1
obj158	1
obj157	1
obj156	1
obj155	1
obj154	1
obj153	1
obj152	1
obj151	1
obj150	1
obj149	1
obj148	1
obj147	1
obj146	1
obj145	1
obj144	1
obj143	1
obj142	1
obj141	1
obj140	1
obj139	1
obj138	1
obj137	1
obj136	1
obj135	1
obj134	1
obj133	1
obj132	1
obj131	1
obj130	1
obj14	0
obj15	0
obj12	0
obj13	0
obj18	0
obj19	0
obj16	0
obj17	0
obj10	0
obj11	0
obj129	1
obj128	1
obj127	1
obj126	1
obj125	1
obj124	1
obj123	1
obj122	1
obj121	1
obj120	1
obj25	0
obj26	0
obj23	0
obj24	0
obj29	0
obj27	0
obj28	0
obj21	0
obj22	0
obj119	1
obj118	1
obj239	2
obj20	0
obj117	1
obj238	2
obj116	1
obj237	2
obj115	1
obj236	2
obj114	1
obj235	2
obj113	1
obj234	2
obj112	1
obj233	2
obj111	1
obj232	2
obj110	1
obj231	2
obj230	2
obj109	1
obj108	1
obj229	2
obj107	1
obj228	2
obj106	1
obj227	2
obj105	1
obj226	2
obj104	1
obj225	2
obj103	1
obj224	2
obj102	1
obj223	2
obj101	1
obj222	2
obj100	1
obj221	2
obj220	2
obj219	2
obj218	2
obj217	2
obj216	2
obj215	2
obj214	2
obj213	2
obj212	2
obj211	2
obj210	2
obj58	0
obj59	0
obj56	0
obj57	0
obj50	0
obj51	0
obj209	2
obj54	0
obj208	2
obj55	0
obj207	2
obj52	0
obj206	2
obj53	0
obj205	2
obj204	2
obj203	2
obj202	2
obj201	2
obj200	2
obj69	0
obj67	0
obj68	0
obj61	0
obj62	0
obj60	0
obj65	0
obj66	0
obj63	0
obj64	0
obj36	0
obj37	0
obj34	0
obj35	0
obj38	0
obj39	0
obj32	0
obj33	0
obj30	0
obj31	0
obj47	0
obj48	0
obj45	0
obj46	0
obj49	0
obj40	0
obj43	0
obj44	0
obj41	0
obj42	0
