	0.3926902347250456	0.2761897531835089	-0.0729410622587845	-1.5901428992911066	0.6535828798638645
	-0.6660337676504229	1.1383348045386223	-2.2977721503905713	0.6331369045671811	1.8229650882777673
	-1.4956268902408958	-2.792750396691628	-0.2335710308653618	-1.798474093586357	-1.0658186630009823
