	0.9253833403078215	0.33272437020029955	-1.5890818885174802	1.5966340191041324	0.03445112940537509
	-0.13625215695087345	2.9567444535313934	1.9933795362009157	-0.16360491627461204	-0.06652300747344064
	-2.4162802110258035	-2.990547745460592	0.4037104222365224	1.6617704716634123	1.0532675218682879
