	-1.0212539414508237	1.3516196663582942	0.6268841337614335	2.85456355393542	1.6104270208822768
	2.2261872933502955	-0.020829165326492927	-0.1976888001673318	-1.805991752460936	1.7128641853366415
	2.947154417255727	-1.8171124071325675	-2.5837310237699747	2.8285311888106506	0.5839833088424538
