	-0.3857318365074338	-0.41876319274132	-0.061188781593706665	0.8891466915418418	-1.169658171952312
	2.346760033811264	2.5705531264655868	2.8186330122232546	-0.842252558116205	0.9989206740401482
	2.240204090706718	-1.9729132895604415	2.5581733247991236	1.568692833882481	0.14805977017784677
