id0	sample0	obj0	0.46036051957491764	-2.1022087719074936	-0.7121567417040866	-4.779431520230013	-3.4116717448195413
id1	sample0	obj1	0.1748642442905688	-1.6236492897839339	-2.986539492708205	-4.602533096702425	-2.6058521380806545
id2	sample0	obj2	0.38754723719822626	-3.383642072007436	-3.0664155742557284	-3.7492584230669324	-1.1758475011310796
id3	sample0	obj3	0.25856261929023927	-1.0184127741052207	-2.4516340740730294	-2.377910491702436	-1.5694703441589388
id4	sample0	obj4	0.6132790935359325	-3.316812445163108	-2.1553257037492193	-3.651677957442609	0.03244066811679658
id5	sample0	obj5	-1.98982700638502	-3.0180984337807457	-3.628513474318817	-2.8488070943514794	-1.3562707110851913
id6	sample0	obj6	0.15875365190614343	-3.3061635162044336	-1.41763343338778	-2.7755948163533963	-0.3670082024482644
id7	sample0	obj7	0.2890039622556346	-1.5675864179797945	-2.3124371871770766	-3.123972510330704	-2.3240467390187463
id8	sample0	obj8	-0.39680550053380226	-1.8287270074440956	-3.1793525670119305	-1.4907818255402245	-0.5125037879123335
id9	sample0	obj9	-2.046712402375163	-1.8609272618458517	-0.598836474295003	-4.064610302837889	-1.472820379646312
id10	sample0	obj10	-0.023216454925784502	-1.5220786004860771	-3.8921095661467717	-3.770449434828576	-3.4338208238981522
id11	sample0	obj11	-1.0665099267516907	-2.723564687816351	-1.175650142942945	-4.140918307224541	-2.2347136847686935
id12	sample0	obj12	-1.509347509084668	-2.3836617647845375	-3.1265829698176675	-2.728883251678523	-1.5040274411793395
id13	sample0	obj13	0.49802102806529436	-2.3191904010132776	-1.06228960910343	-2.8814809647861495	-1.2550573524053743
id14	sample0	obj14	-0.43237088018842607	-3.4653205325135863	-2.6193306850800377	-3.596643174198407	-3.314424960354894
id15	sample0	obj15	0.5438439842872091	-1.6112910146015877	-1.5082558931357262	-4.558194961420044	-1.1685324932354122
id16	sample0	obj16	-1.5263069406610879	-4.070327834375054	-2.546131810648503	-4.645468429060067	-2.580509311095182
id17	sample0	obj17	-1.981874360218534	-0.5431702954587976	-1.5060791068284514	-3.69955152430963	-2.817440402080085
id18	sample0	obj18	-1.6487462123287917	-3.142791988104099	-2.2723546818986424	-4.628737799875874	-3.409994944486197
id19	sample0	obj19	-1.095867374486932	-3.7336776755169696	-3.108343031960289	-4.131239813529948	-2.19146269227533
id20	sample0	obj20	-1.6317726687796328	-1.8679980838130021	-2.619649697771094	-2.327154047353961	-0.45375766813030327
id21	sample0	obj21	-0.3309352568976698	-3.1602135180006394	-1.5212794378196455	-3.7180077698378042	-3.358161920646311
id22	sample0	obj22	-0.3725508602853098	-2.0084590919213774	-2.3073730604787768	-4.081991667241695	-2.044782255027432
id23	sample0	obj23	-0.9551928963406755	-1.740882757821182	-2.910544158601028	-3.702044787735112	-3.0033763069043085
id24	sample0	obj24	-1.018181492562225	-3.856885220849281	-3.447321340761522	-3.7950033569058497	-1.8619839771269575
id25	sample0	obj25	-1.3559847084266619	-3.7593738909191052	-3.4948205366672505	-3.7559307188761637	-0.26013608737748917
id26	sample0	obj26	-1.4803950153194707	-1.0063551005544247	-0.5812916554099086	-3.5100954231337624	-2.115555557474523
id27	sample0	obj27	-2.714323181550125	-3.30090482059601	-1.1553550474321475	-4.690920258827844	-1.8236433039403945
id28	sample0	obj28	-1.1721379434757355	-1.4394840369966644	-4.0120032297127	-3.2113491451280214	-0.315716946652431
id29	sample0	obj29	-0.643649198737936	-1.7444141734437946	-3.461731805797149	-4.021436386597415	-1.2142486262669079
id30	sample0	obj30	-1.356837467383285	-1.8740175127391991	-3.403736120099062	-2.410386062482467	-0.17350390648849534
id31	sample0	obj31	-2.8511442714296478	-2.142947884345607	-2.4397584836169575	-4.550733767884237	-2.040163999114699
id32	sample0	obj32	-2.3122039565460857	-2.7313091180624065	-2.745311716147337	-3.882889320528972	-1.7283927438535478
id33	sample0	obj33	-1.298841089433769	-2.0451559708794296	-1.9981042880759678	-4.33883907569837	-1.937487925094192
id34	sample0	obj34	-0.6950305808787844	-2.3768013532849315	-2.526500584707571	-2.6781510238880335	-0.7550948713618044
id35	sample0	obj35	-2.1049157757283474	-2.782671881004039	-1.9716708661885176	-3.753573277281885	-2.1441577867115984
id36	sample0	obj36	-0.2640436696399744	-3.1751801386629666	-1.5056272315646553	-2.405264021663146	-0.7573958199326867
id37	sample0	obj37	-1.0358716523843499	-2.338049441292445	-4.050363424791781	-3.676673426610401	-1.3999385807295714
id38	sample0	obj38	0.25942430118372184	-2.0964973335772417	-1.0334641659457173	-4.663715316343212	-2.837354567337221
id39	sample0	obj39	-0.46519990083774165	-1.0169921035849014	-2.971378298798874	-2.9240702995167296	-0.9118295282856888
id40	sample0	obj40	0.28069717320087206	-2.1769871726778662	-0.7036637713228291	-3.8825692599105057	-0.54506796302515
id41	sample0	obj41	-1.9226674792179477	-2.8129066524504385	-1.5208343177587753	-3.4592679009974607	-2.0570568516080616
id42	sample0	obj42	-0.9824418781779014	-2.8362605940624936	-3.6552649418877574	-4.368392917382732	-0.361487276576659
id43	sample0	obj43	-0.5127476746366313	-3.5677524715384887	-3.2160748773007475	-3.514693405737675	-0.7375363056389379
id44	sample0	obj44	0.36120559391627016	-2.0351147164515346	-0.7829766055239002	-3.2448857916687803	-0.8066350386033834
id45	sample0	obj45	-1.3482909331213495	-2.9786641323070437	-2.7382976650180355	-4.39315776600538	-1.1380413676347134
id46	sample0	obj46	-1.9101789691161366	-3.246967404004	-2.4389376481278147	-4.69997573437709	-2.1470224253072043
id47	sample0	obj47	-0.007466041131461987	-0.657166790180342	-2.73238878423159	-3.6673833667870044	-1.2034645430020705
id48	sample0	obj48	0.10845978100567488	-1.3720541031329125	-1.5672023450310582	-2.797440185811212	-2.3239707553746634
id49	sample0	obj49	-0.6190229785339383	-2.920868198263621	-2.06317173077149	-3.467390286541515	-1.5185776772641826
id50	sample0	obj50	-0.5507753515326759	-2.8189753480778705	-1.9408351687943466	-2.9765184072014392	-1.4040696979653162
id51	sample0	obj51	-1.1550650573816534	-3.81327543908208	-2.4717291494402707	-4.599640182616092	-2.400347828458931
id52	sample0	obj52	-1.5640479425036866	-1.178606422833388	-1.2490275368460677	-1.866817259629434	0.08579940678080811
id53	sample0	obj53	-0.6966335631010889	-2.426334042193541	-3.0707712287631765	-4.010923744704227	-0.7280883293222578
id54	sample0	obj54	0.4029645550731089	-2.211883778588554	-1.114635179301622	-1.6899193008332307	-0.8124661743754238
id55	sample0	obj55	-2.058662821339442	-0.5334561898111569	-0.8821546461397809	-3.167248876240489	-0.13411921602724663
id56	sample0	obj56	0.30069674978649163	-0.7802697077649612	-1.5628084771597541	-2.2970019705475018	-1.523388990811667
id57	sample0	obj57	-2.6186579216021215	-0.5980342334816819	-0.8727325684610967	-3.866604566848537	-0.14905959290063886
id58	sample0	obj58	-1.64351199075053	-0.6352342384404055	-2.413474410559062	-4.238323945558321	-0.22058269792442098
id59	sample0	obj59	-2.366258571269666	-2.595959853352352	-3.360272709141698	-2.8509842498519777	-2.015318431159298
id60	sample0	obj60	0.5964021180619758	-1.1633536431816707	-3.8242252169731152	-3.9156607244746464	-1.423331445065729
id61	sample0	obj61	0.26641653752640226	-1.7362921892073409	-2.7891238004367436	-2.4524235996454875	-0.198078770992278
id62	sample0	obj62	-0.3519190919704249	-2.153620240059867	-2.200643433023839	-3.208031383578483	-1.9622803393390986
id63	sample0	obj63	-0.46466586487130646	-1.61527385725571	-1.9483189989373033	-4.250692122014449	-1.2950051990696851
id64	sample0	obj64	-1.3674162560723	-3.4425816558232527	-2.971247696094653	-2.891736439552548	-2.165434598978628
id65	sample0	obj65	0.4613795927550257	-2.476410341331306	-1.0337947134329626	-4.322459598036345	-1.85718135375411
id66	sample0	obj66	-2.4586049529689222	-3.7523169725678676	-3.3132902069436425	-3.8832861625222894	-3.4020389566869813
id67	sample0	obj67	0.2581976561772048	-4.085050727540462	-2.130682008000844	-4.45080057210345	-0.792078411516487
id68	sample0	obj68	-2.2612743987113	-3.155029470013937	-3.839443421473478	-3.2927877209504617	-2.9637221647687033
id69	sample0	obj69	0.29602042018617136	-3.1520804936202267	-2.263177200087706	-4.493182473862346	-0.5952438891885403
id70	sample0	obj70	-1.4563169970357606	-1.532179693907757	-4.003177564441183	-4.138112686005659	-1.2881329801864674
id71	sample0	obj71	-0.15822673288957767	-2.973047405869833	-1.0060340080143655	-4.39476521844573	-1.9261811579317676
id72	sample0	obj72	-0.04075937070577473	-3.412576668632623	-2.3468267743163818	-3.742321410908969	-2.756323181019563
id73	sample0	obj73	-1.4929330746379006	-2.317123171446984	-0.7630765260170531	-2.1340617207711627	-0.3746300834210301
id74	sample0	obj74	-2.1610564564942174	-3.4828472967031767	-1.7072427532184016	-2.769849201601602	-1.6622551592741452
id75	sample0	obj75	-1.873467673736235	-2.916056068262032	-3.173423715396847	-3.803396623771256	-0.3339635070156468
id76	sample0	obj76	-0.06756035510250968	-3.5290834236961133	-2.0432121101731786	-3.845757272835563	-0.7320219063565905
id77	sample0	obj77	-1.141556251075633	-2.489829155697941	-2.2984127307976205	-3.248748830432783	-3.083776611197024
id78	sample0	obj78	0.30044771499281775	-1.4105593005213646	-0.8772504079876666	-4.1642322803184335	0.0435771926562627
id79	sample0	obj79	-0.4853120804089939	-1.9431347323405876	-3.917106230170445	-2.764966149137961	-3.057795225780257
id80	sample0	obj80	0.9252750216133754	-0.5332952194468643	-0.2301523268873389	0.11222066504324002	-2.365039965207883
id81	sample0	obj81	-1.3540909937479184	-0.771554218866372	2.010506273203468	-1.1602860667304924	-1.9844741384226015
id82	sample0	obj82	0.15185397031048864	0.33327258933612236	0.6392288213432473	0.15412322868399841	-1.1329272089816846
id83	sample0	obj83	0.27252950100337103	-1.5401927944894398	-1.0727203197903459	-1.4639482014740404	-3.559572421126873
id84	sample0	obj84	-1.325134202826336	-2.3842040427463522	0.1189411652531347	-0.29193034717493394	-3.0188051222192414
id85	sample0	obj85	-2.022864391556183	0.20548273853982724	1.6702839319051594	0.7059631159940818	-1.0689862062781847
id86	sample0	obj86	-1.2048512659365151	-0.7511124133345604	1.7879790728168359	-1.6129751688615372	-2.2219023285504003
id87	sample0	obj87	0.7118559612511033	-0.4284414814640758	1.190373662972329	1.4372186383341397	-1.4624273911139885
id88	sample0	obj88	0.38623742064694855	-0.6434334060893914	0.47874809061637613	0.3794165981886015	-1.0937777221263933
id89	sample0	obj89	0.22153982040467235	0.07819958312161357	-0.8405728115446023	0.004576814898709314	-1.9450795496294777
id90	sample0	obj90	-2.0047740758670702	-1.6682346816121607	0.5689031694008646	-1.7729660505560216	-3.106011139841119
id91	sample0	obj91	-1.7991804535993656	0.7791913773516581	0.29413569242551096	-1.494945056953028	-1.2711351490660758
id92	sample0	obj92	0.6229212719870068	-0.98442684749385	1.3676141230851495	-0.43760539180248625	-0.4286932256400935
id93	sample0	obj93	-0.12784854727157158	-1.3755747364062318	1.8025739823704068	-0.1715033835944506	-0.2143536338523242
id94	sample0	obj94	-1.317793917779599	-1.8538399317021672	-0.669934150997801	-0.6009517648187819	-3.486264388324602
id95	sample0	obj95	0.07017576605539655	-0.8026199152034608	0.2353096722573389	-0.8997369505030226	-1.9589024617169415
id96	sample0	obj96	1.2480263349110523	0.1668502047770104	0.9250457230752491	-0.4216802380393656	-1.7329497998870376
id97	sample0	obj97	0.09780934822803222	0.8428707400071318	0.9696457593385512	-0.40080201959550177	-0.22333622972128153
id98	sample0	obj98	-0.3760844683022988	0.9683213970529867	0.19603368124553855	0.7022249392727578	-1.8509261197096574
id99	sample0	obj99	-1.1707941030564326	0.08031605119363427	1.3838226775719107	0.22311647200294105	-1.9710444127570308
id100	sample0	obj100	-1.4021725530725615	-1.9543314100390403	1.8393984859113977	1.016259822384398	-2.9773533892665576
id101	sample0	obj101	-2.0452804455827795	-2.039322003545365	1.5444240988918636	-0.41509090376579016	-1.9671999907441102
id102	sample0	obj102	-0.3612883603521406	-1.7996834326041136	0.20763824606315073	-0.7975725095607804	-1.9493688797071014
id103	sample0	obj103	0.4583999240829242	-1.293725170435586	1.811574547569051	-0.9589131324066971	-2.4678073809125127
id104	sample0	obj104	0.34221777933945563	-1.5726464689346715	-0.08092373146605114	-1.3272805061864106	-2.4246391538762198
id105	sample0	obj105	-1.8186771241618294	-0.11057679694231148	-0.1995046397043252	1.3901128993432679	-1.3946766132444648
id106	sample0	obj106	-0.48119886661998645	-1.0756211921673533	0.8271787988767152	-0.6640787220931192	-1.9274443785201714
id107	sample0	obj107	0.5412382793599619	-0.6959417281493436	1.8031236988229222	-1.3470076186775004	-2.833560238956118
id108	sample0	obj108	0.8833934738579663	-0.5761257730028897	0.7868786689460465	-0.523459824020513	-3.413517148968646
id109	sample0	obj109	-1.0174055232901402	-0.015109954735201603	1.7258559338812554	-0.9911501554633861	-2.918835594233834
id110	sample0	obj110	-1.1124153469363176	-1.5253017310257904	1.878279927630983	-0.5423488910535723	-2.2282896472888503
id111	sample0	obj111	-0.04050231874347632	0.39565159615283174	1.9681367183308602	-1.1374151514716613	-0.7410268185904412
id112	sample0	obj112	-0.48707719634977553	-1.3721665225229274	1.4553500818732605	1.3393771588042178	-0.9173934492893021
id113	sample0	obj113	-0.7822759252700968	-0.7582252929073212	0.5940700871847169	-1.842460059242502	-1.7861343209659246
id114	sample0	obj114	-0.09789945506718767	0.29942105104361105	1.4434650670459488	0.16257082727357663	-2.5884966728165786
id115	sample0	obj115	0.930052374604631	-0.8534244774281088	1.9522985743688543	-0.2754788923181235	-2.5661593496067727
id116	sample0	obj116	-2.044093504713923	-1.4599232096106707	0.9449727652330713	-0.4110030017711168	-2.0408581844227562
id117	sample0	obj117	-1.570258517500914	-1.730839619026081	-0.3001413408711707	-1.652007011620623	-2.274687160686196
id118	sample0	obj118	-1.810830922795113	-2.028842809665139	1.1592493338422123	-1.3094286083770275	-2.0559743439418394
id119	sample0	obj119	1.0610016882808238	0.7315296537415625	1.5048845249457619	0.6648619046809212	-0.3917766207635187
id120	sample0	obj120	-0.41073083840547175	0.17864126303029138	1.3989010406049764	-1.4180960445696424	-0.8888607874884016
id121	sample0	obj121	-1.7536696800913512	-2.4287302434274824	0.6091493872688789	-1.4500907920783273	-1.7007917474727197
id122	sample0	obj122	-1.6489868144672173	-0.8648793652966968	0.8449122424000419	-1.8896898346728306	-1.4345365932293064
id123	sample0	obj123	0.46668674283575506	0.8633881895390039	-0.7117803329536048	-1.5774311523562083	-2.6516187657425725
id124	sample0	obj124	-1.0054205926409736	-0.009863525135869411	0.25899077396034675	-1.1451397162900068	-1.4596437804054296
id125	sample0	obj125	-0.8536979587771238	0.07738019670261509	0.0808121292006696	-1.007868286671534	-2.8945804614047415
id126	sample0	obj126	-2.043445814889901	-2.016329492208015	0.1857417448420342	-0.46476589557571635	-1.1875876565459562
id127	sample0	obj127	-2.1164515573474447	-1.3938538612498543	0.5560735838767741	-1.9163114723525532	-0.5793958450499594
id128	sample0	obj128	-1.8591858408893063	-0.7442677755080942	1.9785927337141158	1.2758099611930744	-1.243307412203204
id129	sample0	obj129	1.3341400753980321	0.120976656276371	1.2552852492441342	-1.062407173008908	-0.8659112472517212
id130	sample0	obj130	0.5116107183612926	-0.3402421356201699	1.2172533363564841	-1.0754952939255438	-2.746828460029246
id131	sample0	obj131	-1.1834209269708136	-1.2350957236685696	-0.0375818044026448	1.4806576584699729	-0.758066187401573
id132	sample0	obj132	0.5201689666250646	0.029039512829623915	1.1909750694914816	0.3178998673266269	-1.076272709736456
id133	sample0	obj133	-0.3734986187270042	-1.7445128591082577	1.830100903402556	-1.5819445503447835	-2.615982325030936
id134	sample0	obj134	-2.0821916356895915	-1.2574420023990551	-0.5677143495728099	-0.010698156977862583	-1.7472964230348713
id135	sample0	obj135	-0.9723012743358757	-2.574824046210432	0.2842903362438207	-1.2386420619243768	-0.786884165704208
id136	sample0	obj136	0.4373014315417836	-0.28717597231319236	1.1897952830036422	-0.49831062786679325	-1.2754779760169959
id137	sample0	obj137	-2.0024434930024393	-1.49811815421078	-0.5259843230515382	-0.3756876757018477	-1.095078248410369
id138	sample0	obj138	1.3166952599474182	0.34137309802126947	1.0721294399999286	0.31796205256393395	-3.51743664614735
id139	sample0	obj139	-2.1437450219234426	-0.91222158921093	-1.2582946503098504	0.19551187356949584	-3.0150482146435955
id140	sample0	obj140	-2.1308465971237833	0.7759862240488291	1.677330589329704	1.4276413871699718	-2.15683864295222
id141	sample0	obj141	0.31619061104118873	0.5685177544128626	1.84633716934804	-0.06133888047022862	-0.8582770638715027
id142	sample0	obj142	-1.0552064201063298	-0.3548882138423959	0.9827814762449514	-1.3521212802150566	-0.7623977469316501
id143	sample0	obj143	0.033074658151462044	-1.7009795849508054	1.5754622691757063	-1.1162558609757127	-2.758560148508397
id144	sample0	obj144	-0.12297616258852773	0.8535490875855813	2.3120088495499624	-1.8821589952708149	-2.2391817505672003
id145	sample0	obj145	-0.17460442744801985	-1.0446976728853448	1.1177663914932536	1.0349405838890113	-1.0341147779390474
id146	sample0	obj146	-0.46106956462436943	0.9532286160015937	0.8482269804933289	0.2286944992607356	-3.520323457819895
id147	sample0	obj147	-1.59829812293958	0.7561075669871491	1.1793362717509284	-0.025180043935811414	-2.8104699123101584
id148	sample0	obj148	0.8837273030400776	-1.5554120926637138	0.7131736530593833	0.6117118552544942	-2.408548023614423
id149	sample0	obj149	0.5443020451524834	-0.5480421801615136	0.8919903432536602	1.0321379040196341	-0.6941396009387286
id150	sample0	obj150	0.34183886902791794	-0.11093884585334934	0.3463227852815729	0.46965503659057206	-1.2233102741997761
id151	sample0	obj151	-0.8498820388979726	-1.0369508965804144	0.5138755884938724	-1.705681639506638	-1.4855803093219377
id152	sample0	obj152	-0.6383653711670483	-1.7603738488565224	1.3117149958669059	0.11879921780109437	-3.462463714141466
id153	sample0	obj153	-1.9788201955883593	0.728208524355417	-0.549758026150966	-0.9898082173320819	-2.130601950438252
id154	sample0	obj154	-0.9102854789386934	0.5167950080853265	-0.1403702465460379	-1.2687824858154841	-1.8372476478239879
id155	sample0	obj155	0.8594379469457596	-1.7096529610630444	2.0096408965833836	-0.23747511268517774	-3.3186259127374163
id156	sample0	obj156	-0.46797438378271283	0.1528746962038492	1.804462994294792	-0.2029949621796252	-3.22798645320572
id157	sample0	obj157	1.333728751274285	0.30532989148503753	1.7070104088126141	1.0034001755346418	-2.0828529526904793
id158	sample0	obj158	0.1251823326423398	-1.4303410520242095	1.9037823631849407	-2.0024358944436016	-2.472627409587977
id159	sample0	obj159	1.3452142242035	-1.628109472338855	1.842563353740809	-1.1756933415026833	-1.759772707106242
id160	sample0	obj160	4.181245592900934	-1.222566370179026	1.2659109076694668	2.0495884008758427	0.2396807041751423
id161	sample0	obj161	4.042209485309138	-3.1504481685047643	-0.7639449654754493	1.4677790972986993	-0.29687769126938224
id162	sample0	obj162	4.471497634955802	-2.6302258215971266	-0.3218091256864961	2.6338361849491654	-1.0938703798552816
id163	sample0	obj163	4.071136217753716	-3.5270675862014813	0.12150583378337587	-0.2746417947773572	-0.7261308807263125
id164	sample0	obj164	3.4342752628659827	-4.001398289825589	-1.798112074449546	-0.1413928883818465	1.3495564312958577
id165	sample0	obj165	1.1911655645748551	-4.099817897288242	-0.6858245708747011	0.5007642311834558	1.2940618077100423
id166	sample0	obj166	4.054737543034505	-0.9690887131604919	-1.0786159215003697	0.9666739086412222	-1.5180727478632314
id167	sample0	obj167	3.6879325941004018	-1.2630834220171356	-0.8362505405064038	0.3592815041494668	0.0800964377515132
id168	sample0	obj168	3.134432668923009	-2.8553298770881472	0.18833909901515944	1.0671244076634974	-0.08948399123559825
id169	sample0	obj169	4.013701352067869	-1.6241349142557266	0.1927588231098214	0.3579929108028326	-1.4561986876239295
id170	sample0	obj170	1.1681769775709299	-3.614694690992856	-0.4617691555650181	2.8900095293799963	1.048760304950758
id171	sample0	obj171	3.184188337088518	-0.8933386740547451	1.2634637998987224	2.3658910045205883	0.26338094940484713
id172	sample0	obj172	1.2390852386843436	-1.8020956865617015	-1.9221144429084092	0.3303314803308768	0.8197932315168537
id173	sample0	obj173	2.836830479896114	-0.6248449350647911	0.21888347447826617	1.7827837298411664	-1.6571330838768636
id174	sample0	obj174	1.5957800237473214	-2.3359071535479567	-0.45818606330701095	3.158191097900303	-0.825119327742609
id175	sample0	obj175	3.6897190013519294	-2.383279765127142	-1.7758935935868543	2.7074473537906183	-0.8862496689957409
id176	sample0	obj176	3.791820248939441	-2.5457993615058467	0.987432981044863	2.159804530642385	-0.7224922753501386
id177	sample0	obj177	4.537685292389894	-3.1990744971096086	0.6875334344715063	1.424617664041016	-0.45776306852814774
id178	sample0	obj178	3.1459060882154626	-1.7505384861342879	-1.0659804150628969	1.4244890034942528	1.2948760910638517
id179	sample0	obj179	3.1817924782387514	-0.8996774229009203	0.5577192882381723	2.462053309326752	0.27782817208430566
id180	sample0	obj180	2.422434490096706	-1.8043620342328446	-1.7524914538125267	2.705607759389947	1.2920865674297157
id181	sample0	obj181	2.210749089166409	-3.8659994157286306	1.569994060567909	2.013044380513983	-1.5862980917540597
id182	sample0	obj182	1.4354914073412306	-1.6813995973433677	1.2330114053066097	1.3588565704313689	-1.0597004932197047
id183	sample0	obj183	3.9375300967798257	-1.7630570386272872	-1.9419362285054194	0.22638064748741127	-1.973372417643623
id184	sample0	obj184	3.145386330016378	-2.6359700860049573	0.019200039255789614	-0.10083662309307129	0.4286795630254041
id185	sample0	obj185	1.2417535795736434	-0.6308840549357855	-0.1506973547222754	0.7349335761385245	-0.7760802299666789
id186	sample0	obj186	2.3453488713452404	-2.9824423913771048	-0.7965368870755996	1.3178628253208464	-0.2890522375306972
id187	sample0	obj187	2.1781282171933327	-2.9963931804166033	-1.2715340552594108	0.8256486427446994	-1.8528027864280108
id188	sample0	obj188	3.0270211955235555	-2.681709456101066	0.2740099968966947	-0.035299224314910616	0.4208796081136821
id189	sample0	obj189	3.983553012719942	-2.5789785587493244	-1.816931689496796	-0.3521171119590265	-0.8325189196409
id190	sample0	obj190	2.96689866454913	-2.902182707915921	1.3348620999355771	2.6246105776792774	0.057102387414265765
id191	sample0	obj191	2.950213799494146	-1.312257519370328	-0.5653121602338225	0.8136652642210354	-0.04656719039860868
id192	sample0	obj192	2.9918847755964566	-4.141573783589932	-1.6680627049340342	0.007097183320942335	1.3660619902591662
id193	sample0	obj193	3.729289679357448	-2.9914631069719118	0.11397162919512982	0.06259618562257363	0.6042947427213645
id194	sample0	obj194	4.560641591617908	-2.751590764960664	-1.8868023701336243	1.216452915734049	-0.3569554774648065
id195	sample0	obj195	3.3896465848806647	-0.8806046391410371	-1.846865478943003	3.1457450399187716	0.011365909866327906
id196	sample0	obj196	1.9384352595619792	-3.001034027445654	0.05309916899278577	2.8839221266866186	1.3246532357326875
id197	sample0	obj197	3.578160506389861	-1.2756240616184356	1.348257829030868	1.3270436530182976	0.04660767070257843
id198	sample0	obj198	3.146688153271823	-2.943637092265522	-1.5686556988584903	1.3183193017131474	-2.0378428398807307
id199	sample0	obj199	3.613079736320257	-3.3193867843142715	0.1847111331131186	2.707314977411982	-0.1257576897278796
id200	sample0	obj200	4.634467814587979	-4.125357519094949	-0.12179441610775887	2.6694991781591684	1.2436442207998908
id201	sample0	obj201	1.0890998426040368	-1.3014523821275243	-1.677464484940412	0.14521685454219102	-2.159029202391581
id202	sample0	obj202	2.128610253484218	-1.9213982562724972	0.6708432525898396	1.4341994608601516	-0.6596447446250926
id203	sample0	obj203	3.418129613957122	-3.808743609848676	-1.8135730681512474	2.7297496962626258	-0.5347705437583643
id204	sample0	obj204	2.0871320307328842	-3.974037069956415	-0.9269993410541548	2.970778076393664	-1.149332835661966
id205	sample0	obj205	1.7059615635912924	-2.798854225714158	1.5728250383399212	2.190047457857615	-0.7320846198899829
id206	sample0	obj206	3.387173066140443	-3.43537301308954	-1.4001218233737276	3.1496358171465273	0.5489363200652411
id207	sample0	obj207	1.2266741734708155	-0.7635176017309016	-0.32845581323353334	1.0780824772811148	-1.5124433216147026
id208	sample0	obj208	3.4835247591283665	-1.4893046540280264	-0.43103148073631137	0.4413904413232481	-1.3968695107280409
id209	sample0	obj209	4.358147762806381	-3.9382321305138133	-0.049814549350141624	0.5891717348244109	-1.4015428439459212
id210	sample0	obj210	1.502853707559716	-2.295701107427082	1.2564818538924192	2.4138194767610286	0.7714094384597703
id211	sample0	obj211	3.737693318318983	-4.110707263251858	-0.5580097084779858	1.0524254809209974	-0.4199422034351459
id212	sample0	obj212	1.802247050105079	-1.2902313827302898	1.2289658328001722	1.0736255252834155	1.3800518551511558
id213	sample0	obj213	3.884801573164272	-1.0195066363731502	-0.062386170177599176	2.1812936021079556	-0.40210949411348795
id214	sample0	obj214	1.9504677601936904	-4.166009604515947	-1.968034088869574	2.72189716996116	-1.4969910713447945
id215	sample0	obj215	4.336426387811774	-1.0497118820624618	0.8156583480994837	1.4215304401660769	0.3050868037964063
id216	sample0	obj216	3.174165687855268	-1.544712537247315	1.438327072751391	1.0525273594362543	0.42166144957928986
id217	sample0	obj217	3.995057785460899	-3.8424413964329247	-0.549298663875174	1.1197839880728513	0.30727367101215664
id218	sample0	obj218	1.9179357942946171	-1.2475554863555585	-0.12837323410863477	3.176364755812989	-1.237502084921819
id219	sample0	obj219	3.227732579526535	-3.056541062237713	0.4816902157489775	1.7707801663494491	0.48408423748883567
id220	sample0	obj220	4.336251447454915	-3.116750264861443	-1.6043790092496582	-0.3301110965089329	1.392071434419935
id221	sample0	obj221	3.854520032813965	-2.87975019834213	-0.06978156608660213	2.198339609607728	-1.626603207187483
id222	sample0	obj222	2.0669451721870953	-4.11580195717643	-0.0015248171260744403	0.8257169911335274	-0.40726581755782854
id223	sample0	obj223	4.3279103232509115	-2.3831288620182574	1.4273377505060074	0.5852287204275357	-1.7001900468463607
id224	sample0	obj224	3.9300455681209927	-2.3522360093288803	0.20094292911987766	2.423265272719906	1.2492880839037117
id225	sample0	obj225	1.3299251886072152	-1.8465167295168474	1.2392023850720475	0.789113504094342	0.5667499785496408
id226	sample0	obj226	4.252424924508504	-2.919080187120784	-1.7194552784652173	-0.05859768451390113	1.145831958169618
id227	sample0	obj227	3.7016596565707873	-3.954280680995752	-0.024020030288825822	0.7666502353982851	-1.9680013936631002
id228	sample0	obj228	1.537846506593732	-3.6416630714946017	0.029192389334194546	0.6009492486939094	-0.19627470754825538
id229	sample0	obj229	4.070355742973243	-2.6695892273835877	1.0251081002426419	0.175010683907864	0.14931937760364788
id230	sample0	obj230	4.383647326831842	-2.5440226159468633	0.5495914460988967	-0.04660389537756493	-1.6142701211848614
id231	sample0	obj231	4.151997787230932	-1.6419385189861668	-1.130889405276898	-0.07009046284396603	-2.115749336828367
id232	sample0	obj232	1.2894285404621635	-1.514453618166532	-1.6538513631460363	0.323220038385325	-1.7519690785490933
id233	sample0	obj233	4.282812039439885	-2.186638929262802	0.5298351715978498	0.8714613432499285	-0.9999738931955404
id234	sample0	obj234	1.3097672972192522	-1.8524573047348352	-1.3210015909632093	3.0647046780043223	-1.4590205136055565
id235	sample0	obj235	1.470941420390668	-0.9964537559400306	-1.5748924583570638	1.3239661688052968	-0.7400287094378073
id236	sample0	obj236	1.7721058967853376	-3.5195909884479697	-0.7748435078189069	2.1101800147837744	1.0410399352596336
id237	sample0	obj237	3.5599581979668535	-1.4045687555049573	-1.8695566121231468	1.8329837923061367	1.1056183172739626
id238	sample0	obj238	3.9126129480769603	-2.1944491087126723	-0.6713038742128112	0.6651119839394242	0.9405653952838173
id239	sample0	obj239	1.5796012682332465	-3.0841982757983195	-0.7623746524742501	-0.29424714732822066	0.9713063152851718
id240	sample0	obj240	1.050210231225689	1.044188793400181	-0.03156800467236209	-2.7008557947096405	-0.04019578582839589
id241	sample0	obj241	1.0747182090083378	0.3885788201912157	-0.27317563363702946	-3.8073774996239425	-1.1189912386245129
id242	sample0	obj242	-0.5163191749977587	1.5022100217507	0.8344857430948927	-0.3706466428495323	-0.8000172246830453
id243	sample0	obj243	2.6665222243745887	-4.435139433427418	0.8740083527385054	-0.3829807237924554	-4.392140783007553
id244	sample0	obj244	-4.680845460286358	-1.2415537251761313	-0.9331088147064384	-2.58059580032273	-0.3724757660349438
id245	sample0	obj245	1.1952611094688008	0.38723943633344915	-3.1204375816698438	-1.129028514407008	1.9718644257130595
id246	sample0	obj246	-0.28026856393202615	2.179214257129944	-1.2737055938629351	1.6255996627145282	1.44607525978132
id247	sample0	obj247	2.8057817008127475	0.9168535949248278	1.288137869331172	-1.3238325359357053	2.1302663572035225
id248	sample0	obj248	-0.08940137717138552	2.334094869377588	1.5260918949848439	-3.025074438143832	2.098298049597833
id249	sample0	obj249	1.579750025036606	2.6430615703188782	0.510397417645726	-3.1484164410693	0.9553995223484801
id250	sample0	obj250	-2.5089084829851824	0.9785849992024136	-1.8103138800027379	0.22631606217543943	-2.580976013238931
id251	sample0	obj251	-3.0928633003916373	2.2337061947208765	-2.2698032800255357	-0.532573982962054	-3.448737090200177
id252	sample0	obj252	-2.7239954649200664	-0.41378847389092943	-1.5677312898112654	3.4851666711972236	-1.2847276314434113
id253	sample0	obj253	1.9519299634913303	0.045405542715257985	3.0680730420031512	0.5674784563708817	-0.23355350876355108
id254	sample0	obj254	-2.0109013604770554	1.6732911900320442	-4.229629280265149	-1.5562955110593164	-2.930619905910552
id255	sample0	obj255	-3.2642619700015465	0.11199787753990975	0.9214254933082375	-0.14441320772434918	-2.8649124143063323
id256	sample0	obj256	-1.9330373631021076	-2.1511015687001	-2.5927886554181887	0.9061419254796939	-0.11192693617883775
id257	sample0	obj257	1.0502008858555079	-1.2591335660639484	0.9041354603280076	-3.438597406292941	-3.460961378836712
id258	sample0	obj258	0.9874188024958466	-3.740722132603335	0.49383230832777536	1.8109453149619925	2.6402385352159072
id259	sample0	obj259	0.7835654774551772	2.3819418538286268	0.32019994478293845	2.2579339421531386	-2.09595171195536
id260	sample0	obj260	0.6897642184898323	1.4687860532131471	1.0945217642561615	2.4486130143715776	3.987012728639847
id261	sample0	obj261	-1.230768448436139	-2.2458624841536077	-3.7259463372712425	0.30589210820191504	0.2015658740491344
id262	sample0	obj262	-1.8288885227522276	1.2505992544402182	0.7759345113545166	2.4097895297339984	0.678333891238488
id263	sample0	obj263	0.6788465356197928	-0.8595209038623002	2.8550921630826016	-1.1762079218443338	-0.9746286731496867
id264	sample0	obj264	3.422422901841932	-2.7029473249388136	-3.0405374522471273	-4.3135494795264115	1.0417158623130574
id265	sample0	obj265	3.71180059310063	-1.6513918351973287	-0.11436765343264654	-1.913060592824339	1.8096754755174027
id266	sample0	obj266	-2.9228778017109516	0.7380440924897542	-3.3320627905673526	-2.3487321803174295	-1.5391326824538847
id267	sample0	obj267	-0.6380598586931325	-0.36636191675549656	1.6932118740223205	-1.8019916543687116	-0.17714400430653554
id268	sample0	obj268	2.457006232466423	-0.8524722944161629	-0.5058114375921687	1.0247880710340207	-1.0330606341233948
id269	sample0	obj269	0.6617943321316935	1.7251820792987473	3.863288966468832	1.7558685461969301	-1.8897293499317198
id270	sample0	obj270	1.145917646347508	2.7013177198275145	1.74824835440926	0.9766795209249945	-1.3672338635930132
id271	sample0	obj271	-0.5221768081966291	-0.7256647005948083	-4.433226946830082	2.1424964880818758	-1.5955639960302397
id272	sample0	obj272	-2.2219274860055656	2.425593967900357	1.5438907957597034	-4.272129627425418	0.5941218240361061
id273	sample0	obj273	1.5013757382230364	0.21027304342539277	3.6643510656448433	0.10457244817007516	1.2474784929164453
id274	sample0	obj274	-0.16847339419670937	2.8816012716094246	2.893341953005594	3.1712754233347056	1.0847159514740388
id275	sample0	obj275	1.2518922954971958	-0.5776729611538065	-2.5891172865358287	0.37852551009035085	-2.2172259145022126
id276	sample0	obj276	-2.7533573333278416	-2.8727508234351546	1.565114023176683	-2.0224383716271763	-2.3081217463530344
id277	sample0	obj277	-2.133318324992687	-0.5730096508989384	0.7982883875508642	3.655037134296264	-4.254178306210853
id278	sample0	obj278	2.1052281937387214	1.6081050869355404	-2.0566517440766514	1.2463065286163155	-4.155930637967045
id279	sample0	obj279	-2.5685073526501805	2.503536820543191	3.6900072553961483	-0.5743830973393	-2.4657365420681043
id280	sample0	obj280	1.959091023225809	-3.801344402807408	1.518265707052526	2.312141418456926	-0.7503700572208638
id281	sample0	obj281	-1.3718289283006877	-0.9013352280033446	1.971388910065511	-0.9588731238182975	2.146678610428067
id282	sample0	obj282	0.3148239071159933	2.655937976860609	-1.4506782140526226	1.5321784406193393	-1.118761560949191
id283	sample0	obj283	-1.5393204297820857	-3.5551047864416265	0.9520053643493089	-4.123386087327783	-1.4144166347513196
id284	sample0	obj284	-4.0316668796084425	-0.9350104387714764	1.0506774596774882	2.3084324786187373	-2.146880610134651
id285	sample0	obj285	0.3016287379665741	-0.15333365978873692	-1.970784460742393	-2.784215622073301	-0.8002076165930136
id286	sample0	obj286	0.8292426979507315	-3.238114558839486	0.48500838007601144	-0.37045011386599613	-1.3735172874751096
id287	sample0	obj287	-2.2538995932158903	2.8061367491797524	0.08716083711164258	1.5470293161809014	0.07815956881544173
id288	sample0	obj288	1.949497044987898	0.7916016085232755	-1.3787174259853312	0.14413936048720877	1.039481880854748
id289	sample0	obj289	1.007060569306673	-3.210828014936594	-1.7505066503945903	2.8661748823009745	-3.360270619280076
id290	sample0	obj290	-1.4527378022157347	-0.5044396338633084	-4.1522207600622	4.096550653218673	2.360001949579143
id291	sample0	obj291	-3.2432134526601555	2.5716353621162718	2.1081693964453727	-1.7745484685922803	1.483819387448334
id292	sample0	obj292	-0.4590456349273897	-0.10266052701300077	-1.2459086769811434	1.47968153593503	1.1320927093566493
id293	sample0	obj293	1.1476122690336297	2.610797073499376	-3.4042438377172664	2.9294108668675536	-2.1894691030389737
id294	sample0	obj294	-2.2324720968455	1.752600139936663	2.1908211400228224	0.6603307871971609	-0.06439432467275918
id295	sample0	obj295	1.238926473020654	0.19115795346222741	2.144402187393804	-1.6311369462124532	-2.742852484498432
id296	sample0	obj296	0.5213140843773638	0.683183216094269	-2.514911840173971	1.8606489791569114	2.6958828518574114
id297	sample0	obj297	-3.716784176774107	-2.417189594073804	2.5517265879302196	1.2613319444632212	-0.495053359777746
id298	sample0	obj298	-0.1570468549893338	-0.20563130083842207	1.0301416231797316	2.828171024998829	-1.3816653286664893
id299	sample0	obj299	1.8749094250365244	1.7584957194712796	0.8467144665950386	-0.4477732612255867	1.55338587309694
id300	sample0	obj300	1.0051659420115466	-2.013811621176032	1.2008773415351957	3.843737225396792	2.430203477645365
id301	sample0	obj301	0.48878581239128027	-0.9809277366585035	-2.090922865836564	-2.4047976855687185	0.19505859020347405
id302	sample0	obj302	0.30786065263973006	-1.9250664448021664	-0.7847035478506723	-2.1291663354633226	1.6681089713289963
id303	sample0	obj303	1.422452994220566	-1.5329430782480296	-2.278872287680068	-2.9091087925459878	-3.2104964221874353
id304	sample0	obj304	2.9406699078345984	-3.890465224996477	0.6460114961057133	-1.4956293664468259	-0.28823177435672265
id305	sample0	obj305	-0.20910265807693995	0.20869174205261143	1.157396876791765	-1.8844213284071907	0.5020389746872687
id306	sample0	obj306	-1.4634637898275629	3.7203614252586226	3.5449033702841737	-0.4440855102689347	-3.98044453473592
id307	sample0	obj307	-3.064861294296124	2.2158550566033663	3.023487907953462	0.3002711197567878	-1.1788086888014042
id308	sample0	obj308	-3.0770427524195787	-0.14995503483834294	-0.5760737133567333	-1.9163024769089718	-3.0387373796453305
id309	sample0	obj309	-0.04926154427814833	2.482054970808889	2.477244856812164	0.30247883371300543	1.515772894766455
id310	sample0	obj310	-0.3106652853650884	-2.418084273466924	-0.5668895951387111	-2.0392168362477765	3.953244562845647
id311	sample0	obj311	1.4199553781749816	1.710678897275143	-0.2330327590094583	-2.578740998489605	-2.798063580695056
id312	sample0	obj312	3.9352055937971047	3.9185146051520237	0.32841139028642163	3.4466708236815045	-1.8350548351978817
id313	sample0	obj313	1.1877691651328919	-2.8657512631257367	-1.6955283482000858	3.398951966839819	-0.681600754460473
id314	sample0	obj314	2.4211640568425263	2.1163176922633573	-2.307183734033212	-1.9155231163066184	-2.301733018444456
id315	sample0	obj315	-2.4339923720023933	-1.908383036597658	1.7884944565701966	1.1791999911956543	-2.8376007635362437
id316	sample0	obj316	1.7123989061921978	0.5867106703745228	-0.6117522597732779	-2.594125836147805	2.824439148258029
id317	sample0	obj317	2.90320538807088	-0.2244268119826729	-1.954395298803588	0.3694498895369762	2.926534240554409
id318	sample0	obj318	-2.0423163314218273	-1.054361221619519	-1.078010763778886	0.23027818511570342	2.3345679672964215
id319	sample0	obj319	1.964867743305058	2.1283345145528134	2.1533231432424844	-0.3963901359408839	-0.23949551309509454
id320	sample0	obj320	-3.2298122685691997	0.6608945694757347	1.9941933469724011	2.955794994731056	-2.0085860719354764
id321	sample0	obj321	2.0819084554110927	-3.1252955068861232	-0.49199282801431843	0.8522461568765134	2.6088892288542125
id322	sample0	obj322	-2.6046143637494827	1.230795593731923	-2.6398220976521785	1.301239209318816	-2.264983468505318
id323	sample0	obj323	-0.9587782993124172	-1.8537271554905799	-3.18457532851803	3.463213599316962	0.5527384221153258
id324	sample0	obj324	-2.2253676349595795	0.3556005282655883	0.7260923012198626	-3.460022164163253	0.6363386106161684
id325	sample0	obj325	-1.3788325773796652	2.9309148572296095	0.6794893664380655	-3.2188631436596036	-3.8230300012893186
id326	sample0	obj326	0.5658107640314134	0.3605201468557995	0.8477326175665572	-0.9819968971051953	1.2469052460373997
id327	sample0	obj327	-1.6183965676775274	2.0812559432393822	-0.6107014602869878	2.245863018204574	-0.6073031041800323
id328	sample0	obj328	2.6063030011776536	4.486635737594703	3.3654574939882425	0.7610894165379527	-1.768897989779868
id329	sample0	obj329	1.147042848274259	-0.36459544899921537	0.8809906414752404	-1.4646000827869001	4.213584148633645
id330	sample0	obj330	1.0290935473232787	2.1165933994517654	-0.7410521529440748	3.585022152919774	-1.5419888418544043
id331	sample0	obj331	2.063450529733793	3.5363337328219515	-1.3277713663330233	1.050646317673773	-1.0952475673610869
id332	sample0	obj332	-0.28506151333500296	-1.987344898221991	2.0140983213707937	0.4858258641084612	-1.8317231895492732
id333	sample0	obj333	3.432077289310734	1.5762277965247893	-3.6833018404352904	3.8774911904364897	0.7211783888465566
id334	sample0	obj334	1.7141465492187276	-1.9694918132196777	-0.15124142688449171	-1.4339544884271223	-1.6223493783737883
id335	sample0	obj335	3.339922610059741	3.224437623898665	-0.3443348292106154	-3.1162535560203493	1.4349387694923632
id336	sample0	obj336	-3.8732071411697655	-2.0669506786392517	1.1434782097016576	-3.197098902965378	-2.694872178479355
id337	sample0	obj337	-0.8232088204139794	0.3531410640124333	-3.204998713671735	4.383527028924083	0.3759257671209426
id338	sample0	obj338	-2.2403457514368514	2.6200624656715608	-0.1250790020141459	2.0237416881795465	0.7751659556620767
id339	sample0	obj339	0.4762788539230074	-1.3578723108228292	4.517258740831269	3.241561135598669	4.22951810422219
id340	sample0	obj340	2.7368486096964806	-1.6724462798445818	4.4941840973344025	-1.6505165203162808	-2.596817766789176
id341	sample0	obj341	-0.9747584733461363	1.47175575127766	0.7805008591208604	4.538942253420731	-0.8386326785363989
id342	sample0	obj342	-2.638420570064797	-3.174670294629859	1.229521049676238	3.3206105807045514	-0.7314305070276963
id343	sample0	obj343	1.9027402998370129	2.742633505453779	2.2173553419117082	-1.6921276377300087	-2.5240736087766624
id344	sample0	obj344	-2.928630029166273	-3.5655673832841708	4.184846270487625	-1.9404927393053848	2.489647521521067
id345	sample0	obj345	-1.8110751824314695	-1.6398333349060223	0.771065797822212	4.240812912208994	-0.24769580003097125
id346	sample0	obj346	-1.6104040774405843	0.7580110342589204	-3.194221283395743	-2.7639393751729284	1.2233816385399712
id347	sample0	obj347	3.5570614371123037	-0.6470101369069812	0.37899393932891234	0.9689500631666437	-1.9116792567630752
id348	sample0	obj348	-1.2294560830419912	0.03298011544478663	-1.5079377751579408	1.5546953301905726	-2.438188962920427
id349	sample0	obj349	0.30637815172028615	-1.0212088707552092	1.64835465289072	0.6606385686101282	0.8611250300331219
id350	sample0	obj350	-3.380682723246113	2.2475822043890625	-4.191146667072181	-1.516100051233258	-3.155382644714959
id351	sample0	obj351	3.2476158367217938	-0.3145463200015832	1.652594120234308	4.184386812837737	-0.789719290240994
id352	sample0	obj352	2.4900211514918653	-2.991597107711092	1.1043829959172748	-1.543456579154706	-2.2616606873199796
id353	sample0	obj353	0.19821218835984977	2.0320181794975287	-2.243977271518102	-3.9265468172396965	1.1263841736557525
id354	sample0	obj354	1.6366466417275303	1.3926479882084235	0.4838176303121249	-2.269153659502589	2.8760789379405587
id355	sample0	obj355	-2.2003902584588304	1.1116207834521177	0.7033272570107976	-3.819611016226007	-2.0576545612232
id356	sample0	obj356	1.48618115589349	0.5590180572148089	-1.2238500537613242	-2.1292522540541894	4.013778481108373
id357	sample0	obj357	-0.40106115172835	1.5225995092219327	2.6316014074256637	-1.7532895438156475	3.046385072541771
id358	sample0	obj358	1.502149434332634	2.56207172236262	-0.7792118610092558	2.845583775832866	1.463144222540364
id359	sample0	obj359	0.2980925729937536	-1.5887933956342901	-2.4930222460972207	-1.140132863488743	-2.86361337416491
id360	sample1	obj0	0.44815610998400035	-3.994548282465482	-3.8780476577141574	-4.508700424501828	-3.1672504108703663
id361	sample1	obj1	-1.2190184340101866	-1.8119337882421525	-2.6403408089541482	-4.266161783834434	-3.0364252244233176
id362	sample1	obj2	0.17473789415405405	-1.4390387872729848	-1.4195361587561581	-2.8572636903279784	-2.575376151122444
id363	sample1	obj3	-2.5292959992828203	-0.978272817879074	-3.9224396941112607	-4.3996913934776565	-3.0560932408070007
id364	sample1	obj4	-2.897797988660838	-3.3872391117486886	-3.0703990265679595	-4.2721600354632	-3.049117456281887
id365	sample1	obj5	-1.6893301406647767	-3.854892505818807	-3.708080297856639	-3.7348279731677616	-2.5869281210060397
id366	sample1	obj6	-2.4976703347380336	-1.1859311386798856	-2.738965978500164	-3.583096909876301	-0.5988767172609244
id367	sample1	obj7	0.06460692877857732	-0.8897165682434605	-2.4620772567204345	-1.3420279923121134	-0.34012599317488745
id368	sample1	obj8	-1.1837934606015768	-1.6777000657119892	-0.6492144028604583	-3.882240733924812	-0.9960088715750566
id369	sample1	obj9	-0.8612902235038906	-2.481510444694961	-2.7875574844141573	-3.0805029470117846	-2.2205176908933844
id370	sample1	obj10	-2.0978198063591895	-3.2866317559321017	-2.0253509827721823	-4.7431484978325225	-0.4777296469200263
id371	sample1	obj11	-1.970406499175382	-2.7931045830071293	-0.6061376348728762	-4.0587554465235085	-0.7378698670893782
id372	sample1	obj12	-2.8154040569609955	-2.686118907753843	-1.8699401312974155	-3.7108183614222146	-0.16240140229185296
id373	sample1	obj13	-1.3296015761378113	-1.973868695193142	-1.9456866673697732	-3.6361973237965923	-3.1286934606032215
id374	sample1	obj14	-0.4957553033647899	-2.5265308189702087	-3.4718130878605162	-1.8978578067817449	-0.42485881309291895
id375	sample1	obj15	-0.4688605713310128	-2.3768018454098834	-1.4634382855993773	-3.5571267571654164	-2.2650470758766734
id376	sample1	obj16	-1.0352716993643405	-0.9867997172023684	-3.3284401773821264	-4.023001679047567	-2.0875165328595493
id377	sample1	obj17	-0.5901414201205444	-2.4966816646018914	-2.0452228926263682	-3.5291354889230613	-1.3021206422456115
id378	sample1	obj18	-1.9291843013355292	-1.6217056794732712	-1.8071328713402137	-3.7875684564294207	-2.977266099393834
id379	sample1	obj19	-2.619544735761126	-2.73415162896675	-3.293556328407116	-4.694691828147243	-0.1972311738374033
id380	sample1	obj20	0.2387284522048232	-2.190647180021862	-3.5937514014299774	-2.2534634414696395	-0.17476779842629786
id381	sample1	obj21	0.46856197899410845	-2.9672149849970104	-0.8425155713947607	-3.8990894490860804	-3.335119540350483
id382	sample1	obj22	-1.560632901550857	-4.070267458594886	-3.9969471502233587	-2.4866450599554817	-0.7013271728613948
id383	sample1	obj23	-2.596882415111228	-1.6540010737181603	-1.7846030358256135	-3.169557839512465	-1.6276413060814883
id384	sample1	obj24	-1.9984998693859577	-3.5906184128549237	-0.4634172697689325	-2.768260847287035	0.05121020018016664
id385	sample1	obj25	0.32885271257140736	-1.3125258115486031	-2.1571529927867297	-3.5450617891017044	-3.2589058728512903
id386	sample1	obj26	-1.6093248647240583	-1.4131100290540124	-3.743480245197177	-1.794471843752494	-0.828803714615802
id387	sample1	obj27	-0.0142799344561928	-1.2383868488724639	-2.3647170879442245	-4.128990337164911	-3.160392800030941
id388	sample1	obj28	-0.164431434300085	-2.5443602243538734	-2.6477791975884974	-3.672770108425849	-0.13979917277247478
id389	sample1	obj29	-0.19545305014139625	-3.996530484837504	-3.9611562053069407	-3.585776146058821	-2.8187553754216643
id390	sample1	obj30	-1.2218061546093248	-1.259737893323685	-2.48420509261964	-2.1082389230593526	0.049241748926045714
id391	sample1	obj31	-2.668636087758509	-1.4951333671684697	-0.7009164527485383	-4.753268682912341	-2.760389048783983
id392	sample1	obj32	-0.8472482962133612	-2.3887043055536386	-1.9856868628220685	-3.9322207030971192	-3.1459692846597624
id393	sample1	obj33	-0.639021785753507	-1.514991630404787	-3.498359577770362	-2.605418796182284	-0.888517092136204
id394	sample1	obj34	-1.2730931211474863	-2.915273147544827	-1.9259340486061147	-3.8488195461547403	-0.24946187395925157
id395	sample1	obj35	-0.4484143271758725	-1.0406517973660685	-1.1021804498974357	-3.609950287613331	-1.443165759300664
id396	sample1	obj36	-1.746927171936829	-3.237342297919521	-3.0165733343094283	-3.7724025550207694	-0.5476510482631671
id397	sample1	obj37	-0.9631090279038081	-1.7990710249514292	-0.6612137470515684	-4.560872724457236	-3.3548955658330506
id398	sample1	obj38	-2.3543547728005385	-3.126832479787571	-1.6129608266117546	-3.072513327913281	-1.9663510612579784
id399	sample1	obj39	-0.19055660196709234	-0.9576610283945131	-3.6961497040277353	-3.5498990645058766	-2.7909247197141682
id400	sample1	obj40	-0.9609134354776245	-3.4208371610673645	-2.2372307909851736	-3.9935566706908596	-1.44618264301668
id401	sample1	obj41	-1.7005342767972713	-2.4153439806341366	-2.916229677938439	-3.8362616578919777	-2.998737988187298
id402	sample1	obj42	-1.2684015807616411	-3.414422604483444	-1.8051880423618327	-2.7966711063799283	-0.1548848645631804
id403	sample1	obj43	-2.413552129428963	-3.5197092724198233	-3.586103764912078	-3.533043878880901	-2.5259719805555734
id404	sample1	obj44	0.17994845530806258	-2.4065697866241016	-3.536939750563194	-2.6571967902501434	-1.6026004452762226
id405	sample1	obj45	-0.2776643172708233	-1.9100837301046159	-2.2110592208799646	-1.9932385123639145	-2.0258551334769175
id406	sample1	obj46	-1.5157246087444611	-0.8614980877075988	-3.214657302461301	-4.010123712248774	-1.2000696393296166
id407	sample1	obj47	-1.8046006627850566	-2.3856409243093823	-1.0227787218710034	-4.215738304234206	-0.7498007533551514
id408	sample1	obj48	-1.080365718654556	-2.4769065410867404	-2.3538415536049158	-3.5570626256185487	-2.232910738522272
id409	sample1	obj49	0.11516665693177441	-2.5239474168285057	-1.3177819206026273	-4.015278550479547	-3.1877252484020433
id410	sample1	obj50	0.19554905144317414	-3.055715558420431	-3.7814092450718384	-4.38221104747064	-2.129439943099614
id411	sample1	obj51	-0.9891035360077689	-2.213386862170273	-3.4332834894747037	-4.309715090376973	-0.5752247814346061
id412	sample1	obj52	-1.1862595588591793	-3.685704451939213	-0.54654866344124	-3.5896783045680682	-1.7125327727559911
id413	sample1	obj53	-2.1944713357315084	-1.103420614641695	-1.8284028197232989	-2.9458432221835253	-0.6930429213121625
id414	sample1	obj54	-0.984907199223636	-3.7745124586778327	-1.4497098691582087	-3.1877618026960093	-1.3879412080333149
id415	sample1	obj55	-0.5059141248999117	-1.8995483253668108	-2.055108460754977	-1.5209372526242728	-0.7223710218386679
id416	sample1	obj56	0.4814930638816357	-1.8876761048030206	-1.8412007093630771	-2.976888881219737	-1.510998455560115
id417	sample1	obj57	-1.8356155623898094	-2.193390207888916	-1.798886282087871	-4.588405976178157	-2.4257785071240896
id418	sample1	obj58	-0.793869706912693	-2.998320057296094	-3.9800351167940216	-2.7814169519031102	-2.399436503487958
id419	sample1	obj59	-2.4993821144386605	-3.1313711049430406	-2.755565882400953	-2.8118358308353564	-1.8834488951426898
id420	sample1	obj60	-2.1256856599071114	-2.039354810792174	-2.7932652768324235	-2.6345573940408373	-2.1204041133616736
id421	sample1	obj61	-0.03605339297736765	-2.6001244625043	-0.6407830913515544	-4.388138830272988	-1.9788310672864515
id422	sample1	obj62	-1.1454148332774325	-1.3737629229254475	-1.2222282574148255	-2.6533777890389496	-1.1642529943322664
id423	sample1	obj63	-2.534980152682317	-1.1914997263714773	-1.221497363838156	-4.113705887648002	-2.603098145227844
id424	sample1	obj64	-1.6927947298738122	-1.6012274079672817	-3.449760742570941	-3.4257162688496567	-1.911092438721427
id425	sample1	obj65	-1.574871424556104	-1.739507475511436	-3.5361249505140897	-3.210577779713618	-0.6952450360846265
id426	sample1	obj66	-2.5641196039732934	-1.5572859769598255	-2.496690526259667	-4.665734937057558	-1.403116162414743
id427	sample1	obj67	0.2502252431858383	-0.851438425219879	-1.4820372048165453	-2.168438320110856	-1.3630163925109653
id428	sample1	obj68	-0.07467510690429058	-0.5700141479034493	-3.1405169515255924	-4.177321935026155	-0.14818985010404195
id429	sample1	obj69	-1.469544278246664	-1.2126163650524202	-1.412021505329933	-4.0773863129736405	-2.7038402652899842
id430	sample1	obj70	-1.4902151670664072	-4.079455749580112	-2.992762418064255	-3.7981521448269646	-0.6335294732813865
id431	sample1	obj71	-1.8622962621890868	-3.599216982199588	-2.3875108359670802	-3.319481131471462	-0.4512242151652168
id432	sample1	obj72	-2.570907524341057	-2.733823808363046	-4.045275699305722	-3.8170873210412126	-0.8191353480459502
id433	sample1	obj73	-2.4870792535478623	-3.501687404900001	-2.204539189871337	-2.7217435416309224	-0.9715362244472809
id434	sample1	obj74	-0.06167346648614802	-1.1269121078127153	-0.8265208862483628	-1.1969264245135312	-0.2833389464092584
id435	sample1	obj75	0.5454939024885352	-3.1211527742021983	-1.8519758186125974	-3.418143147523089	-3.4868155271993984
id436	sample1	obj76	-1.8353756822734948	-1.491013288647271	-2.662575664799367	-2.3255666685865535	-1.9062063875137316
id437	sample1	obj77	-0.9432018113916281	-1.641642556099914	-2.6250419029732353	-3.748160353391393	-0.9594939811325187
id438	sample1	obj78	-0.8552855071698764	-1.2782899257226552	-3.4242437411528015	-2.2383977088438636	-1.1528223270062627
id439	sample1	obj79	-2.4950443678956877	-3.4299785232077724	-3.815743192380605	-3.79193133275572	-0.9812652129177202
id440	sample1	obj80	0.5513888779435965	-0.5249914926936665	1.7928209487330677	-0.8558832413706638	-1.623687016771366
id441	sample1	obj81	-0.23985708611056178	-2.355627033593078	1.495527070406182	-0.12882127279614553	-1.6515541356632146
id442	sample1	obj82	1.3188992997549878	-0.3009332400064182	1.5857575904587324	-1.3287972932678997	-0.6733956753112966
id443	sample1	obj83	-1.5486592695450287	-0.10611799827927615	1.8975523355141355	-1.59245120899456	-0.21557577908959735
id444	sample1	obj84	-1.342133085501228	-2.1844865453756688	1.7627649339315823	0.011146119322098746	-2.1289127869109015
id445	sample1	obj85	-1.1209656212024663	-0.8000006653662679	-0.221946866664549	-1.160208242136708	-2.652191366479076
id446	sample1	obj86	-0.4350213750358791	0.7616133214024245	1.2385800615315918	-1.1857573439850564	-2.0195955862439243
id447	sample1	obj87	-0.848737619975688	-0.844887667744332	0.12590337861521106	0.07613105057361946	-1.2261816954936655
id448	sample1	obj88	-0.24238850279412993	-0.834087626569918	1.1186388008850325	0.8678747634072408	-2.5159594738679827
id449	sample1	obj89	1.1604715935134886	-1.422587198089817	0.17836549981873895	-0.0330550997128618	-2.950663629890185
id450	sample1	obj90	-1.3591452002218896	-2.4241396635978925	0.8786599572366389	-1.6868326223064056	-2.418818090051923
id451	sample1	obj91	-1.236767317791542	-1.4226653889703618	-0.8921918611226891	0.6222261635726121	-1.5714553008019505
id452	sample1	obj92	-2.0821481075054282	-0.3528402374040025	-0.5348022259383192	-1.9312482499256782	-3.1928803731342614
id453	sample1	obj93	-0.7347708928463992	-2.4190630004821023	1.2873748490676216	0.5089667981289587	-1.9090105005304687
id454	sample1	obj94	-2.115568193778268	-1.1068546626983662	1.7829934975217345	-0.6798618806404304	-0.7351731956744121
id455	sample1	obj95	0.2851669220017208	0.7651316607517582	0.025469633868714592	-0.25908284495278844	-2.2825983298272288
id456	sample1	obj96	-0.9700628513073364	0.2874473865716365	0.812316790481179	1.0987617305925441	-1.3670022229380547
id457	sample1	obj97	-0.41890207295671655	-2.17193944378075	0.9433800821087439	-1.2361598271875587	-2.9099768834036475
id458	sample1	obj98	-0.2859417922423433	-1.8303104662783585	1.6908558201943256	0.9782397814011026	-2.606191040884987
id459	sample1	obj99	-1.4616065521378978	-0.49319903102738594	1.814862418748272	-0.05057315789547512	-0.03291986453766094
id460	sample1	obj100	-0.36511448463382945	-0.12979369811401598	0.44927704946191027	0.7179108900576139	-0.533099105380993
id461	sample1	obj101	-0.948529300018603	-1.87253569068067	2.1485207850871406	-1.2323899094255704	-1.1661698628162653
id462	sample1	obj102	0.3354755291286635	-0.12222606476682629	1.2034414741211494	-1.9049215723769097	-2.4352466130395145
id463	sample1	obj103	1.299515829214714	-2.263749651692034	1.8359723367237721	-1.5829018397025671	-1.4649108558832655
id464	sample1	obj104	-0.30684757461321843	0.8164082738485419	2.258002714463511	-1.155270743922411	-1.8144366225152462
id465	sample1	obj105	0.4961852904794475	-2.3032158842739476	2.2892349158596508	0.6572147234557686	-0.7505989039400005
id466	sample1	obj106	-2.186287702104461	-1.3227667997817805	-0.5821313124668264	-0.5405873703130513	-3.204607236848383
id467	sample1	obj107	-0.4926451828883269	0.2284959818118104	1.7387781974377774	0.46896883854039895	-1.6910358216289005
id468	sample1	obj108	-1.6658836464572344	-1.8608603095340475	1.6816084001420852	-1.3744709503310357	-1.8041961185200361
id469	sample1	obj109	-1.4697227332216367	-0.04229188158184294	0.336742124662319	0.9740921205443784	-2.362124189657459
id470	sample1	obj110	0.24189743791226337	0.45022111110090335	1.4869338015762377	-1.7693798723424214	-2.6226974219392036
id471	sample1	obj111	0.14051073733824482	0.43129647251890213	-0.032678963654132254	-1.633265360046641	-2.0141874288570536
id472	sample1	obj112	-0.27788637656878734	0.4399332363654731	1.8441245777221982	0.28961845604172987	-2.222546758507611
id473	sample1	obj113	-1.6449754546618518	-0.19898436583618362	1.0848457648950822	0.8980121448068614	-2.3887902281789555
id474	sample1	obj114	1.3336198006791669	-1.8690321904668838	1.1677968671483308	-1.9974731203105127	-2.142539405136877
id475	sample1	obj115	-0.784859194260759	-1.0584418149078754	1.7774805211813056	-1.4484914417566594	-3.468057228764712
id476	sample1	obj116	0.5396367907448238	-0.4052509407029017	1.3281765718806604	-1.1994439191154642	-3.3863351679200218
id477	sample1	obj117	-1.1099955913815012	0.576511418667786	0.8129801321404384	1.2883442938934604	-3.1076135551890873
id478	sample1	obj118	-1.4963062047699216	0.06705794190972214	1.4490352602009617	-1.6605436229805373	-0.6240201203734392
id479	sample1	obj119	-1.7970882028141877	-0.9822601353346299	1.8533138370491378	1.422724922850237	-1.6272787107396527
id480	sample1	obj120	-1.1786087769008173	-2.2789749826262424	1.1540581013727047	-1.151999969309265	-2.6854199671137207
id481	sample1	obj121	-0.3972542490934905	-1.5811632518100867	2.108740382049622	-1.9607714488146655	-0.4925438578835031
id482	sample1	obj122	-1.3824557567396023	-2.3271644195206562	0.5837359285023711	-0.061311961959227945	-2.879610165789477
id483	sample1	obj123	0.5774023926765575	0.13240233867637818	1.4283415479391046	0.9750855145837829	-3.4008511580782073
id484	sample1	obj124	0.7645673212762951	-0.45056139099823844	0.8434216647153787	-1.261831176180967	-1.5379649274775093
id485	sample1	obj125	-0.3072360608467053	0.6880336566464813	2.061079965785745	-1.2795680414420636	-0.7666142069640001
id486	sample1	obj126	-1.4587266302138815	-2.029889093026592	-1.1620916480175085	-0.3973430887908078	-2.247862862328513
id487	sample1	obj127	-0.19438710176666185	-0.4185837126390315	-1.1202505882379166	-1.9703534564182865	-3.5135405204769756
id488	sample1	obj128	-1.7657605220408166	-1.008567972512294	1.0819795539840766	-1.9269806583974691	-2.806646029428845
id489	sample1	obj129	-1.6653873602041287	-0.4843450297351384	1.5932195194391745	0.3078638419691091	-1.5468316144834164
id490	sample1	obj130	-0.4604303008551074	-0.5435596275775072	1.1544759639887305	1.1258261172108373	-0.5177656010656186
id491	sample1	obj131	1.2760340192159154	0.5936130593824089	2.055963525219747	0.13719331047291816	-0.3613321307627444
id492	sample1	obj132	-1.9289034538457424	-2.09035087307558	0.21962928637241497	1.1762879049837516	-3.277686408922202
id493	sample1	obj133	0.515408419177587	-0.17065425802854395	0.5208909612390045	-0.6720366481559843	-3.15278082671371
id494	sample1	obj134	0.710986346587821	-0.551257825274239	0.7380509004693889	-0.7388649713992177	-2.384466444036579
id495	sample1	obj135	-1.1219259912620856	0.6701263242880742	2.102898958475052	0.565423593664496	-1.4781578831698228
id496	sample1	obj136	-2.126424879307403	-0.5321458811416886	1.082483807618346	-0.9098103159248094	-2.1676972917982766
id497	sample1	obj137	-0.8783459427776092	0.5428098944465438	0.7711586055198272	0.1867989154431775	-1.2707226003430498
id498	sample1	obj138	0.04156564413901731	-0.9003997394215408	0.8986456957990996	-1.3866016590011365	-2.505185879061252
id499	sample1	obj139	-0.28058284588751814	0.5834778636039244	-0.1608262964447229	1.1106165884517571	-3.5312177371684603
id500	sample1	obj140	0.6502705118433025	-0.8203756259885304	-0.7287802854130261	-0.20148057944368314	-2.6736032898612843
id501	sample1	obj141	1.2235257114784621	-0.5861105860895923	0.42561209523430965	1.3646443545732565	-1.8503039159072687
id502	sample1	obj142	-2.017636860004675	0.41933009437990987	1.1574059624979947	-1.3289375881194019	-1.5693292053929444
id503	sample1	obj143	-1.8146010079791428	0.18749150636563772	0.0823564851299654	0.7719534705620112	-2.5638357268408116
id504	sample1	obj144	1.0165943877789305	0.1654443107665664	1.8967037077832958	-0.23893916482102018	-0.9755097862928099
id505	sample1	obj145	1.169723674006342	-0.14641780778513458	1.5840025566027676	-0.36707868061310767	-0.7842273721328794
id506	sample1	obj146	1.298648301894948	-2.3905053463525476	2.051531719104088	0.9090746011511925	-3.387686149103518
id507	sample1	obj147	-1.3706046772568619	-2.0998051966891658	0.1989295890260374	0.4017354623681906	-2.248337572038305
id508	sample1	obj148	-0.07437819899445164	-1.336551299690646	1.9775188849176695	0.9017792628077939	-2.40669686852977
id509	sample1	obj149	0.6531081488421815	-1.8528832586112618	0.5178025782269577	-1.1828143241532545	-3.4662607975410795
id510	sample1	obj150	-0.5629841577956278	-2.469948297697402	0.6335645776595185	0.41814608600710756	-2.799970915937819
id511	sample1	obj151	0.8456924849101857	0.26171587285529196	-0.13883812184689082	0.22487880347220623	-2.9192137501558566
id512	sample1	obj152	-2.1185564086644346	-2.2823552976586052	0.8637601324336937	-2.0022469315505385	-0.7163816524818591
id513	sample1	obj153	-0.4498587734649404	0.8692301907718665	-0.7119006688688532	-0.8758693505564907	-1.7526408315119792
id514	sample1	obj154	0.21650057542646128	-2.301494627237905	0.17451950697748186	-0.4398942344599772	-2.7148518596991544
id515	sample1	obj155	-1.4612576521606404	-2.267660058411579	1.682750181204596	-1.9128838536007626	-1.9410991775076063
id516	sample1	obj156	0.7588187299924647	0.05620017336975747	0.9009807633831326	-0.8782805255980342	-0.6984994160409308
id517	sample1	obj157	0.34001044382861534	0.8388190039270749	0.6362769698009676	-0.8358410217755439	-2.900287684932351
id518	sample1	obj158	-0.8515130538462792	-1.077146584985121	1.2690281385815163	1.3615925356161382	-0.1580719102449153
id519	sample1	obj159	-1.9317311349628068	-1.1013998975521129	1.5220743179613796	-0.7806817069295189	-0.36055900927040363
id520	sample1	obj160	4.108475208084168	-0.7205639493554059	-1.4315220484667417	1.2035057863142282	0.11919320389881194
id521	sample1	obj161	2.9701251478553035	-2.7969235388805	-1.5311269710392084	1.6695976472166856	0.011175663292475102
id522	sample1	obj162	2.936863868461271	-3.022598952764014	0.4397532386750791	3.052285372755913	-1.4226034339341322
id523	sample1	obj163	3.678798330532625	-3.047045894223244	-0.07256882889259364	0.23518437645005852	-1.1330845567963155
id524	sample1	obj164	2.406302005967678	-2.2775341465385166	-1.360697949730954	-0.19005797116864898	-1.8960533757165314
id525	sample1	obj165	1.5743141177001132	-2.2957938480861553	0.32466942534148147	1.3886386709310292	-2.1343376737922153
id526	sample1	obj166	3.1610954760815115	-0.6129848302777956	-0.8387802665554693	1.3068757913177433	0.4816416072103855
id527	sample1	obj167	1.9139667513685963	-1.0772430025137674	-1.9364555998217419	0.7231815999812707	1.2533661383202495
id528	sample1	obj168	2.949749823169328	-3.261492752326738	1.0167336144830303	0.8696406402397527	-0.6731407113049577
id529	sample1	obj169	2.5788821852896495	-1.2239024514163053	-0.043551671485540844	0.00552334035805413	-2.105025528464366
id530	sample1	obj170	1.4305027117350937	-2.8426442238094194	-0.03570813818747487	1.3830256360405626	0.31147895171980733
id531	sample1	obj171	3.9134738003946508	-2.7426232259035217	0.10226171161005815	0.2961826256641069	-0.6982805402614181
id532	sample1	obj172	3.658829243449592	-2.18541623001006	1.332325287022991	2.125977384030483	0.870304345877366
id533	sample1	obj173	2.7372827745209567	-3.6844162797546183	0.7977602327122335	2.623267834079104	0.8321691811378666
id534	sample1	obj174	3.4972169437941973	-1.5034822468539606	-0.595920158775028	2.324294590420973	-1.091887493805809
id535	sample1	obj175	3.9712573435160063	-1.53633968892167	-1.6673449098295774	1.9403463747320622	-1.810824792176406
id536	sample1	obj176	2.5816456808095003	-4.15144457629975	-0.16569360439224123	3.0040440537156288	-1.8729090030971056
id537	sample1	obj177	4.5459132076238475	-2.1976019363079446	-0.3508124447107763	0.3212953736913058	-0.7272626094865593
id538	sample1	obj178	4.63584883369283	-2.54269247686112	-1.4695137408390573	0.4331596729454835	-1.3354303652001316
id539	sample1	obj179	4.246711390518881	-3.6735116070484977	-1.2586609092876726	2.629793552735245	1.3491991910828658
id540	sample1	obj180	4.0435745879557095	-2.499823499078791	0.9566619744661147	1.0047054148930263	1.362591304271055
id541	sample1	obj181	2.5023775030088276	-1.829888304480528	0.3253580390465862	1.0483764342975745	0.5600766608694727
id542	sample1	obj182	2.4707027327033053	-1.9362953467189399	0.30583168856299836	1.2437951821190742	0.5850081465539343
id543	sample1	obj183	1.634777791677137	-2.097033181734658	-0.8675540189842652	3.0617469860601982	-1.3807852187018974
id544	sample1	obj184	1.9732184384335478	-1.9332129368835396	1.0372585793130844	2.5111807879107806	-0.7455698876297705
id545	sample1	obj185	3.7643600969421405	-1.0963434943447827	0.9560855741067356	1.9612963036491227	1.3348554231397747
id546	sample1	obj186	3.8336796012087246	-0.9778885925820615	-0.9120653348169314	-0.06996625825407987	-1.2995074975770247
id547	sample1	obj187	4.403054287702501	-1.3841387583337001	0.7306343656908691	2.0725549168296	-0.25640728542218905
id548	sample1	obj188	1.3379587822711418	-3.1710489069345527	-0.7571687014347912	3.0784623220711236	0.9925511176311066
id549	sample1	obj189	3.9669218476422534	-2.466250737418861	1.0244485942906	0.704563023239066	-1.2439192433749038
id550	sample1	obj190	4.235680710958536	-2.18729317081898	1.286458263861656	0.8688205309294224	-0.5259472031109884
id551	sample1	obj191	3.403731807197347	-3.9334131146649067	-1.000058895885469	1.6799109130940333	0.6897506980912118
id552	sample1	obj192	2.7219148108424696	-1.4886469962280502	-0.7413567878992451	1.1758829913194435	1.4224713354474667
id553	sample1	obj193	1.8560316786378657	-2.001473673265867	-0.47538018947822414	0.026467577884800253	-1.6983164514017335
id554	sample1	obj194	2.234325369800625	-1.7437852317618827	-1.5996642076098875	0.37947258209301826	1.1278378289910875
id555	sample1	obj195	3.568173704603364	-3.711932462217475	1.1112916595557352	2.7965827235345384	-2.0648234049341667
id556	sample1	obj196	1.9791225622772437	-3.7957344556838843	-0.9993702039019597	2.2531461746033927	-0.9854635610717599
id557	sample1	obj197	4.096145836889811	-3.957296630042287	-0.2777405521326104	0.6268091256989148	0.5564321587752754
id558	sample1	obj198	3.8807941515363966	-0.6486004866413635	-1.855912294136681	1.5590570285689689	-1.6748240483940737
id559	sample1	obj199	2.6919485185226972	-4.142226020130408	-0.40852085156240436	1.3609623656615435	1.1831862381890856
id560	sample1	obj200	3.7947458007941206	-3.20909821944413	-1.0921575511343302	-0.2998700686858369	-0.6580102738233711
id561	sample1	obj201	1.4476566629289374	-2.7716810176170448	0.9834551474575031	0.6994653074247383	1.1739262257749317
id562	sample1	obj202	4.582591871049041	-3.25018225958169	0.4046416615191688	0.4810213915735124	1.0227039184346733
id563	sample1	obj203	1.162563179068209	-3.538862939681927	-0.18680184176040515	2.3187962150977204	-1.575341535813692
id564	sample1	obj204	2.9176890415248717	-2.836849577884621	0.17919366633406564	1.8632907552688933	1.3904642376504188
id565	sample1	obj205	4.004250436855676	-3.3938893985334975	0.3886756984023563	2.371457093910984	-0.3668457566592982
id566	sample1	obj206	3.5887029483151807	-2.0610258797123713	0.11856214266868137	0.6351507715423514	-0.09461518973248162
id567	sample1	obj207	2.585872959281267	-0.706299900336403	-0.04663232126668704	0.038957475647781736	-2.143111805194228
id568	sample1	obj208	1.3316066793547623	-1.873629671824194	-1.2292507541939397	2.056005755195633	-0.7375071852256188
id569	sample1	obj209	1.3838297364525771	-0.7908736540569927	-0.9105082681283854	0.48520395178302467	-0.11830202345291796
id570	sample1	obj210	2.4970863281733884	-1.2186295350529892	-0.8047992514085243	-0.28382415228726776	0.47523525883495865
id571	sample1	obj211	2.4045553029995412	-1.9335396981977182	0.44226039710386744	0.5762896344794448	-0.3647879639337823
id572	sample1	obj212	3.7999305235167773	-3.936505259958396	-0.18656195560576294	2.04608184324479	-0.3725335927015845
id573	sample1	obj213	4.302288361142048	-1.3637314212860294	0.5700233559536108	0.6848511593714808	1.3730430103221314
id574	sample1	obj214	1.6042895451260621	-3.972179850992945	-1.3540424913910192	-0.37175923120936694	1.3168856422421265
id575	sample1	obj215	4.2731709893309295	-3.9047650949953043	-1.9393119133315495	0.5265149401399738	0.7838050501155223
id576	sample1	obj216	2.5516055457383744	-3.16724327063611	-0.3896390356088266	0.4894774199316282	0.5736759757754128
id577	sample1	obj217	2.1795486661169434	-1.9396811327196823	-0.060421874988147106	2.8763460729680297	-0.09997223475526051
id578	sample1	obj218	3.247776890259356	-2.990900067352017	-0.678304415353407	1.3823970593188102	-1.8396368300167838
id579	sample1	obj219	1.749355673770266	-3.073346683355284	1.14115218289908	2.076102537921827	0.30555463465426436
id580	sample1	obj220	2.298388692863453	-1.4761802518155533	1.4644987118055883	1.2593054582211638	-1.6563216456828094
id581	sample1	obj221	2.3489875588037235	-1.05247726063186	-0.37322478927074587	1.2684886602309102	-0.20397011878588267
id582	sample1	obj222	3.4156048168104904	-2.5775646986299336	1.2970571569709872	2.2984027925010584	0.2764730931198949
id583	sample1	obj223	1.9440772280375334	-3.7235936608122757	1.0029959398427024	2.48249238785321	0.7775946518255414
id584	sample1	obj224	2.017583663268051	-0.753282924264828	1.201907129628433	3.1612190417790718	0.0375027917402575
id585	sample1	obj225	4.641105182998042	-3.064792834755199	-0.37044680126826757	-0.15571891917841252	-0.12007401137543616
id586	sample1	obj226	4.501044684385374	-0.8001533232348128	-1.387383706842999	2.2418981239417994	-1.0508419380924126
id587	sample1	obj227	2.2437942087227913	-3.820565262413272	1.0035965628082837	1.101022553025018	0.7132705576122966
id588	sample1	obj228	3.989879164742762	-1.030942300114445	-1.8745946362216446	2.713079835269568	1.027990954843833
id589	sample1	obj229	4.5617494614346	-0.9997575964010752	-0.933625207805892	2.720386371995548	-1.7848603998059311
id590	sample1	obj230	4.047463722652382	-3.5838316602985234	0.9451811328555733	0.17976905786780795	-0.07985278422462883
id591	sample1	obj231	2.974824850290427	-1.6651320398193417	9.097739445314001E-4	1.8663734900206634	-1.9891530811650362
id592	sample1	obj232	1.7876010317535416	-4.190688633535361	-1.380929592002397	2.5217206407761945	-0.16641712943965214
id593	sample1	obj233	3.9852089299455624	-2.2488387439824793	-0.12606048216913202	0.95251113825746	0.45308763211609837
id594	sample1	obj234	1.6287772545164154	-1.5054473819016099	-0.5234419974338296	2.8365123500493445	-1.398792537716886
id595	sample1	obj235	2.9802415167569585	-0.6714732109699513	0.7226796026080347	0.8363414309450641	0.5092714004622929
id596	sample1	obj236	4.2086924557845915	-3.9060149397026485	-1.476151094828543	0.6896152463112739	-1.9061373617658066
id597	sample1	obj237	1.9824862561287404	-2.0232519625139753	0.796718225294444	-0.15547729486499207	-0.5686610265992942
id598	sample1	obj238	3.9587686376452007	-2.4145535311092887	1.5075973380284224	2.922824670682983	0.5451691685583622
id599	sample1	obj239	1.6769528224776131	-2.2472423397446875	-1.2777648312354817	2.146490806002995	-1.1713346066515753
id600	sample1	obj240	2.937422198282186	0.1750587398424952	-0.11131536810994991	-0.9215917455364313	0.43177164242504285
id601	sample1	obj241	3.1556875444701618	2.415258212948424	-1.1892305163119021	-1.6759861014476745	0.03690929151003952
id602	sample1	obj242	1.5913653954994207	2.3531280587591574	1.1720964246665522	0.5351168946134695	-2.6841384906825243
id603	sample1	obj243	1.6464533953739342	-1.5496672741834054	2.831619814389935	-2.0926520507723443	-1.0913110186147212
id604	sample1	obj244	-3.3087078457833323	-0.637358661754359	-2.0341260822633016	-1.2450130584061463	-1.6313790729807804
id605	sample1	obj245	1.7699229585389868	1.2145507459905942	-1.9641997894449683	-0.5951489040564487	1.8356054826962909
id606	sample1	obj246	-1.2301771985291599	1.2565100397800164	-3.466781203674079	0.8462101138716973	1.478964827464333
id607	sample1	obj247	1.5319311069206936	2.531794605967179	1.345597237974611	-1.6284246468249572	1.007369172695662
id608	sample1	obj248	1.2997351940409267	1.552119519260154	0.46329281152005697	-2.2169378298281925	1.6289726480681155
id609	sample1	obj249	2.2416557693761288	2.1262773622645663	-1.3824199286908776	-0.9873049753590994	2.318928180609119
id610	sample1	obj250	-2.028344182475139	1.6224106552345998	-3.7945769874169804	0.26894283174997136	-0.4994147511865925
id611	sample1	obj251	-0.0958896099249078	3.7283954337971834	-1.6947233522337293	-0.24388329281607368	-1.0101800435347912
id612	sample1	obj252	-3.402387530265113	-2.0234952765916696	-0.6847088108343709	0.9342814134088957	-2.510738574662475
id613	sample1	obj253	1.5578055437032758	-2.522975072757739	1.460433534192323	0.9588354842731353	-0.6537331122978449
id614	sample1	obj254	-1.2402122508066318	3.402939100767709	-1.358965624044193	-1.9234750679866393	-1.0963974620939265
id615	sample1	obj255	-4.373109850851577	-0.8732958614671138	1.9999753822411555	-1.8653526472080546	-1.9781421081639048
id616	sample1	obj256	-1.7191330078989706	-0.2908325112469321	-2.845911759326202	0.34086385680009945	-2.5560166009686256
id617	sample1	obj257	2.335739651418371	-2.8474830180792967	0.764946216698702	-2.733952656175688	-2.7286906413619194
id618	sample1	obj258	1.166300434978553	-4.2599906613908765	1.4766002738257393	-1.117122832297162	3.3015899451458424
id619	sample1	obj259	3.323081236976658	2.6072780465514747	-1.8505599302874216	1.34363987253598	-1.55428262672347
id620	sample1	obj260	-0.13456448838309876	0.16866047503260728	-1.304336880435916	0.40539657765413195	1.3414697214270896
id621	sample1	obj261	-3.5533306846338553	-3.660500335238853	-1.8999157618603253	-0.6854585188180857	0.7691179841249423
id622	sample1	obj262	-0.8572824161959203	1.1643287398828435	-0.5944797364598182	1.6231395070002592	1.7585996936155934
id623	sample1	obj263	-1.0791045110148598	-3.3051614771029985	2.412513815654845	-2.8985535043242607	-0.3376943702761459
id624	sample1	obj264	2.2311599344690007	-2.4153215685537024	-1.3058481447953063	-1.0408033732728776	1.5355836771536244
id625	sample1	obj265	2.1184740739383168	-3.4613481730205846	2.6838463407952036	0.17739321789581752	2.0625929002033034
id626	sample1	obj266	-1.995897808314446	2.4607656780387193	-3.457742237941145	-3.5050181337834667	-0.15207837195804186
id627	sample1	obj267	-3.2028036182489803	0.9001155983500178	4.146566810679486	-3.6326311315878264	-2.1904359775720432
id628	sample1	obj268	0.4833550796197781	-0.20251554640228941	0.6179286368435328	3.4126648398524395	-1.51027113899636
id629	sample1	obj269	-1.1344050134722363	2.0504721887770394	1.208807661591818	1.65393770013954	-3.7890491191290616
id630	sample1	obj270	0.6708013447793504	1.114394416448789	0.6615079035105509	1.5038651941314705	-0.5381232881513665
id631	sample1	obj271	1.3806217801179272	-0.8661084726950645	-1.2952829993403252	1.2116311689684145	-2.4200873990866185
id632	sample1	obj272	-1.0424106723784703	3.40704221887745	1.6748712370374	-1.3039870977426455	-0.4109899450194938
id633	sample1	obj273	3.16873297724539	-1.7512352619484166	1.4177963685536485	-0.7531298902320425	2.1602525680344957
id634	sample1	obj274	-0.059700912857551414	2.081392893495714	1.2172507748718169	3.37226549584732	2.3735057476728594
id635	sample1	obj275	1.6151310484620849	-0.440264454225602	-1.61939364729713	-0.6459616540034044	-3.9128487858651706
id636	sample1	obj276	-1.2003408614188216	-1.971332243476837	-0.14676038874309727	-1.3965549468331064	-1.4718567797025175
id637	sample1	obj277	-1.245837108228353	-1.3392977143996463	0.0064663727842757535	3.203734392332513	-1.1606959326864643
id638	sample1	obj278	1.1565760610223872	0.3089501246533428	-4.127322934032511	-0.5910131765646451	-2.317451968197399
id639	sample1	obj279	-2.90950373475423	0.9587344432183653	2.568399620603822	-2.223503564524489	-2.2150921857861468
id640	sample1	obj280	2.9594404273248314	-2.6513474645160753	-0.7369592400882904	0.022441757515435645	0.8074996744704699
id641	sample1	obj281	-1.3326866350825617	1.0765593785005356	2.1222099811281256	0.5470622316230129	3.2848658703286384
id642	sample1	obj282	0.23168487948771843	2.1122566377384295	-2.1568414110389047	1.2845326676627662	-1.4522898710189425
id643	sample1	obj283	-2.1118940909123487	-2.071188224429168	0.5293474963537264	-1.3189053488573201	-2.369661288386348
id644	sample1	obj284	-2.648477930633618	-2.384759020617291	-0.7768939829344987	1.9091595419847016	-1.31515154856922
id645	sample1	obj285	-0.7699977984948154	1.1234319364885283	-3.1631219653151845	-2.191039878184344	1.1543343606304155
id646	sample1	obj286	1.7743449611257336	-1.6455476604285166	-0.2287814536188757	-0.15770070702903594	-2.724243695860239
id647	sample1	obj287	-2.536726443114548	1.0728948644645844	2.539281192550436	0.8012451362735893	0.26699722737232623
id648	sample1	obj288	0.3778884216109517	-0.7628940050152686	-1.786881493832908	-0.2495225028833128	1.6620319553301266
id649	sample1	obj289	1.7965148542623646	-2.982565623557626	-0.9828966040725329	3.08955760183896	-4.406479776303467
id650	sample1	obj290	0.4236819386388986	-0.26553032819544	-2.223831285496927	2.9267577222365064	3.9075253896864472
id651	sample1	obj291	-2.4575711742309485	4.011626047952491	3.513488714227999	-0.47011779525521735	2.4840911987173064
id652	sample1	obj292	-2.8381313508949533	0.8518359587090274	-1.2049153143410987	4.048773717585518	-0.0868100105069487
id653	sample1	obj293	0.6846445200901734	1.2190961093426893	-1.8463741049393187	2.52606929351715	0.1978400277314789
id654	sample1	obj294	-2.3376872014520433	3.32256447738913	2.7092694285084677	1.5882593842342554	-0.1963477976060195
id655	sample1	obj295	1.1693852524551605	-1.114178600965828	-0.21607818866184214	-0.8237399746965541	-2.958829451983232
id656	sample1	obj296	1.504219478975317	-1.3604702481493434	-2.795985596384029	1.871167633137342	1.3804404104661756
id657	sample1	obj297	-1.4491753791944715	-1.5368850853821465	2.6624483276026867	0.2528487936417111	2.49582020095583
id658	sample1	obj298	0.9954480689770684	0.26546884150351535	2.5737652159453877	2.4857680435149447	-2.8756057516661575
id659	sample1	obj299	1.899933499331272	3.8967217975553297	3.644057468528426	-0.9765576933603813	2.5754688073136007
id660	sample1	obj300	0.642080013670042	-1.9817042257189705	2.6154045260667074	3.8587652444928473	1.8289137390155483
id661	sample1	obj301	2.4848614802035573	-1.535001635699001	-1.487438122565058	-1.7045612512600077	1.0718967602185205
id662	sample1	obj302	1.7417722237018762	-0.011950898245397967	1.4660734141650404	0.01654674754970098	2.0824327448691617
id663	sample1	obj303	0.8297067988302216	-2.832262878291667	-1.6932025698894102	-2.788263089676522	-3.693278652897423
id664	sample1	obj304	3.40831777576882	-2.1294356329637036	-2.722393290808675	0.7563799709203012	-3.2130277600116877
id665	sample1	obj305	-1.7799527993706832	-0.15433128706113797	0.48451178030035136	-3.818020890244058	-0.09437412325947658
id666	sample1	obj306	-1.53291456441161	0.4187074582519943	1.1389563104010028	-2.5506764408760985	-3.295480022262799
id667	sample1	obj307	-2.9241902663334143	0.9186480652094375	2.695215980590141	2.224932098913847	-0.6124733201066903
id668	sample1	obj308	-1.3322431322258155	0.5376624943570565	-1.0333224220263502	-0.11393745999537752	-1.4647417713551352
id669	sample1	obj309	-0.6074940900515038	1.570319050548189	1.7617252768612515	1.6828519701250437	1.8997738490683462
id670	sample1	obj310	-2.277300843946958	-0.36777071054025856	0.25077068505982836	-0.11315740228239268	3.40697481865996
id671	sample1	obj311	1.0633413631196327	1.8687605532721532	0.12667121393263447	-0.3700792669143238	-0.8232372192625157
id672	sample1	obj312	2.580838050756875	2.7031427546199103	0.9110833876520876	1.3829216192905933	-0.27196933783469857
id673	sample1	obj313	0.50587582504884	-2.7229672249121886	-0.42949205950315306	2.5813038559330064	-1.5401070825736909
id674	sample1	obj314	0.9400283702076897	3.5256995366769415	-2.773627101585256	-0.2866170706056317	-0.9539970892078802
id675	sample1	obj315	-2.601823364537849	-0.5628283886717578	0.4827322515423955	-0.04949733109549315	-2.9566215303620025
id676	sample1	obj316	-0.5005254850922234	2.4752605309368283	-1.3813638339385255	-3.25518800557892	1.5193855810713692
id677	sample1	obj317	3.975328494522234	-0.7386696241979411	-2.2222145447771258	-0.6472774887705297	2.9037102643775565
id678	sample1	obj318	-2.6781330071120433	-1.3126737439912788	-2.2742506021298086	0.9599891880072702	1.8621494405741166
id679	sample1	obj319	0.46288040501072714	1.0424721794505538	1.3958764883065824	-1.6579169703087464	0.9029055218237463
id680	sample1	obj320	-1.8172752682497262	1.7881638956335844	1.5209791092016711	3.689127888022319	-1.2152807541901316
id681	sample1	obj321	1.7985239257078434	-3.7183611756697648	-1.2683459385868818	1.232618077362172	2.4583507965489595
id682	sample1	obj322	-0.7901411839826753	-1.2465972775575747	-1.7657224056437746	1.112252335756204	-0.3241898560631731
id683	sample1	obj323	-1.5083250659086762	-0.9555375014727515	-2.708939457574578	0.8206692815227643	1.3387896738215856
id684	sample1	obj324	-1.9485497052994791	-0.8105611758671332	-0.6038039101387589	-3.8495280572363626	1.9257212499934153
id685	sample1	obj325	-0.2472277899130677	1.8435322819325957	1.3820584773863533	-3.0462089354883357	-3.5200256514701485
id686	sample1	obj326	0.44981016969954024	1.487660404374204	0.9849426477525804	-0.10386420595188928	3.840070346591501
id687	sample1	obj327	-0.14908075794810416	0.07566076210860317	1.2048328012553513	4.105987978586759	-1.5970371931598444
id688	sample1	obj328	4.194240960505455	2.3832776352372074	3.151627458842194	1.5953700033919658	-1.2597502146995023
id689	sample1	obj329	3.203994404599791	0.3417680509890373	-0.15087079790759472	-1.8398905770331067	2.164058931674144
id690	sample1	obj330	2.9889800302508123	3.3553757505127413	-0.5579746202794871	1.9323168721945503	-1.5800148722280793
id691	sample1	obj331	3.161967280523455	3.753940603714315	-1.8719867560014818	3.63944410932125	-3.9581559925930687
id692	sample1	obj332	-0.9071423173910687	-0.8993603499286855	-0.4898152939636893	0.05264991893048432	-1.164432867986368
id693	sample1	obj333	0.9076318114837996	0.08773388795671222	-2.5003608824896117	2.4133098194773694	-1.7546399217400015
id694	sample1	obj334	2.140153933795972	-3.0221645020930765	-0.29265342089527135	-1.5258256712965135	-2.8089922049195506
id695	sample1	obj335	2.4180341877717915	0.7590184157278591	0.45467332202412236	-1.939176549135431	3.4712707772288383
id696	sample1	obj336	-3.6686209980833255	1.0975781391237456	1.11605262218483	-2.2053245398562717	-3.652493892480217
id697	sample1	obj337	-0.7458748525025873	-1.1531395917775351	-4.389662140608401	3.3692940380216125	0.039567159653496775
id698	sample1	obj338	-1.7445804812665624	2.8585004666014777	1.2895404602599354	0.23038149725152746	0.9067252290271861
id699	sample1	obj339	3.594233488546009	-2.760038996983744	1.6906128713923612	2.6931907375305455	1.4795788442706361
id700	sample1	obj340	2.7333950582550997	-0.24733669910478095	3.8499753578112106	-0.3942459632248476	-2.3424044414922434
id701	sample1	obj341	-2.065998531138667	4.151724989429448	-1.165624207057567	3.959700223519661	-0.9813027953671691
id702	sample1	obj342	-3.052622503056341	-4.168209337016677	-1.6056830004049119	1.5415928159321601	0.48788697840092765
id703	sample1	obj343	0.9304030644449551	2.7935220376861922	2.666646009294502	-0.6764636180732027	-1.3008870682310267
id704	sample1	obj344	-3.4143248649625635	-3.311359025156108	1.4134305284728919	-1.2878153782509834	2.4757877439127647
id705	sample1	obj345	-3.277801755481341	-2.4750908021067435	0.23980645807386525	2.6878923642047914	1.143954756646029
id706	sample1	obj346	-3.7704019813319203	0.9112374087355506	-2.868250423733145	0.5577008796072038	2.357860598596621
id707	sample1	obj347	2.900812083987759	1.5605441793061574	0.2453101164177942	-0.5309189690011137	-2.127696782117896
id708	sample1	obj348	-3.178427635836597	-0.57367261793859	-2.767832949066887	2.5140856455641485	-3.6849594479887733
id709	sample1	obj349	2.1272086058540296	-0.39340901891510727	0.793394724666324	2.3646114570453536	3.147183097978556
id710	sample1	obj350	-1.440837672196903	0.4942991247751518	-1.55215620676504	-2.232158149284709	-0.625147606458959
id711	sample1	obj351	1.511437801314801	-0.9508604849935776	0.47409187181968737	2.165726734932161	-3.3965894329147717
id712	sample1	obj352	1.0631475341422043	-3.713286896237004	0.15841490358967536	-2.0678260776523034	-0.45449368961455217
id713	sample1	obj353	2.0788801778540456	1.3627548163658605	-2.620043185082568	-2.0751567644240057	0.6228535662407444
id714	sample1	obj354	1.9866643537717208	1.902831766264943	0.9874275505669046	-2.7328837678177123	0.5617488469955039
id715	sample1	obj355	0.08435944196504752	1.7643819310486788	1.4698347144946307	-1.709714603898257	-0.023726222522322482
id716	sample1	obj356	2.1071068305969414	1.6017559344656418	0.5527916456976862	-1.3139121654190833	4.329962065213698
id717	sample1	obj357	-0.719948728585597	3.4654280713255883	3.363333765642592	-2.568872820681219	0.9841923137337889
id718	sample1	obj358	1.9817782786760048	0.49545012632692864	-1.6551484199411743	2.1820099944702758	3.401765977242704
id719	sample1	obj359	1.2010643205124263	-0.6158779103984842	-2.2590160385646243	1.2549500345825513	-1.0848330922944152
