obj201	obj0
obj260	obj0
obj0	obj262
obj337	obj0
obj1	obj11
obj1	obj143
obj1	obj201
obj1	obj206
obj223	obj1
obj2	obj52
obj2	obj89
obj351	obj2
obj21	obj3
obj3	obj256
obj285	obj3
obj4	obj238
obj291	obj4
obj336	obj4
obj1	obj5
obj5	obj132
obj5	obj342
obj106	obj6
obj7	obj10
obj173	obj7
obj226	obj7
obj7	obj283
obj12	obj8
obj8	obj90
obj155	obj8
obj8	obj357
obj34	obj9
obj127	obj9
obj9	obj182
obj9	obj210
obj213	obj9
obj303	obj9
obj353	obj9
obj10	obj27
obj45	obj10
obj10	obj118
obj160	obj10
obj243	obj10
obj11	obj181
obj202	obj11
obj356	obj11
obj12	obj125
obj13	obj61
obj33	obj14
obj40	obj14
obj167	obj14
obj344	obj14
obj15	obj100
obj221	obj15
obj131	obj16
obj280	obj16
obj337	obj16
obj33	obj18
obj18	obj108
obj18	obj113
obj254	obj18
obj19	obj32
obj19	obj82
obj231	obj19
obj27	obj20
obj60	obj20
obj90	obj20
obj20	obj122
obj20	obj267
obj298	obj20
obj322	obj21
obj125	obj22
obj22	obj163
obj206	obj22
obj22	obj255
obj293	obj22
obj22	obj335
obj23	obj18
obj59	obj23
obj24	obj93
obj221	obj24
obj335	obj24
obj116	obj25
obj164	obj25
obj241	obj25
obj180	obj26
obj89	obj27
obj27	obj98
obj27	obj100
obj209	obj27
obj282	obj27
obj310	obj27
obj314	obj27
obj68	obj29
obj29	obj82
obj102	obj29
obj150	obj29
obj29	obj175
obj259	obj29
obj98	obj30
obj30	obj100
obj30	obj206
obj30	obj235
obj31	obj194
obj303	obj31
obj31	obj345
obj32	obj7
obj32	obj56
obj32	obj203
obj32	obj227
obj302	obj32
obj33	obj100
obj141	obj33
obj33	obj164
obj33	obj172
obj248	obj33
obj33	obj285
obj34	obj72
obj34	obj227
obj34	obj345
obj116	obj35
obj35	obj129
obj36	obj186
obj288	obj36
obj322	obj36
obj37	obj53
obj37	obj91
obj121	obj38
obj204	obj38
obj38	obj298
obj314	obj38
obj137	obj39
obj283	obj39
obj40	obj149
obj205	obj40
obj1	obj41
obj38	obj41
obj74	obj41
obj41	obj180
obj3	obj42
obj42	obj65
obj42	obj124
obj200	obj42
obj264	obj42
obj43	obj15
obj317	obj43
obj0	obj44
obj60	obj44
obj44	obj324
obj45	obj134
obj45	obj207
obj310	obj45
obj46	obj11
obj46	obj185
obj65	obj47
obj68	obj47
obj47	obj185
obj47	obj278
obj48	obj10
obj271	obj48
obj15	obj49
obj49	obj218
obj250	obj49
obj270	obj49
obj297	obj49
obj50	obj121
obj50	obj144
obj50	obj160
obj50	obj214
obj51	obj131
obj16	obj52
obj46	obj52
obj58	obj52
obj52	obj141
obj52	obj185
obj189	obj52
obj330	obj52
obj53	obj36
obj340	obj53
obj350	obj53
obj11	obj54
obj54	obj160
obj347	obj54
obj55	obj5
obj306	obj55
obj226	obj56
obj282	obj56
obj53	obj57
obj57	obj84
obj59	obj115
obj59	obj162
obj59	obj249
obj67	obj60
obj98	obj60
obj60	obj256
obj60	obj312
obj322	obj60
obj62	obj58
obj103	obj62
obj133	obj62
obj180	obj62
obj233	obj62
obj63	obj35
obj182	obj63
obj232	obj63
obj63	obj258
obj247	obj64
obj271	obj64
obj295	obj64
obj64	obj331
obj65	obj67
obj65	obj138
obj65	obj139
obj65	obj213
obj65	obj230
obj251	obj65
obj57	obj66
obj87	obj66
obj66	obj129
obj47	obj67
obj337	obj67
obj68	obj43
obj68	obj63
obj132	obj68
obj68	obj156
obj182	obj68
obj68	obj350
obj66	obj69
obj75	obj70
obj144	obj70
obj70	obj211
obj70	obj223
obj351	obj70
obj354	obj70
obj70	obj357
obj236	obj71
obj71	obj270
obj72	obj42
obj47	obj72
obj72	obj65
obj72	obj148
obj153	obj72
obj72	obj185
obj72	obj281
obj22	obj73
obj73	obj155
obj193	obj73
obj73	obj239
obj354	obj73
obj74	obj25
obj74	obj26
obj74	obj49
obj74	obj233
obj279	obj74
obj184	obj76
obj186	obj76
obj76	obj271
obj77	obj9
obj27	obj77
obj77	obj51
obj183	obj77
obj303	obj77
obj78	obj28
obj78	obj34
obj78	obj212
obj256	obj78
obj78	obj281
obj315	obj78
obj325	obj78
obj126	obj79
obj47	obj80
obj48	obj80
obj294	obj80
obj355	obj80
obj64	obj81
obj82	obj64
obj82	obj118
obj249	obj82
obj82	obj313
obj147	obj83
obj83	obj223
obj331	obj83
obj84	obj111
obj147	obj84
obj84	obj198
obj257	obj84
obj84	obj280
obj85	obj77
obj203	obj85
obj355	obj85
obj7	obj86
obj48	obj86
obj86	obj160
obj215	obj86
obj86	obj249
obj257	obj86
obj196	obj87
obj87	obj232
obj332	obj87
obj88	obj162
obj175	obj88
obj298	obj88
obj89	obj336
obj350	obj89
obj90	obj62
obj90	obj242
obj90	obj344
obj212	obj91
obj292	obj91
obj92	obj112
obj114	obj92
obj139	obj92
obj92	obj186
obj23	obj93
obj47	obj93
obj93	obj185
obj93	obj276
obj93	obj280
obj282	obj93
obj353	obj93
obj94	obj13
obj94	obj29
obj91	obj94
obj317	obj94
obj95	obj96
obj182	obj95
obj95	obj272
obj95	obj349
obj96	obj75
obj87	obj96
obj203	obj96
obj241	obj96
obj96	obj316
obj97	obj8
obj97	obj184
obj196	obj97
obj236	obj97
obj97	obj345
obj3	obj98
obj155	obj98
obj236	obj98
obj279	obj98
obj288	obj98
obj56	obj99
obj123	obj99
obj99	obj309
obj101	obj160
obj101	obj213
obj21	obj102
obj102	obj30
obj43	obj104
obj104	obj147
obj104	obj234
obj104	obj242
obj255	obj104
obj294	obj104
obj105	obj164
obj105	obj186
obj105	obj195
obj105	obj226
obj1	obj106
obj108	obj106
obj169	obj106
obj106	obj234
obj280	obj106
obj327	obj106
obj6	obj107
obj147	obj107
obj107	obj158
obj36	obj108
obj108	obj203
obj323	obj108
obj59	obj109
obj109	obj68
obj233	obj109
obj109	obj256
obj110	obj93
obj179	obj110
obj229	obj110
obj110	obj272
obj351	obj110
obj91	obj111
obj111	obj213
obj274	obj111
obj295	obj111
obj112	obj74
obj226	obj112
obj349	obj112
obj68	obj113
obj113	obj342
obj113	obj358
obj114	obj115
obj114	obj189
obj114	obj191
obj114	obj232
obj114	obj354
obj115	obj64
obj115	obj143
obj115	obj163
obj312	obj115
obj116	obj327
obj117	obj112
obj39	obj118
obj116	obj118
obj118	obj291
obj341	obj118
obj119	obj4
obj50	obj119
obj62	obj120
obj120	obj80
obj120	obj85
obj120	obj330
obj6	obj121
obj121	obj118
obj127	obj121
obj121	obj263
obj121	obj340
obj122	obj94
obj122	obj248
obj122	obj311
obj124	obj12
obj124	obj253
obj124	obj278
obj34	obj125
obj162	obj125
obj322	obj125
obj125	obj348
obj126	obj36
obj126	obj65
obj126	obj71
obj126	obj219
obj126	obj231
obj126	obj307
obj40	obj127
obj127	obj44
obj127	obj196
obj64	obj128
obj128	obj99
obj308	obj128
obj129	obj2
obj129	obj43
obj129	obj63
obj129	obj67
obj129	obj235
obj129	obj276
obj318	obj129
obj129	obj359
obj26	obj130
obj96	obj130
obj130	obj196
obj327	obj130
obj130	obj351
obj19	obj131
obj131	obj61
obj113	obj131
obj197	obj131
obj132	obj155
obj132	obj218
obj132	obj258
obj71	obj133
obj173	obj133
obj133	obj185
obj261	obj134
obj135	obj23
obj31	obj135
obj135	obj40
obj132	obj135
obj135	obj176
obj184	obj135
obj192	obj135
obj135	obj354
obj66	obj136
obj136	obj183
obj275	obj136
obj136	obj359
obj14	obj137
obj137	obj126
obj137	obj145
obj137	obj156
obj137	obj269
obj137	obj335
obj138	obj164
obj138	obj336
obj78	obj139
obj139	obj184
obj140	obj10
obj140	obj153
obj140	obj247
obj295	obj140
obj81	obj141
obj141	obj124
obj231	obj141
obj141	obj250
obj142	obj92
obj142	obj213
obj142	obj293
obj51	obj143
obj143	obj142
obj212	obj143
obj251	obj143
obj143	obj298
obj143	obj334
obj1	obj144
obj144	obj94
obj144	obj157
obj144	obj336
obj146	obj82
obj175	obj146
obj179	obj146
obj74	obj147
obj147	obj117
obj130	obj147
obj147	obj262
obj122	obj148
obj148	obj198
obj149	obj86
obj91	obj149
obj149	obj126
obj149	obj352
obj150	obj0
obj154	obj150
obj151	obj8
obj151	obj154
obj151	obj197
obj152	obj83
obj152	obj132
obj152	obj146
obj152	obj195
obj152	obj264
obj305	obj152
obj152	obj306
obj153	obj35
obj153	obj57
obj153	obj180
obj153	obj234
obj153	obj302
obj41	obj154
obj154	obj45
obj154	obj118
obj340	obj154
obj354	obj154
obj155	obj13
obj155	obj232
obj155	obj240
obj268	obj155
obj156	obj183
obj156	obj341
obj156	obj343
obj156	obj357
obj157	obj10
obj33	obj157
obj58	obj157
obj157	obj72
obj157	obj165
obj183	obj157
obj6	obj158
obj158	obj74
obj158	obj102
obj158	obj157
obj163	obj158
obj225	obj158
obj235	obj158
obj246	obj158
obj348	obj158
obj47	obj159
obj71	obj159
obj159	obj153
obj160	obj3
obj234	obj160
obj161	obj59
obj85	obj161
obj226	obj161
obj161	obj264
obj292	obj161
obj186	obj162
obj243	obj162
obj341	obj162
obj286	obj163
obj164	obj6
obj107	obj164
obj60	obj165
obj62	obj165
obj165	obj114
obj165	obj117
obj165	obj119
obj130	obj165
obj165	obj260
obj330	obj165
obj35	obj166
obj166	obj176
obj166	obj305
obj313	obj166
obj46	obj167
obj167	obj56
obj67	obj167
obj281	obj167
obj168	obj5
obj14	obj168
obj168	obj24
obj79	obj168
obj177	obj168
obj169	obj52
obj150	obj169
obj295	obj169
obj53	obj170
obj170	obj178
obj170	obj185
obj171	obj122
obj134	obj171
obj136	obj171
obj171	obj267
obj303	obj171
obj320	obj171
obj40	obj172
obj172	obj276
obj173	obj4
obj38	obj173
obj173	obj105
obj173	obj174
obj173	obj242
obj351	obj173
obj91	obj174
obj224	obj174
obj43	obj175
obj175	obj119
obj175	obj122
obj175	obj140
obj326	obj175
obj352	obj175
obj350	obj176
obj177	obj113
obj177	obj227
obj177	obj279
obj282	obj177
obj177	obj290
obj177	obj356
obj32	obj178
obj178	obj57
obj178	obj90
obj291	obj178
obj332	obj178
obj179	obj40
obj179	obj73
obj253	obj179
obj277	obj180
obj47	obj181
obj181	obj80
obj181	obj87
obj181	obj113
obj181	obj289
obj118	obj182
obj182	obj303
obj326	obj182
obj183	obj258
obj183	obj286
obj29	obj184
obj3	obj185
obj185	obj255
obj185	obj291
obj186	obj34
obj186	obj49
obj186	obj53
obj101	obj186
obj198	obj186
obj186	obj206
obj336	obj186
obj7	obj187
obj187	obj22
obj28	obj187
obj187	obj69
obj93	obj188
obj186	obj188
obj188	obj265
obj188	obj351
obj59	obj189
obj190	obj12
obj190	obj47
obj190	obj75
obj190	obj143
obj190	obj181
obj300	obj190
obj190	obj355
obj20	obj191
obj120	obj191
obj191	obj220
obj191	obj342
obj192	obj171
obj219	obj192
obj192	obj330
obj193	obj44
obj77	obj193
obj209	obj193
obj193	obj277
obj292	obj193
obj314	obj193
obj193	obj350
obj194	obj95
obj296	obj194
obj52	obj195
obj195	obj99
obj153	obj195
obj195	obj249
obj195	obj253
obj195	obj281
obj221	obj196
obj277	obj196
obj79	obj197
obj197	obj106
obj197	obj216
obj299	obj197
obj197	obj321
obj169	obj198
obj198	obj347
obj199	obj183
obj199	obj228
obj200	obj134
obj250	obj200
obj48	obj201
obj201	obj71
obj201	obj135
obj194	obj201
obj201	obj281
obj282	obj201
obj113	obj202
obj202	obj152
obj202	obj203
obj203	obj271
obj203	obj304
obj76	obj204
obj121	obj204
obj349	obj204
obj176	obj205
obj217	obj205
obj205	obj235
obj206	obj89
obj98	obj206
obj206	obj178
obj219	obj206
obj206	obj272
obj337	obj206
obj106	obj207
obj135	obj207
obj207	obj208
obj210	obj207
obj207	obj245
obj207	obj282
obj207	obj341
obj17	obj208
obj218	obj208
obj55	obj209
obj209	obj216
obj209	obj300
obj275	obj210
obj285	obj210
obj8	obj211
obj135	obj211
obj211	obj136
obj211	obj155
obj211	obj160
obj163	obj211
obj211	obj231
obj317	obj211
obj135	obj212
obj212	obj172
obj212	obj223
obj212	obj337
obj213	obj175
obj268	obj213
obj66	obj214
obj67	obj214
obj110	obj214
obj214	obj116
obj230	obj214
obj214	obj324
obj217	obj215
obj215	obj256
obj215	obj327
obj350	obj215
obj216	obj21
obj217	obj216
obj350	obj216
obj217	obj65
obj80	obj217
obj217	obj183
obj217	obj221
obj217	obj272
obj217	obj343
obj34	obj218
obj218	obj54
obj218	obj63
obj231	obj218
obj239	obj218
obj246	obj218
obj218	obj323
obj219	obj3
obj32	obj219
obj325	obj219
obj219	obj345
obj219	obj355
obj220	obj43
obj220	obj212
obj247	obj220
obj309	obj221
obj330	obj221
obj353	obj221
obj222	obj206
obj267	obj222
obj3	obj223
obj223	obj35
obj135	obj223
obj223	obj136
obj203	obj223
obj223	obj209
obj223	obj279
obj224	obj164
obj225	obj144
obj225	obj172
obj225	obj177
obj225	obj200
obj220	obj226
obj76	obj227
obj117	obj227
obj233	obj227
obj291	obj227
obj59	obj228
obj140	obj228
obj228	obj193
obj229	obj5
obj155	obj229
obj202	obj229
obj84	obj230
obj230	obj129
obj230	obj251
obj231	obj59
obj231	obj104
obj231	obj226
obj231	obj227
obj231	obj326
obj232	obj70
obj76	obj232
obj232	obj242
obj283	obj232
obj327	obj232
obj232	obj334
obj34	obj234
obj234	obj59
obj98	obj234
obj234	obj150
obj229	obj234
obj171	obj235
obj314	obj235
obj82	obj236
obj230	obj236
obj236	obj296
obj99	obj237
obj221	obj237
obj357	obj237
obj238	obj12
obj238	obj52
obj132	obj238
obj238	obj159
obj238	obj164
obj195	obj238
obj238	obj268
obj107	obj239
obj239	obj115
obj130	obj239
obj239	obj211
obj240	obj32
obj33	obj240
obj54	obj240
obj240	obj93
obj240	obj191
obj1	obj241
obj241	obj72
obj76	obj241
obj241	obj283
obj291	obj241
obj306	obj241
obj242	obj91
obj194	obj242
obj200	obj242
obj242	obj204
obj257	obj242
obj243	obj52
obj63	obj243
obj237	obj243
obj286	obj243
obj107	obj244
obj244	obj191
obj244	obj259
obj280	obj244
obj119	obj245
obj170	obj245
obj245	obj272
obj245	obj338
obj246	obj161
obj246	obj206
obj214	obj246
obj246	obj286
obj247	obj56
obj61	obj247
obj73	obj247
obj247	obj282
obj248	obj5
obj248	obj72
obj248	obj297
obj248	obj317
obj102	obj249
obj249	obj167
obj207	obj249
obj249	obj226
obj249	obj234
obj249	obj237
obj249	obj283
obj249	obj286
obj85	obj250
obj86	obj250
obj268	obj250
obj251	obj73
obj200	obj251
obj228	obj251
obj249	obj251
obj275	obj251
obj102	obj252
obj252	obj193
obj253	obj58
obj253	obj62
obj253	obj245
obj87	obj254
obj254	obj134
obj165	obj254
obj327	obj254
obj254	obj342
obj39	obj255
obj164	obj255
obj255	obj201
obj255	obj252
obj256	obj129
obj172	obj256
obj296	obj256
obj324	obj256
obj256	obj329
obj257	obj107
obj257	obj254
obj335	obj257
obj258	obj23
obj258	obj234
obj309	obj258
obj319	obj258
obj258	obj324
obj164	obj259
obj259	obj170
obj259	obj329
obj260	obj224
obj261	obj154
obj261	obj159
obj237	obj261
obj283	obj261
obj262	obj35
obj262	obj219
obj262	obj303
obj263	obj107
obj263	obj185
obj263	obj338
obj264	obj278
obj109	obj266
obj210	obj266
obj266	obj308
obj12	obj267
obj137	obj267
obj267	obj141
obj267	obj295
obj268	obj135
obj268	obj240
obj273	obj268
obj268	obj280
obj268	obj320
obj206	obj269
obj269	obj233
obj262	obj269
obj312	obj269
obj270	obj109
obj117	obj270
obj118	obj270
obj153	obj270
obj200	obj270
obj256	obj270
obj266	obj270
obj267	obj270
obj270	obj305
obj271	obj32
obj53	obj272
obj272	obj224
obj162	obj273
obj273	obj226
obj274	obj100
obj322	obj274
obj274	obj359
obj16	obj275
obj275	obj336
obj297	obj276
obj321	obj276
obj325	obj276
obj219	obj277
obj70	obj278
obj278	obj137
obj279	obj56
obj279	obj355
obj280	obj46
obj124	obj280
obj280	obj145
obj185	obj280
obj187	obj280
obj281	obj99
obj281	obj219
obj244	obj281
obj282	obj7
obj282	obj265
obj47	obj283
obj132	obj283
obj149	obj283
obj225	obj283
obj284	obj79
obj284	obj244
obj20	obj285
obj285	obj229
obj347	obj285
obj10	obj286
obj101	obj286
obj286	obj117
obj286	obj135
obj286	obj141
obj177	obj286
obj286	obj321
obj286	obj332
obj61	obj287
obj287	obj117
obj192	obj287
obj345	obj287
obj288	obj47
obj288	obj92
obj289	obj65
obj338	obj289
obj289	obj346
obj289	obj352
obj290	obj65
obj290	obj156
obj290	obj314
obj0	obj291
obj18	obj291
obj291	obj101
obj291	obj126
obj234	obj291
obj166	obj292
obj185	obj292
obj209	obj292
obj22	obj294
obj180	obj294
obj304	obj294
obj348	obj294
obj295	obj157
obj269	obj295
obj295	obj317
obj326	obj295
obj297	obj29
obj297	obj66
obj297	obj295
obj302	obj297
obj154	obj298
obj298	obj174
obj317	obj298
obj332	obj298
obj299	obj120
obj299	obj133
obj245	obj299
obj299	obj282
obj299	obj335
obj39	obj300
obj300	obj227
obj348	obj300
obj213	obj301
obj98	obj302
obj192	obj302
obj271	obj302
obj302	obj280
obj302	obj296
obj303	obj16
obj303	obj23
obj110	obj303
obj303	obj223
obj303	obj308
obj17	obj304
obj304	obj46
obj304	obj73
obj304	obj336
obj357	obj304
obj197	obj305
obj305	obj234
obj305	obj260
obj305	obj261
obj305	obj269
obj59	obj306
obj306	obj145
obj307	obj249
obj307	obj356
obj65	obj308
obj308	obj77
obj309	obj160
obj260	obj309
obj272	obj309
obj307	obj310
obj310	obj310
obj340	obj310
obj348	obj310
obj32	obj311
obj311	obj109
obj148	obj311
obj311	obj169
obj326	obj311
obj344	obj311
obj312	obj46
obj81	obj312
obj312	obj116
obj175	obj312
obj209	obj312
obj313	obj52
obj200	obj313
obj279	obj313
obj294	obj313
obj313	obj298
obj314	obj330
obj347	obj314
obj315	obj9
obj315	obj135
obj147	obj315
obj190	obj315
obj315	obj235
obj149	obj317
obj78	obj318
obj318	obj272
obj318	obj346
obj319	obj23
obj133	obj320
obj320	obj218
obj321	obj90
obj124	obj321
obj321	obj163
obj323	obj213
obj222	obj323
obj323	obj329
obj13	obj324
obj324	obj26
obj324	obj28
obj348	obj324
obj325	obj48
obj325	obj101
obj116	obj325
obj301	obj325
obj330	obj325
obj326	obj218
obj316	obj326
obj64	obj327
obj75	obj327
obj163	obj328
obj328	obj189
obj285	obj328
obj339	obj328
obj0	obj329
obj21	obj329
obj47	obj329
obj329	obj60
obj207	obj329
obj330	obj162
obj330	obj225
obj264	obj330
obj330	obj272
obj278	obj330
obj331	obj75
obj331	obj235
obj332	obj348
obj165	obj333
obj224	obj333
obj333	obj352
obj335	obj89
obj335	obj314
obj358	obj335
obj336	obj44
obj336	obj61
obj207	obj336
obj336	obj216
obj337	obj15
obj337	obj52
obj52	obj338
obj338	obj54
obj338	obj306
obj339	obj209
obj339	obj230
obj327	obj339
obj339	obj349
obj359	obj339
obj340	obj246
obj340	obj320
obj340	obj321
obj12	obj341
obj16	obj341
obj341	obj58
obj176	obj341
obj341	obj229
obj341	obj299
obj21	obj342
obj126	obj342
obj309	obj342
obj62	obj343
obj343	obj346
obj344	obj131
obj316	obj344
obj344	obj336
obj344	obj350
obj112	obj345
obj345	obj131
obj149	obj345
obj345	obj271
obj346	obj136
obj347	obj233
obj291	obj347
obj346	obj347
obj348	obj113
obj231	obj348
obj352	obj348
obj0	obj349
obj349	obj66
obj231	obj349
obj284	obj349
obj350	obj84
obj152	obj350
obj350	obj175
obj350	obj242
obj249	obj350
obj351	obj64
obj158	obj351
obj352	obj136
obj352	obj198
obj352	obj212
obj352	obj322
obj172	obj353
obj353	obj265
obj353	obj282
obj353	obj290
obj354	obj76
obj354	obj84
obj166	obj354
obj176	obj354
obj126	obj355
obj355	obj282
obj287	obj355
obj355	obj298
obj355	obj317
obj290	obj356
obj356	obj294
obj357	obj200
obj357	obj253
obj307	obj357
obj358	obj104
obj358	obj317
obj359	obj56
obj155	obj359
