id0	sample0	obj0	-1.3809224669520608	-1.2660156326296295	1.5075713757316147	1.5939225182642573	-0.8839780724824162
id1	sample0	obj1	-1.3901640637047534	-0.8374828913470768	0.868508511627048	1.6046220479105127	-1.0250486126385128
id2	sample0	obj2	-1.4286047148923853	-0.9930449974764496	1.3075701840577791	1.1897918196013184	-0.9359974663434605
id3	sample0	obj3	-1.2075830967814247	-0.772449166393016	0.9046009255095226	1.5848289129373716	-0.8909470904366636
id4	sample0	obj4	-1.3675205662164718	-1.4774894975303001	0.776870881356241	1.3246041435186242	-0.8692510058795849
id5	sample0	obj5	-1.0501478435424811	-1.0202712008430588	1.5285108452987681	0.9991971499033816	-0.7731971540257013
id6	sample0	obj6	-1.513264103103354	-1.1451520768900965	0.8248440007087006	1.5336517045274887	-1.2566059204611237
id7	sample0	obj7	-1.5396234512926898	-0.725344572952264	1.471284131205291	1.2126827767107582	-1.3820490560052552
id8	sample0	obj8	-1.3202763191419669	-1.4067407315833722	1.2184901775194734	1.6536428878407283	-0.8921135786042641
id9	sample0	obj9	-1.4473531553847259	-1.0405130556178241	0.9542152688353742	1.5949255059181233	-0.8659469313120927
id10	sample0	obj10	-1.493584393321802	-0.8929169388510888	1.3285458319567676	1.344378847453605	-0.77296577589347
id11	sample0	obj11	-1.1850224373006146	-0.8634410511818192	1.406276000464151	1.6177558197459412	-0.6053103464902265
id12	sample0	obj12	-1.3261870939336906	-1.2364928590026807	1.3237830083250217	1.247765985985742	-1.3810964136030908
id13	sample0	obj13	-1.0874144907985777	-1.2301325488180304	1.0862446136767243	0.9794544559343628	-0.9109781350901891
id14	sample0	obj14	-1.2242690963182439	-0.8184523891580319	1.3751488181882694	1.1694428479372556	-1.0977046064804385
id15	sample0	obj15	-1.4176992765247438	-1.0600055413475895	1.209071603507755	1.5195582622984478	-0.9164503720752072
id16	sample0	obj16	-1.6878953713419	-0.7686892349400775	1.238421272970877	1.4065807382183109	-1.2644446574125054
id17	sample0	obj17	-1.368766560455244	-1.3586502689736983	1.1455494770681893	1.4887878198295335	-0.8710327721002791
id18	sample0	obj18	-1.1953060263968291	-1.061574817178097	1.1160895118316274	1.2086990673606341	-1.3604965852162123
id19	sample0	obj19	-1.352082709746211	-1.0711174515510924	0.9588852056159569	1.0644529225690702	-0.8339571222155591
id20	sample0	obj20	-1.2944002217880861	-1.3706866127000148	0.9561976748911194	1.3466175455170326	-1.1951996823395374
id21	sample0	obj21	-1.3585193722087887	-0.7403023333644354	0.9613050243239049	1.4524739995533023	-0.6375192185840785
id22	sample0	obj22	-1.335466938017075	-1.4462469103224422	1.327922988074575	1.4779482687494203	-0.72140098336364
id23	sample0	obj23	-1.3435710066513906	-1.1617085571213333	1.5183529703857548	1.692938092317239	-0.7302455547394751
id24	sample0	obj24	-1.2846888362901194	-0.7530407278970165	1.5206896920472688	1.4358125956855652	-1.2551380633009555
id25	sample0	obj25	-1.0323470600631364	-1.337594836183838	1.1980754600400731	1.3868898144890727	-1.3290679744913285
id26	sample0	obj26	-1.7384145111141127	-1.3557996764524542	1.5456519196190435	1.5307483665433774	-1.342745607930251
id27	sample0	obj27	-1.457693237157608	-0.8202259853998758	1.1568154313085977	1.587838612529674	-0.6024545168368368
id28	sample0	obj28	-1.2136627926275387	-0.7632585552926444	1.0754098360057134	1.6440547824393565	-0.6469431053182322
id29	sample0	obj29	-1.7377652192291972	-0.7956689953226279	1.1728710978968961	1.6522450968712143	-1.3744136464324603
id30	sample0	obj30	-1.2207918240242064	-1.0413087205260576	1.2398543640632245	1.504103006968461	-0.8289300407411433
id31	sample0	obj31	-1.2673466234977564	-0.7962930973728497	1.1838053124853793	1.7190302192263296	-1.2822573971922953
id32	sample0	obj32	-1.129734378938018	-0.9798924155892157	1.003067361152856	1.075422276982251	-1.0839837655320887
id33	sample0	obj33	-1.2401720955401914	-1.3418517898527582	0.7527229616679527	1.0889328744511233	-1.0389780054762725
id34	sample0	obj34	-1.4216692353653553	-1.047499897627053	0.9782354088711666	1.6536521913985545	-1.3435239089125874
id35	sample0	obj35	-1.437485111225532	-1.4957436110652091	0.7833651974741365	1.7003218629170964	-1.044061395594654
id36	sample0	obj36	-1.1734678409605341	-1.0913508203749913	0.7945661353845428	1.4477333758652198	-0.9870759179085222
id37	sample0	obj37	-1.3110283427037857	-1.084767044207496	1.0233999722453482	1.548850387817946	-0.8545292490136271
id38	sample0	obj38	-1.5527236170844096	-1.0405592231216274	1.5122277861077134	0.9439897527635872	-0.8130350559220939
id39	sample0	obj39	-1.7566341631925344	-0.9674036172184497	1.4398205019200279	1.6741215784307624	-0.9709706152394847
id40	sample0	obj40	-1.3066404161605054	-1.2438011788539114	1.288363946870238	1.5850369790763559	-0.9976011442465568
id41	sample0	obj41	-1.6175504512800705	-1.247382269700128	1.0198937069436365	1.0373157159228936	-0.8112924975605094
id42	sample0	obj42	-1.5085251401623458	-0.7222220130733756	1.3292660356550114	1.0597329391154064	-1.0267225986997426
id43	sample0	obj43	-1.274606622596179	-1.1159967069973402	1.5456323264486462	1.0395101973576448	-1.037887595836154
id44	sample0	obj44	-1.181098479908187	-1.3425392962778533	0.9208181906866262	1.3886673638776368	-1.1163578387270827
id45	sample0	obj45	-1.4732928787686077	-1.0683658796298232	0.8092957680094461	1.581205120122294	-1.3718863278959097
id46	sample0	obj46	-1.2463063704147277	-1.314516451565603	1.4113597880441624	1.6029687534756172	-0.8418299247109214
id47	sample0	obj47	-1.205794786240359	-0.9755471781514967	1.1819555083815554	1.0393485215506453	-0.6711286775105875
id48	sample0	obj48	-1.55678343448748	-0.8912005433354372	1.0281426675188363	1.152488459325981	-0.7775199109409184
id49	sample0	obj49	-1.2089938476028996	-0.7061299515266084	1.416692728718417	1.3389361485092097	-0.7664606177869173
id50	sample0	obj50	-1.7445887864720344	-1.0995363613669167	1.340590644290352	1.2427024054046534	-0.9036126442575932
id51	sample0	obj51	-1.4574136950403405	-1.27765617578902	1.2625266812132228	1.6220426492772606	-1.3439280460730667
id52	sample0	obj52	-1.2783026601459755	-0.7531880972920534	1.240600992547166	1.4879527101870789	-0.9670776540982723
id53	sample0	obj53	-1.1230598702378263	-1.0799336832653381	1.0847036165003419	1.4679213783906575	-1.2284105096569489
id54	sample0	obj54	-1.4500418648070754	-1.498618297102835	1.4921580510115573	1.3819326247441972	-1.289536402956627
id55	sample0	obj55	-1.4420705504557112	-1.1490260500926412	1.4315074994756953	1.5935923512511017	-1.367205319161046
id56	sample0	obj56	-1.219420260291285	-0.8196926513375146	1.4095610904175264	1.3245991212516848	-0.895136271974
id57	sample0	obj57	-1.371063747591219	-1.382422257644846	1.1572849551182984	1.6651178565616465	-0.6300415002285995
id58	sample0	obj58	-1.1219493610965443	-0.7752979340647557	1.4555989283610002	1.107979043960593	-1.2870197067129974
id59	sample0	obj59	-1.2340353294479827	-1.1726075785193455	1.3059078319697264	1.6755478735888643	-0.8349719947029782
id60	sample0	obj60	-1.6048429260049442	-0.9686791419476151	1.1080361730855937	1.2516160416395454	-0.73144670877687
id61	sample0	obj61	-1.1536315232180945	-1.1979763038854077	1.4784285339589258	1.6962973476911907	-0.9775607913225859
id62	sample0	obj62	-0.9836582248466962	-1.046420734728324	1.0248060735441828	1.1916863458971922	-0.7140965151347728
id63	sample0	obj63	-1.3285874887652673	-1.2467453765371592	1.0532141107910233	1.4844997847794776	-0.8837513172294484
id64	sample0	obj64	-1.318675419520829	-1.299215266225266	1.5453369804165735	1.26609319069368	-0.9135439238298293
id65	sample0	obj65	-1.7620928831787441	-1.1612469030988228	1.396376539029435	1.629662110725032	-1.0247697240698697
id66	sample0	obj66	-1.0903847944515928	-1.2857820032032286	1.4974705087227225	1.5011305204539638	-1.19237392856117
id67	sample0	obj67	-1.4638139801622416	-1.476696245767976	1.4948477523791484	1.6487271066206879	-1.2253871516985055
id68	sample0	obj68	-1.208921305823054	-1.4255165820484976	1.3364603525050143	1.3935882287502186	-1.13686754731224
id69	sample0	obj69	-1.0412703588094492	-1.4902511056470564	1.0639794342556992	1.6894315579992778	-0.8648324138370391
id70	sample0	obj70	-1.2227534533139264	-0.8046711010702053	1.2245726113014226	1.1954520283301977	-0.7816597306110564
id71	sample0	obj71	-1.1642333898717832	-1.3328957061040667	0.9260786055596284	1.6776285667469906	-1.3126161521405908
id72	sample0	obj72	-1.1974033545242588	-0.8150837557327735	0.9668391341337707	1.0466327975794905	-1.1362400887534048
id73	sample0	obj73	-1.0287821024988477	-0.7284031160600036	1.1258213528467615	1.2450245229301506	-1.3594956405801495
id74	sample0	obj74	-1.2154427577852018	-1.493695000392392	1.1505470106264004	1.664440911364946	-0.7856347597557761
id75	sample0	obj75	-1.265621096110945	-0.9103473951020361	1.2430185275812058	1.1995621590599899	-0.6967789161178471
id76	sample0	obj76	-1.6044790564048519	-1.1553062791582156	1.3930784266923637	1.1868029582743074	-1.1680774020702331
id77	sample0	obj77	-1.5302334327461837	-0.82985584520742	1.4827380356527051	1.4514622108322253	-1.0651347721806257
id78	sample0	obj78	-1.6303139374134548	-0.910256275182354	1.084746393074396	1.1794988681482246	-0.9379453784631617
id79	sample0	obj79	-1.4804108718654923	-0.7235106825497711	0.9673200610001762	1.1837178318037005	-1.1370446566822527
id80	sample0	obj80	-2.448510490484537	0.3474868404362077	-1.8268172092861343	0.8990488542861186	2.2263161989076936
id81	sample0	obj81	-2.1402565654218746	0.15786687345402067	-1.8227679156671692	0.3996865927655522	1.8140219188211304
id82	sample0	obj82	-2.4339814012308425	0.5843348550724807	-1.4022912453826148	0.964672927398439	1.5509321219573262
id83	sample0	obj83	-2.813632020557783	0.40933374686503193	-1.6879152994229507	0.5047181302404227	2.108498290965146
id84	sample0	obj84	-2.2259561587463823	0.46978463760161604	-1.5503784583895484	0.7854902007200705	2.0928560948611583
id85	sample0	obj85	-2.1652660432974717	0.3972024957636899	-1.4268675448975998	0.8340010141409956	1.8119784752156824
id86	sample0	obj86	-2.6856926690159195	0.4713690012355555	-1.2344247729486246	0.7949676972164524	2.102542941801403
id87	sample0	obj87	-2.585249835316774	0.4754953351521379	-1.837671768232899	0.8071534419768714	1.6763740656857355
id88	sample0	obj88	-2.440228895054172	0.0950099512935827	-1.6809480986567475	0.7903484039318183	1.598156716326006
id89	sample0	obj89	-2.266073924937207	0.22139657177338865	-1.1866819272323155	0.8983035159077655	2.002333904813647
id90	sample0	obj90	-2.603661838541687	0.42641682793141583	-1.2035217280825554	0.6336064295051256	1.9609886233468388
id91	sample0	obj91	-2.5770530897848296	0.7426118600823721	-1.7461776515278116	0.6317226005546399	2.1518405699675993
id92	sample0	obj92	-2.8770025112673796	0.3677183654143749	-1.828268130179144	0.8602459481158812	2.3345499100549008
id93	sample0	obj93	-2.368047517399937	0.41058880994072827	-1.2114624422612796	0.7653437709986692	1.5750900796150868
id94	sample0	obj94	-2.507539315888748	0.6839039806115991	-1.1780679343237552	0.8124721158992957	1.6753136732272678
id95	sample0	obj95	-2.3517719454269406	0.7564397529837302	-1.3166548537597478	0.5572095905380858	1.6437687211486476
id96	sample0	obj96	-2.2941114241851928	0.6994303871332762	-1.2655571530170118	0.45154388273071355	1.8226100864371726
id97	sample0	obj97	-2.4569538151715777	0.2546887860400874	-1.798855334412322	0.8106743067105373	2.2648727118697045
id98	sample0	obj98	-2.80516203308349	0.7361317716560434	-1.5129547781685637	0.8673990392694341	1.999711424350381
id99	sample0	obj99	-2.6625696554514757	0.6332463459565699	-1.565840295459652	0.7199669249393243	2.056247272662046
id100	sample0	obj100	-2.8319106062584716	0.3593518441764944	-1.259731257162059	0.49192401187151935	1.9276742114633882
id101	sample0	obj101	-2.116358073948594	-0.013704028236210086	-1.3029031940045226	0.9885027489863571	1.797053372911861
id102	sample0	obj102	-2.4294515004705235	0.19999853070559998	-1.2370976198555161	0.7355215085698765	2.028037077167501
id103	sample0	obj103	-2.708776273293778	0.13005900511247015	-1.6099317841470882	0.4681126172113707	1.9234010594292603
id104	sample0	obj104	-2.7040555072130292	0.7460023853147962	-1.5812633743523006	0.6049105000426699	1.8100042790937174
id105	sample0	obj105	-2.516535989837167	0.32968428091108315	-1.2902789666056707	1.0681396518041923	1.6214202837617637
id106	sample0	obj106	-2.5854192739075414	0.24744157050901128	-1.1253800886797936	0.4233746777480051	1.8822759093111348
id107	sample0	obj107	-2.8478231254418196	0.13879125981749396	-1.6184537836943949	0.709135306544167	1.5770705826565639
id108	sample0	obj108	-2.7780767591555557	0.15537730910296652	-1.753056541335206	0.46295598899866497	2.299217381423309
id109	sample0	obj109	-2.8142745371931235	0.2314760281582976	-1.494127394162204	0.6466671650391937	2.274022956888058
id110	sample0	obj110	-2.11665485648006	0.7152250246308947	-1.314299800349741	0.711372145522315	1.7455915161838527
id111	sample0	obj111	-2.222753773871382	0.5698709734349575	-1.3454182285026006	0.7665325946245798	2.087977937434336
id112	sample0	obj112	-2.8551250350369513	0.26126756743570023	-1.3977056152042595	0.7347171087260894	1.58360841357161
id113	sample0	obj113	-2.722936622635836	0.4386304010395928	-1.2748887168642449	0.45345335607086756	2.307815616535235
id114	sample0	obj114	-2.600670920323069	0.2096982679847702	-1.3206900176390812	0.46028570338955815	2.0305791149550902
id115	sample0	obj115	-2.1646859506013656	-0.009004789347605957	-1.247155084791842	0.9611076073179879	2.0210040775977793
id116	sample0	obj116	-2.458260545218858	0.5233628292275508	-1.8425228129188682	0.8921444831959667	2.3049903220725887
id117	sample0	obj117	-2.8121641375844906	-0.010628701591583523	-1.697480081616414	1.0621371583600787	1.7327245664180722
id118	sample0	obj118	-2.682481172230754	0.3221500513679184	-1.3228926785988293	0.6853518154200737	1.6733490189282663
id119	sample0	obj119	-2.829599802206496	0.18663741313194365	-1.7961880139798843	0.7325486665790776	1.845202403366991
id120	sample0	obj120	-2.3386627506343984	0.13876300510473705	-1.3417018242490166	0.9430122033659311	1.549676808523042
id121	sample0	obj121	-2.696595001963841	0.0826797134951211	-1.3342090748049782	0.9257091735400051	2.305764259333037
id122	sample0	obj122	-2.5557853969739046	0.07038337686672236	-1.763757486436002	0.9636302746875318	2.144064986909265
id123	sample0	obj123	-2.728827123493368	0.6039311749805211	-1.2005298464119438	0.7169173185075783	2.039173624501767
id124	sample0	obj124	-2.709134664040086	0.15252274290717194	-1.6749956974011302	0.7545117428918638	1.8262328800635652
id125	sample0	obj125	-2.6729686562580843	0.39197550887039895	-1.1027948669552732	0.6503130201036877	2.011827243449345
id126	sample0	obj126	-2.5011370556503456	0.4821361201395262	-1.3348421694185075	0.34023963777359617	1.7645629538898024
id127	sample0	obj127	-2.612617031425908	0.6505562834231741	-1.13777299987823	0.5956694419240167	1.9324270573425453
id128	sample0	obj128	-2.814277443019684	0.14285422932340683	-1.282283216764224	0.433535235384237	2.1206177352563964
id129	sample0	obj129	-2.1649952428925796	0.28861364818115637	-1.2488716909536426	0.6233925207975024	2.075772948445849
id130	sample0	obj130	-2.390468300813567	0.23597215822476425	-1.20118895658072	0.6990946974193355	1.9236745317720965
id131	sample0	obj131	-2.166152526048092	0.01025145326666832	-1.1133498194033113	0.7318345820533227	1.7233531475403208
id132	sample0	obj132	-2.2467096283555694	0.09661323064982974	-1.8933992521746297	0.6292733688106387	1.9193453471323823
id133	sample0	obj133	-2.535363631496381	0.04081992866381662	-1.382349849365073	0.9118094754473797	1.846440301482061
id134	sample0	obj134	-2.4673473625119056	0.275268491679014	-1.5260522524193625	0.3637709583522176	2.1808807924088347
id135	sample0	obj135	-2.5773934431341767	0.1415791999995247	-1.8523378356530324	0.6089785495959877	2.314432382807408
id136	sample0	obj136	-2.6187063797609764	0.6906932013573334	-1.8126034117081868	1.023752595342538	1.6912875597968267
id137	sample0	obj137	-2.4242628793346883	0.4536911064481989	-1.477008978481236	0.545557245761988	1.8932091302090144
id138	sample0	obj138	-2.312343423283416	0.310922827629969	-1.754952323896094	0.2941208935628964	2.2489210256685475
id139	sample0	obj139	-2.2361204300886737	0.7255675125736593	-1.1341850197709888	0.8885741615537024	1.8053055007407097
id140	sample0	obj140	-2.3986337003583835	0.19495278088698045	-1.6170627098563068	1.0759368824454427	1.9187448398292843
id141	sample0	obj141	-2.3737925616060096	0.41588452422207556	-1.542698830195221	0.7026949405629591	2.2557354322152334
id142	sample0	obj142	-2.7028738229899756	0.7284069396955135	-1.5184304299712592	0.6442673334908172	1.8459816688957529
id143	sample0	obj143	-2.2235551816054326	0.2278536932278154	-1.2797297876112421	0.9014051819705701	2.084330030879606
id144	sample0	obj144	-2.321552495257932	0.012301322583485153	-1.4287226367389732	0.8850188286802603	2.168409540590312
id145	sample0	obj145	-2.497636628458249	0.018622127309090297	-1.4795225794795028	0.5111273743421882	2.1874855336786347
id146	sample0	obj146	-2.8769088247845747	0.4147908137561641	-1.21287984339686	0.8475986998277396	1.6080902137248196
id147	sample0	obj147	-2.8519318586708184	0.3409548763863242	-1.6998911232420382	0.38862849988936454	1.559248213140813
id148	sample0	obj148	-2.5833676046327487	0.6715677215438568	-1.5189421077529728	1.0385253521336226	1.8928467908679174
id149	sample0	obj149	-2.3553760505650496	0.31263404329524586	-1.6233772807937283	0.7828557366079032	2.333693841110355
id150	sample0	obj150	-2.3099086102418704	0.421362412734437	-1.1188282367164635	0.5943912397028763	2.0523392448936555
id151	sample0	obj151	-2.7133945757529387	0.6722907310840663	-1.7154035091221054	0.9081195132769596	2.2675911470179244
id152	sample0	obj152	-2.4278967341311066	0.6887774654318538	-1.8052668998456103	0.5108627332217334	1.6531178719371773
id153	sample0	obj153	-2.390815047207277	0.5686664860868922	-1.8922270116802036	0.7963238886195609	1.6843697752054638
id154	sample0	obj154	-2.3143678839575714	0.3774681110916555	-1.7160461027372875	0.8676832282587197	1.7815655421859202
id155	sample0	obj155	-2.697596124140962	0.6435829960418559	-1.8569717646033923	0.9217256906532894	2.2074443865414537
id156	sample0	obj156	-2.136234369378114	0.5124627399216908	-1.199716976326159	0.6779261065366727	2.0531713434773873
id157	sample0	obj157	-2.8936960096893785	0.507179213179605	-1.2424833566759916	0.6424854216685916	1.8429781794145021
id158	sample0	obj158	-2.571342797369973	0.3711989123375906	-1.254856520489639	0.403026086764998	1.9211092630571935
id159	sample0	obj159	-2.837372941446224	0.16725702401757134	-1.2552209033548003	0.37905333282214926	2.329199734059195
id160	sample0	obj160	0.9406617557961419	-1.9192047547757805	0.42534959001684003	-3.0114143315139303	-1.3395401295210132
id161	sample0	obj161	0.7242690100140734	-1.5249783878090537	0.648443627301659	-2.474596407590893	-1.464747785904402
id162	sample0	obj162	0.665111852619352	-1.8752883514594954	0.3502909237204071	-2.7870754406579707	-1.6378884291604883
id163	sample0	obj163	0.526576060629619	-1.8223655572215343	0.6634960115590196	-3.1114003184996064	-1.3872481899271367
id164	sample0	obj164	0.8861030692009988	-2.066819377384602	0.3345497382403113	-2.492448575515291	-1.2995918101888508
id165	sample0	obj165	0.9689923663593485	-1.6382729535211231	0.6041777476604017	-2.718113870384557	-1.0042369002007354
id166	sample0	obj166	0.5705371497589637	-2.093175550322281	0.4857358295728349	-3.1095317675020744	-1.1010243817960637
id167	sample0	obj167	0.7919485333761211	-2.090443358507422	0.20618593708845878	-2.759267456434018	-1.2322357649500622
id168	sample0	obj168	0.9758547074423458	-1.6255960541266867	0.630268095971686	-3.0769509437709437	-1.2271432786160754
id169	sample0	obj169	1.18656293714759	-1.7964858563830026	0.8662948951770745	-2.636412670270205	-1.0696277385736543
id170	sample0	obj170	1.177028860730068	-1.819024364760599	0.5023146656677351	-2.8144136582689576	-0.9908840056879251
id171	sample0	obj171	0.8193683329399477	-1.6274723454482856	0.8575021576172208	-2.574050406521714	-1.0448695540400652
id172	sample0	obj172	0.5120532801515416	-1.7363343119653223	0.7313178481324666	-2.618811390231943	-1.1955603259886078
id173	sample0	obj173	0.6404377134827439	-2.3026649750116572	0.1305155890093555	-2.9065407113102464	-0.8814761252555681
id174	sample0	obj174	0.546242149170529	-1.9391142679506337	0.15224924115243982	-2.8841918067500765	-1.211045186279364
id175	sample0	obj175	0.7068672334193591	-1.8572835395407634	0.2636176152528382	-2.5397007435052537	-0.9064124143755293
id176	sample0	obj176	0.6501904608356648	-2.073402864420554	0.569771968872115	-2.8595415760313485	-0.9149777239205322
id177	sample0	obj177	0.5106057800319062	-2.0269407980078364	0.692474255069995	-2.5600153900870417	-1.0464971277153328
id178	sample0	obj178	0.9057746753893436	-2.027988688240178	0.239517882443693	-2.6950388608983316	-1.6057102716765872
id179	sample0	obj179	0.4816513617150079	-2.279092487825834	0.44598722483992387	-2.6386042773325182	-1.0503917209858988
id180	sample0	obj180	0.599104718296848	-2.2671050523344007	0.38671901974380735	-2.5391535192375514	-1.0241777998595465
id181	sample0	obj181	0.6446663058867826	-1.583567267077333	0.8338192478251293	-2.82630729797497	-1.6417164648895062
id182	sample0	obj182	1.2288700693839067	-1.8385694561724442	0.2644638712339139	-2.735691490877531	-1.3273415021710107
id183	sample0	obj183	1.239094244146766	-1.850960994946262	0.8757535845988937	-2.7604700138410596	-1.4518044980403602
id184	sample0	obj184	0.9530529216094253	-1.9326363712418806	0.3608802261888862	-3.1315990269522387	-1.6363262644265102
id185	sample0	obj185	0.6698928966681265	-2.079398146336596	0.5325803372692647	-2.603228259888351	-1.1985731829492523
id186	sample0	obj186	1.1165141017248927	-1.916050807917561	0.7965774937501766	-2.743060708885824	-1.4378412123477307
id187	sample0	obj187	0.8380287037197324	-2.2368819446950576	0.19273277583054732	-3.2053110684966106	-1.4709612440744058
id188	sample0	obj188	0.5464871252928518	-1.890008490744959	0.7107129072549183	-3.1391444693771096	-1.647940662053963
id189	sample0	obj189	0.7069093023317823	-1.568174022809326	0.38842903178988736	-2.638598694557493	-1.64634841191929
id190	sample0	obj190	0.872548341876417	-1.819947533793132	0.11607701013903354	-3.088965004847573	-1.3526520743270294
id191	sample0	obj191	1.092962645711423	-2.151862177480765	0.159605045724519	-2.764892212764219	-1.3113435192805336
id192	sample0	obj192	0.622161438986999	-1.7593152888736017	0.710625217243196	-3.080056191590827	-1.32046605036881
id193	sample0	obj193	1.1256013946686982	-1.544994825563717	0.2534561450196302	-2.507569206879336	-1.6742954068756963
id194	sample0	obj194	0.462426394522602	-2.2386724536214597	0.46491347436082464	-2.6523616816320006	-1.1371521589474671
id195	sample0	obj195	1.2038435338137896	-2.2393783275505315	0.8419358974665092	-3.1670192780729765	-1.2508500381440093
id196	sample0	obj196	0.7031939127585235	-1.7157156227356583	0.8619272444082647	-3.103971462406809	-1.6438333094863662
id197	sample0	obj197	0.9838905818110029	-2.015352831406281	0.25909224560985555	-3.069971510643786	-1.5718455976319903
id198	sample0	obj198	1.0462377359263222	-1.8810181711931575	0.24782434987826737	-3.0114512221139798	-1.4647200178723117
id199	sample0	obj199	1.1639968508020437	-2.1155808426967435	0.20465192272654553	-2.867045293648137	-1.6058065799289847
id200	sample0	obj200	1.1597085390402408	-1.5885078160374986	0.6591434075239244	-2.969329904385925	-0.9913746687795657
id201	sample0	obj201	0.5899934604876894	-1.873101288960968	0.7297954993514821	-2.8920736935101043	-1.6062660234937767
id202	sample0	obj202	0.9766241514842829	-2.228918271703349	0.7240609409299343	-2.9900296127795367	-1.6458446170720313
id203	sample0	obj203	0.686863244636034	-2.2146209531974974	0.31559693052550664	-2.9709686129739143	-1.387114525861011
id204	sample0	obj204	0.4606823678973101	-2.2886710914166013	0.5923112133196794	-2.7172406560421125	-1.375471798646347
id205	sample0	obj205	1.0287927481722459	-1.921733551563477	0.8741321551467217	-2.5171146304716885	-1.3971427041379043
id206	sample0	obj206	0.7522136832553892	-1.8358624912371966	0.7304146502385258	-2.592463831700701	-1.537655187573925
id207	sample0	obj207	0.9921596241638331	-2.0694757113887965	0.14679309499234677	-3.074497565414283	-1.407913019606623
id208	sample0	obj208	0.901622592243119	-1.5492486361052613	0.4258912381160469	-2.9761598109638587	-1.2133112157715578
id209	sample0	obj209	0.8929446952168909	-2.073347773313437	0.3438745478458893	-3.068992897430085	-1.1470653887615332
id210	sample0	obj210	1.2171972614800222	-1.6553416241778889	0.3761671485096519	-3.1616653242543786	-0.9432460563897272
id211	sample0	obj211	0.9920890066611786	-1.6626460653140684	0.7640321455279176	-3.00245714405504	-1.4021298758006502
id212	sample0	obj212	0.7986988440777167	-2.1629476182735816	0.3949136768045272	-2.8317536411895343	-0.9121222599994302
id213	sample0	obj213	1.0593477389739299	-1.659672148121313	0.7517418515715573	-3.073484877867747	-1.3878883716477415
id214	sample0	obj214	1.0976727679346423	-1.8836963101836162	0.45058924603384476	-3.194436465793614	-1.1101713625797214
id215	sample0	obj215	1.2182241727601635	-1.8811030580465742	0.09542164971337108	-3.0329122841758474	-1.3132961080521734
id216	sample0	obj216	0.9399554928065763	-1.9013308842941656	0.15898592314952925	-2.5963222151246343	-0.9832723138269254
id217	sample0	obj217	0.5515974629082052	-1.9895257043694734	0.4384081287186719	-2.7813670506520376	-0.9019424407838078
id218	sample0	obj218	0.96538185415095	-1.8017453533578485	0.4836136769172715	-2.648565245917978	-1.5374847034828056
id219	sample0	obj219	1.029690294589159	-1.5098569194349745	0.26951140651857475	-2.990383154008544	-1.5129991356146795
id220	sample0	obj220	0.4842289900172074	-2.0999755291069286	0.15478663780687724	-2.6121586848807943	-0.9945945643572509
id221	sample0	obj221	1.1290528551592676	-2.087089605221945	0.7794032956830925	-2.677817849334345	-1.077573166239211
id222	sample0	obj222	0.9194641610161215	-1.8995683530291496	0.20030667566083477	-2.7760427742003255	-1.1006986816361537
id223	sample0	obj223	1.2432711933262426	-1.5985243504838782	0.3136249345834151	-2.7925270419927735	-1.3083497249257272
id224	sample0	obj224	0.8983953795969436	-2.0939732070171178	0.5876712269919562	-2.6232189665734698	-1.0703231515773224
id225	sample0	obj225	0.8431391143316438	-1.5453640685301884	0.12253129420720121	-2.6624735624163938	-1.5583801240627853
id226	sample0	obj226	1.0768542806647496	-1.7688174464184117	0.5097633956805905	-2.71677903871198	-1.1040394033743806
id227	sample0	obj227	0.5260645409997255	-2.235268820763824	0.8030209241158077	-2.834662196620103	-1.297837468901706
id228	sample0	obj228	0.7235728685578166	-1.6881472618561364	0.7030134312131353	-2.8494771778651065	-1.0480107941822148
id229	sample0	obj229	1.0015114545695614	-1.8291857669624596	0.4464311907229378	-2.5845136589871527	-1.445532494864188
id230	sample0	obj230	0.561946125060399	-2.2469335565375896	0.36905217465892354	-2.687191582768706	-1.2693708817504614
id231	sample0	obj231	0.49131093095895534	-2.1624888273951126	0.8515099054001908	-3.1965083759311477	-1.3349500688092568
id232	sample0	obj232	0.9609043569146551	-1.646361669008026	0.377908394038363	-2.8983413357535075	-1.0018036354824775
id233	sample0	obj233	0.7807054616781899	-1.962180768659901	0.8309056654343785	-3.017150348948909	-0.9125357699298063
id234	sample0	obj234	0.48615002429600895	-1.6976418204280648	0.46283259499151513	-2.598042239176766	-1.0711643411241307
id235	sample0	obj235	1.0380216490513647	-1.8686293472719884	0.8341508892114978	-2.8555191468522665	-1.6589312275594013
id236	sample0	obj236	1.0675452332543691	-1.5842967907451508	0.6738620593221821	-2.4475049590340556	-1.041448847652195
id237	sample0	obj237	1.1278987444105226	-1.9320281591887656	0.8296420115133003	-2.5558975536196398	-1.091824568924347
id238	sample0	obj238	0.6079673322598836	-1.7121012990199613	0.839272338259079	-3.1358969986734677	-1.0268875608344143
id239	sample0	obj239	0.47503035007077254	-1.7904911866925521	0.43265319040513156	-3.0911811503921034	-0.9520522583134091
id240	sample0	obj240	-0.6843329447959523	-1.7539069976278217	2.6372124221326247	-1.377947378408847	0.23043028411896382
id241	sample0	obj241	0.34399016075086764	-2.845813148792133	0.834084820444907	-1.1162658452817769	-1.2957279225436664
id242	sample0	obj242	0.5782700497381724	2.9328861840741407	2.6360910377561275	1.3699610687838746	-2.7512451090167946
id243	sample0	obj243	1.3854588042106681	1.6672488899272384	0.1394171346044014	1.6554708554914361	0.6958723350888723
id244	sample0	obj244	0.7628201125160052	-1.314272965360072	1.28867156384342	0.5684968833724455	2.434174341387656
id245	sample0	obj245	0.989736978353536	2.4052149504230558	1.2242629424209392	-2.4021701988981943	-2.263932971394439
id246	sample0	obj246	2.4427135428821067	-0.7034222969487556	-1.9471816749625053	-2.813068491873276	-0.3735389267099102
id247	sample0	obj247	-1.408507341633638	-2.266215516035898	-0.3419767728515942	-0.8816952362815527	-2.809310554585382
id248	sample0	obj248	2.202899476365313	2.667585315604192	1.7558872258481153	-1.2495225867954138	1.8944402633435529
id249	sample0	obj249	-2.576640518260919	-1.0779307028116465	-2.6160116604119135	-3.1284575510896193	-2.494911740882774
id250	sample0	obj250	-1.9458764824781465	3.1578326328552917	1.49174585022802	0.8720813519216135	0.45891649488324837
id251	sample0	obj251	2.2661791425369477	-0.041854542681909246	-0.7513638977103688	0.6467782640948249	0.09405789031406586
id252	sample0	obj252	-2.9142213200857334	2.2289612158148815	0.5236963883079334	2.529292583565838	1.7508285714150396
id253	sample0	obj253	-0.9960226576955085	2.0910780102498467	-2.8006445490422944	1.5168537648916416	0.3602028539921413
id254	sample0	obj254	2.563719121304163	-1.4681606328668422	-1.1143709010706457	0.5372114299222377	2.537740223661375
id255	sample0	obj255	-1.691982414902164	1.275079145298633	-1.5245562677342106	1.1786064515929005	-1.468355025109941
id256	sample0	obj256	-3.024883850913333	2.0700090539249354	0.7091744222795895	-2.5796386356141934	0.6937303284157488
id257	sample0	obj257	-2.180872995760792	-1.7747411440657905	-0.690184968624594	-2.1526759657135606	2.495219606033176
id258	sample0	obj258	0.9088975612350089	3.210143138629503	-0.8484862436672086	3.052933679566979	-2.406885110682606
id259	sample0	obj259	-1.2936637543378804	1.0596114258280334	-2.041997694567189	-3.097065268582683	-0.38306230464500834
id260	sample0	obj260	-1.57067070123541	-0.07613134907479113	-2.3826017151418304	-1.4243499867835485	2.0064911353236505
id261	sample0	obj261	-1.7773759179825495	-2.659777514899962	-0.13457259593897666	-0.26679722450265997	-1.4050664641560378
id262	sample0	obj262	-1.9251070945044568	1.458951535920904	2.3516075097358518	2.9471553909273194	-0.07108949601645209
id263	sample0	obj263	-0.39360161789385006	-1.7887517261372516	1.3434640453922955	-1.5787814413741308	1.970058622795127
id264	sample0	obj264	0.4491067787988082	-2.04778836007897	-1.7523967707472106	0.46829711556456377	3.066336969943413
id265	sample0	obj265	1.822682006293134	2.066291842166372	-2.4992996431751706	1.0539567881747414	1.5956259067514695
id266	sample0	obj266	-1.7501389419475064	0.4940163623288961	0.028795555058240385	1.9300593628726461	2.4709958587314302
id267	sample0	obj267	1.2144946507180112	-2.6010640444845277	2.3004484224188637	-2.2100757011601395	3.091741273043131
id268	sample0	obj268	0.9259927744437462	-2.0015023431970396	-1.2038165772053857	1.362701394368306	-1.496949858311745
id269	sample0	obj269	-0.36246321785261193	1.5641848836171837	-0.39738883204425157	2.752473622281132	2.713594116921915
id270	sample0	obj270	1.0022583577686284	-0.6303468493604127	0.4169602043659628	2.9684943129028887	-1.4091900286742587
id271	sample0	obj271	1.7561670020329487	-0.2965384168801591	-0.10756827115514012	2.5780242437941787	-1.239311366764857
id272	sample0	obj272	2.055875453521238	-0.09259999906700761	0.3010291347357906	0.04825774435774277	-2.018822003883719
id273	sample0	obj273	1.0432490161371788	-1.8090986651891907	-3.323414685834036	2.143249443967558	-1.2597880824162733
id274	sample0	obj274	2.5699305352506205	-2.223120414014436	1.055556835681386	-2.8911426362112636	-1.7356853539082047
id275	sample0	obj275	-1.2106163141874469	1.804524234563964	-1.704050977947783	-1.9484485959406612	-2.5512873644706597
id276	sample0	obj276	-0.22699602609021552	-2.2424681274334626	0.4322421138743913	1.872350299623283	1.700855783615841
id277	sample0	obj277	-0.2917264636273217	0.7042573109904513	0.20287573909547751	0.937414254539968	2.909438995699142
id278	sample0	obj278	1.2733766014473509	-2.2344213733416622	-0.4702971242954086	1.586227656393186	-1.9130066883749506
id279	sample0	obj279	0.32565697995257237	2.1327507940267916	0.09882757143525944	2.1392808060496122	1.2367233831479412
id280	sample0	obj280	-1.88553812859144	-1.8442229904306275	1.857319515356152	-0.2718686453541236	2.004120947581211
id281	sample0	obj281	1.9418130089750085	0.19880001968936178	1.6269573030601707	-0.9795041645013076	-1.9863771610476932
id282	sample0	obj282	1.1511965201059826	-1.6119873641543596	2.81132479529585	-1.8413221424724249	-0.21139058595217142
id283	sample0	obj283	-0.1742360186368727	-1.1575191863023684	1.1460893760561517	-1.8621004848875677	0.0658082050757548
id284	sample0	obj284	0.8418147553778047	-0.694801509602297	0.994438384043149	0.13503868750865144	-0.8721073398001331
id285	sample0	obj285	-2.0221107551286472	-2.2673597536700125	2.0412259672996917	-3.0456299705137755	0.675856762987004
id286	sample0	obj286	-2.0362194475854936	1.7059386538567898	2.19371299134374	-1.7306364709721942	-0.4230139507656635
id287	sample0	obj287	-1.1870920396720668	1.459188969124294	0.6960836467804803	3.1818218958574747	1.9713138123358753
id288	sample0	obj288	-0.7740474592838226	0.5846747137577721	1.7155263022865999	-2.7050761298460566	-2.838412166046658
id289	sample0	obj289	-1.9255071474702987	2.134030281108311	0.8914607435574403	2.6728920518928256	-2.2179192300390467
id290	sample0	obj290	1.1218443390342	0.9109922095842867	-2.708874912474913	0.5651627290134791	0.8881122398923083
id291	sample0	obj291	-2.6151773052562177	-2.7840380330305208	1.9068342398521838	-1.6678925703084713	-0.17598468647446963
id292	sample0	obj292	-0.957058407966705	-1.3329213449194717	-1.3286561718341958	-1.3859123351886746	0.6466426409221279
id293	sample0	obj293	-1.0729123486260177	2.7683165529507034	-0.7198210948620456	-1.49875051802819	0.4335319937331487
id294	sample0	obj294	-1.7305405850860816	1.8779340757397631	0.6168791675651538	-2.710689545637058	1.9304310135629068
id295	sample0	obj295	0.7075024817998093	2.8164935735703773	2.392504276631556	-0.0692667076727681	-0.9588698769008566
id296	sample0	obj296	2.732994923644153	1.353994300806888	-0.016141896933354327	1.6514400131459044	0.5970039010768838
id297	sample0	obj297	0.9781754339704967	3.1001908153352344	-2.4598085496397513	-0.9478723372633294	-2.1999238936303787
id298	sample0	obj298	0.9867798604818494	-0.09722550893811299	0.6576723056894702	-1.6833580833686541	1.184209844271475
id299	sample0	obj299	-2.1630953647394615	1.847607761190517	-1.6276938148870326	1.6207709212992367	-1.2688977945790165
id300	sample0	obj300	-2.8585253486478495	0.31863032769874067	-2.113273030553943	-0.8145772276731246	-0.1760490893250215
id301	sample0	obj301	2.5495406722109952	2.702959874072353	2.5153280170517647	-0.4626802501391946	-2.662630700468917
id302	sample0	obj302	1.5757048221569447	-0.727291381668434	-1.0713401685373831	-2.086266417828021	-0.4475589081212934
id303	sample0	obj303	1.9411472784340114	-1.0876329559185378	1.1791054781965935	1.3498116254690802	0.3997594613069231
id304	sample0	obj304	2.4901270350721156	-0.3752335660484031	2.4927656765535513	1.687257191882043	0.9154086986021592
id305	sample0	obj305	0.33122353112887665	-2.4541456636824774	1.811484863330723	-2.8185347405474603	2.575726266140264
id306	sample0	obj306	0.15227450717337288	2.67222428457964	0.4231246623682313	-2.3175987197751042	-2.442233211452666
id307	sample0	obj307	-0.615602581608263	1.365369575211782	0.40238788214742544	-1.046713027117055	-1.5283855203568633
id308	sample0	obj308	1.4185564831956605	2.6282388009391844	1.4278116742760878	2.5454988626342505	-1.9507931936133287
id309	sample0	obj309	0.8311871496915397	-1.4678109430438462	2.9698090021700985	-3.0648531938232186	2.295989110595816
id310	sample0	obj310	-2.10736773886335	-1.350341828758891	-1.237636199318977	1.1836861705336377	0.6404706984461617
id311	sample0	obj311	1.9848130115699214	-1.6951126302841928	-2.289816819948867	-1.643879875573336	2.6687533558744696
id312	sample0	obj312	0.09023529181030163	-1.5313565116414927	0.19345078836448448	1.7068038897541888	-0.38846407384332526
id313	sample0	obj313	0.32206835558221786	-2.8345118648729666	-2.1349872840433872	0.15761845050475393	-1.4223869655348034
id314	sample0	obj314	1.8649416981760347	0.0509057953600196	2.005718116692694	-0.959367725415045	2.435623462952931
id315	sample0	obj315	1.2725785366622508	-2.987958337815644	1.8269595040753925	-0.3645506088773933	-0.25907178196949804
id316	sample0	obj316	-1.9258536936305548	-1.5773944779940128	1.6066158531470376	2.380234969973339	-1.2538468710159112
id317	sample0	obj317	-1.5836764042251694	2.087483060347309	-2.554519863101467	1.3749913442054336	2.7366106089740416
id318	sample0	obj318	-0.572310183802088	2.0719059115835163	-0.702535395903485	-0.11816931475024928	-2.306981259648974
id319	sample0	obj319	-1.0497568796875298	-1.0747390276326696	2.2394234044059935	0.9539532895160582	0.7541400161770484
id320	sample0	obj320	1.5924522680529414	0.7161386691487436	-0.4878863178724485	2.297353891223859	-1.3233204382428274
id321	sample0	obj321	-0.5414983783607497	-2.138810132946908	2.0079994497064657	-3.1822563976190037	0.7659127214457755
id322	sample0	obj322	-1.5146446938067453	2.588946158173944	-2.4934099208218683	-2.4861231148944007	-1.9484192370018225
id323	sample0	obj323	-0.40375987531474844	0.09881307715476118	0.959585039902852	-0.8973889159993802	2.121173266595635
id324	sample0	obj324	-0.23361995940999303	1.1822879757433815	-0.22531499133956256	-2.272227782741369	0.9236360393743996
id325	sample0	obj325	-1.9567004081673267	-2.635933671745647	-1.661371513809446	0.8019729901056778	-3.251868178834548
id326	sample0	obj326	-1.6345332110575332	-1.1042425226629948	3.15726162889035	-0.20043887521854364	2.390473498529567
id327	sample0	obj327	-0.44635333257394527	1.3172498693640073	2.894367206701057	0.8835239400922212	0.5962119601209774
id328	sample0	obj328	-2.303192075460769	0.8014207042145439	1.1302493160930793	-2.9802483819348025	2.5796553346018016
id329	sample0	obj329	1.3504774220951656	0.7105513440875085	-1.1476288828137937	0.1418550497267691	-2.969369775342536
id330	sample0	obj330	-3.283373963298668	-2.09121506948875	0.6521053973321107	1.4697806013029342	-2.2478143610879693
id331	sample0	obj331	1.1099016869459226	2.623149293277717	0.8534591325096635	1.4177231448721725	1.3568402645980848
id332	sample0	obj332	-0.017160116922833202	-3.1247956970529636	0.211530064191142	2.467868429620888	0.010607210523160493
id333	sample0	obj333	-2.7673697534486927	2.740078903140474	-1.071985417382959	0.2663158916014743	2.1352211206923917
id334	sample0	obj334	-2.9748862090769723	-2.703051828029566	-2.9427990783209474	-0.4891609046859859	2.468415974347245
id335	sample0	obj335	-1.7006145575007379	-1.2364128147624998	0.1720420354755562	0.07968375823242801	0.0604042243945071
id336	sample0	obj336	-1.5890541908441949	2.361479937792145	-2.2386930284061717	-1.1953215284144254	-0.882827681023162
id337	sample0	obj337	0.2992380107918469	-1.8140369386285409	-0.63935000764362	1.9609787596111266	-1.3802491827600174
id338	sample0	obj338	-1.6917548747727924	-0.350377985817549	-1.453000387394559	-0.15503522214984733	-3.0823719940712255
id339	sample0	obj339	1.5494247032156656	2.371318151132907	2.3324264792645373	1.7395652776266413	0.38788075351015405
id340	sample0	obj340	-1.5609536248458749	-0.6640866409576827	-0.8929145322663858	-0.8292602631652178	1.0206919089323254
id341	sample0	obj341	-0.18966287094601714	-0.9176572930296072	-1.9569303688263804	1.866987215878586	-0.5837682567813092
id342	sample0	obj342	2.865688902204106	-0.88350573586669	1.599166616168855	-2.639443727680851	-1.4963102848031877
id343	sample0	obj343	-0.25853181251786106	-1.8303089867962374	1.6385738681052238	-0.06400912735492098	1.2770718444596987
id344	sample0	obj344	-2.0457826773709904	0.047476517303373766	1.3940233918461913	-2.5627265334891707	-0.07107468819818175
id345	sample0	obj345	2.6255743241940306	0.7706713263770779	1.8384065131351837	-0.9586447508343133	-1.8598797141478374
id346	sample0	obj346	-0.7444904900140445	-1.264624295189836	0.7836480464205537	-1.6501678845218342	1.9680632091449115
id347	sample0	obj347	-0.3271590790487492	-1.47412848815272	-1.2701120585036796	3.1064789489152576	1.5981168251372826
id348	sample0	obj348	0.19948273774013425	-1.4015156976384149	-0.741502736237645	0.03816405889987751	2.5916346626945064
id349	sample0	obj349	0.1493330565443977	2.634038325772835	-1.0799449535357173	2.8190432116036988	1.297751606742294
id350	sample0	obj350	-0.09025981607829969	-1.0910385598924994	1.7070578028118915	0.6752359073355727	-0.36644720970753764
id351	sample0	obj351	-0.4193339341343747	-2.925007956533523	-0.8844105720068131	-2.130563935270607	1.2379829972369767
id352	sample0	obj352	1.944466771916347	-0.8939158460143599	0.3727444241496475	-0.9870778738145187	0.572722266888275
id353	sample0	obj353	1.7700362092644524	-0.5830995935307981	1.2310806034152497	0.31500428288349436	-0.586131375061819
id354	sample0	obj354	2.0148404302346963	1.5989646891038594	-0.4472226818509445	1.712117424998868	-2.5743290013491458
id355	sample0	obj355	-1.8717929455056719	-1.5016044968472606	-2.0315953415414714	-1.0190850738884911	-0.7632297421624618
id356	sample0	obj356	-2.883532136714247	-2.5092328228418057	1.8015551040606168	1.9696569568084645	-0.45506420694392646
id357	sample0	obj357	-0.48834054355776524	1.8796014760868114	-0.6460001922678054	0.3649915161078715	1.4586026054424917
id358	sample0	obj358	-1.5445614372653182	-2.824036713584171	-2.101039143722406	-1.4961146720970602	0.3282230742749681
id359	sample0	obj359	1.4550601574225417	-1.9378147818367095	2.1362249637105406	1.581141847509435	2.1573370811492727
id360	sample1	obj0	-1.4700848850436903	-1.2111369302661648	1.0954121361165297	1.3033827351109957	-1.0151429740667575
id361	sample1	obj1	-1.5409244868589602	-1.342569464620548	0.8911020207039753	1.6300784966170618	-1.0040211813064865
id362	sample1	obj2	-1.4685722484501995	-0.8018891537872018	1.3922680221336399	1.4305000075833232	-1.0938062258962384
id363	sample1	obj3	-1.3946626633745323	-1.2548775060251138	1.1796108154115368	1.4456178711202905	-1.2922874521284295
id364	sample1	obj4	-1.4487690560602147	-0.747202858010768	1.0553719431378745	1.4545146425932942	-0.776921200548289
id365	sample1	obj5	-1.542324238198194	-0.7799765667754267	1.0467521829004753	1.282576703663549	-1.1274342880596429
id366	sample1	obj6	-1.1210695042601024	-1.387509154329584	0.8220407215572059	0.9591529530608868	-0.9546259573820406
id367	sample1	obj7	-1.1177067803491583	-1.0821453876072682	1.4158077120102024	1.4042983784280754	-0.8426968552894298
id368	sample1	obj8	-1.4593172872518596	-0.7764407547588787	1.4146429488811232	1.1456839644880872	-0.6235047345676635
id369	sample1	obj9	-1.2740966763633	-1.1087829309935326	1.0368597583177865	1.52791436538869	-0.7090045179821356
id370	sample1	obj10	-1.464512249849868	-0.8090815035208634	1.3053579191741054	1.0656336629857248	-0.7532450099614361
id371	sample1	obj11	-1.6620807309935468	-1.0080649711999348	1.1819830129491216	1.059698454020091	-0.9656329028504864
id372	sample1	obj12	-1.6830633865696387	-1.416255312766032	0.8862637864628895	1.6556361183799382	-1.0582069754501093
id373	sample1	obj13	-1.6324483517800696	-1.1135554534886758	1.2058846678223258	1.3513692763864569	-0.8243596281647576
id374	sample1	obj14	-1.3611067938206416	-1.2718026228741899	1.5276893349236897	1.3950516026780229	-1.2952679044064748
id375	sample1	obj15	-1.1109376585775195	-0.7923303832642331	1.0459437399207652	1.4546111015646566	-0.7212207328596746
id376	sample1	obj16	-0.9656258033414604	-1.0277612236334983	1.3710454209733371	1.3515126383726528	-1.3335225113615357
id377	sample1	obj17	-1.4782967799118554	-1.0586403476054176	1.3613805835433386	1.3581151118570822	-1.2516829093352277
id378	sample1	obj18	-1.127329387367943	-0.9353375722042021	0.9906328423827195	1.4490905302979389	-0.9406389416233837
id379	sample1	obj19	-1.4508512559274807	-1.1356070844609978	0.962069740231354	1.3234739311982822	-1.0617661028777763
id380	sample1	obj20	-1.2594636956177128	-1.2275225767352893	1.2722051856235366	1.5883057854578824	-0.6048891300889493
id381	sample1	obj21	-1.2934861552675345	-0.9029176649562418	0.8532895583922462	1.4932935947871846	-1.2793691018565636
id382	sample1	obj22	-1.3809500702725164	-1.2321756140446676	1.3943462510862505	1.5667375525156682	-1.1610907408093238
id383	sample1	obj23	-1.1086712717011948	-0.7989493093969793	1.023484285148729	1.6269188302372473	-1.0567699093731502
id384	sample1	obj24	-1.4214622083107187	-1.4523683462271826	1.06200260029839	0.9935180521634699	-1.3129166956566714
id385	sample1	obj25	-1.431876007472122	-1.0512256493549061	0.8278947411777233	1.4261979385514958	-0.6569912541644383
id386	sample1	obj26	-1.5102731669395384	-0.993749389907925	1.3297936231069922	0.960529471107727	-0.7432472190450571
id387	sample1	obj27	-1.32543915769847	-1.48957516752828	0.871695334708029	1.0457455671001097	-0.8534406630093885
id388	sample1	obj28	-1.6499221289745056	-1.1366590928785423	0.866002235567185	1.5276518472578693	-1.1784577938742373
id389	sample1	obj29	-1.3996780102048958	-1.251830111626565	0.8720564798566406	1.4391927054262001	-1.0239526958374519
id390	sample1	obj30	-1.3499696872494753	-0.9436928510181802	0.9464308937167708	1.0989419521249453	-0.9217556218665297
id391	sample1	obj31	-1.5017396208456961	-0.8223740017255201	1.2793324928636085	1.174944071070144	-1.2070801932155055
id392	sample1	obj32	-1.2453286320957933	-0.9613798251735424	1.230588590160849	1.1111542081928292	-0.7948951661409265
id393	sample1	obj33	-1.5994158170436565	-1.0493136646880874	0.8633564389482966	1.0619950099074043	-0.7501999634440663
id394	sample1	obj34	-1.4478764906129895	-1.1176128805146832	1.4609561053757523	1.325546110504506	-1.1268231173687555
id395	sample1	obj35	-1.6488625649725521	-1.4665212536760877	1.2216046679349146	1.1583906937906199	-1.215717137192426
id396	sample1	obj36	-0.9792745946472562	-0.8344341161202469	0.839357726407554	1.4084416542072065	-0.80202094785163
id397	sample1	obj37	-1.5718828071944388	-1.0022598937303369	1.441774980007895	1.6919419510247815	-0.72337096460896
id398	sample1	obj38	-1.107137211693217	-0.768749481535938	1.3727489354660873	1.0055577854715527	-0.8305325097408287
id399	sample1	obj39	-1.0801505482491258	-1.1865756770070117	0.7521034681952175	1.70484322492424	-1.2933637788082795
id400	sample1	obj40	-1.1559130447623587	-0.8615141519932519	1.14401104290779	1.159630009892707	-0.825882736689467
id401	sample1	obj41	-1.3704730979429218	-1.275107437986522	1.5185268186168788	1.2408694469229475	-0.8167538190914333
id402	sample1	obj42	-1.188060098250574	-1.318899712560015	1.0516247733714583	1.0904043201398796	-1.1763122688808243
id403	sample1	obj43	-1.476906819566819	-1.0874341055805623	0.9985772939067383	1.0258597473324569	-0.6162706435246544
id404	sample1	obj44	-1.4503139342200546	-0.9669222803250379	0.8753759587428837	1.6505944253932394	-0.968971405821962
id405	sample1	obj45	-1.3022604505068822	-1.213549041036989	1.0376798312768158	1.049227397623864	-0.9724313358511036
id406	sample1	obj46	-1.65406749135251	-0.7139802742144421	1.163528283619157	1.390933912040978	-0.6759359386289013
id407	sample1	obj47	-1.4632390418498857	-1.1725184569135734	0.7943010662440981	1.4362663009013226	-1.276554337320283
id408	sample1	obj48	-1.208100207870701	-1.023718393625263	1.2001784653050995	1.5119844170782215	-0.8351257170885158
id409	sample1	obj49	-1.470200253272464	-0.9128505163322405	1.4061820197039876	1.5080560810219295	-0.6339858317563928
id410	sample1	obj50	-1.2461121758894091	-0.9436037918400589	1.399791323255986	1.2498926042909233	-0.658425792441822
id411	sample1	obj51	-1.624213258941497	-0.9245703271842037	0.8606667868677479	1.5577983986463355	-0.7775734231844998
id412	sample1	obj52	-1.0907382116798663	-0.7525688413128965	0.8891927313153483	1.4378189581661942	-1.273528822049454
id413	sample1	obj53	-1.5508295726819472	-0.7884644881892301	1.0079217264485538	1.4294490716133814	-1.263139638341237
id414	sample1	obj54	-1.6699355760180985	-1.484043763587421	1.375580346869941	1.1042938708755468	-0.7552357692448753
id415	sample1	obj55	-1.1016937087697323	-0.8184279114213172	1.0566196599730433	1.266541370183405	-0.7054271734563169
id416	sample1	obj56	-1.1508573111934837	-0.8486711765381046	1.0623926157887484	1.2142867113599816	-1.0261713662379077
id417	sample1	obj57	-1.0418402829023168	-1.3583143019775474	1.0174461152959156	1.2061272472651958	-1.2747061274352731
id418	sample1	obj58	-1.6805426598858282	-0.8239631170022418	0.9631583402824319	1.0283056213843398	-1.3060886715332471
id419	sample1	obj59	-1.1022430573187814	-1.2751603728820766	1.210564988458023	1.1247945463960731	-0.8109525697465136
id420	sample1	obj60	-1.4219739349545022	-0.9961303052090325	0.8767301255024488	1.2493762839581453	-1.0631566599940734
id421	sample1	obj61	-1.6139001274516294	-1.2461226716877856	0.9289626825486004	1.200749346378581	-1.3242262742473887
id422	sample1	obj62	-1.4482687368724452	-0.8322815286528582	1.5255860884974588	1.34727997802465	-1.3698428551541495
id423	sample1	obj63	-1.6514580898666353	-0.966934651512908	1.0503708204145947	1.4379842067419366	-1.1365942754697576
id424	sample1	obj64	-1.306994729900087	-1.4291606478840806	0.9221658803422146	0.9939616273062886	-1.1902223868440656
id425	sample1	obj65	-1.0010969682915285	-0.8151603095870942	1.0162491762346237	1.4055836705545697	-0.8826657735022865
id426	sample1	obj66	-1.3908129103757252	-1.3275563365073828	0.9164879679441098	1.0135505369977929	-0.8247629100441324
id427	sample1	obj67	-1.729116179072608	-0.9819896388041036	1.3470912178397114	1.4772504520400167	-1.022522553373038
id428	sample1	obj68	-1.0498742638067091	-0.8994896613076373	0.8915764621496496	1.2449673954878553	-1.3128542472377966
id429	sample1	obj69	-1.2643809623140734	-1.0417895055053297	1.1390965522499734	1.4131662341842663	-1.2325477093285575
id430	sample1	obj70	-1.0556134945473383	-0.808252229415849	0.9115071818476238	1.6346221869268094	-1.2425698772575062
id431	sample1	obj71	-1.5195070120527685	-1.1590928579448276	1.3880352131782119	1.2083328109331983	-1.2263744908571228
id432	sample1	obj72	-1.1748017770377701	-1.3093373362103278	1.4901637044860867	1.5212395460505146	-1.1413664079592172
id433	sample1	obj73	-1.2623799266917004	-1.4381775011056859	1.5119102550741954	1.5385702004503021	-1.0198957170118756
id434	sample1	obj74	-1.0369400805183795	-0.7032744778399069	1.1370754439909847	1.2443785600058255	-0.8206457340184097
id435	sample1	obj75	-1.3113251642475316	-1.1008544871818304	0.8948065818938784	1.6673797726698112	-0.7909928915494814
id436	sample1	obj76	-1.17729236501693	-1.0693469764284915	0.7499911029187096	1.502745896339881	-0.7213236841466625
id437	sample1	obj77	-1.3639625316905895	-1.433555049876195	0.8500946010783454	1.333911672703933	-0.6963628101652769
id438	sample1	obj78	-1.1120775545614678	-0.7021409080667657	0.9621221310301845	1.3079320276282005	-0.8567670543627582
id439	sample1	obj79	-0.9814979724171629	-1.3752738354863117	1.1019392165385562	1.1243070365170693	-0.8945386310392928
id440	sample1	obj80	-2.9021420742852087	0.03955282791357617	-1.1318484470103392	0.6668014635137824	2.1553423223792114
id441	sample1	obj81	-2.187509396126667	0.05700042285820883	-1.5372749405631234	0.8787864167163153	2.1431022404972904
id442	sample1	obj82	-2.331561317099265	0.1562273913531558	-1.228772524397636	0.39381101641261684	1.8782798430155894
id443	sample1	obj83	-2.547908702968277	0.4655016788917917	-1.1353671429022318	0.5173993587787191	1.6116721332479464
id444	sample1	obj84	-2.1891141325186982	0.35861024718076273	-1.18308591963854	0.653525475822925	2.100010956900725
id445	sample1	obj85	-2.897759004092574	0.38451154451336567	-1.6101444614215905	0.6288445898894981	1.8185386420372573
id446	sample1	obj86	-2.1443314519274654	0.5943518881803843	-1.6324329212199251	0.7456913131658918	2.2116900359812095
id447	sample1	obj87	-2.821882141365799	0.6574603735079999	-1.6060636116342133	0.44136277100884963	1.569093272716679
id448	sample1	obj88	-2.7295007733227474	0.14458571929809158	-1.4153312370170026	0.4972003231315336	1.9888120997117462
id449	sample1	obj89	-2.1533728523624394	0.23532776968923264	-1.7067197010225441	0.4091736239562459	2.2201752466598865
id450	sample1	obj90	-2.8009496910501643	0.4532284813038691	-1.5355327885730539	0.39034205143917844	1.7342055855896579
id451	sample1	obj91	-2.3535769211401445	0.4846023921539543	-1.3718018462111212	0.7754975141364311	2.082604452389675
id452	sample1	obj92	-2.406243053193739	0.3966866946131623	-1.8442976855698774	0.4527637274704512	1.5709952785465469
id453	sample1	obj93	-2.7279025082426096	3.573717740152915E-4	-1.3412174043823866	0.531720456279495	1.7457182190878549
id454	sample1	obj94	-2.4075620776680937	0.3282709425686713	-1.126396690466212	1.0110172149253245	1.595423174458208
id455	sample1	obj95	-2.7929672171234694	0.10913359684997881	-1.7011843292608138	0.4312228314573193	2.2810654486239517
id456	sample1	obj96	-2.4607530916620135	0.2636509217938277	-1.712376251197714	0.9541043956358061	2.1751963650250303
id457	sample1	obj97	-2.4973028144216984	0.2408544414757502	-1.3813102873484504	0.42342378676189985	2.1206924572171717
id458	sample1	obj98	-2.873751488622247	0.33071557009420083	-1.8513391589723458	0.6229632371052306	1.9798117565330742
id459	sample1	obj99	-2.4595580320177852	0.2685269990121342	-1.3008959046699404	0.7056242334291867	1.768736601668082
id460	sample1	obj100	-2.2673060861229715	0.08923371528090418	-1.6652125898011814	0.43636810102374635	1.5550896000886418
id461	sample1	obj101	-2.1248584574715217	0.5590158775706611	-1.1069182395468387	0.9472626973534075	1.993324502834124
id462	sample1	obj102	-2.235147336507512	0.33274215534644497	-1.1671936886348053	0.48324946104942174	1.6049280064408151
id463	sample1	obj103	-2.7517015358354135	0.6477067582964602	-1.6453690544509656	0.9232296263916174	1.9590533618668842
id464	sample1	obj104	-2.349961494807485	0.5171189279640452	-1.1637821220806932	0.9559687664744814	1.6190727783736674
id465	sample1	obj105	-2.8284835877479426	0.14440868734769044	-1.1818416434590029	0.9999167162948799	1.6986149429582336
id466	sample1	obj106	-2.685752135480055	0.21733134078983357	-1.8715274788062537	0.8686162174125903	1.6864775369514082
id467	sample1	obj107	-2.6804737331986552	0.6973746925806568	-1.3364785857060966	1.0497095259301832	1.985402842161625
id468	sample1	obj108	-2.5263885547380402	0.39587892007251446	-1.7663380610854582	0.9989297504554601	1.8596106526632339
id469	sample1	obj109	-2.2647695942081425	0.38685207488260237	-1.1226111852218443	0.6266623006947645	2.0572253666778453
id470	sample1	obj110	-2.704359708684596	0.5734833208541208	-1.744916701100915	0.4119654323782953	1.6858467743309664
id471	sample1	obj111	-2.262486959876189	0.1891044880019927	-1.5776406918787638	0.4181259425414263	1.7545272107843584
id472	sample1	obj112	-2.6629711197228922	0.42460813875987957	-1.1146075833168145	0.6681801008193784	1.8978615986977263
id473	sample1	obj113	-2.764155812815504	0.5463798234551731	-1.248929686095989	0.6941304517556156	1.8748045757763987
id474	sample1	obj114	-2.2594403963729923	0.47742274656446354	-1.83965723305401	0.28811885910517193	1.5557305750771686
id475	sample1	obj115	-2.506012645990791	0.1978283837179405	-1.4466910872426282	0.30835515012422127	1.708179261704264
id476	sample1	obj116	-2.125566812381206	0.47985577222783543	-1.4586110174244764	0.6404309486645198	1.559212392868681
id477	sample1	obj117	-2.751598349534648	0.07090771846376709	-1.3000805864969955	0.5615508355985914	2.2073794537624707
id478	sample1	obj118	-2.6768678578658616	0.4004150786328357	-1.1492860225996386	0.33946886231322954	2.1994804916967703
id479	sample1	obj119	-2.324789865157281	0.6023414905060029	-1.4519176496954584	0.7203092766218461	1.8586546569781315
id480	sample1	obj120	-2.610295457370048	0.36448197961935086	-1.154479040763364	0.4832569436238038	2.2953462205619006
id481	sample1	obj121	-2.7871118383110662	0.5522309151439038	-1.3016782956295265	0.9911071180422621	1.6584351617993285
id482	sample1	obj122	-2.55486283238913	0.08381925531942147	-1.193287970816784	0.8321467482336962	1.6597988127415113
id483	sample1	obj123	-2.913894196392256	-0.005551321198226711	-1.6556222648473926	0.28158171872397686	2.063826291811684
id484	sample1	obj124	-2.838731712320178	0.3190631664868125	-1.3696430022286905	0.5230078137030831	1.9684689643701871
id485	sample1	obj125	-2.2605594044448623	0.5109765756101659	-1.2671353545238624	0.5380287134303834	1.5733098217680312
id486	sample1	obj126	-2.9105285890279196	0.6220015920365819	-1.4513633127802974	0.5333337543353863	1.552403231117614
id487	sample1	obj127	-2.7220424597777773	0.08737903435915084	-1.2495869786453746	0.4301413616761908	1.7073056639140687
id488	sample1	obj128	-2.2018771676351916	0.23647093223511478	-1.629773188783509	0.4541748854299511	1.613318597878674
id489	sample1	obj129	-2.57506556434607	0.401136435149012	-1.7182213215310989	1.0610437810347273	1.7965286470225772
id490	sample1	obj130	-2.542353246055259	0.19373620219701476	-1.5816306521874348	0.40033954203943745	1.6602872241619306
id491	sample1	obj131	-2.754707536815939	0.1140928588550067	-1.4668194435860422	0.8127007074340837	1.9493559648150882
id492	sample1	obj132	-2.2372866349656286	0.7202499626500407	-1.641840255424283	0.8808379156545028	2.1925828117291903
id493	sample1	obj133	-2.8534272545950237	0.22480453287487573	-1.2090884890089475	0.5938185797206557	2.2577025439804568
id494	sample1	obj134	-2.793053862731508	0.282716480769441	-1.357140432901488	0.772073300874929	1.6042012796417675
id495	sample1	obj135	-2.54241924772854	0.5061063387919755	-1.5139526644309629	1.0393827312770485	1.9141824363390487
id496	sample1	obj136	-2.623723770342858	0.527419619081637	-1.8276746300382276	0.5808167310168363	1.5613498585991827
id497	sample1	obj137	-2.8018977868603656	0.34774497529337217	-1.2381395131079531	0.8180082110968572	1.8516161629884984
id498	sample1	obj138	-2.2971372752157166	0.22780317250155135	-1.8550740448063212	0.9535324682197686	2.3049795564528948
id499	sample1	obj139	-2.9086253357062546	0.14345872293098444	-1.8086740701997424	0.9353116118420726	1.9792243820792543
id500	sample1	obj140	-2.577720900795949	0.33632456295803836	-1.2023989162026505	0.8831531158297066	2.0562176067109474
id501	sample1	obj141	-2.3657189633214077	0.3064148307933106	-1.5321115825924179	0.578543581695101	2.2781303560422614
id502	sample1	obj142	-2.8975528121429264	0.5436335483921534	-1.63300338883661	0.6839339167793881	1.7533375135238844
id503	sample1	obj143	-2.671488297903391	0.4664470779630153	-1.4065588527897939	0.42975230370420964	1.9320743115019223
id504	sample1	obj144	-2.336418385210751	0.5801588989785407	-1.4321085047311617	0.7495477245329453	1.7246857467834356
id505	sample1	obj145	-2.8107761789497596	0.19706699380901158	-1.2867526437197632	0.6817797634130414	2.307524204573257
id506	sample1	obj146	-2.915811772101668	0.45221718256993093	-1.426586068775278	0.7791127868011039	2.202765077819895
id507	sample1	obj147	-2.6139926555849184	0.33975364742611003	-1.101682557275042	0.4234239126896894	1.960649029716514
id508	sample1	obj148	-2.411057919298623	0.4867895034869262	-1.7051750534286496	0.750377095879728	1.6104562672121525
id509	sample1	obj149	-2.4657516082062574	0.6375582656862394	-1.7484642653893585	0.6171307079356803	1.7369013185822821
id510	sample1	obj150	-2.559948685316835	0.06614269222821345	-1.1030710883271002	0.4388140357138671	2.101140569049428
id511	sample1	obj151	-2.6567376820056423	0.15959080609107612	-1.8853880847695348	0.574611920534355	1.8422375723762092
id512	sample1	obj152	-2.8955055028642227	0.06550289620408695	-1.6515481233459293	0.7259157297857014	1.7102671125870819
id513	sample1	obj153	-2.5591504395987887	0.6924874254281387	-1.3212863576008638	0.8428151784639046	1.7032857789494076
id514	sample1	obj154	-2.854699390783808	0.26402114138942634	-1.2049901435739339	0.9095012205797061	2.2766903393973674
id515	sample1	obj155	-2.7677908897234773	0.29448848581029186	-1.8475819081338398	0.5447042369547863	1.8970512338594259
id516	sample1	obj156	-2.514178425595622	0.5813010416791166	-1.3444298276912876	0.9233881907522251	1.617883979401616
id517	sample1	obj157	-2.385575058961718	0.552288376421945	-1.3835987148633073	0.47633911076567814	1.8190324063175012
id518	sample1	obj158	-2.4782708855938855	0.6987906082393004	-1.2184093356763634	0.5933082118953525	1.6939191253506356
id519	sample1	obj159	-2.74397682505001	0.7503493928786132	-1.6049345958450874	1.0437760124959752	2.2719004034217116
id520	sample1	obj160	0.8746954709252045	-2.2304646620665	0.37461426970438483	-2.924336411566338	-1.1452912114369864
id521	sample1	obj161	0.5328247433842637	-1.5309322921675688	0.3943975134039204	-3.0944735222967132	-1.2209901716404543
id522	sample1	obj162	1.0783691728502975	-1.708328652150942	0.2931952044716909	-3.0310545184911635	-0.9210306751084303
id523	sample1	obj163	1.1704705957604022	-1.9374392449244542	0.2529512136950255	-3.107964443980031	-1.096543168370016
id524	sample1	obj164	0.8254284053990306	-1.7414820759511398	0.6528621948717843	-3.238905835887616	-1.0003704385277046
id525	sample1	obj165	0.6446677195665187	-1.9331741044552013	0.2881725581017115	-2.8903994135790763	-1.3978185426073324
id526	sample1	obj166	1.0346252669316727	-1.6205889886483078	0.7951922259284073	-2.8359368580603324	-1.3729654935179076
id527	sample1	obj167	0.6828343701663794	-1.9671972871292824	0.8551593486744683	-3.2133667899761535	-1.176273946898029
id528	sample1	obj168	0.9431657501149948	-2.1768003751136304	0.33126262233383996	-3.037069304884769	-1.208763160230534
id529	sample1	obj169	0.819755863935274	-1.7008486129156146	0.22663687542200978	-2.541251660822767	-1.4692909427561722
id530	sample1	obj170	1.0681618905924473	-1.9620911938633347	0.89348278108888	-2.80249676991074	-1.335048203293867
id531	sample1	obj171	0.8607519309578164	-1.7163584423711478	0.29416763497100823	-2.957734396987065	-1.0691447758890358
id532	sample1	obj172	0.9608030103621108	-2.032746038397323	0.49627074084539896	-2.484803712872925	-1.458634903108306
id533	sample1	obj173	1.2482692028554947	-2.198273086503652	0.5195752280325955	-2.870950747959042	-1.4244624222622522
id534	sample1	obj174	0.7342277621609745	-1.8204416807192598	0.25100894726156764	-2.521677020359137	-1.0920683501477773
id535	sample1	obj175	0.847645345831378	-1.9217518790776962	0.4730328762697556	-3.0575426809834223	-1.2857655590112598
id536	sample1	obj176	0.4968594816628984	-1.7433435790193026	0.143995285580916	-2.8465488825763767	-0.9669161058898552
id537	sample1	obj177	1.0810735534038467	-1.687262578375698	0.7200480555959812	-2.498798362735438	-1.6684139510391578
id538	sample1	obj178	0.898749093952093	-2.0526019264463318	0.2743861893840527	-2.6199786334806103	-1.6164499066614422
id539	sample1	obj179	0.6770768428432186	-2.2216699398103827	0.37035570139667157	-3.0300480793252644	-1.3429832199946279
id540	sample1	obj180	0.9992503060832035	-1.9276018369905499	0.7624104841986818	-2.8900499872408014	-1.3842360511122531
id541	sample1	obj181	0.9660829044245327	-1.5211813867479478	0.4775142076413303	-2.6674521691636146	-1.5748303527359133
id542	sample1	obj182	0.9901340407362401	-2.026290949432799	0.2764131783618745	-2.870528764170009	-0.9643717571963412
id543	sample1	obj183	0.8409716445083728	-2.242082631559155	0.4787792043654542	-2.994285093739545	-1.0213180483582165
id544	sample1	obj184	0.559029355373576	-1.5648763195124642	0.19057019844531387	-2.480994817322895	-0.9033235415269038
id545	sample1	obj185	0.814748815661873	-1.650664218538226	0.7906117400528921	-2.9817891566515655	-1.1568888991686255
id546	sample1	obj186	0.4538601662368418	-1.5441514169166783	0.7733962230145215	-2.823631138343591	-1.0925424435623001
id547	sample1	obj187	1.045780168008331	-2.0242095041305967	0.12595836003323924	-2.487639717108936	-0.9328981601003796
id548	sample1	obj188	1.109727714491124	-2.1576827751951586	0.3204487733340473	-2.776821023213591	-1.1552495343095461
id549	sample1	obj189	0.7643018983461336	-1.8503825418951683	0.27522216116159337	-3.0180326995115636	-1.3908333215060815
id550	sample1	obj190	0.8254702570182062	-1.9100543830992105	0.1829131212149951	-3.0661738624214157	-0.9800042220628712
id551	sample1	obj191	0.6222048053850273	-2.1028239184456035	0.7936250842814684	-3.1573738577127437	-1.0342669414297163
id552	sample1	obj192	0.5279129473425742	-2.141336982306927	0.6070340745058398	-2.6290682121313154	-1.0778863113247277
id553	sample1	obj193	0.7013699905940355	-1.6762305497756769	0.4634426819416338	-2.9625181833735903	-0.9266083968601061
id554	sample1	obj194	1.0376012915855102	-2.296917809252754	0.1876413579988801	-2.6192696396693336	-1.3393414080290011
id555	sample1	obj195	0.854116071426264	-1.7446647631870875	0.7503741324835814	-2.786476074915332	-1.1184385194487423
id556	sample1	obj196	0.7505940434672116	-1.5997955852328976	0.7522972675300793	-2.6036500604437727	-1.3409587143894115
id557	sample1	obj197	1.1125985261143516	-1.56230636968608	0.7490917311289729	-2.6394725408118678	-1.1199301825047399
id558	sample1	obj198	1.1766714947079842	-1.7754135971831135	0.8308758794223103	-2.98350336839458	-1.2016679809723303
id559	sample1	obj199	0.8922832198719697	-1.6563305918114644	0.11379444887591306	-3.1132134127963624	-1.5205764318521047
id560	sample1	obj200	0.8250970308051	-1.9470732514150293	0.1286647541887994	-3.02842131359425	-1.1120620297467507
id561	sample1	obj201	1.0278976916986322	-1.6670629000246517	0.5953727367983898	-2.8871822129677684	-1.5201666808657808
id562	sample1	obj202	0.5048508987147264	-1.9629384843143889	0.20936129245872825	-2.741162320506365	-1.6597695516394517
id563	sample1	obj203	0.7185443123416448	-2.071031172799307	0.4575715003399262	-2.5037594013392	-1.2716701044372969
id564	sample1	obj204	0.8070363618855131	-1.833610881623564	0.10761684930351423	-3.0774146262746727	-1.5480216632644956
id565	sample1	obj205	1.0219416395293521	-2.078003806813026	0.42032101202302413	-2.6419248854371866	-1.3484040969117204
id566	sample1	obj206	0.562939715925483	-1.8522234185075142	0.2290634634138542	-3.22482357145177	-1.4537745985333663
id567	sample1	obj207	0.8260407273635696	-2.123571490724031	0.8791851058842631	-2.737273256050849	-1.1345846005524765
id568	sample1	obj208	1.0220068618856515	-1.536970056425131	0.459038619109041	-2.9011224309260193	-1.3959696614457646
id569	sample1	obj209	1.0395446537692068	-2.184299222186701	0.7756588951646953	-2.489039938398626	-1.5000736439410802
id570	sample1	obj210	1.1697802598704392	-1.7789567549201055	0.8895056452905932	-3.161673874077883	-0.8837299976974251
id571	sample1	obj211	0.4811412071549462	-2.2229431135279567	0.6438280628766371	-2.9628052800646474	-1.1568582691607334
id572	sample1	obj212	0.6066216379573321	-2.2962286126301596	0.3869475064566741	-2.6121987216432254	-1.0885130588341014
id573	sample1	obj213	0.6105391142708754	-1.626696612867063	0.4346841075886593	-2.840512464531531	-1.4065138746227879
id574	sample1	obj214	0.5338268207892568	-2.087796053951334	0.16229401717632885	-3.202937094465322	-1.5334558308140298
id575	sample1	obj215	0.6326802209173013	-2.131898041070648	0.3201704925860917	-2.4874033744293307	-1.374623487424511
id576	sample1	obj216	1.0445203746833955	-2.0494524550987476	0.5672229909976099	-2.935955673344269	-1.1173689459680123
id577	sample1	obj217	1.2197806635104544	-1.8341013540246607	0.6048162707348432	-3.0984460867638832	-0.8898435826915634
id578	sample1	obj218	0.4924989171587866	-1.856143554358535	0.729457617072721	-2.647783895644597	-1.0900545490575668
id579	sample1	obj219	0.9341358913079274	-1.6628799205365574	0.7235948186554578	-2.654795690438026	-1.3020254761569294
id580	sample1	obj220	0.6129735759940543	-1.6336184678853272	0.3529631778498851	-2.5350302634224104	-1.0698413517157261
id581	sample1	obj221	1.197905115600197	-2.1562023158236094	0.28042664666711636	-3.1637993161497593	-0.9455202819572756
id582	sample1	obj222	0.49494264464430476	-2.0350603092055293	0.24722789098693054	-2.4710989600939217	-1.5434493168213046
id583	sample1	obj223	0.5443723403377294	-1.8996877616482681	0.7825264858389381	-2.6740246575263207	-1.6405141515856043
id584	sample1	obj224	1.055707446625834	-1.7063636241408093	0.5130934258090478	-2.817595762097093	-1.5125149354732685
id585	sample1	obj225	0.8984624240767893	-2.001517409328916	0.7515761095977446	-2.8497606521135475	-1.1869591351767719
id586	sample1	obj226	0.943825240240016	-1.9666940646898317	0.4008825237997707	-2.964480562099689	-1.65032684521584
id587	sample1	obj227	0.5725714331353533	-2.254246935944459	0.44348544587347183	-2.457406842427922	-1.0423839619733823
id588	sample1	obj228	0.7975743595254866	-1.648935283922305	0.4698516999895652	-2.8384932169592276	-1.1065405651752043
id589	sample1	obj229	0.9270525513044913	-1.7902339162689787	0.6842862515760437	-2.559137409740571	-1.0865875123006088
id590	sample1	obj230	0.7117879465820063	-2.0375956966552553	0.6162788283738904	-2.4998476199456805	-1.146859318921643
id591	sample1	obj231	0.6329790917325789	-2.0678628136060815	0.5304831542304761	-2.927194355914667	-1.3629368692369146
id592	sample1	obj232	1.2166942042884372	-1.9097176780012015	0.8007762069920242	-2.7026578158077617	-1.1388874487755842
id593	sample1	obj233	1.1880883952568295	-1.7312189725280254	0.18796879077092565	-2.7851330531578333	-1.547710092366441
id594	sample1	obj234	1.0481819067691944	-1.8272994576905506	0.8937015312709562	-2.925029116498253	-1.5945807203328182
id595	sample1	obj235	0.5750909248527429	-1.6663315777108227	0.4743905516514545	-2.8503121137977954	-1.0356432989377424
id596	sample1	obj236	0.6896913424969643	-2.2477095250964476	0.3708196338947949	-2.48021509234071	-1.4539374137088688
id597	sample1	obj237	0.7148104675045568	-2.0325747020352045	0.485638072287523	-2.994888383272961	-1.541559479935236
id598	sample1	obj238	1.0917124428963696	-2.1115417006089823	0.8296500467665424	-2.9007110121931174	-1.3437924704792494
id599	sample1	obj239	1.0549024352641372	-1.5782836468853843	0.6279014583094493	-3.06054648374284	-1.6046762009054139
id600	sample1	obj240	-1.0175762990267487	-2.1669882167843255	2.012947706293928	-1.6603191863881077	-0.09233075501850829
id601	sample1	obj241	-0.01560106257590732	-2.8102226217043533	0.6833870206202703	-1.26179753045445	-0.842412322143111
id602	sample1	obj242	0.33522211612639435	2.3819664158777454	2.019437746939956	1.6164323435728587	-2.8965130260580225
id603	sample1	obj243	1.1881723996556643	1.8371368071375074	0.4960345933516773	1.2723065637147635	0.5992443614488757
id604	sample1	obj244	0.6834873586448447	-1.2225951858727366	1.6668525690768763	0.9071513891487971	2.709880748785965
id605	sample1	obj245	1.2456012595734487	2.0752417137144117	1.2352394024158098	-2.2502213759176866	-2.4306426999507877
id606	sample1	obj246	2.393971025823597	-0.6376429217080728	-1.9468557143557779	-2.940451122840963	-0.9067598104156668
id607	sample1	obj247	-1.71693008486879	-2.4595971804515133	-0.8600792439964824	-1.2302331372572102	-3.031504015399802
id608	sample1	obj248	2.0256842444177923	2.413264154931956	1.3263445224513828	-1.4786576103771951	1.8050154471309832
id609	sample1	obj249	-2.550813332976621	-1.6333655096101354	-2.6510180258127214	-2.895754086634602	-2.3261364838668537
id610	sample1	obj250	-2.253382940870306	2.647055860772365	1.7163003965825843	0.8525098431148654	0.6941082741965645
id611	sample1	obj251	2.280669640945981	-0.6462512768807699	-0.882172994893469	0.4855546749435138	0.763910156513626
id612	sample1	obj252	-2.4532001127406664	2.1902780316064625	0.23854576865742272	2.4919511902932365	1.9272924843241248
id613	sample1	obj253	-0.9892734487465442	1.9930088129142527	-2.7503050881067526	1.5906081847712767	0.8922498571324139
id614	sample1	obj254	2.6254965265610806	-1.7758925468456572	-1.2475955213701209	0.9639005807976584	2.2584849117908172
id615	sample1	obj255	-1.7754432777086704	1.283179469453429	-1.2587443164922156	1.348960249230939	-1.2640702897370473
id616	sample1	obj256	-2.983698925633881	2.8523271778589914	0.11901178467881413	-2.6205428414315657	1.1019340389237908
id617	sample1	obj257	-2.118014332164429	-1.1280074225501737	-0.7227016097129046	-2.408930519454287	2.699653972856789
id618	sample1	obj258	0.8152408279867859	2.597489881490698	-0.4016582432858541	3.101132240602525	-2.6458391596683217
id619	sample1	obj259	-1.303142299536491	0.8662246898615956	-2.0147296549247686	-2.8872651099723026	-0.6777580607095379
id620	sample1	obj260	-1.5082675831640688	-0.491487483670236	-2.9856653183414728	-1.392987058818333	1.910304343912891
id621	sample1	obj261	-0.9871893726306458	-2.3842227087756935	-0.07816690135272675	-0.12149254001026488	-1.5319250433236435
id622	sample1	obj262	-2.380329527100644	0.736961141603554	2.501879711913407	2.610952377801483	-7.92020140313543E-4
id623	sample1	obj263	-0.047116242761195304	-1.6273212202567586	1.4366543453532263	-2.03099254951935	1.639494501649783
id624	sample1	obj264	0.9266181511818398	-1.7332309909571024	-1.7419824018759977	0.4422646753469184	2.6161604203839226
id625	sample1	obj265	1.8347166960583907	1.6653213981416184	-2.749229353746461	0.5737726890950072	1.642208265233423
id626	sample1	obj266	-2.2852029950618165	0.10170473071563435	0.11283682889164892	1.3201778653444052	1.9919907434463244
id627	sample1	obj267	1.0038230411794444	-2.646686594131438	2.7867166335501934	-2.1469173081139212	2.6821792336146286
id628	sample1	obj268	0.7813951488773567	-1.8534668367370275	-1.095062956525486	1.2134205631940236	-1.6372552955939343
id629	sample1	obj269	-0.9042732960074096	1.3121072450763758	-0.1348661768896121	2.7809389236870663	2.6578772463855502
id630	sample1	obj270	1.0119176303232562	-0.8373592047237458	0.6150770798119114	2.8737449337951	-2.01275562154714
id631	sample1	obj271	1.5260567952785167	-0.25663997728430826	-0.2110749931081587	2.5100868047399434	-1.2939133876597264
id632	sample1	obj272	2.1244515647362507	-0.28064613862008303	0.5340037759812205	0.5750574619713724	-1.8765050000660257
id633	sample1	obj273	1.539688470918966	-1.947665183097301	-2.996372048806864	2.0729308026225395	-0.8861338602837152
id634	sample1	obj274	2.821586453785753	-1.8380619184538407	0.6020247267388521	-2.2404127282758433	-1.6265416539358537
id635	sample1	obj275	-1.2794009949267389	1.8443609945516606	-1.1347848969179608	-1.9150321589790833	-2.2438413872400815
id636	sample1	obj276	-0.2916124518818144	-1.6787428945358167	0.5754302449798349	1.6528296354928973	2.324694859471456
id637	sample1	obj277	-0.6505346216760745	0.6664883518469311	0.3589077835046396	0.8167485266967037	2.6716286192616066
id638	sample1	obj278	1.1385443030067162	-2.775562175476438	-0.0035517588468025885	1.5047811929657722	-2.026402658094443
id639	sample1	obj279	0.15358023612785876	2.1872796785325344	0.07099923567730426	2.444410144274466	1.5434885044719944
id640	sample1	obj280	-1.3328317445836926	-1.6619019122532201	1.9483127949934922	0.1724125297907365	1.8564338176682273
id641	sample1	obj281	1.762071477222881	-0.47225018176877365	1.3775237173846087	-1.093191007951023	-1.6164807754049226
id642	sample1	obj282	1.5594825733754656	-1.625629789224337	2.9758005503351006	-1.9151858469637224	-0.27950968686925237
id643	sample1	obj283	-0.021383760356167292	-0.6784381308565778	1.1175670372899926	-1.5502332107564214	-0.4163626088898693
id644	sample1	obj284	0.8028790682815385	-0.014945585969908914	0.7860274356921932	0.41668925116111444	-0.45120597312852995
id645	sample1	obj285	-2.7850107496497603	-2.6842104713755597	1.685016778530863	-2.9832829118389945	0.4388665030356099
id646	sample1	obj286	-2.4001830876432875	1.9119182477541292	2.2874575708175784	-1.3922434581549148	-0.8499836643775429
id647	sample1	obj287	-1.025671738758272	1.379133576862294	1.201743881069544	2.77315933323358	1.878359961259339
id648	sample1	obj288	-0.8836544701182231	0.38383865985988486	1.581242146516849	-2.7436431003728647	-2.2867739368167372
id649	sample1	obj289	-1.4034143942375632	1.748003655532846	1.2100501224788758	2.9840800338889206	-2.531621146037128
id650	sample1	obj290	0.9924416083525442	0.7678513161671898	-2.0762620453226277	0.4175384800843494	0.6095099296858695
id651	sample1	obj291	-1.8748028821052243	-2.57088038278881	1.9063462817712935	-1.6155564435649126	0.05525379101799832
id652	sample1	obj292	-1.5160745501037811	-1.4138734334055065	-1.0008615580289277	-1.437196710031061	0.4346254498199886
id653	sample1	obj293	-1.550292998133206	2.7383199784566323	-0.22361302003764583	-1.5902280767247179	0.9610449352514593
id654	sample1	obj294	-1.4692686676635105	1.6806273589209688	0.4746374724558186	-2.8945438068130667	1.4956082393654369
id655	sample1	obj295	0.6313636965830879	2.368363805446119	2.2111416125716272	-0.06521337150196099	-0.42523094972251496
id656	sample1	obj296	2.7933238881724036	1.0991240530201312	0.28673886536060944	1.8382768035335648	0.5476665170822468
id657	sample1	obj297	0.9162141487437361	2.9542380003412565	-2.611047748382433	-1.417643314788668	-2.376135563353032
id658	sample1	obj298	1.1598587899814445	-0.6709672311629947	0.5867559182534742	-1.2735486190200067	1.415057738524566
id659	sample1	obj299	-2.147098034225407	1.9846278997231628	-1.5073051551722862	2.1231461897418344	-1.0285658526485932
id660	sample1	obj300	-2.575663258086612	0.4391130822209406	-2.351973178593171	-0.7129583688448606	-0.9585038909836903
id661	sample1	obj301	2.8113804267957	2.665815585346076	2.560125753055847	-0.3698311665669727	-3.346586543524202
id662	sample1	obj302	1.3247845165548702	-1.095401098145498	-1.5700562443308095	-1.813367422069967	-0.2962046754750081
id663	sample1	obj303	1.9765172995369094	-0.7163565207650067	1.492655430099255	1.7549889564362076	0.5160799306073959
id664	sample1	obj304	3.0959661839152686	-0.928758770022809	2.158848090011192	1.602385495594349	1.0099406116522776
id665	sample1	obj305	0.6807571427392548	-2.5341351846246325	1.6048515936984198	-3.2421469789809407	3.089424922281082
id666	sample1	obj306	0.05008405260476828	2.821710366929253	0.10874043869773997	-2.0990730068238266	-2.3560846677845686
id667	sample1	obj307	-0.6624552318296051	1.5879876344974542	0.9977083209714724	-1.0118630261822759	-1.4317379917685482
id668	sample1	obj308	1.1994058660004452	3.188741421847865	1.7623766916860875	2.0580169719969135	-2.400077832923762
id669	sample1	obj309	1.2182763435995072	-1.5113381538436115	2.478055368581353	-2.659040648264136	2.284233279585758
id670	sample1	obj310	-2.1439378201679036	-0.8605136404168247	-1.2462766046780438	1.6146737853270086	0.5849325430937775
id671	sample1	obj311	2.5375406878542317	-2.10494782384581	-2.1994122462413226	-1.7913305068574892	2.8330058348927647
id672	sample1	obj312	0.5969354345576209	-1.2578100281336004	0.41522555456891197	1.468561158512678	-0.2911708764282742
id673	sample1	obj313	0.2130348805733685	-2.434974157814903	-1.5647063167630986	0.1314848638547902	-1.9518956523960913
id674	sample1	obj314	2.6074100863484424	0.008194956843339818	1.78843611890073	-0.659608149765367	2.4050443634539533
id675	sample1	obj315	1.1676865578462237	-2.47683112947778	1.4002216069506135	0.09036418206524954	-0.2565801714274043
id676	sample1	obj316	-1.3101867774196345	-2.0506692422358133	1.1460803540851332	2.0225368308192864	-0.7578668045772913
id677	sample1	obj317	-1.7566236616618451	1.5246678520404275	-2.0325227293526593	1.2690543683280335	2.6191464202810035
id678	sample1	obj318	-0.45504572513494346	1.6541256385239866	-1.0093932432916253	-0.11912290609396592	-2.0601030514457555
id679	sample1	obj319	-0.719355583630367	-1.4207454658834202	2.4502468747882635	1.2641990640138987	0.6606426428619754
id680	sample1	obj320	1.343803376523127	0.998419820034451	-0.5569706408983793	1.8923662541487691	-1.6344103691169218
id681	sample1	obj321	-0.7494431116329758	-2.6077423656290035	2.0929309286511284	-2.8032755175359347	0.6576659195298327
id682	sample1	obj322	-1.532157268544202	2.6805215131325406	-2.3480818231707925	-2.6077948521259424	-1.8393468240146018
id683	sample1	obj323	-0.45157806184829125	0.24813336965790295	0.3788096998805528	-0.9400086470234712	2.115016240363421
id684	sample1	obj324	-0.5909822302002038	1.2029624910006893	-0.5974385563777036	-2.310355527991288	0.7719078865012793
id685	sample1	obj325	-2.299543352342297	-2.4782985563901088	-1.4150223993431825	0.7471967307598965	-2.821492631039169
id686	sample1	obj326	-1.6871889597545535	-0.811656346737494	2.9886372867177324	-0.11486060073327731	2.39995974282109
id687	sample1	obj327	-0.6987645464805767	1.1329933878094236	2.8787340485078423	0.7802904790368661	0.10729333537854735
id688	sample1	obj328	-2.318697062456527	0.8731381736364532	0.6525010766969552	-2.9399363477672265	2.7298239852426427
id689	sample1	obj329	1.6804659344712523	0.7736755917516857	-0.9293460985187721	-0.005480438827314971	-2.488914414705717
id690	sample1	obj330	-2.981029802832033	-2.1906903915142766	0.7659571512781612	1.670862540941567	-2.596295339144653
id691	sample1	obj331	1.5622693966232277	2.468227878752491	1.1058141455695214	1.5271939587486671	1.5461128000478763
id692	sample1	obj332	0.4254482535722651	-2.7608688847514347	0.40294305543862574	2.2010622089636556	-0.005947531459929545
id693	sample1	obj333	-2.620149212467634	2.6644997514541955	-0.8439131779930689	-0.04184428292156195	2.415492044379181
id694	sample1	obj334	-2.6291488392218243	-2.8051757058036406	-2.728048610491038	-0.6731229415223976	2.028257241421067
id695	sample1	obj335	-2.4243354826576526	-1.2197878279297731	0.02416245226960162	0.1257968384653983	0.4178987425929155
id696	sample1	obj336	-1.1839635799401882	2.894005507175085	-2.3164490014654424	-0.7635606494036349	-1.2723534018392464
id697	sample1	obj337	0.5655718866983166	-1.2000108619392207	-0.18351643913809224	1.7005911071894362	-1.8157710289653242
id698	sample1	obj338	-1.7207598878445876	-0.38191189165345485	-1.8874083262719246	-0.6086648262538269	-2.992823800557771
id699	sample1	obj339	1.3699789618953742	2.6883620254985185	2.601208058018999	2.373538010822312	0.6677593375447666
id700	sample1	obj340	-2.1501925869937075	-0.5813138365965382	-0.9076234043029823	-1.4041529295655346	1.2238357327135467
id701	sample1	obj341	0.0917061313821218	-0.5440336540662439	-1.766392370240875	2.1764552884156227	-0.47720484404114305
id702	sample1	obj342	2.4886364703824575	-0.4771556325275693	1.3973196599559863	-2.31101224124066	-1.4218307844477358
id703	sample1	obj343	-0.7932036422806932	-2.581883844585159	1.8811224843277834	0.2927477686681005	1.2148830424161838
id704	sample1	obj344	-1.7560477151760785	-0.29097186660903757	1.6106572623356241	-2.5767548189840497	-0.38753597692023506
id705	sample1	obj345	2.7692858101045235	0.47766007597650617	2.0710367489862365	-1.4295787577749068	-1.771477697656787
id706	sample1	obj346	-0.808041444103833	-0.9091044715143354	1.1452175999191934	-2.250642698288179	2.4903858791752653
id707	sample1	obj347	-0.6659306935424782	-1.7607170957549665	-1.2458867982053072	2.874252010297829	2.233354599742995
id708	sample1	obj348	0.1577993077895521	-1.9551207980850274	-0.1701586361274393	-0.2229258213671832	2.4966922684191912
id709	sample1	obj349	0.07455033058356514	2.743269830724105	-1.1525793747897068	2.402950195964306	1.575728745244291
id710	sample1	obj350	0.2874238831962289	-1.3983078988816182	1.5648640858228302	-0.0023331264033742416	-0.19608035743286034
id711	sample1	obj351	-0.5037833755583174	-2.7525118724167155	-0.9097969439614264	-1.627065368234426	1.7992308384990172
id712	sample1	obj352	2.260903458101594	-0.476537583665527	0.29139450891689966	-0.8139247431413137	0.18868025947445266
id713	sample1	obj353	1.987269333329981	0.07251685513190642	1.6003764752248357	0.18724353994231402	0.06643247859301749
id714	sample1	obj354	1.6293234069250306	1.5209700076674229	-0.15348977863884294	1.8814747938944165	-2.0523043801252547
id715	sample1	obj355	-1.6520933235579753	-2.126741589472821	-2.1802191010611884	-0.6482960761252169	-1.3628581058444085
id716	sample1	obj356	-2.2814041567277457	-2.675672368740423	2.156728686513977	2.188358048080443	-0.5014927944211187
id717	sample1	obj357	-0.2730245240812744	2.459052460569943	-0.17141643022102526	0.0875592592907426	2.01953553974946
id718	sample1	obj358	-1.9962918065951847	-2.7184185584118024	-1.7467385885667803	-1.359109249949887	0.11871174184781524
id719	sample1	obj359	1.875886706152149	-2.1674312903463644	2.3193848106409884	1.3683594347560035	2.7946043722839784
