	-0.43648632050106784	0.6591674180961107	-0.7276077934898684	-1.8738368414107018	1.2570197030492822
	2.8297198800539363	2.053998311112254	-0.3368483314125985	1.0500242502738486	1.3754069549977588
	0.9678963628147677	-1.236970415646148	2.3931289304635364	-0.23715739658030976	2.9110759882653285
