	0.3115349944785031	2.059644328549589	-1.0324767946815	-2.60531999084302	-2.6623013461426037
	2.9968705548729897	-2.5895127804071647	2.069628379980692	-2.696290365993809	-1.063935922759006
	2.6456171572390645	1.4905680203597904	-0.9812869660116208	1.9469749791229338	1.2191133355185604
