id0	sample0	obj0	0.2253354018708682	-0.059952496190838866	-0.5228495367942607	0.524847584316894	1.0417491605795084
id1	sample0	obj1	-0.08122494821846993	0.06646166604813541	-2.12288932225316	1.5068031954618888	1.0104144970611395
id2	sample0	obj2	1.1651532479859912	-0.506297938447456	-1.6024013526050103	1.7267025162827885	0.46433235402403117
id3	sample0	obj3	-0.08755641530137237	-0.06873709134106987	-2.422921236180524	0.5976847548155858	-0.9849229175280971
id4	sample0	obj4	2.1196277331704465	0.7818703934395608	-1.8345395873076735	0.4796924460542724	-0.3953718761438948
id5	sample0	obj5	0.7850167498643543	-0.2862066254895178	-1.2596208112423481	0.8897816833392511	-0.08385788746557621
id6	sample0	obj6	5.945420402566626E-4	0.006003617240632697	-0.4081118218966673	1.2492022921882133	0.49897391518705825
id7	sample0	obj7	0.22561527074382004	1.2308946349263665	-2.5742051565598714	2.147039896637235	0.5592785082563942
id8	sample0	obj8	0.4158121909876973	-0.2342334824650486	-0.44584852388143914	1.0920956390138383	-0.8742125600455606
id9	sample0	obj9	2.0868684812765297	0.5386255845368437	-1.8419346668097503	2.6223647111039137	1.0437202517639117
id10	sample0	obj10	1.5033603248150071	-0.8191289665189008	-1.6683626420539337	2.747322172229512	-0.27563647676786573
id11	sample0	obj11	0.5257956055969223	0.43149894869169625	-2.157443318898236	1.502065519304848	0.6172119501652229
id12	sample0	obj12	1.4647405476031423	-0.5456208664666793	-1.5417348512331308	0.5715468033205902	-0.5031782246044839
id13	sample0	obj13	1.7159360963776478	0.7193074944790672	-1.8422408175185878	1.9624977496913663	0.27626081482363296
id14	sample0	obj14	0.804857864767963	0.8737401972423717	-0.46339580227199106	2.0125498068242105	-0.9306479680389791
id15	sample0	obj15	0.8619539153830607	0.7977273170636763	-0.7373017179902541	1.6703222146660877	1.0083892409118314
id16	sample0	obj16	-0.12309410021437217	0.9794204355851572	-0.9136741243321194	2.58424062945791	-0.44625092352355833
id17	sample0	obj17	0.025285405043531828	0.44997786422248653	-2.328812642250149	2.316397928542618	0.2654259773356664
id18	sample0	obj18	1.2950214276848386	0.5395779593759027	-1.8980341444445492	2.3532216523398484	-0.1099285420068854
id19	sample0	obj19	0.6217438698008247	1.4129132649215854	-1.8653047885682508	0.9069152521004108	0.2842176745080869
id20	sample0	obj20	0.7174187309983853	0.8528277307127221	-1.6276838026715996	0.767932383061491	-0.4338970857450315
id21	sample0	obj21	-0.2206624088575202	0.41201199999183613	-1.0595564764775947	2.2439729154524155	-0.12651318382302978
id22	sample0	obj22	1.2175570402267402	-0.04026278656382776	-2.0338905490856893	0.6574983218708512	-0.600860448766038
id23	sample0	obj23	2.0469018836900466	0.915827251552392	-2.6288044945152143	2.311393498675594	-0.1370950708126497
id24	sample0	obj24	-0.04926123186397291	-0.6227144032758609	-1.5839974992449124	2.5985017995834356	0.8304679685108254
id25	sample0	obj25	1.6214894607530366	-0.21844732924544974	-0.8119619696833433	0.9401680747015787	0.3627940966097738
id26	sample0	obj26	-0.11161993918962465	0.17911397496367698	-1.5647896272062827	0.7939865340634051	0.9227453597831061
id27	sample0	obj27	1.7148074959006685	-0.14054736135011414	-2.712693839799929	1.1615129648671436	-0.2897858620286624
id28	sample0	obj28	0.43203768881153237	0.8279873579348247	-1.1215157117391354	2.7301014229674303	-0.4346657881477515
id29	sample0	obj29	1.706332876062473	0.49500014523336633	-1.0523597980525619	2.06411575361604	0.47953572029621494
id30	sample0	obj30	0.33412199517777974	1.1254827164208931	-2.6885277673714807	0.7718821471555792	0.48249033568059896
id31	sample0	obj31	0.9330812441628136	1.51365828290452	-1.2769893517245667	2.155741280204421	-0.78705665740909
id32	sample0	obj32	-0.2579321485586623	0.5775125138658692	-2.4201561806116887	1.3307637548027968	-0.6958559591462832
id33	sample0	obj33	1.143349380914051	1.0943361183274025	-0.9476102593232787	1.1879629885053724	1.1786570949751585
id34	sample0	obj34	0.14757978430212593	0.9828843264842158	-1.4280954470345764	1.4825102406148616	0.5988606454786161
id35	sample0	obj35	1.794094097324589	-0.46635734837676934	-2.1534078291528522	1.736376872990147	0.29200439795570854
id36	sample0	obj36	1.9624116928755282	0.5356941185834456	-0.6542299780862917	2.7353422330961124	-0.6165919236741535
id37	sample0	obj37	1.498953887144641	0.07415666230944218	-2.722349236044251	2.7372514264792054	0.5368176556829407
id38	sample0	obj38	1.3569840556304955	0.9909415720145738	-1.4554882832224951	1.4441359268776375	-0.38679510770896963
id39	sample0	obj39	1.8362646252693013	1.5160242257080603	-1.6640622102927807	0.8651584968455581	0.8019768324617058
id40	sample0	obj40	0.48798712675378864	1.2763513332187773	-2.2499678496013042	2.33766149789321	-0.6772358521756507
id41	sample0	obj41	2.0037632667482317	0.4522889179544223	-1.364915286579219	2.494725164008339	0.80026035261918
id42	sample0	obj42	1.10596040573568	0.3419776294630783	-0.4712301773450249	2.5719225887099224	-0.9749066396577819
id43	sample0	obj43	0.8590176996577186	1.2644537500444122	-2.365401334141603	1.4232401478068102	0.46401103395724475
id44	sample0	obj44	1.9736837840294414	1.4227623473861055	-1.8003220713213028	1.4437515516181945	-0.5061452267730379
id45	sample0	obj45	0.3119645236695904	0.6858675013923468	-1.285083652734328	1.9394413537311688	-0.28553243200249356
id46	sample0	obj46	-0.05894081386154215	0.04781215276235584	-0.392734689456568	2.1949106346078793	-0.058067601418027914
id47	sample0	obj47	0.4382806375861409	0.3866225770673548	-1.8205194336436896	2.4074061385366257	-1.021043858513121
id48	sample0	obj48	1.3120048387562369	-0.5362476265222309	-2.190168577703037	1.6080405024623663	0.6748979167061486
id49	sample0	obj49	1.6596574783125624	0.8547437861593923	-1.526731855298427	1.2930584399467273	-1.1175202415780616
id50	sample0	obj50	0.30372862927233524	-0.7518898952865511	-0.8046294451353877	2.3418935929272022	1.1377101437947592
id51	sample0	obj51	1.2893914574942034	0.44454268143818876	-0.9029589366156303	0.6944013554953876	0.16758771000793904
id52	sample0	obj52	0.5385902798196632	0.9722722493003217	-1.0850346048452244	2.574382125896494	0.8878261749939484
id53	sample0	obj53	1.0690471213648853	0.8341051270054292	-0.9385617186591677	2.74517728556702	0.09875051758688747
id54	sample0	obj54	2.023606410842933	-0.7678415909950793	-1.7241681188651194	0.7180650126691456	-0.1822521028554538
id55	sample0	obj55	1.824293997122601	0.27997328897404605	-1.1351331813890986	1.745251733856577	0.5848095804852771
id56	sample0	obj56	1.9624954597563653	1.198341762944813	-0.7364765499691501	2.143791448483677	0.5148689428086521
id57	sample0	obj57	-0.15463934056903073	1.3781777034921305	-2.1060033362100965	0.7296098900374158	-0.39458548322595555
id58	sample0	obj58	-0.1899957469041076	-0.15405483292358046	-2.7348556017462267	2.794312258475151	-0.8136674858420667
id59	sample0	obj59	1.8498954032801451	0.13686853547216393	-0.7644929629723134	0.6214501011805078	-0.7452942443037498
id60	sample0	obj60	0.018100691936473456	0.008233503576052792	-1.457233310640919	1.6907650718638512	0.8914537981046815
id61	sample0	obj61	0.6133639262769058	0.4368881366308015	-1.8474255852535637	1.5234508715907922	0.41784189277438166
id62	sample0	obj62	0.33846132685704866	-0.0435833063413279	-1.741410808015198	1.4310316154717166	1.1141044618332996
id63	sample0	obj63	1.5544606895761615	0.4027223323877376	-1.0805618537110377	2.2848821921731464	0.9733168393211462
id64	sample0	obj64	1.735526889543013	1.1417720136455565	-0.919280215354378	2.4500602099871056	-1.02769975461473
id65	sample0	obj65	0.14035273650234226	-0.7726403512828752	-1.0777781487914353	2.2408266458023243	1.0663550221481153
id66	sample0	obj66	0.3292407886378268	-0.15521250928857944	-0.7991925672666327	0.6583400226175278	1.2020768492345175
id67	sample0	obj67	0.928919246028872	0.19068397881872912	-2.675966520949699	1.9533676815602805	0.6260157478861155
id68	sample0	obj68	0.7264319268581843	1.1596229196851924	-1.6279079328972796	2.2958074587344894	0.4675825405369436
id69	sample0	obj69	-0.20750637701462127	-0.4178834572553307	-1.4427903502827764	1.4931976705059373	-1.0990173001562722
id70	sample0	obj70	2.0146445132952753	-0.7992224983597935	-1.8712132177885443	2.4345581184153984	-0.6608396465221583
id71	sample0	obj71	0.5699586225545432	-0.8156793211248645	-1.9545852869411933	0.48369194935488546	-1.0336416561011883
id72	sample0	obj72	0.5820626984093032	0.4524476576117231	-1.9249520979684727	0.9348330412614092	0.04603550432532355
id73	sample0	obj73	1.271389159405857	1.0958730755380401	-1.1268515620651682	1.788087812851036	1.1061256047286532
id74	sample0	obj74	1.3920214850674808	-0.6103474655865624	-1.1658653300246395	0.6048398282340839	1.0500687931473347
id75	sample0	obj75	0.6117802735527074	-0.4330985126372662	-2.3899413144385036	0.7540025493596791	0.10328378915076675
id76	sample0	obj76	1.780438325384097	-0.3162021561495033	-0.4742982729268046	0.43606467201404087	0.2018788141950918
id77	sample0	obj77	1.4777429708047585	-0.007218622824206045	-1.6376980822467762	2.73811697746045	1.1720098760734585
id78	sample0	obj78	0.45934460349008555	0.0639422491048196	-2.1084861576925125	0.4818235168489775	-0.06951896005264913
id79	sample0	obj79	-0.06660746805193718	0.6570777163310237	-1.6369650400839846	1.2174461845896802	-0.8564610030522204
id80	sample0	obj80	0.13790361210019464	3.462645831965058	0.799674389292724	-1.142342563896948	-0.7185394003629554
id81	sample0	obj81	-0.11263598894337168	2.060033090019444	2.8114293435270747	-0.20802775874078794	-0.9311720076598895
id82	sample0	obj82	0.5685947789909556	2.6157309129137625	1.982576483130583	-0.29005941120403134	-0.8346410639652293
id83	sample0	obj83	-0.27331972913342883	3.6968547127301603	2.1822110989980494	-0.7613180060220714	0.1352291507052379
id84	sample0	obj84	0.07174070269306099	4.073304058400526	2.6728163075627727	-0.34485118387518865	0.47233995466362844
id85	sample0	obj85	-0.9438023963210675	3.4255699706971083	2.0242646812152385	-0.6793733081156154	0.6762874710612772
id86	sample0	obj86	-0.33635838609787827	3.197275479813839	1.5675032425546465	-1.0033096666475219	-0.5668575735132467
id87	sample0	obj87	-0.45806112099025087	2.469610165588811	1.220531348451415	0.9465796543705929	0.1652131491960782
id88	sample0	obj88	0.24618177655981066	2.5949115452743725	1.064895525425101	-0.8110672805808911	0.837071365759422
id89	sample0	obj89	0.3767264175567313	3.862078991009753	1.9824281644396113	0.5270961735873076	0.10083082850643166
id90	sample0	obj90	-0.7250380437844536	4.1421272751102585	1.1879434724465947	0.5291717835561269	-1.0219161452614003
id91	sample0	obj91	0.23321567213171934	3.1303342506931253	2.510165541025772	0.3713935254326073	-1.2573927035522463
id92	sample0	obj92	-0.2685922162481371	2.3019587647290325	1.1638951083115225	0.8577072874791687	0.4080490679490092
id93	sample0	obj93	-1.0346741822530914	2.0587456747267963	2.592416965574838	0.05638875140131572	0.6468833566788141
id94	sample0	obj94	0.10078210064593729	2.9782309078792166	2.6990036844141727	-0.2974734292155454	0.5670794202231273
id95	sample0	obj95	-1.2169568326277964	3.7895655866620377	0.8761746406019519	0.843065953974856	-0.2652448248301005
id96	sample0	obj96	0.24787489656329598	4.078028893033489	0.814717789369497	0.1761867517750293	-1.174325797821053
id97	sample0	obj97	0.20291649471944506	2.742942010901729	1.9524713237272373	-0.2260634925996894	0.07439263913665428
id98	sample0	obj98	0.4469854428875739	3.465175386228384	2.1140800110337574	-1.2214164735752575	0.31326108715066514
id99	sample0	obj99	0.22890718191748238	2.433199329638523	2.9934891113010744	-0.5810481942504496	-1.0120736399024788
id100	sample0	obj100	0.5626581652789961	3.070508987874155	0.9244037837502244	-0.5196136749706876	0.12256377958785847
id101	sample0	obj101	0.14560197574799405	3.8296030426471264	2.241422775892432	-0.2541802757347065	0.4953796091698508
id102	sample0	obj102	-1.307525367535245	2.583354174058585	2.914641148973473	0.6580135055828891	0.8690682226949324
id103	sample0	obj103	-1.1918627609978298	4.055921313311194	1.189306887607041	0.6742715485480446	-0.9145362386301521
id104	sample0	obj104	-1.3269496814231483	2.3821661443661615	1.5131981738656013	0.8221161491204299	0.5497039051343637
id105	sample0	obj105	-0.4094688841129057	3.544187537822505	1.2088605473460183	-0.46758170954357736	-0.04459899670573386
id106	sample0	obj106	-1.0847736341642102	3.170926871102816	2.354298959888239	-1.172368951437267	0.18470022347152382
id107	sample0	obj107	0.806459544092031	2.4541638776481705	1.2702473457735712	-0.733070003694025	-1.01071938233206
id108	sample0	obj108	-0.12570816251334893	2.3714643977070735	1.4583426735287501	-0.02544084218062559	-0.15857914520200578
id109	sample0	obj109	0.8438598489496323	3.041097644544658	3.063491456799686	-0.33263407049026816	0.24679960495201847
id110	sample0	obj110	-1.1240848501811276	3.880459236348834	2.7040406652835305	-1.2952826327169595	-1.0711749656638045
id111	sample0	obj111	0.05708644062253554	3.700458097027841	1.6711355815163236	0.24857498010070156	0.6115823046536293
id112	sample0	obj112	0.60830675989806	3.9334964327220012	1.3774673746148531	0.2708077572697074	0.11604539764826938
id113	sample0	obj113	-0.7623121889380201	2.2394325864219184	1.5565680213029247	0.5936825788160609	-1.0993837496226506
id114	sample0	obj114	0.1559800497677215	2.727115780497149	1.5854984401502643	0.600239510367953	0.6684184724708708
id115	sample0	obj115	0.037218731240844294	2.9210575565453323	1.8222931318334468	0.2937714725642735	0.5636874179373395
id116	sample0	obj116	0.19031928951812027	2.3334056000012273	2.4984570159361077	0.7972348082656604	0.4091459060689573
id117	sample0	obj117	-1.1571559006709766	3.9979510679638777	1.457259955490155	-0.6710411783310499	1.1040389365142411
id118	sample0	obj118	-0.7529901236229545	3.100280091879437	2.5391308243652144	-0.0771582502406527	1.1046092786659607
id119	sample0	obj119	-0.49116556582055226	1.7987086911629884	3.0322093923109152	0.01916577134336883	0.7288238504405766
id120	sample0	obj120	-0.48977356482943724	3.9641734254070897	2.1626664660164643	0.46357333044034266	0.23620441161655825
id121	sample0	obj121	0.8243984397980657	3.9511182497307065	1.216844268713854	-0.868531461635458	-0.9097357274757093
id122	sample0	obj122	0.588321916310713	2.1104779261519093	1.1741918460663332	0.8454825584312371	-0.7385946726726882
id123	sample0	obj123	0.8506399494370964	3.6224422821604563	1.7824686697026402	0.5645151429596773	-0.09422587331469723
id124	sample0	obj124	-0.7943987999858146	3.0006469861234737	1.6083613720900458	0.07158032301199846	-0.21838858197907474
id125	sample0	obj125	-0.11322877740888293	3.928110908671396	1.8185885288147414	0.03908423446344278	-0.8523542256544754
id126	sample0	obj126	-0.4503912871811603	4.143477884442169	1.247361399809106	-0.5434061520965515	-0.6758245656812303
id127	sample0	obj127	0.028058438211396863	2.506261787164267	2.331808319195071	0.6074575148207828	-1.0297546258704964
id128	sample0	obj128	0.8032021008957819	1.921681858585046	1.4812580769229244	-0.4958404307648494	-0.6891464605998983
id129	sample0	obj129	0.8553185174620139	3.4766572333010526	1.8102021920858897	-1.2471300575813542	-0.604995666752366
id130	sample0	obj130	-0.8444715156657063	2.293445121536158	2.816913471087658	1.0176361748811698	-1.175237859475516
id131	sample0	obj131	-0.6518698435574343	3.198603008805521	1.7261826021625841	0.9838964200396874	-0.1991606793910412
id132	sample0	obj132	0.5258630546172467	2.072275029340985	1.9190383087473244	-0.24318162783026853	1.0027702579949123
id133	sample0	obj133	0.8412665468873046	3.81358553077811	1.5157319808119287	0.5372269235793945	-0.3300239805441382
id134	sample0	obj134	0.14911370509622035	2.9470224975116635	1.2192960182476469	-0.2510743977590342	0.2701003572767742
id135	sample0	obj135	0.7461997426080373	2.9044404385391056	1.7117077674675603	0.6858761940850833	0.41649632113722346
id136	sample0	obj136	-0.33836060654904554	3.8375631702066606	3.056713228705547	0.933333178322006	0.19875313635824843
id137	sample0	obj137	0.6368709968102142	3.923956417985301	1.6237749025984738	0.8084671919448387	0.6772716756007509
id138	sample0	obj138	0.5908731675701926	3.7902146680491624	2.614998406000308	-1.0343927352056248	-0.08878319550114311
id139	sample0	obj139	0.35126600529012975	3.9419144766893526	1.8473622947371042	-0.1911774972492417	-1.027710463739037
id140	sample0	obj140	0.7920848155829516	3.8005612230811865	2.399712537788009	-0.07250044466919947	-0.734235774660572
id141	sample0	obj141	-0.8123244114975564	2.7306544724076067	1.1488852683822097	0.2836897111680954	0.54372376504967
id142	sample0	obj142	0.9904623189334834	4.109949687759032	2.4505802909716623	-1.214350016054838	-0.8505146040708546
id143	sample0	obj143	0.8768685490449009	1.855356027546145	3.1143186788585737	-0.7799770319918722	0.66044310429011
id144	sample0	obj144	0.5765338705274896	3.2555160341727767	2.9115727091022876	-0.6871593244098638	1.0700471279683257
id145	sample0	obj145	-0.01125451164155522	2.6563139327924326	2.7630494642693098	0.5618342325403938	-0.07300455156226482
id146	sample0	obj146	-0.4322028980118938	2.0621936038744995	0.9837381932427207	-0.7682623567171012	0.6770134486322459
id147	sample0	obj147	-1.0156134483637111	2.2065819016764623	1.5187807835328604	-0.6797768678371817	0.5634506262953123
id148	sample0	obj148	-0.010734374382073586	2.2487502512307067	3.063100029576167	-1.237849924034532	-0.3415928434040413
id149	sample0	obj149	-1.1482495738782348	3.299452905466792	2.8941045658717135	-0.39121207056039875	1.0248264415029837
id150	sample0	obj150	-1.1595140681624287	3.7784925967679612	1.0182840655867493	-0.051067919498991365	0.04803367446803719
id151	sample0	obj151	-1.0343753429875606	2.2663368984266006	2.185201909311421	0.8702125089979063	0.10616775254796096
id152	sample0	obj152	0.706423059973343	1.9188718493745849	3.089883464645437	0.918743435580611	0.7439340255148339
id153	sample0	obj153	-0.1102279208813286	3.3466920074012316	2.1879751403749195	0.01842002843092372	0.8316914322061131
id154	sample0	obj154	-0.26554476461466225	2.5828179479447284	0.7959107890177075	-0.0400176327435513	0.7781770631820659
id155	sample0	obj155	-0.9084389353698064	4.027757520698501	1.0367591238744565	-0.5457239125055143	0.15375445615813144
id156	sample0	obj156	0.13956331348549922	2.5082230864896653	2.305031831976065	-0.5587059489324417	-0.4069563584145013
id157	sample0	obj157	-0.833288530813069	3.0429318482511274	2.9316031627162635	0.32141871631580177	-1.2102548725579692
id158	sample0	obj158	0.8146432028723012	2.3905887674810833	2.7916197467814126	-0.9198445351827285	0.068501847246762
id159	sample0	obj159	0.7741324755209587	3.1637319611592685	1.7599579449740232	-0.6476140883575825	0.8023422309786075
id160	sample0	obj160	-1.6673142340518383	-4.129846604108591	-0.27565858373477303	0.9695030511453596	1.63050326841801
id161	sample0	obj161	-1.4218574639464505	-3.405927864240772	-0.1562223102269935	2.039181286764079	-0.09927963816500007
id162	sample0	obj162	-3.047391000733392	-1.9855449202289004	0.5700168457623498	2.638839033613687	1.9709435616096669
id163	sample0	obj163	-2.192096380996656	-3.5972604757525986	0.36057432839548276	0.6183832216490592	1.2290908447163802
id164	sample0	obj164	-1.5002187983723194	-4.072257200092089	0.3887841784338153	0.5802263625456443	0.640572753210061
id165	sample0	obj165	-2.909344166870825	-1.8920989442957967	1.568753098062864	2.602380640487892	1.5269103595695894
id166	sample0	obj166	-2.091899608708669	-3.0675301952269303	1.587365551645102	2.1775386456386676	1.9733183018347722
id167	sample0	obj167	-1.281336602828487	-3.9712025935063413	1.345822466926544	1.783774185567804	0.12976772750885224
id168	sample0	obj168	-1.9006436690079862	-2.553531023890395	-0.6138460307743931	1.236564667825181	-0.04200597886492341
id169	sample0	obj169	-1.6138536932528604	-3.614353736720265	1.0244944147943933	2.3867124058388853	0.22496858126136332
id170	sample0	obj170	-3.1789654866876145	-2.818858498623624	0.6412365159645228	1.326775090385643	-0.10238751923436062
id171	sample0	obj171	-3.234596652847257	-2.4819929830630176	0.7845879538811134	1.1396444404122357	2.1875818767578052
id172	sample0	obj172	-2.656630300172515	-4.161463527749549	0.612128871536491	1.244283561799494	1.0498942765303638
id173	sample0	obj173	-1.6415190143244118	-2.1680925942256986	0.9958076631898072	2.8301917752849324	1.963590211544576
id174	sample0	obj174	-2.588672962113593	-3.208913143779026	-0.29199009675905285	1.5762498617159262	1.8126227571727724
id175	sample0	obj175	-2.256886838332009	-2.520581042686743	-0.264017640975453	2.661059951238415	2.2243369284547203
id176	sample0	obj176	-3.162966653132562	-2.0386400679289176	0.27258717089589557	0.6180693424752186	0.48233431111592895
id177	sample0	obj177	-2.490998617643832	-3.604538969361403	-0.07580751766129556	1.0845045928688735	1.2688088087877827
id178	sample0	obj178	-2.516974864197473	-3.7722255551561545	-0.32993016459797153	1.540783568629567	1.8546797762603937
id179	sample0	obj179	-2.6671514433831	-2.8872919608654097	1.298058645277752	1.1264605695516723	1.677636831471752
id180	sample0	obj180	-2.6734770712101357	-2.2341699028574613	-0.08793239190793067	1.1272437359591114	1.3496355381781535
id181	sample0	obj181	-2.63209691443729	-1.853432933432898	-0.7706924205381123	1.7200360569472228	1.5250389217872666
id182	sample0	obj182	-2.790213998768383	-3.207010624773126	0.21757951983016288	1.5916505202437061	0.7345868956862568
id183	sample0	obj183	-2.9738861195559267	-3.311712380837021	0.11157586066383973	0.8516677107343325	0.33227566727572877
id184	sample0	obj184	-3.2285557288173243	-3.9810550711948385	0.02557859759280745	2.5681874349193103	0.8831496885205703
id185	sample0	obj185	-3.2916595215083344	-2.534640856582679	1.3692541743289615	2.581826553451052	1.0985312310998354
id186	sample0	obj186	-3.48145043333642	-2.2884003576473537	0.0820437339921275	2.3005603167382334	1.3474402513552
id187	sample0	obj187	-2.109592971740546	-4.075555316853303	1.0260205764111197	1.4357576550415931	1.0724764784647074
id188	sample0	obj188	-2.761069671387938	-3.727319418996119	-0.499367457100536	1.385347451856129	1.8363474088431049
id189	sample0	obj189	-3.3998693518788117	-2.036806060021415	1.236553327803908	1.8683311520206518	1.4301148217640238
id190	sample0	obj190	-3.2317210160335685	-3.6244991576511674	1.5485335684429569	0.7181599320779373	0.5822041371811901
id191	sample0	obj191	-1.6771985000800302	-2.3166278948821724	0.22475841061772472	2.6906752744923432	0.1018554160788454
id192	sample0	obj192	-1.2837557375161401	-3.7490216057267443	0.33637963653621705	0.7627039768733205	2.243099759096273
id193	sample0	obj193	-2.450067901583717	-3.3411654570336684	0.4866909811918936	2.104856123418228	0.24410134615059798
id194	sample0	obj194	-1.4793552543400208	-3.183386456601439	-0.20655205445385894	1.1089333237769368	1.8279177919577272
id195	sample0	obj195	-1.4615595140169162	-3.7920281279561756	-0.4938081889159931	2.326462532006172	0.47798505694576277
id196	sample0	obj196	-1.6612366470295017	-3.1732786636682264	0.8867160777590597	1.107570471628161	0.34602840243687005
id197	sample0	obj197	-3.4252269336459595	-3.0686573692555057	0.5961069381079773	1.6835483489586844	0.8202263453029506
id198	sample0	obj198	-2.600472958022735	-3.919191844023286	0.5946874773137312	2.164371751530899	1.2734075138871803
id199	sample0	obj199	-1.6591819110396895	-3.4786947459033435	0.21779849172019672	1.3639775385899877	1.0084324321122444
id200	sample0	obj200	-2.6697814582576247	-3.8394238152914673	-0.1257577420229281	2.8486035295767755	1.6917990028920489
id201	sample0	obj201	-2.5441956797907395	-3.628445087813251	0.6465019195246673	1.241812607569548	1.6755029345431205
id202	sample0	obj202	-2.563788362279401	-2.025367238119869	0.16111541216654712	2.5162911783712714	0.09738007073917343
id203	sample0	obj203	-3.0792774183372726	-2.9894361287350115	0.7399260702867045	1.6469787473836195	1.9551468872013826
id204	sample0	obj204	-3.047934802035481	-2.8264243542382816	0.4219450780705145	1.26989618054888	1.5902330700351268
id205	sample0	obj205	-2.3808480277883923	-2.945981705567217	0.032337940242350705	2.3510316277434438	1.2028621739901781
id206	sample0	obj206	-2.902846081870477	-3.743281416320899	0.6281805366437341	2.1721704904902337	1.6457717016978535
id207	sample0	obj207	-3.1692830647636967	-2.5825620952061517	0.4162169621280789	2.0254493372306843	-0.005928025357491817
id208	sample0	obj208	-3.4411406500258126	-2.8746839918623315	1.5494803588703545	1.7030302935800852	0.7341128551869868
id209	sample0	obj209	-2.709255869987618	-2.4487408794566408	-0.31159284332102666	0.5874634787221371	2.0134558840898955
id210	sample0	obj210	-2.6088136658766388	-2.8542616783999883	0.9665774792361979	2.094386891509204	1.2932281245449588
id211	sample0	obj211	-1.9179685349651092	-3.3432447567553245	1.427540025371851	2.78203699043286	0.6768578039547294
id212	sample0	obj212	-2.143484720916054	-4.13035534980032	1.180929598390736	2.398963240191586	1.976555235820753
id213	sample0	obj213	-2.0280119901629416	-3.787738423340892	0.8343441660020925	2.0571922074149698	0.3294964592605706
id214	sample0	obj214	-1.946955621066687	-1.9832082287543484	-0.3491812719500227	2.3452222967465626	1.2855902555105745
id215	sample0	obj215	-2.2892568704456475	-4.114732528086254	0.7063019572510676	2.0734836345562364	0.44154720960593374
id216	sample0	obj216	-1.5396816933461637	-2.4402868753548916	-0.6890936960581369	1.0016230236525168	1.6628282449697593
id217	sample0	obj217	-1.316828860933651	-2.5729702665214496	0.8329562806509079	1.8470059914070192	1.5745088854307177
id218	sample0	obj218	-3.5999143708876007	-1.8419050315975543	0.4345942565089167	2.2195165646970354	1.86026100179431
id219	sample0	obj219	-1.2398822210314517	-3.557542807223795	0.5880155628705133	2.3589206926943462	1.219111965932745
id220	sample0	obj220	-3.150430917850788	-2.025729591939176	0.17588713619145746	1.9450879483658645	1.5134865935885367
id221	sample0	obj221	-3.3785378196430655	-3.600891231304881	0.759247705985248	2.673077838371529	0.7078693894037434
id222	sample0	obj222	-3.1409223922129996	-1.9401537448983095	1.1797926217678618	1.586841695262073	2.141327708919032
id223	sample0	obj223	-2.7740114883766473	-2.714758256731786	0.2969983788730457	2.1869045014635224	1.2827133921199307
id224	sample0	obj224	-2.1842666715023835	-4.1629290163666495	0.877642503216272	2.6962248739806727	0.45569993207380377
id225	sample0	obj225	-2.919613153171851	-2.252059681993704	1.4770116980742765	1.399324336058093	0.8505071238786847
id226	sample0	obj226	-3.440071694236069	-2.8928543974089447	1.4860598770805755	0.8650732074529357	1.706315461987344
id227	sample0	obj227	-2.287952831833441	-2.8615512869745023	0.5630768957797363	2.1130666722352656	0.18656291511319623
id228	sample0	obj228	-1.4990274164386326	-2.4987260280294445	0.10564171644206555	2.1646616455738092	0.7996500379626507
id229	sample0	obj229	-2.722347472883332	-3.3370735179047886	-0.7801340680124405	1.2973169646107225	0.34864208224597104
id230	sample0	obj230	-3.006764184268844	-2.2511584669027522	0.6677699303354814	2.4472323433082015	1.5214465919028703
id231	sample0	obj231	-1.2580779319743376	-2.417062442009109	1.4661725615506465	1.3202552529346288	1.0412566652429527
id232	sample0	obj232	-1.8760690509585816	-3.029293398616067	1.2053079008367182	0.8019684776411633	1.3568710515241582
id233	sample0	obj233	-1.8618014260188667	-4.06892190119061	-0.5263931079035855	0.5196212429291684	1.422435378766395
id234	sample0	obj234	-1.271469281529246	-3.98581943659396	1.4252826721220455	2.6034752571032187	1.1422805306243184
id235	sample0	obj235	-2.725081679462967	-3.296757092295495	0.6056425034401769	0.5130405897210197	1.1724604413329207
id236	sample0	obj236	-1.7103478481869687	-2.170131391902398	1.238997610322355	0.91192325739277	1.0974080343105783
id237	sample0	obj237	-2.1206546433016396	-4.03987810265606	1.3567570305925292	1.4584383817601714	0.5464270373241341
id238	sample0	obj238	-3.2099126991870315	-3.5508651467549397	1.5573634876595024	1.8801034266792107	1.6766099566003558
id239	sample0	obj239	-2.2277047361686595	-2.883385544724929	-0.708747937355108	0.8584616564734662	1.209818386934024
id240	sample0	obj240	0.9044276511235618	-2.5558341296557865	-3.5804861758408717	-0.8830808400200901	-1.5791464719693211
id241	sample0	obj241	2.6126516171167156	-2.84217377583966	-0.9978560999029075	1.9810572134577515	-1.0488813422210816
id242	sample0	obj242	1.3363052291136746	-2.0585525687402217	-2.093142056442054	0.03196852293098251	0.2806905143609528
id243	sample0	obj243	2.170512469125958	0.6820771734889965	-2.0925057066266937	2.3808017887545274	-1.2926592507055705
id244	sample0	obj244	0.04454148354305598	1.4878490333420673	2.71050131765696	1.7194002405016573	0.053268618013758484
id245	sample0	obj245	2.622808257115407	-1.752947859050941	-0.5924584272096223	1.6979937543058772	-0.608181404440195
id246	sample0	obj246	-0.007995806744494738	0.6652501090233484	1.8148448024375226	-2.8184623861906806	-3.357009029033856
id247	sample0	obj247	1.596260942687724	-2.9610802212086744	1.3195660592611307	-0.7956404091713916	-1.4316264047081875
id248	sample0	obj248	1.8574455927598708	1.6576399471392682	-1.6632428198681541	1.4048861282445728	2.305199816855679
id249	sample0	obj249	1.5587397192372332	1.794659113404402	-0.1940633594371095	-0.8926253182861654	-2.031398630971128
id250	sample0	obj250	-1.1826920251553785	3.1411581645440174	1.2702067814849418	2.0938742162298842	2.7011420460353097
id251	sample0	obj251	-2.5357764177685	-2.553809894008811	0.5371786100619005	0.8921085440907126	1.4541016112170018
id252	sample0	obj252	-0.4283666268027615	-2.3790325320797914	-0.6331600927716794	1.8100551996593142	-0.7401901783829457
id253	sample0	obj253	-3.4270468393788995	1.1670506107083334	0.5450079645256991	-0.3664859906490687	-1.5377368264214208
id254	sample0	obj254	1.7102231575241522	-0.23196531112950836	2.8301900187909634	-1.3270406767472664	1.5864882915470466
id255	sample0	obj255	-0.11810513442310056	1.4319428598079007	1.8005374531268876	-1.8102944308096274	-0.49279921018637163
id256	sample0	obj256	-1.2929232291580672	1.399881298387955	-0.04939926835175279	1.4789848004049804	0.6103515820020069
id257	sample0	obj257	-0.7472889567664127	1.6174423332462902	0.4608261932954697	-1.4297662832968128	1.9000058617054836
id258	sample0	obj258	-1.0982374811005748	0.4176668945351063	-1.4689670137740798	-0.3309640329735125	-3.7388712909109705
id259	sample0	obj259	-0.5026493300939381	-2.2093643690887714	0.5049803743272272	0.4158966259615824	-1.5552551775722736
id260	sample0	obj260	2.5038644118584283	-1.2867315222138798	-2.8575689462000318	1.076880631439499	-2.335669877997835
id261	sample0	obj261	3.0401060587562503	0.3535144834891928	1.5793818775659485	-1.6021906188041168	-0.5623293899203635
id262	sample0	obj262	0.3569703413029275	-3.951784386762552	-0.2546500621522334	-2.716398488709669	-2.8133200257159316
id263	sample0	obj263	-0.5575437470686597	-1.5438312937023138	-1.460945508500619	1.0963021883990085	-3.680874864023668
id264	sample0	obj264	2.742329945986425	0.9457305135089797	0.17305417621817054	1.1201806032075892	-1.6941767605354283
id265	sample0	obj265	-0.9347501349656622	0.15387040934592844	2.8273502256423884	-2.5051730038995523	-3.674275360994342
id266	sample0	obj266	1.8044666876102682	-1.4002221688602878	-1.0382841528971072	-2.9287382333242125	0.27120199902323106
id267	sample0	obj267	-0.3775581286337384	2.5533559064764995	2.2051041123970228	-2.6195817888315185	-1.0214378942474298
id268	sample0	obj268	1.2567108635648192	-1.7373725343210986	-2.5495661207810425	-2.6361606228791024	0.27580270228695214
id269	sample0	obj269	1.0086112822291107	-1.3213042131845523	-0.9014429278633715	3.8987917545892783	1.3088769317173696
id270	sample0	obj270	-3.5758252033476388	1.6456887572289391	-1.929674857589189	-2.7962196212934805	1.2913327718423186
id271	sample0	obj271	-1.548374544474802	3.44792874499102	0.9004867200212032	2.031441178813992	0.8282051577860106
id272	sample0	obj272	-2.611322384549687	-1.723148131607354	-2.713975670853025	0.7446395014311861	-0.3752164269472289
id273	sample0	obj273	-3.190666098473247	1.4528896587822042	2.0440480563178896	1.7089927971635372	-1.810700415684555
id274	sample0	obj274	3.1235911775975103	0.7279531305974272	1.4066998802792943	2.3689821146286323	3.30230416526841
id275	sample0	obj275	-0.36175199440802497	-0.7537030940767383	2.510566668258895	-0.1238020345191897	1.6892794802948716
id276	sample0	obj276	-0.6510317324927823	0.7971745062844322	-3.166010754906697	0.4228096570909836	0.4944576134472982
id277	sample0	obj277	-2.9147948416762297	2.2046419479598858	-2.1182243745097984	-2.159741966501149	-1.0677859565259542
id278	sample0	obj278	3.027993595366671	0.07015306538373989	-1.9298478628529108	0.0807273760280629	0.03138094119527657
id279	sample0	obj279	-0.012203795075429902	-2.19580740257384	2.3121905897515225	-1.8322789050626143	-3.45210104787792
id280	sample0	obj280	-0.34201307441947804	0.0834697589004818	2.8945861161555957	-0.9608498674152792	-1.7091835439780467
id281	sample0	obj281	-0.02098900920629143	2.660837556397964	-2.8711675178877956	-1.446875735641736	0.03525785334648979
id282	sample0	obj282	-2.312335644383008	-2.7989746091458834	-0.2899093391886596	-2.8410708348234133	0.9038202826372119
id283	sample0	obj283	-2.8460888231190338	2.239658759037235	0.23034471035315218	-2.7974072227902207	-0.5728686981784742
id284	sample0	obj284	0.4661282671811908	-1.2185344457647214	-1.9970469391261467	-1.9765843223025166	1.3361674774629224
id285	sample0	obj285	-2.361783157932932	1.404051411763945	-1.1465848151100546	0.6750606710841425	-0.18556374645765383
id286	sample0	obj286	0.20437201494812585	1.7490840893917998	-0.88959430212352	2.918034799472485	-1.584254494777061
id287	sample0	obj287	-2.7424441816846796	-1.6252785908567386	1.23510298254319	1.563778411857219	0.6054548117825023
id288	sample0	obj288	0.8619818169934444	-0.848157909662056	1.3088435499914526	-0.652059295561447	1.9394844272196186
id289	sample0	obj289	-1.3822014811459544	1.7511363520737089	0.7237624294037557	2.168950561836904	-3.047042803478147
id290	sample0	obj290	0.8888126086859672	0.8292261637343479	2.5962608859671596	0.8427118375555223	-3.150140051162683
id291	sample0	obj291	-0.19004827950695757	1.8897900490444817	3.2898940051837644	-0.39921513493623717	-0.7064870533474565
id292	sample0	obj292	-1.438341513173982	2.0014683461614915	-1.9683233453568887	2.711409899928433	-2.6959962777343365
id293	sample0	obj293	0.0787986557789091	2.5669899284283817	-2.3967634861227123	0.0376209977680142	-1.2888346504790793
id294	sample0	obj294	2.1047871356134515	1.800418127989247	-0.2541855120526946	-2.0159847019369037	-2.699184688633797
id295	sample0	obj295	-0.17163734245989692	0.44613234209650976	1.1762519628868653	2.5792879702865035	0.9157329261321896
id296	sample0	obj296	-3.957266020543737	-1.1377304991180273	2.0192927666754166	-2.303799999204582	0.4084162838376222
id297	sample0	obj297	-2.162304527338251	3.3170389514375156	4.021524307352387	2.804439874637797	0.07654586825941845
id298	sample0	obj298	3.151667291772301	0.2827085114431651	-0.9178416775301337	-3.0432110462068174	2.203036320675772
id299	sample0	obj299	-0.923834940227416	-1.5496473875933097	2.359608152810309	-0.8801665295026209	-2.0583940527087607
id300	sample0	obj300	-1.6858066408021217	0.8501086372678588	-0.8256742930542063	2.9405395024237784	2.116792220147017
id301	sample0	obj301	-0.19154914982727278	2.9804413864400603	-2.342117025765475	1.4106214318992207	-0.6180774695522402
id302	sample0	obj302	-3.232127844931682	0.7291400698578487	0.7901068770440525	0.08259137244273829	0.4243343985142891
id303	sample0	obj303	1.7014258878778952	-1.5543778690194312	-1.9730691468410073	-0.6980007713310166	-1.1650638702266376
id304	sample0	obj304	2.125946670819144	2.4748521503195295	2.4640353133623565	2.389728562428428	-0.4450577494057153
id305	sample0	obj305	2.9745683093761386	-3.839350361186129	1.4117921719685165	0.6133680408201778	1.2093457858978662
id306	sample0	obj306	-2.922755126293251	-0.8861646058956666	1.254962266121787	-2.3649678910161236	3.3638681373970254
id307	sample0	obj307	1.8601184672277713	0.21066526149862796	1.0741111125024123	1.782499125905955	-1.5729299473916498
id308	sample0	obj308	1.446947729968894	1.9685795660745755	-1.4952713040306367	-0.6019704969654687	-2.9591946417658965
id309	sample0	obj309	-1.8280062759498283	-1.3470038098619426	-0.7883331481775091	0.3814452033719077	2.886065565373061
id310	sample0	obj310	1.3818075921945792	-1.1867273908882519	-2.023450082270591	1.9994693680660662	-0.3306699891459195
id311	sample0	obj311	2.9454669554363724	-1.9015107762810717	0.030015202596764046	-1.6984246212113143	1.7480031781817087
id312	sample0	obj312	2.768283630194692	-3.0131020411773113	2.547361102628135	0.7574696766535844	0.09724634247947983
id313	sample0	obj313	1.7111316318009542	-0.8840487810781101	-0.13914439934905032	0.6647489653006715	-3.376049595752603
id314	sample0	obj314	-2.371516174015481	2.6365967829616155	1.2759205381558365	1.3386502913040212	1.3009838243302287
id315	sample0	obj315	2.718361513688796	-2.099487302446983	0.7576299738643477	0.3444266092910373	3.4812669753846497
id316	sample0	obj316	-2.9145703027479968	0.9607482577817662	0.16076038667775894	3.2126232092800966	2.719662429754793
id317	sample0	obj317	1.0889009372926803	-0.7121141184790623	0.5906635260504839	2.0943788322048973	-0.693483346331611
id318	sample0	obj318	3.2623799012412684	-0.3328715878282754	0.4869026989621711	2.27708460518319	1.2656381061736415
id319	sample0	obj319	0.06992893262928468	-2.040376635786118	0.8778541891579684	0.7180630085646238	0.14926922647613527
id320	sample0	obj320	0.8226554611096925	-0.32332164123921125	0.9528918640399429	-0.4570698777166333	-0.7797322490769953
id321	sample0	obj321	1.6018646712570717	-1.4849470723266396	0.12424611311024103	-3.0385999434689213	-1.8255795777713626
id322	sample0	obj322	2.06094100131718	1.6988459335896273	3.0410510563375883	3.552373576240184	-0.5458534605548877
id323	sample0	obj323	-1.4546288758620751	1.62148263134554	1.2062457069589203	-1.5917707098011515	3.505530881990579
id324	sample0	obj324	-1.5050598881195598	2.9142451067120394	2.1063225614599776	-1.8290543074349985	2.889397519480477
id325	sample0	obj325	-1.0011781714213615	1.843247926712902	3.1376680922872415	-2.527932457689306	1.9705833269808417
id326	sample0	obj326	1.7169101638043764	-3.2345987726719816	-0.2742462697895074	0.13447970230382356	-2.7657055877811985
id327	sample0	obj327	1.4260474704012167	3.4878469311513802	1.5533881108369696	-0.6607768097413552	2.3806684017074007
id328	sample0	obj328	2.3525643812668484	-3.1157079266316448	2.6978373069469	0.6046066342826613	-3.9717759612874253
id329	sample0	obj329	0.40278459032676706	2.270552710907907	1.520965800678992	-3.4352644555467347	0.6701797921244448
id330	sample0	obj330	1.5337632570457769	-1.1975328841898123	-2.6102520628583163	-3.3263884749527013	0.9978879235036091
id331	sample0	obj331	-2.298921660123	-2.8135041539473664	-2.075693423949484	-0.09585413697193346	-0.6138821651220189
id332	sample0	obj332	-2.431200351992384	2.903081384146648	1.5465642834587747	1.7260344887030648	0.8012990332795864
id333	sample0	obj333	-3.2206038447871768	-2.6339819197984697	0.7274720036296256	-3.0891088505865936	-1.9734359139948063
id334	sample0	obj334	1.4362173038150496	-1.6407267097308877	-3.729873125280678	1.1404379845751214	3.477660070783762
id335	sample0	obj335	2.808440461189022	-0.6681671688827018	-2.6836909046816366	-0.32211917262347156	2.6886127491518477
id336	sample0	obj336	1.5517322483683071	-0.451835831833844	-2.707280476820311	0.1588032819419256	0.3916550656257989
id337	sample0	obj337	1.6436547463007274	0.3530770597175814	-2.4819755931653353	-0.5308397555636113	0.4595854402967754
id338	sample0	obj338	-2.410140364133367	-0.07849650455555535	1.375241429824764	-3.813898770802122	-3.2471622144686765
id339	sample0	obj339	-2.576448623087418	-1.820563664643502	0.17632382559148074	0.4949720401429458	3.4280480242084135
id340	sample0	obj340	-0.6336959991629163	-1.5290089962792452	1.2786875529201172	-3.1791895689341434	1.0761334751991183
id341	sample0	obj341	1.702874111861759	-2.127849239528922	1.3806092659630844	1.1087351999981343	0.3651248565119396
id342	sample0	obj342	1.8943554144770225	0.7137071533943928	2.0493587894336485	-1.999029858983964	1.0643220503457629
id343	sample0	obj343	-1.4833498899396806	2.131993328883873	-3.0382937264051355	-2.5269478362180586	-1.197513542161082
id344	sample0	obj344	-1.959498455224858	-0.9941893379070192	2.265882154367766	-1.4631788084113067	0.18850942481880617
id345	sample0	obj345	-2.7285967867384904	2.4225407369401983	3.0176409009936003	-1.2811042630053628	-1.1463287667988258
id346	sample0	obj346	9.694611011725751E-4	0.5059130582372027	2.609246689455871	3.7070401336116836	1.4807786846539932
id347	sample0	obj347	-0.43009901488580105	2.1559086266474488	-0.513231213889837	-2.5125923889617647	2.6345260831128745
id348	sample0	obj348	-1.9678915191775008	0.8999656222279623	-3.0085963868355097	-0.3836884409911938	0.7546216563997842
id349	sample0	obj349	-1.5421564676959787	0.0289364699090795	-0.2825380805258939	2.342093739696654	1.5894344019232503
id350	sample0	obj350	0.6327409551481923	-1.314213053756179	2.0281122749073863	2.172845240586321	0.16809327943921404
id351	sample0	obj351	-3.211254750038982	-0.5821085346408283	1.9100344223914507	1.1380605133207549	2.67277287202436
id352	sample0	obj352	-0.6156146010129377	2.724146892264125	1.2194545264416037	-0.17580219585378787	-0.9120784311926318
id353	sample0	obj353	0.8094643304716553	0.928945331628668	1.691147766012356	2.6756357650350786	-2.271036563009748
id354	sample0	obj354	-1.8385214544029946	-2.0988931463730562	-1.7654022165456258	-1.141563590736392	2.1116613032194333
id355	sample0	obj355	-0.4232091676898575	0.2553191191757678	2.1711185137519946	1.1262962647848112	0.8847166468563175
id356	sample0	obj356	0.9898479984678075	-2.7127701846555263	0.40232246636044255	-1.4129638685498285	1.5351326394357525
id357	sample0	obj357	0.5093787690713698	-1.6085934058794682	0.7408052986951836	1.4458621068764916	-1.8272656806034104
id358	sample0	obj358	1.0415793441452161	2.3314721584358504	-1.557502625068626	-0.7658209237886404	0.5092313201824937
id359	sample0	obj359	0.11280789729460639	-1.1100259069473977	2.286610295093431	1.8663992975674653	1.6141869630983037
id360	sample1	obj0	0.2973466221989918	1.42544647270858	-2.661258106425689	0.6215420001740357	-0.766238695169086
id361	sample1	obj1	0.9203430398623589	1.0949916743544803	-0.7913524478892491	1.5988474198956806	-0.4361894877351802
id362	sample1	obj2	1.6207189283756276	-0.3732794180775165	-1.187184551617547	2.1593584208349217	0.15082478578648129
id363	sample1	obj3	-0.09718598089497266	0.7605689821919044	-2.474560463493022	2.4288386580317027	-1.1553029977983738
id364	sample1	obj4	1.5613172135705013	0.8939893417250222	-0.6977358427900342	0.4438859918778584	-0.4683067717324193
id365	sample1	obj5	1.9335489721382364	-0.5282806649925789	-0.7165789844237935	1.094067233789342	-0.48065168827938254
id366	sample1	obj6	1.050780872845925	0.1357210425796811	-1.7228390216208411	1.4754533724632357	-1.0727122680248056
id367	sample1	obj7	0.7881107749980434	1.0497794221022156	-2.6649198441073105	1.1007275099334861	0.47123204781942607
id368	sample1	obj8	2.078264195655315	-0.18615693583628323	-1.5846394119986782	2.09381316383623	-0.38297660392936306
id369	sample1	obj9	-0.0681721205603244	0.34311155988870556	-2.0792828061355166	2.300785930388569	1.0558152990177063
id370	sample1	obj10	1.1346748575619412	1.0897147018417657	-2.1304965421108184	2.1947895391163605	0.22542905657764223
id371	sample1	obj11	0.8000663942774597	0.4016848416448844	-2.4233726611652426	1.8493651848673713	-0.021355293280436394
id372	sample1	obj12	1.7529475021781147	1.103384224186478	-1.8620954154562983	2.098118834614014	0.6667108033041176
id373	sample1	obj13	-0.08035824541806447	-0.7102862128132768	-2.532922501706618	2.3725854404532942	0.44295989827796767
id374	sample1	obj14	1.9773360957440296	-0.7131117874012067	-1.143706325744138	1.585598356154709	0.6619619780762032
id375	sample1	obj15	-0.03822407553750151	0.4664083216868269	-0.46678378095419126	1.4630268426664574	0.6064645612232284
id376	sample1	obj16	0.40330107319242925	1.5146924174369507	-1.826530843823486	2.4685042880389387	0.5573154759327663
id377	sample1	obj17	0.9130988855362416	0.9547327342883478	-1.114349075101134	2.547318831715361	0.7579727239348035
id378	sample1	obj18	0.21316376269169712	1.371719583149641	-2.104979434327344	0.4580816244293009	-0.3700724041147546
id379	sample1	obj19	-0.17771299220560222	-0.01708533051120187	-1.523981445074345	1.6727085551650223	0.9707423824307961
id380	sample1	obj20	-0.008708623477743593	-0.7282484578880977	-1.7246310913429095	1.8027540892528637	0.10227777689171891
id381	sample1	obj21	1.4260250671711843	-0.5767107038547257	-1.133528352982954	1.4368006625545606	-0.6895996367979598
id382	sample1	obj22	-0.16382842449574908	-0.21366181476718815	-0.990532887856068	2.0205449928196253	-1.1061399135416852
id383	sample1	obj23	1.7790723063890386	0.16790718563203688	-2.125406456225619	0.5370084172126146	-1.028540536431403
id384	sample1	obj24	1.3953289206870143	1.3466878920121228	-2.5784019054859053	2.095044109938275	-1.077061613844539
id385	sample1	obj25	1.6093059968364158	1.1701782208097427	-1.5951481242377719	1.2435969074817042	0.1875182674174627
id386	sample1	obj26	1.7326285296372916	1.2583599391773939	-2.330200444056894	0.5180994175584568	0.7296296336939281
id387	sample1	obj27	1.8897109884873602	-0.5533318059059189	-2.5137084591242393	2.702544162948384	-0.19366727423376906
id388	sample1	obj28	1.3961071727163037	-0.47907931349788857	-1.619459586698909	1.1522555780192607	0.12517305081779817
id389	sample1	obj29	0.6653762260848429	1.0730078121379647	-0.5802353702047263	0.5517897093783093	-0.7579626219909823
id390	sample1	obj30	1.8880650148345828	0.47207168836688496	-2.300633840180535	1.8508062936225014	0.08083828488705658
id391	sample1	obj31	0.29465388367019385	1.1227175018934938	-0.6034150104308751	0.886783387181054	-0.2871081463103896
id392	sample1	obj32	0.9477445906619748	0.17809928649971463	-0.5106749957859849	1.11316965353282	0.3535178194606965
id393	sample1	obj33	0.7597297279051354	0.18759624453944568	-2.2159076120596852	0.7385915071273959	-0.15598012720908172
id394	sample1	obj34	0.040519184287654886	0.9698404650002763	-2.4699203183331413	1.368140674948105	0.4036433244467137
id395	sample1	obj35	0.7729479967284549	0.5831646445148955	-2.517797262966595	1.5301606925212745	-0.7392977402366958
id396	sample1	obj36	0.4061038802302922	1.375703106934148	-0.7332957015882691	1.7674182930046132	-0.005340266987998499
id397	sample1	obj37	0.4513267543863949	0.9824981868053506	-1.4613847889581386	0.8536839902802846	0.7188790696097298
id398	sample1	obj38	1.951898459816196	1.1306222136663011	-1.8717411022826727	0.6366481178183567	-0.5281164466779337
id399	sample1	obj39	0.5527946483088363	0.8366288868387168	-2.0310585124217293	2.564357021686269	-0.18438963313452672
id400	sample1	obj40	1.186164453562598	0.9421780277587355	-0.7176719159035418	0.7710657073296635	-0.6978328335485439
id401	sample1	obj41	2.0637723481705006	0.32953755099419135	-1.93838535363317	2.0131564472753034	0.9933378538082487
id402	sample1	obj42	1.46933131514249	0.4724450488664673	-0.8871958423644417	1.577669546299423	0.014382976950511939
id403	sample1	obj43	-0.10118305009265915	0.18060342587305422	-0.6439694139525083	2.243615835369987	-0.20211547456864964
id404	sample1	obj44	0.32032253933373356	-0.05351470392459412	-1.4957109595788012	1.8556955496433485	-0.3856639726188248
id405	sample1	obj45	0.41914112896979583	1.1472210111218375	-1.434032265919352	2.154918762157954	0.9712216142411088
id406	sample1	obj46	1.1483842021715616	0.5257424176654895	-1.8124181076948152	0.9720099065305653	-0.14369226329502682
id407	sample1	obj47	1.597911042263338	-0.4048627893111558	-2.621075955938024	0.9859717706079402	0.7561282157810962
id408	sample1	obj48	0.9894937241432677	0.08693745459441138	-0.653184959005199	1.5278795150504934	0.6370257375990871
id409	sample1	obj49	0.1563239509637333	-0.6060925897402187	-1.5043939477653228	1.0024642164044326	-0.6390401781481946
id410	sample1	obj50	1.2100190305711884	1.5244105104676053	-2.390107174775297	1.7284247762875593	0.8364503763818114
id411	sample1	obj51	-0.13444374959671523	1.2597103788208985	-2.7176045883783715	1.971266100283455	0.2788390125405269
id412	sample1	obj52	0.2988935724221471	1.3461963055096644	-1.7600174646620579	2.155901004542245	-0.23663931486890022
id413	sample1	obj53	1.4557704622661805	-0.2923919594648675	-1.0067846821525333	2.083856796474861	0.27667168122187946
id414	sample1	obj54	0.003165225137949479	-0.8385343691561296	-1.9831001009309723	2.7128006787425747	-0.4276829537515088
id415	sample1	obj55	1.9944595321006473	1.3901782086916767	-0.5241893951531493	2.4428246823487045	-0.23451041353872482
id416	sample1	obj56	0.1703708008461291	-0.3406918933752815	-1.0566732796672924	1.5406104826823885	0.002171877523201582
id417	sample1	obj57	0.1925038238885466	0.7892927894665283	-2.388950002280542	1.6528177881888613	0.734710758001871
id418	sample1	obj58	1.744782933534044	0.6561758495275207	-1.0681107085328434	1.5349033562472048	0.5448922189900172
id419	sample1	obj59	1.8674084610500994	0.39265821045304516	-2.7575467983861808	1.8596724154235629	0.4790049178832354
id420	sample1	obj60	1.4231682789693534	-0.6583492594111098	-1.3747767787088934	0.8672859846974648	0.08705364342376098
id421	sample1	obj61	1.1392813154067452	0.22657708348524275	-1.3632619289456087	0.55878769965433	-0.43245625558612233
id422	sample1	obj62	1.5092906757439186	0.7795424925699537	-0.5277588783620362	2.0895699139942367	-1.0250436050964704
id423	sample1	obj63	0.25620878313409257	1.1312357018377261	-0.6252223086263757	0.8461605509571976	0.3015108348552733
id424	sample1	obj64	1.7149866002903094	0.42366800043436115	-1.870084096079805	1.5353748839919323	0.9379109179199439
id425	sample1	obj65	0.2417767092478944	-0.5453353600429209	-1.9940486547591172	1.31283691697476	-0.3231621455367172
id426	sample1	obj66	2.039233489275026	0.6850062000464716	-1.8190163310305874	2.4492188211639636	-0.8371686114385342
id427	sample1	obj67	1.828580411570605	0.3063627953993846	-2.392534719683617	1.4858802885294664	-0.5847703226361459
id428	sample1	obj68	1.815225692158888	0.8392663223597432	-2.745933479714213	2.762991466487736	0.8468714400981046
id429	sample1	obj69	0.587659303095342	-0.24857866593640332	-2.6261842305069143	1.1963017245519478	0.1476327084238318
id430	sample1	obj70	-0.05093343981586684	-0.6087475920700087	-1.2961931352422795	1.70455355424086	0.16342851336013609
id431	sample1	obj71	0.984887595336488	0.14082526754476943	-1.479842494287715	0.9067393799862913	-0.26960342652122693
id432	sample1	obj72	1.2822788332275128	1.2147479824231648	-1.1452992435917486	0.4630453320445298	0.3604384161734544
id433	sample1	obj73	0.09144386512111602	-0.0365452194138024	-0.6830629417030696	2.459019648532623	-0.654529391852361
id434	sample1	obj74	1.893928766746691	1.163991829947353	-2.5665902456199463	2.550334567480781	-1.1315257974700579
id435	sample1	obj75	0.4465781816574158	0.970153755655307	-2.218257435425623	1.9040750438163245	0.28207289776555244
id436	sample1	obj76	1.2167546004992122	0.6051569285158442	-1.7895742054936186	0.48787547334359505	0.029758173354199613
id437	sample1	obj77	-0.08301217006274975	0.06007445415400714	-1.3620835908926632	1.2540390207206822	-0.4816386690147998
id438	sample1	obj78	-0.12471849864004136	1.0435900231365185	-0.556943256596582	1.4130946778401499	1.1677886512449829
id439	sample1	obj79	1.518206866533375	0.7343522337831154	-1.5919304789319262	2.5486794326654563	1.0177309520968885
id440	sample1	obj80	0.10086595716341629	3.548931794645142	3.040255435885415	0.5790265641478041	1.0999040957368826
id441	sample1	obj81	0.5978737695792677	3.4360283724346754	0.9266932118938276	-0.20455994293821256	-0.8755185247909145
id442	sample1	obj82	-0.006347638149752699	2.789442287336369	2.813679303944931	-0.04256647543841008	-1.2394821005891383
id443	sample1	obj83	0.48328158861110615	1.7918407435847667	1.2874263112585527	-0.03362681769169318	-0.9034891818217562
id444	sample1	obj84	0.7656747186036081	2.643620248993054	1.9071501896003098	-0.519524169813838	-1.0841034715825197
id445	sample1	obj85	-0.7526336642043175	2.715769753891405	3.055820432346364	0.747574440376028	-1.1866715701889998
id446	sample1	obj86	0.5901715070039479	2.543846999543201	1.3816297819850156	0.7292006434254239	0.0940394570576395
id447	sample1	obj87	0.02562192740122793	2.9083655283655525	1.3508888586849888	-1.2025641577564918	-0.8721302726514846
id448	sample1	obj88	0.8335334494505495	2.1498314801794507	1.7650675500479769	0.10860095579621665	0.5027212559116643
id449	sample1	obj89	-1.2447146020533724	3.916430644525313	1.318469852142858	0.08901555249880944	-0.13240757363302325
id450	sample1	obj90	0.4242431807012361	4.02255510398464	2.1658833379202624	-0.2711429768152771	0.7878040650202947
id451	sample1	obj91	-1.1264289620818158	2.7780538015818244	2.5963367541382745	0.07918353152252644	-0.34311357365574424
id452	sample1	obj92	0.7403105450101382	4.089900182069966	1.0221699404434261	-0.11945634283413176	1.1107051408488322
id453	sample1	obj93	0.8263809443212249	2.1859751341003912	1.7318131344907406	-0.6971273969013394	-0.3528968577746382
id454	sample1	obj94	-0.708062320345758	3.798467924667868	0.9473340891512005	0.5166696543260092	-0.9665280511164664
id455	sample1	obj95	-0.9783532165700708	2.9930856495992604	2.7887825273271734	-1.0966509078514517	-0.8624218964825404
id456	sample1	obj96	0.4847400671420006	1.948437643504494	0.8789858493172118	-1.3057406783363121	0.3835103667427402
id457	sample1	obj97	-0.24244843941623606	3.573709531779425	1.0145752009697069	-0.8632404334840191	0.04211529618900278
id458	sample1	obj98	0.9324456790426086	4.085660252352966	2.258983471826376	-0.9569702576640142	0.12860564031290167
id459	sample1	obj99	-0.273025561179024	2.019159853019792	3.0458109115233887	-1.0084463289748962	-0.6985063404628932
id460	sample1	obj100	0.7465852514658973	3.7775252745842023	1.4686313863513552	-0.9814385916286423	-0.07353066863277746
id461	sample1	obj101	-0.05440474753088309	3.185902698217469	2.515866495557116	-1.2592719736971567	-0.33634776332228555
id462	sample1	obj102	0.5642838552752596	3.126482665192354	1.814124994812007	0.36220308836291926	0.22164014719209346
id463	sample1	obj103	-0.8278113903682092	3.6295083480125747	1.2852344848420725	-1.3028203964951686	0.949302023047206
id464	sample1	obj104	0.3838544142890985	3.077444848325171	3.0034280710916974	-0.7702034483553942	0.746158495841035
id465	sample1	obj105	-1.114268200668759	2.6474125049478157	1.0496304791102933	0.2697990221592299	0.39180803806232123
id466	sample1	obj106	-0.2385099798185255	1.8526388504704179	2.2768636894091934	-0.9338510766841227	-0.7609696264151401
id467	sample1	obj107	1.0550443982742268	3.018353210831256	2.1893015173419395	-0.7797189969541868	-0.9137225916897211
id468	sample1	obj108	0.7809445667308721	3.3998211641333764	2.749792253654976	0.4920259691041915	0.5330883252704475
id469	sample1	obj109	-0.9172289189914877	3.766193280384181	2.006581317565047	-0.20202988018950974	-0.3961156239935011
id470	sample1	obj110	-0.5583157591316676	3.467112225738335	3.0968444245911746	-0.7647178961006281	0.0664518033127075
id471	sample1	obj111	1.0266123537640548	2.990682942620709	1.3573321897280166	-0.6175943823369913	-0.5764441589290337
id472	sample1	obj112	-0.6804116256739833	4.020051668324511	0.8532709675222268	0.07758717507377355	0.9593831755625162
id473	sample1	obj113	0.09680343873573793	2.297558788838454	1.5155068433387946	-1.2094282839812613	0.00423556480759113
id474	sample1	obj114	-0.8621304326006514	2.393817346751762	1.7300639817295662	-0.896946340452756	-0.34407153283579694
id475	sample1	obj115	0.49993250127086797	2.8252214788551484	2.718657319901915	-0.49179565193682795	-0.3329618181151879
id476	sample1	obj116	0.4444779278000608	3.425898219582942	2.2355993453159106	-0.1750880951500866	-0.23667354376307026
id477	sample1	obj117	-0.6547136126031727	3.905076299252068	1.4258118068417929	-1.0181518623385692	-0.022301668443688527
id478	sample1	obj118	0.12584839549653237	2.841850740252866	0.9676423996865655	0.6312246166347322	-0.06923623950776014
id479	sample1	obj119	-0.04899752937596036	3.8074657885597087	1.6777346008520824	-0.8392974217632387	-0.384185365241539
id480	sample1	obj120	-1.0045580174625215	3.5691160531437176	2.3856542724826117	-0.9695250160418267	0.5926458358004172
id481	sample1	obj121	-0.31659745820538343	3.4149665224984593	1.4831761936011696	-0.6953618628441839	-0.01152005743537643
id482	sample1	obj122	0.9791288553206032	2.231216488071837	0.8944280372072202	-0.8072916428465403	-0.2398507064943387
id483	sample1	obj123	-1.1660256772993316	4.029666721473564	1.4633178272334129	0.47710887296974036	-0.9080141905862165
id484	sample1	obj124	-0.9219494920551878	3.226994577268722	3.066179821050742	-0.7282514006123096	-0.22158598379305228
id485	sample1	obj125	0.7845643795735506	3.460884205054763	2.8702038563593772	-0.28096974624445914	-1.253619404729849
id486	sample1	obj126	-1.2768033365543836	2.526901540335823	2.5993118456073647	0.3588561700073858	-0.5246738928045561
id487	sample1	obj127	1.0324356471573808	3.6546285570346173	1.1535539174333582	0.6520355685580388	0.9237552356152008
id488	sample1	obj128	0.34452232804177374	3.02068564588687	1.3581591562665145	-1.141962166514019	1.0114394316956574
id489	sample1	obj129	-0.057059743563130816	2.815954926800104	2.6839365416354477	0.5868676251167035	-0.9377750035918709
id490	sample1	obj130	-0.23897308151030483	2.7281752795977243	0.9591255311494262	0.9880611984702716	-0.40082643762841086
id491	sample1	obj131	-1.0313506305006064	4.0402011802067035	2.448882403811212	0.9150065429666696	0.8036682369401802
id492	sample1	obj132	-0.6431900372968851	2.0371937085113423	1.664707439038175	0.806072149964461	-0.9069774047749422
id493	sample1	obj133	-0.280123007689677	2.9089422648898884	2.722107826973538	-1.161022442272903	0.7143775197408149
id494	sample1	obj134	-0.25828877612605217	3.159989046809933	2.0179986530668677	-0.3874441110024539	0.061101575855440515
id495	sample1	obj135	-1.1073720696443328	3.9213416076082757	1.2646128237564744	-0.05087275396053559	-0.7561275262957815
id496	sample1	obj136	-0.8962620305552566	2.601903070031676	2.496362115724141	-1.1627728629847862	-0.6680480707649428
id497	sample1	obj137	-1.1439060373455259	2.4214213542610716	1.3500126742159164	-0.4179997203366017	-0.9517834027275092
id498	sample1	obj138	0.1440751724944589	2.4133500615484644	2.6840497836643165	0.920277483321559	-0.43088022319159347
id499	sample1	obj139	-0.7270839932673497	3.6466180200635847	2.815054773659944	0.29779143557594345	-0.5497249912238846
id500	sample1	obj140	-1.255931766434673	1.9485173588680818	1.6596436340393839	0.09325289572186879	0.5596159304831334
id501	sample1	obj141	-1.328476326168873	3.262833024599181	2.6198668110411987	-0.00830693954168149	-0.9695568872507602
id502	sample1	obj142	0.3471610939818073	1.9815451434288938	3.0652865439960166	-1.0713226793653288	0.2109600261417215
id503	sample1	obj143	0.41095756328520316	2.6660326137632975	1.0610758617481102	-0.6936994239304521	-1.26252952714229
id504	sample1	obj144	1.0473684528926774	2.9332860605765267	1.6707636024644628	-0.13261742589758718	-0.06489579965553105
id505	sample1	obj145	0.17467359579341157	3.8202936323710333	3.0145317355119383	-1.060416861934164	-0.11990253210500157
id506	sample1	obj146	0.559450688060962	3.0390886850009355	2.366589945533354	0.8473480089915417	-1.0438737167397192
id507	sample1	obj147	-0.7990783999274705	2.4670375526833324	3.192962125179168	-0.8547301726366545	0.9063162737288868
id508	sample1	obj148	-1.1954416085260597	2.1403931617477747	2.616353771678033	-0.5523026186773797	-0.887824718912616
id509	sample1	obj149	-1.096615000095027	3.98003625190956	3.187479681042136	-1.541655981485146E-4	-0.40183874752637094
id510	sample1	obj150	-1.221296750651301	2.010270730097911	1.869657189712528	0.6263443936676034	1.1307475299480496
id511	sample1	obj151	0.3568621166168007	3.7556196728372986	2.820456522860491	-0.9373034021011648	0.8060287286576882
id512	sample1	obj152	0.48000852125208415	3.125382850695898	1.4830918003950173	0.3696218148760386	-0.8600368678604617
id513	sample1	obj153	-0.48113737255605893	3.8173570388129683	1.470873925256737	0.08328196105994534	-0.2823828306109065
id514	sample1	obj154	-0.8457159107799946	1.7741792324186842	3.1177788385707412	-1.0129274574623726	0.3371080753945508
id515	sample1	obj155	-0.7709128584700788	4.079327952790432	2.9418497654021953	0.8115656792209218	0.9026762254088669
id516	sample1	obj156	-0.022933318930071556	2.3434975522375523	3.1780984537102013	0.17442545315060953	0.8693001689748423
id517	sample1	obj157	0.7748514909203383	2.451943305832925	0.9236392987140782	-0.25473008679706344	0.7958434141343755
id518	sample1	obj158	-0.6761421591588089	3.1530721873857654	2.027324991159617	-0.6673777350606795	-0.5102690657114559
id519	sample1	obj159	-0.0683887790016604	2.6891199553335965	3.163999147310811	-1.2001328311271944	0.27594334469490756
id520	sample1	obj160	-2.2911406641493404	-2.0374896533087847	-0.5276879368743801	2.7959803804717014	0.5563201399293416
id521	sample1	obj161	-1.7961934739565237	-4.181835736089548	0.7017287517269106	1.6399429246445918	0.09100749380566586
id522	sample1	obj162	-2.983705388443685	-4.016317896848838	0.2581459596380786	2.5597934336354364	0.559679149201526
id523	sample1	obj163	-3.577460461816286	-2.7103910694164943	1.455480975908132	0.9352761750098331	1.3858325609631763
id524	sample1	obj164	-2.4735890572891712	-3.6093188079365595	1.4267304205733493	1.3203979296670194	1.5164743179467093
id525	sample1	obj165	-3.5779006903544657	-2.46904528319067	-0.13952385511190235	1.8152137140685387	0.4255913108887187
id526	sample1	obj166	-1.6271690618279784	-3.097919178442681	-0.2972220026640743	2.017438637099643	0.9802075552553897
id527	sample1	obj167	-2.4605742803326374	-2.8416592888612446	0.4427663200168599	1.1591182358820848	0.7124340100919656
id528	sample1	obj168	-1.6244648038384248	-3.3426721260829573	0.47835732087113314	1.7960498662242743	0.39769242648294434
id529	sample1	obj169	-2.7242841048861393	-2.8652184993913625	-0.6841277435438295	0.6761528020403385	0.9557805336668737
id530	sample1	obj170	-3.2420593728913802	-3.3204023613841525	-0.42870850560879026	1.9886278092277834	1.182497179674112
id531	sample1	obj171	-2.2889414527480456	-3.978408535397446	-0.5237417974336455	2.797125432970287	1.487497941759268
id532	sample1	obj172	-1.6450650294737181	-2.461269202988915	0.801112503900612	2.2833420354966236	0.04875427637973817
id533	sample1	obj173	-1.5511189610451834	-2.02158634701495	0.7300232161012123	1.9560875658483352	0.37278264979205566
id534	sample1	obj174	-2.3676479662049594	-3.2974918914308846	-0.21296058675511975	0.5860030590952208	1.1375374885993637
id535	sample1	obj175	-2.131887379244488	-3.1705934760267684	0.3314476450685748	1.3663508593669906	0.14387266605194204
id536	sample1	obj176	-2.3530356080160573	-3.233135400432187	-0.6814581288008972	1.8217450069407817	1.5516038726825891
id537	sample1	obj177	-1.2429355385142704	-2.5970128772140417	1.2476278038430617	1.32292772174325	1.2548066354612732
id538	sample1	obj178	-2.9403358368148975	-3.767012821528256	0.17014418425851585	2.4378278637062545	1.1728886558885114
id539	sample1	obj179	-1.3258815774307082	-2.9826293361609277	-0.627972686033694	0.7657471195619457	0.30154191470477243
id540	sample1	obj180	-3.126903095377915	-2.0484166373126165	1.3282188645322923	1.8587060799262178	1.0707381451811755
id541	sample1	obj181	-2.7735889318572253	-4.176007658610079	0.19336442351809313	0.5153400367281666	0.5728363157450391
id542	sample1	obj182	-2.901393127120654	-3.218046158444749	-0.33138728032330733	2.4093551894396943	1.8174562088382067
id543	sample1	obj183	-3.3212060883669414	-2.8642603317372015	-0.6151486167511213	0.6450315778466962	1.1933931784257839
id544	sample1	obj184	-1.5340541402959629	-2.584156550125762	0.37004174486119856	2.4626914857471	1.6113363138334564
id545	sample1	obj185	-1.498557237449558	-3.7432320132615344	-0.6876067664990622	2.681022975371374	0.5918622403516813
id546	sample1	obj186	-1.2272088417956126	-3.906609455852657	1.3692852007687708	0.5817630057833425	1.0659434406166026
id547	sample1	obj187	-1.3644147712004406	-2.904484886920029	1.3689486562133324	2.1240883679068663	-0.12761748932630979
id548	sample1	obj188	-2.4702868497965977	-3.109161961958327	-0.43969711392256616	1.617234816391985	1.258004020848024
id549	sample1	obj189	-3.1970932055046504	-4.0176245582649255	-0.4741512801944422	0.9639553921824325	1.889448095324262
id550	sample1	obj190	-2.2101754370246223	-3.612988069456844	0.010493202671273405	1.8855341383337998	1.334856530311784
id551	sample1	obj191	-2.2947084851545005	-3.5716629345271653	1.1504631094379838	1.0097833349730962	0.4219705532756004
id552	sample1	obj192	-2.739059687047083	-2.582080801558824	1.0134041325798526	1.6928661817671125	1.6660080509909232
id553	sample1	obj193	-2.3423541905354304	-3.3492708628591212	0.1731971830866681	1.7874952844602447	0.813505570103083
id554	sample1	obj194	-3.2183331956293544	-3.0938416225266696	1.3183014429324118	2.385153590360497	0.5819372131563237
id555	sample1	obj195	-2.5323514347753022	-3.642929121103901	-0.5046027530891803	0.657065086768206	-0.008294486190945971
id556	sample1	obj196	-1.7985625404719776	-2.395818464761091	0.9730940310829226	1.3937972497400124	1.9768760758751505
id557	sample1	obj197	-1.9776360829575361	-2.6821423795906205	0.11333458559846443	2.4802030201371927	-0.09884649624483743
id558	sample1	obj198	-1.961899290711698	-3.382210793450095	0.6882087361613225	0.8119998328755298	0.26089863920989553
id559	sample1	obj199	-2.537253408958387	-2.7260384118371697	1.39203326780518	2.821228950470316	1.2798272600505254
id560	sample1	obj200	-2.4047351305156335	-4.021416348542044	0.07510121818801563	2.476236938920193	1.5302368325269968
id561	sample1	obj201	-2.776835322036675	-2.0858290839010367	0.6562997839548501	1.8912640362886906	1.980536213280304
id562	sample1	obj202	-3.494806646081443	-2.4885494922254945	0.5341829951067665	2.542304211747636	0.9833383868715853
id563	sample1	obj203	-1.4158432790660445	-2.1767676490121532	-0.025093011189693648	2.648217494727121	0.884768100481925
id564	sample1	obj204	-2.6783575181001833	-2.2045190327889195	0.363039362835915	1.1352134728668166	1.7437752256316303
id565	sample1	obj205	-3.467264655004791	-1.9593918568827318	1.2974778248481964	0.8423864420716438	0.07747520058833957
id566	sample1	obj206	-1.779377442454297	-2.8559077342055055	-0.1730951229087796	0.617053737985731	0.5597045377247257
id567	sample1	obj207	-1.5543580396225865	-2.4149994697962462	1.1622091489999564	2.5498335377527797	1.9474248274292885
id568	sample1	obj208	-2.124337970566767	-3.9675538579387615	-0.3205412144027773	1.7567768682657765	0.5331780677357689
id569	sample1	obj209	-1.3929474041592946	-1.8104585985289956	1.426168311689443	2.6630478601496077	2.2488305536872497
id570	sample1	obj210	-1.242256681670172	-1.9223895091085408	0.3430956850250224	0.600712250155838	0.09118965527417255
id571	sample1	obj211	-2.1566735257987055	-3.642612011883238	-0.7215099783766927	2.7107402482564544	1.7060775739437866
id572	sample1	obj212	-2.731323217370322	-2.2707484616143683	-0.546080543455384	2.5324571902568334	2.043944607063365
id573	sample1	obj213	-2.996515102107267	-3.312689551901529	0.18039457432877604	0.6559673158773935	1.4644456485907569
id574	sample1	obj214	-1.5497301393573768	-2.344011150307611	0.3478044616729834	0.6756348753103608	0.384427125685988
id575	sample1	obj215	-3.1648003580347694	-1.9663011167662428	-0.6654585219962799	0.9741227403155267	1.1858298643039238
id576	sample1	obj216	-2.4797556539413392	-2.985111399286726	-0.6900398460828292	1.4328542388972298	0.2669378254430539
id577	sample1	obj217	-2.9978338470548818	-2.1447368090182604	-0.780172476708082	2.3396762758448038	0.4595514138409157
id578	sample1	obj218	-2.6305524580391317	-3.4310854501259347	-0.1684715262319606	2.1690511171400013	0.36086532893821144
id579	sample1	obj219	-2.040171838100222	-3.5284585485792235	-0.1636686270726232	1.8528878253027752	0.8444451767909369
id580	sample1	obj220	-1.9865033306476156	-4.03050053589987	0.5128397548996251	2.0372324800240036	1.3095503520195975
id581	sample1	obj221	-3.2474840416086193	-2.913823031849414	-0.6113001687157129	1.715064591408068	0.47950421118913367
id582	sample1	obj222	-2.3744097289894235	-1.9512555419933346	1.2240431869349344	1.509490764590139	0.13269479586703126
id583	sample1	obj223	-1.283846792615755	-1.849232240901298	-0.6051335111696066	1.4132749808760243	1.796455310567329
id584	sample1	obj224	-3.6141865163694904	-2.5319041367928916	0.07992449301295312	1.7159971527223208	0.8943611004178329
id585	sample1	obj225	-2.433218527242047	-2.0670641982923215	-0.3594144427857894	1.002776003131851	0.23873300424516208
id586	sample1	obj226	-2.0341418320370015	-3.452304707143955	-0.29318408986288536	1.6095287900774737	0.01720265722646319
id587	sample1	obj227	-3.1737544638446793	-2.1828927868379937	-0.19114228988693915	1.777754824630289	1.6374146414944089
id588	sample1	obj228	-3.373327156419214	-2.0470603283316375	1.1755968494554379	0.46292620708753773	-0.14284304217102295
id589	sample1	obj229	-2.4175246540830195	-3.093661460157083	-0.0030800564636095373	1.4983283001588485	1.6157700653328158
id590	sample1	obj230	-2.559849865101179	-3.8578661803534904	1.0458788708633415	2.0717230908022675	1.7614304521969144
id591	sample1	obj231	-3.5971046047126967	-3.2916321311294814	0.4920627529387538	1.594089636576588	0.8901766494837622
id592	sample1	obj232	-1.7454452825388387	-3.3185389446337874	1.212560967892817	2.0740329852488895	1.816194650211159
id593	sample1	obj233	-1.984414421986789	-2.9210872627800324	1.3111342697086823	1.3918328083112415	0.0062411963456521224
id594	sample1	obj234	-3.2930129491815876	-3.689158808412755	-0.13296440421647238	2.6146210813594433	2.0490089408491827
id595	sample1	obj235	-3.456089144725378	-2.439918268327898	1.3171822139691882	0.6174310557568674	0.6950660333186116
id596	sample1	obj236	-1.355227568179498	-2.203411555969597	1.2814195268995665	1.569934996716858	0.18457795249952358
id597	sample1	obj237	-3.373568321956852	-3.008390652364574	0.010281118412165169	0.599188819501425	0.2556893383321097
id598	sample1	obj238	-1.848740151857605	-3.8658726179544063	0.6952769839390656	1.9157090447880685	0.16104622045738126
id599	sample1	obj239	-2.7249996029819665	-2.4125321024891155	0.3481828150007009	1.9523296560917494	1.765823171049254
id600	sample1	obj240	1.5692397702111112	-2.803258505356658	-1.8147030230496475	0.019740853682750803	-1.7681363110527923
id601	sample1	obj241	2.311192164456494	-2.8257856162045187	0.6207840494784229	0.43176705487148714	-0.19242539006522108
id602	sample1	obj242	0.4981695570359943	-1.624194209725573	-0.9935770097348269	1.6705433252148965	0.9383421210019831
id603	sample1	obj243	2.3382198360518913	-0.15652390284393458	-3.0802746293514023	3.0947172954334183	-0.7937951056830563
id604	sample1	obj244	0.7777275414294089	1.5620224473600308	1.6667601881214886	0.9829972657573522	-1.4639666607185984
id605	sample1	obj245	1.2612047346243143	-1.0841083204860207	0.943877401403501	3.1140710337474626	-1.9813381191899273
id606	sample1	obj246	-0.606616216501082	0.20985521612147862	1.5238082153187251	-1.7535222540196491	-3.137963197385331
id607	sample1	obj247	2.729760390366377	-2.7575617052208914	1.907474391581601	-1.3004820210319392	-1.786665868477248
id608	sample1	obj248	1.983628420534591	-0.0395249782485565	-1.3734193520424935	1.2824178421154253	0.6443431309411827
id609	sample1	obj249	2.547962627488098	2.22624151348929	0.12476526942252697	-1.4992822772001302	-0.7073256684711946
id610	sample1	obj250	-1.2546896188708612	3.5223903785314876	1.495956744685708	2.085191473870695	2.8827201285795834
id611	sample1	obj251	-1.895532729065209	-3.8322036241586304	2.2630835158176223	-0.020647795747606223	1.2855334984944309
id612	sample1	obj252	0.4688837878255503	-1.7834991655450598	-0.15181940064659472	2.3327321363950766	-0.6494728272610868
id613	sample1	obj253	-2.2792076052355963	0.34331877173600844	0.08288414973093605	-1.441647546677867	-1.0363566916007072
id614	sample1	obj254	1.4957912196872045	0.46641577900992226	2.8756636642403297	-2.183021300253948	-0.31815833118903325
id615	sample1	obj255	-0.7099920522609606	1.6522079296963013	0.41355505307078044	-1.579631233634796	-1.334300771442829
id616	sample1	obj256	-1.9249162668274578	3.1135529519319967	0.6959901156839259	2.5925586745149714	-0.1052275280421352
id617	sample1	obj257	0.5308195039974823	1.5120933011206863	-0.04102935751526793	-0.2537776168483272	2.2599133054438116
id618	sample1	obj258	-1.334536133594294	2.3117818549158127	-1.4570753694480154	1.1111910463136432	-3.5766168900953073
id619	sample1	obj259	-0.8162420256107411	-2.5688420857886785	1.3636796663187205	-0.32640569631096494	-2.7603794010465856
id620	sample1	obj260	2.751369766601494	-2.2606285380327202	-2.0352027236591366	2.3201590712826885	-2.5394143102345392
id621	sample1	obj261	2.2306883616338915	0.5720041833072047	0.936381406810811	-3.6239363785845886	-0.3252921932013224
id622	sample1	obj262	0.3298582888572863	-2.9678139862527098	0.5726773411552335	-1.5458672499564028	-2.0079147752082145
id623	sample1	obj263	-0.9916907873542442	-2.7492766803179673	-3.1493426487660168	0.28922313628009677	-3.114193055150841
id624	sample1	obj264	1.6247620641702032	-0.27416984389807686	0.8453196032226714	1.617145046064661	-2.0670672773706142
id625	sample1	obj265	-0.488144033938019	-0.7596549507629254	0.9235453288598705	-1.3106647150748008	-2.188587383599904
id626	sample1	obj266	0.8659468734423659	-1.3787474895811966	0.8021550633507719	-3.326998802588197	-0.6883115740309147
id627	sample1	obj267	0.24342382530202555	2.650207910797943	2.4643082248769623	-2.8118507808977564	-2.725186421071853
id628	sample1	obj268	2.041816149856431	-2.4392701809881716	-1.9472731741630356	-3.161091919618486	0.6953479686167465
id629	sample1	obj269	0.4359892151280529	0.5622429863035572	0.36138982457937874	3.4982267369046185	0.6523308251491722
id630	sample1	obj270	-2.0673801286673985	2.4562263135377833	-2.670493068277626	-3.359451025857269	1.6566552960657739
id631	sample1	obj271	-0.5391174491377724	1.9584984517510413	0.8949250748488136	0.22444139236886507	1.1146859460339913
id632	sample1	obj272	-3.6538428348672047	-1.6436673998007167	-2.60710468208917	1.5914649268191856	-2.5243914770396176
id633	sample1	obj273	-1.8936855106208326	2.573822758574158	1.7574864221694815	3.1679903167961747	-2.024495082574431
id634	sample1	obj274	2.4013357376184827	-0.20509194339035808	0.39805414599513655	1.0734391331011701	2.2624560478405455
id635	sample1	obj275	-2.012985049483559	-0.9495353761136738	3.315651252967254	0.7201533277702348	2.3582122930060923
id636	sample1	obj276	0.3817903977407662	0.058210525163187254	-1.6543544066703755	1.613351215175536	0.3588439008516324
id637	sample1	obj277	-2.7548235887366674	1.4711554385625605	-0.9449196177525938	-1.0289950175138873	0.060557430846075455
id638	sample1	obj278	2.941156673061205	-1.2751555235746899	-1.6809870329147276	0.2640436394382266	-1.3963892906593762
id639	sample1	obj279	0.8478335369674437	-1.2360710157836103	1.0764489211927275	-2.9750847627365378	-2.251185338658452
id640	sample1	obj280	-0.11679997831916789	-0.710514743692921	2.5791089011077464	-1.2474059098122305	-2.3750033427514827
id641	sample1	obj281	1.1498407648263742	1.4310019058069703	-1.6544052375824738	-0.3726473856418291	-0.46573213172884353
id642	sample1	obj282	-1.7220423657469568	-1.513373311633229	-1.1765123207497494	-2.2839954963009843	0.37405880685920323
id643	sample1	obj283	-1.4845115789447576	1.7444508043775915	-1.4438914354223775	-2.5719415617000667	1.2712699830338792
id644	sample1	obj284	2.6140421674130465	-1.3881003847161149	-3.338295097883491	-2.462503284920907	2.3856736699251586
id645	sample1	obj285	-1.8700842022097373	2.0590497623862247	-1.910651019742579	0.36781200374609946	-1.7678095582410984
id646	sample1	obj286	1.1507987289268782	3.338603085941748	-3.16040914679741	1.6685090890096381	-1.7119661632389354
id647	sample1	obj287	-1.49608217254003	-1.4617682537952954	1.5932547860983528	0.931678935512464	0.7454920394823118
id648	sample1	obj288	1.8069636964221398	-0.42593705507393076	3.1535199625595096	-0.7172589825026179	2.581533836096088
id649	sample1	obj289	-2.5393243181284535	1.490721309213416	-0.04594893931702093	2.3519768616202166	-1.4874900196896659
id650	sample1	obj290	0.8827726556355366	0.421950423098854	1.323358353336614	1.5099964440368296	-2.089643568554253
id651	sample1	obj291	0.29818646210214295	1.5217786656908519	2.6575711406397367	0.7668363198055788	0.4941766861020733
id652	sample1	obj292	-2.92945954903899	2.1222032298553803	-0.8784805416878567	1.202055843937209	-1.2018906112667291
id653	sample1	obj293	0.030993497993587305	1.4680510855592201	-0.34868818321236117	-1.3247042113468688	-0.5767778972593636
id654	sample1	obj294	1.6479097478616724	1.5929023970974538	-1.3150647153435537	-0.42363254787695404	-2.79977994695192
id655	sample1	obj295	-1.2829161886090419	0.9462747260347073	0.6916488933383026	2.565424505497888	0.6842699858425605
id656	sample1	obj296	-2.734388197845795	-2.5087967068732375	0.9003541521316232	-3.500771965282141	0.975509145188018
id657	sample1	obj297	-1.8736403799858898	2.0292423029317193	3.375335988021462	2.411932206724239	0.9895419392371465
id658	sample1	obj298	1.4781400145191	-0.12344315753399782	-1.3953794834309274	-2.6474999511850976	1.8370056145424938
id659	sample1	obj299	-1.5400960773329233	-0.23970014664218708	2.2898919923633327	-0.9029967953726663	-0.5100853109503709
id660	sample1	obj300	-1.4018672836061554	-0.3370388529785038	-2.355815262249631	2.7143992549725193	2.662439013396856
id661	sample1	obj301	0.464192905386961	1.854319057680276	-3.205414722850215	2.06856860316899	0.41609589798950464
id662	sample1	obj302	-2.50928003230437	-1.2851110478845096	-0.1773349909312385	0.4646347378758655	0.6260953482984144
id663	sample1	obj303	3.3401057754000307	-1.4435173560458048	-1.5836691261509646	-1.6413244999282908	-1.097790137912267
id664	sample1	obj304	1.3510950044661343	2.267179318037149	2.338648230801363	2.5248259830226027	-0.7826433265745221
id665	sample1	obj305	0.9000184737750279	-3.589824792279138	2.4751158383996854	-0.11233552681887193	1.666962998387814
id666	sample1	obj306	-3.493747571030559	-1.5126083848770726	0.8328186830721862	-0.5766780982829547	2.1920561147880653
id667	sample1	obj307	1.3061669623507406	0.8807806793274218	0.7458323549357558	1.572854209572563	-1.4745695712748708
id668	sample1	obj308	1.0117836394877393	1.2061010055609818	-1.3722307855161215	1.000604120245561	-2.815931800579686
id669	sample1	obj309	-0.9018615428632819	-0.6467407810530121	-0.7928018337452234	0.2987987414376915	3.3714012699415505
id670	sample1	obj310	1.4030727853741967	-1.8414890778245365	-2.5961742377251604	1.3541513448732827	0.3665705713927834
id671	sample1	obj311	2.4438879794529376	-2.4011765580284434	2.105231166371257	-1.8955578249092022	1.5726581677010234
id672	sample1	obj312	3.3743667567592595	-3.435088776811062	1.6566877837260259	-0.6193104902885185	-0.7172682735960161
id673	sample1	obj313	2.213426949525693	-0.23720146967313993	0.1749093789261289	1.432034812927559	-3.511684464922134
id674	sample1	obj314	-1.3596217007238847	2.3530741567864037	1.5484156450223048	0.6724163556717127	1.1508960145561529
id675	sample1	obj315	2.801247900943409	-2.0709134974469663	0.3783035596359692	-1.1335335961430002	2.5139314546341933
id676	sample1	obj316	-2.716848018376384	1.944997785264034	-0.6373109948706102	2.6936934954017713	1.7265616190210158
id677	sample1	obj317	-0.6709525400912821	-1.9734243934751237	1.5664904210442188	1.3511757131298359	-1.0525402781627125
id678	sample1	obj318	3.810549225088802	-0.3190147208087236	1.3914655352318068	1.9853722205966298	1.4155033167739328
id679	sample1	obj319	-1.0048919905526514	-2.3685302708941203	0.8267820583041678	-0.4121277044177428	0.28326778030231714
id680	sample1	obj320	1.4646236809308508	0.14374477450415624	0.3851040449977017	-1.2095798075706465	-1.1333005141529309
id681	sample1	obj321	-0.04857879193308823	-1.1862470101074714	-0.6866949074648961	-2.2325511221561696	-2.8137596285095405
id682	sample1	obj322	2.1389094802368045	1.4395046433668262	2.9463605552331305	2.1249320988226614	0.008207584308974614
id683	sample1	obj323	-2.264224347547598	2.8435830909307915	0.4423400322482034	-1.7763241701798238	4.025181001592355
id684	sample1	obj324	-1.9176980649079258	3.612064987477134	2.411146156455813	-1.7675102076733837	3.3825024542047375
id685	sample1	obj325	-0.1332987780983068	3.7013897172905947	2.647295890915352	-2.607419479340707	2.8221632223069046
id686	sample1	obj326	1.2176641582123153	-3.6455061006703864	-1.5537242546761623	-0.7481656918455905	-0.5538052683069894
id687	sample1	obj327	1.5533388105980768	3.4155835777110166	-0.6751712495476971	-1.1051689900397776	1.9727163291008076
id688	sample1	obj328	1.9931164233210625	-1.912334768048128	0.7211678438661708	-0.7645683199226405	-3.605355023516836
id689	sample1	obj329	1.4108203886484192	1.2162642250276225	2.6730386005012456	-2.769190627018755	1.9671503827356782
id690	sample1	obj330	0.12062965268649362	-1.1125913903305475	-2.6706083733638994	-2.521134773969566	0.5946656125964724
id691	sample1	obj331	-2.970791803137468	-2.8150786810404975	-2.1834710228897003	0.13020926513282371	0.07394359541917483
id692	sample1	obj332	-3.5726813512503175	3.010329193359837	2.425212760668995	1.4869748222469965	-0.48933960627529227
id693	sample1	obj333	-3.398802665792915	-1.3288959169726842	-0.8357896407009922	-2.07305391530515	-2.8528369430263503
id694	sample1	obj334	1.4960895849854028	-1.6800996646178215	-1.5507500282420879	2.583280312547231	3.745200536372762
id695	sample1	obj335	2.651479433591021	-2.799025785661231	-2.3005856963702622	-1.899307865717854	1.351672776047369
id696	sample1	obj336	1.1247124991308337	-2.130882115629941	-2.044524145688232	-0.03822213617071024	0.16660989802903137
id697	sample1	obj337	0.2659648354738803	-0.7326340496955102	-1.651441055064467	-0.876351022489412	-0.793692098559786
id698	sample1	obj338	-1.9110935107533753	0.14642022289581924	1.203805198525743	-2.906130253310539	-3.3723847737084887
id699	sample1	obj339	-3.6209356046389245	-1.1870640186976136	-0.5048590530848143	0.16548430617284882	3.700850463107275
id700	sample1	obj340	-0.19157514050506363	-2.92517121690471	1.6449047600248252	-3.8311672775382517	1.0307331324450955
id701	sample1	obj341	2.63531365168392	-1.7000723896274137	1.2873225616982387	-0.31281725337846744	-0.9715890046538764
id702	sample1	obj342	2.6010864062079673	0.9361769015803223	1.6637458593451109	-1.817621681999421	0.6336102267289418
id703	sample1	obj343	-0.9041457126612891	2.9735946551707215	-2.388173318366917	-0.4118905416430254	-2.4817534260630607
id704	sample1	obj344	-2.3360108938322623	-0.18412337705614545	0.7436211274086404	-0.5445147821880882	-0.8756941225805798
id705	sample1	obj345	-3.6730178044813817	1.1790882886038245	3.0361134289388465	-2.3241837116424366	0.2969224449412886
id706	sample1	obj346	-0.2552641421092048	0.7633380979503279	0.6412521396867663	2.7899947912318503	1.0690629277580006
id707	sample1	obj347	-2.222271185641657	3.49523391308794	-0.7174180878380293	-3.0621706623489913	3.1570518948890136
id708	sample1	obj348	-2.754396365802028	0.4828999115164512	-2.019250006433973	1.1550703761157293	1.252005310804669
id709	sample1	obj349	-1.5356628205065213	-0.3759073103808257	-0.2588543071459888	1.4831715437715767	1.6786951665385177
id710	sample1	obj350	1.3581628456221275	-0.689680865174261	1.9151620774849154	0.5346145587911808	1.4491739947739823
id711	sample1	obj351	-2.5720581757333285	-0.609856459418926	2.4818576204544573	2.381402469061209	2.571389578982681
id712	sample1	obj352	0.4328679625373131	2.118803066664168	-0.026998672832847515	-0.43514371735491164	-0.8657266323404138
id713	sample1	obj353	-0.49461117713803127	1.8253046615268367	2.227783089274191	2.1384480799502024	-1.4205174056150527
id714	sample1	obj354	0.20413053018242144	-1.6784775242894265	-2.1715873658308005	-0.8902938551582511	0.8883753185103083
id715	sample1	obj355	0.01097272540284	1.4160270993383441	3.4106132850419746	3.2447040914731806	-0.5574170721178786
id716	sample1	obj356	-0.5846593206860244	-2.3923003433071903	1.8245333336496263	-1.8009068514468882	-0.014162709811909036
id717	sample1	obj357	-0.7145273601757283	-0.07291642527178421	0.7897190520538389	2.1721677493240943	-2.6430687928758267
id718	sample1	obj358	0.9779084142621524	2.571987726660426	-0.8860028733061449	-1.7226026761076552	1.1803963865572762
id719	sample1	obj359	1.34110626015533	-2.240896775807916	1.945669160151243	3.301618989209217	2.961799761308436
