id0	sample0	obj0	-2.3342290107133206	0.9204344429018991	-2.495955038333103	-0.3306419538063665	-2.233076603427703
id1	sample0	obj1	-3.1337418280727425	-0.9712310194161158	-1.8924199792956033	-1.507445948145338	-1.333961143184616
id2	sample0	obj2	-1.9245656659425194	1.8504946397397226	-1.1544802697529013	-2.107132444181598	-2.2939708540680086
id3	sample0	obj3	-1.9539163717571761	-0.4414218505335522	-0.9443413295370047	-1.7469869636012452	-1.2169158039771615
id4	sample0	obj4	-0.3467288601052678	1.1050446984349824	-2.747473644500627	-0.7464792101927513	-1.1632725324356958
id5	sample0	obj5	-2.201767596853392	0.9197452300443729	-0.7383632469858841	0.08036598370406778	-1.140350700987394
id6	sample0	obj6	-1.9704616306017004	1.0459413796710189	-1.6998315697626496	-0.026351251042620705	-2.684351137457296
id7	sample0	obj7	-3.450065535002003	-0.3388080450601938	-0.47194665479562725	-1.664036179378012	-0.9751676000313536
id8	sample0	obj8	-1.2143400212140654	-0.2130547352073806	-1.6915243015387948	0.3377999772504776	-2.718285555976617
id9	sample0	obj9	-2.8382268963359985	1.0442772065674373	-2.117037863015251	-2.4550615620072564	-2.071964574020927
id10	sample0	obj10	-2.3007259082488396	-0.499244332536827	-1.2222607467884292	0.8727854742369645	-0.9070576696452706
id11	sample0	obj11	-1.1789907805312818	1.0967925188103964	-0.8566929082274684	-1.681227381413049	-1.0773230240891543
id12	sample0	obj12	-2.959507710720324	1.8229135664409803	-0.04538074179821128	-0.31151597932587793	-1.8464803225780575
id13	sample0	obj13	-0.19513220033370948	1.4360115309528034	-1.7990841917178617	-1.4801318976470195	-0.3979106330573934
id14	sample0	obj14	-0.8980680104947394	0.46008045898024297	-1.392387802695122	0.7633689682951117	-2.399153770936892
id15	sample0	obj15	-2.4166748396726376	1.077751616237016	-2.0246577850132663	-0.6563534197045411	-2.9219360663390814
id16	sample0	obj16	-1.3008743399336569	1.5922765270098822	-2.3385373882711384	-1.5853918508814278	-2.2120579523836055
id17	sample0	obj17	-0.008676675175325999	1.6186063201319525	-2.841093773869596	-1.3976979331040762	-2.491660575012621
id18	sample0	obj18	-3.332463373951495	1.1213250769962546	-0.3021939876912054	-1.3471668581366503	-0.24903544843876912
id19	sample0	obj19	-0.41560347508377515	1.1339704060011069	-2.3603969473419677	0.01974731641838212	-0.7427648191665523
id20	sample0	obj20	-1.8543634706403167	-0.2641918212309571	-2.768313438970857	-1.432316537017321	-2.4474443140762974
id21	sample0	obj21	-2.975804864962672	1.651275681010283	-2.7446810104246953	-2.430168274297402	-1.109057197858101
id22	sample0	obj22	-1.905631112282829	0.5831892334231021	-1.3536596487510406	0.012451898778965242	-2.138172268901566
id23	sample0	obj23	-0.6356471421965264	1.2491586055616317	-1.232309526702758	0.284742427191232	-0.7744812597822908
id24	sample0	obj24	-1.5086786451629162	1.3868426094777637	-1.5816614226844188	0.9303398862596952	-2.4380505406001105
id25	sample0	obj25	-3.1804412855911526	-0.46928504427097817	-1.9759423985741813	-1.4724380805900192	-1.2857875981810558
id26	sample0	obj26	-1.5103352370259473	2.1088072684303594	-0.5205884625461297	-1.2222350901688586	-1.972018500447473
id27	sample0	obj27	-2.526363273181738	0.33518790812291166	-1.1600121107790464	-0.1880521746550754	-2.843375128969858
id28	sample0	obj28	-2.5759162228105716	1.1220574115260031	-2.216978947135672	-2.0068531127525056	-2.8821859676548343
id29	sample0	obj29	-3.27704453618015	0.34579197594081124	-1.5196011307931727	-1.6938765499766828	-0.593589734206937
id30	sample0	obj30	-1.5292355724252795	1.989843263415432	0.2581274620612366	-0.5057173197672042	-1.0388921837689262
id31	sample0	obj31	-2.7398515797617264	-0.821323187919897	-2.179091596446938	-1.3408531507103256	-1.6574468204357384
id32	sample0	obj32	-3.1563803622075284	1.2418005931088383	-0.09679898324475844	-1.2641532752717424	-0.9963252815203758
id33	sample0	obj33	-1.1683274662864969	0.8379208310760038	-0.8754610613891145	-1.1680942221358033	-2.0091672982787876
id34	sample0	obj34	-1.9083209985078669	1.648131817753869	-0.1446237156825927	-1.6748027564423067	-2.0417214301831086
id35	sample0	obj35	-1.026411136774559	0.73895462447919	-0.20168923139548878	0.7299748685347003	-2.2994407236200356
id36	sample0	obj36	-1.0394121937445877	1.9896079078527233	-0.7651077406544686	0.9446233909497248	-1.7356502976662618
id37	sample0	obj37	-3.278204532781582	0.4358680691916901	-3.101872268071717	-0.31706236825830136	-2.4638069335849724
id38	sample0	obj38	-0.13285941315116845	1.545271843174196	-2.0734137730617337	-2.402405601486113	-2.4655233180336773
id39	sample0	obj39	-3.3488676738285985	0.6353138917860472	-1.6277881615301542	0.07447425870788416	-1.9338687267706762
id40	sample0	obj40	-2.4657271566185575	2.009008526225931	-1.9514976207233385	-1.7388479831807218	0.2481072830704767
id41	sample0	obj41	-2.020565058917623	1.410093679388319	-2.5355872717099843	-0.6759783716823395	-1.1765883316997787
id42	sample0	obj42	-1.709349197174294	-0.6371925130419385	-2.254549963472758	-2.117025750613095	-1.3291718873280025
id43	sample0	obj43	-1.5473690216808855	0.7991005847918082	-0.5684084549037085	-0.9900306239097185	-0.3358417645698297
id44	sample0	obj44	-0.9886680144158488	0.7874810092385964	-1.736726080479037	-0.5307028937555809	-0.5073004494420588
id45	sample0	obj45	-0.6912680373331523	0.38036185776172493	-2.6853756627427394	0.801795002988366	-2.336889155944536
id46	sample0	obj46	-2.0348325906036866	0.39340978250472225	0.2962933241031511	0.46755042608982333	0.3968762867488296
id47	sample0	obj47	-3.3687773503398013	0.6005992267812112	-1.9263069394381531	-2.1172763179385297	0.09896528615195765
id48	sample0	obj48	-3.2363764716887506	-0.21716990832356498	-2.670094300810118	-0.6839260309685697	0.45007256088941294
id49	sample0	obj49	-3.1357540235780066	-0.787957968796188	-2.2325014764035513	0.7659751102218715	-1.9987199191100626
id50	sample0	obj50	-1.6976239797934254	1.833542103259416	-1.1370659729253656	-1.2502489710499667	-2.441646845596173
id51	sample0	obj51	-2.1296913272846902	1.8602913415788846	-1.0372181626533659	0.6654223766125644	-1.9088149726349477
id52	sample0	obj52	-1.8483119142951348	-0.7418713634309357	-1.3846547085642942	-0.15670171343771222	-1.0871095108674547
id53	sample0	obj53	-2.0507667580394418	1.3193886329908515	-0.8038588565284737	0.10081124830845112	-0.8097272789055168
id54	sample0	obj54	-0.47563669081747917	2.0625589288214092	-2.12391293179049	0.33556893743444305	-1.8247001609649667
id55	sample0	obj55	-0.4021312875638816	1.4285846952517025	-1.108824455109452	0.17344314421504703	-0.539010065468035
id56	sample0	obj56	-2.8676167006771975	1.974296409048048	-2.2326992086278694	0.894006723265875	-0.2728117251090165
id57	sample0	obj57	-1.8630877335252065	0.5892735474468629	-3.0274156610291993	0.4982940583310709	-2.798357013564653
id58	sample0	obj58	-3.4137251516318017	0.40225960971031927	0.42144935077699475	-2.385477984974095	-0.9951579227036718
id59	sample0	obj59	-1.923417572461329	2.1463912561957326	-1.8742351611743886	-1.613190975491657	-2.105596744296644
id60	sample0	obj60	-2.568665369135487	1.955072295703929	-2.7755959333851727	-1.7881141703778258	-1.8827298727557649
id61	sample0	obj61	-2.608044278109555	-0.7755361088360846	-2.9106762776092028	-1.5864008494869033	-2.1020490389641364
id62	sample0	obj62	-2.4255614528307046	1.0873005435848409	-0.23651358793502708	-2.1066905882285907	-1.4961716291550402
id63	sample0	obj63	-2.585729319720047	1.6823097561250615	-0.48858207105004703	-0.10053703249964419	0.10818737517284194
id64	sample0	obj64	-0.21233607282379574	0.6450139582360299	-1.2624359607777513	-0.05194644503457568	-2.362526574001966
id65	sample0	obj65	-0.41514374105721763	1.605388657132009	0.01254689556399291	-1.767934992442858	-1.8078923591872627
id66	sample0	obj66	-1.7202729530454537	0.5568437415654695	-1.2779237383905935	0.9040506992025212	-1.387684308422227
id67	sample0	obj67	-3.3759998118925107	-0.3428273536573432	-1.5424855244874986	-0.9190083026615512	-0.3296763569278782
id68	sample0	obj68	-2.9552278666139857	2.119563814855855	0.19668640366732215	-0.7831339332027356	-2.5016126962644183
id69	sample0	obj69	-2.0551708749551514	1.4050284917995721	-0.8623561091802949	-1.1273713106329672	-1.1302435271728706
id70	sample0	obj70	-2.6299365648986406	-0.8729339002378218	-1.611321863442881	-2.0877201628073387	-2.435857896796298
id71	sample0	obj71	-1.7851597801906098	0.5400224054350253	-2.638769566080182	0.530304162342701	-2.182460910670821
id72	sample0	obj72	-1.717701281792018	-0.2782762265256975	-1.73515975946315	0.4501191339044046	-1.6915366934661598
id73	sample0	obj73	-1.651324715000888	1.6149503409331556	-0.7886855868403904	0.5140904917330051	-0.30850141887046534
id74	sample0	obj74	-0.3195247004065551	1.4692018115381067	-1.227134867346913	-1.9594694372988077	-1.9009006067268053
id75	sample0	obj75	-3.3111471881783228	0.9798627805430675	-0.7431602215435709	-2.0110344422701782	-0.9961387914698958
id76	sample0	obj76	-1.6079689537379558	0.7911260078925604	-0.05037537667024394	-1.6651137925265176	-2.448058997164392
id77	sample0	obj77	-2.4133623628328627	1.3681014584294477	-2.7146670365296472	-1.3577871081369004	0.09905093759617167
id78	sample0	obj78	-0.6036793628735009	1.5560230552016792	-1.4695178860718268	0.41956336907890823	-0.04279514143090579
id79	sample0	obj79	-1.9823140659441474	1.373078411024194	-0.0036326699147759545	-0.6145334970352956	0.3743878732702306
id80	sample0	obj80	-1.5048828945815396	-0.7248281086407664	2.210237920441502	-1.1176383796610787	-1.8457204926314466
id81	sample0	obj81	-4.431549669488734	-0.6530403682146806	0.8599044126965871	-2.1432122474723037	-1.0778167394540878
id82	sample0	obj82	-2.0920459664584063	-0.9457422596458402	0.24685655742208712	-1.1954473748069194	-1.3296916373815242
id83	sample0	obj83	-3.9844383826017697	-1.3792659855992506	2.1978792217385825	0.5237866108665219	-2.363423841758366
id84	sample0	obj84	-2.360457626403292	-2.3114779840028	0.08646200002110738	1.0042371695741987	-3.912103213502457
id85	sample0	obj85	-4.185667452686253	-0.9087012907937966	2.2280014598277402	-2.1481090839039663	-1.431657121216802
id86	sample0	obj86	-3.195977956456945	-2.986973248813517	-1.158009743576151	0.07341859902589776	-4.052447542729383
id87	sample0	obj87	-3.792389481961876	-2.9898085024180636	0.2599503024141505	0.6907752214793066	-3.5611797732063546
id88	sample0	obj88	-2.64090477456482	-2.848715317837626	1.1888139967121856	-2.111259508299524	-1.2439930803574366
id89	sample0	obj89	-2.1923879357269414	-1.953938084121894	-0.6073466756995196	-0.8738439796750659	-1.6592286384631623
id90	sample0	obj90	-4.442010420757235	-2.6638736155222524	1.6067434293687206	-1.4383650955569154	-2.048651540569386
id91	sample0	obj91	-2.3818497694858873	-0.13783955886394206	1.0223137758488179	-0.25251330716484843	-2.4291361978581465
id92	sample0	obj92	-2.059179232871612	-2.297724474437109	-0.7621661465384744	0.2731097058087244	-2.614635875437992
id93	sample0	obj93	-2.7245742631961263	-2.913790128895606	2.0821180336751777	-1.1546348376397206	-3.9450992547624137
id94	sample0	obj94	-4.194743799848147	-1.8943678101004295	1.3989739625860291	0.5195464389448594	-1.94207633491651
id95	sample0	obj95	-4.434521437783856	-2.599396893601291	1.2276388881389482	-1.2581273855375394	-3.5136700770944644
id96	sample0	obj96	-4.3740835335750745	-0.996436913027724	0.530741460780136	0.38648388257132704	-2.8751066055621726
id97	sample0	obj97	-3.98330728323831	-0.05641762904472336	1.7561366961723348	-1.098539783181447	-2.9851155348527962
id98	sample0	obj98	-1.756099432270789	-2.4852207846767325	-0.05392509577423277	-0.46455826492624475	-2.040904282556034
id99	sample0	obj99	-4.3131300861409265	-1.9651870803206286	-0.566578138188198	-0.7037350472843529	-4.412872296835683
id100	sample0	obj100	-2.980046792608236	-0.8155523219538343	0.8279460375183929	0.17415904561210982	-4.190214000813667
id101	sample0	obj101	-3.277040677931538	-3.369122060187631	-0.034841713806226915	0.6042343025557628	-4.274805212487235
id102	sample0	obj102	-3.8704429216007683	-0.4194251872649757	-0.8337717960365967	-0.6127399393800534	-2.396616326793322
id103	sample0	obj103	-2.6624516604708885	-0.1521316544644702	1.6717500411636566	0.7563336618294609	-0.9914630596603751
id104	sample0	obj104	-2.9745001395161257	-1.3894100955881787	0.8274760231487333	0.873504154724291	-4.112040380621271
id105	sample0	obj105	-4.425266292034174	-2.6176241245187377	1.6107191521956545	1.0494977537488281	-1.3355073803231583
id106	sample0	obj106	-2.9967684485521264	-1.6275526565560703	0.517344371932321	-0.23258683180593587	-3.3537518309076564
id107	sample0	obj107	-3.170992335940764	-1.2811575148189378	2.3377502223679727	0.7048795745799368	-4.122977740997492
id108	sample0	obj108	-2.823408831663632	-1.557543015254789	2.023891559451024	1.0172137988971974	-3.3132827961086457
id109	sample0	obj109	-1.4656891955051157	-2.569642075768974	-0.2926591767710225	-1.2236591058391726	-1.1110378366268183
id110	sample0	obj110	-2.7937493560808813	-0.44755690012543714	0.42102692745393466	-2.0523291447856287	-3.8305037752252704
id111	sample0	obj111	-2.4435820525522756	-0.5383615668488873	1.586263757237526	-0.0979812602528678	-3.2983340656478655
id112	sample0	obj112	-3.179513351982207	-2.7782775053331408	-0.5351212419102283	-0.4444706938291054	-0.8662736111763321
id113	sample0	obj113	-2.799661220083332	-2.5729392972814518	0.2878118618309897	0.3421931009912764	-1.0330804359461518
id114	sample0	obj114	-3.6723422625270463	-0.9152171035842007	1.6318737957933893	1.1669220851757018	-3.5348360297031203
id115	sample0	obj115	-2.6145685128018235	-3.136736395105232	1.9320625904668487	-0.5404290872159754	-1.6804691773090645
id116	sample0	obj116	-1.744357300301375	-0.5908647987624398	1.1656541900006172	-0.36089961174253005	-2.7387864600740253
id117	sample0	obj117	-2.1838644732546593	-2.8094118097943808	1.0715790652056654	0.8799366812864033	-4.060257626609149
id118	sample0	obj118	-2.5765391601826453	-1.2773930836942815	1.2841675144583793	-1.4626864631867287	-1.1315416313177271
id119	sample0	obj119	-1.4563511347923919	-3.0286703175534986	-0.6731066237610235	-0.4909983167888654	-3.8421138651118514
id120	sample0	obj120	-4.5122152987856605	-3.421876189850848	-0.7909690135639778	-1.6171429941090854	-1.3331986546977996
id121	sample0	obj121	-1.371020960947485	-2.602172161718407	-0.02850318733540602	0.4035068943952822	-2.3599337592943757
id122	sample0	obj122	-2.0657670443628717	-2.0315596465155195	0.975776861953287	-1.8992455764837255	-3.1396164943854674
id123	sample0	obj123	-2.510256651273896	-2.9630368228686637	1.2814492748111983	-1.6386764675675387	-2.257227526471464
id124	sample0	obj124	-1.1966275057594167	-1.4363701536984912	1.9579344590895043	-1.8450459076280281	-3.691463919512366
id125	sample0	obj125	-2.9606818140556954	-1.2187683386283295	1.6693200644131994	0.9422752295541101	-3.065263957459689
id126	sample0	obj126	-4.07525690093938	-3.2394152529649958	-0.8390710872706859	-0.03551928687002914	-3.854487919252866
id127	sample0	obj127	-3.9052444153799772	-0.07850148260495016	1.5474899789706085	0.7439966013247445	-1.666031619374461
id128	sample0	obj128	-4.479541581825705	-3.143690754372666	0.4213549783923911	-1.457298291511881	-2.999919431784991
id129	sample0	obj129	-3.5141977298904132	-3.143242521112782	-0.387564954848964	-2.007267255233317	-3.4353365993524814
id130	sample0	obj130	-4.585029843753695	-3.5573769479871045	-0.7320636633504307	0.7286166538689016	-3.8433524433776864
id131	sample0	obj131	-3.1435126783475127	-2.6987883557972006	0.2893102393957834	0.533810575369235	-2.8632396550021344
id132	sample0	obj132	-2.962032082126048	-1.2890876381898495	1.457121784181927	-1.2736560326255102	-4.1375449010462475
id133	sample0	obj133	-4.367612259570183	-2.978744664509922	0.564042633511318	-1.2649756511568406	-1.6548986607648388
id134	sample0	obj134	-2.279717273185109	-2.7909223864119204	1.0154113847884496	1.0787450488246086	-1.9891969301394898
id135	sample0	obj135	-1.3291806476583143	-1.4302962576838778	0.6805341456360388	0.9071978821537787	-3.3582377508892653
id136	sample0	obj136	-1.5419507247161632	-0.49115328901753963	1.2021446067201504	1.0733911980726194	-2.7818713352777684
id137	sample0	obj137	-1.8821573100871436	-2.218117495747234	-0.20653515192073924	0.1996981523211152	-2.8457276333922747
id138	sample0	obj138	-2.8417261549190815	-2.3798667238041378	-0.44937497837276563	-0.8861551288649478	-3.3368324845876907
id139	sample0	obj139	-2.6348856800274882	-2.0420466210679225	0.6425778857605449	0.5446911806535042	-2.895917433055806
id140	sample0	obj140	-3.0206534561872718	-2.369860443906092	0.8520941312356543	-2.013508479584101	-4.230686425028933
id141	sample0	obj141	-4.068747881830286	-1.1218792373850415	1.0522179943698349	-0.49755074128499	-2.6762214381839593
id142	sample0	obj142	-4.657075150119525	-3.051583167756516	0.8162113176772101	-0.18707488609230905	-1.313317589531222
id143	sample0	obj143	-2.813472213355105	-1.9178731666999305	-0.23971375060538302	-0.9989699426521692	-2.1218195233695116
id144	sample0	obj144	-2.080992191509087	-2.0948880740865494	0.17333303003353429	0.8001550388839129	-3.231723181916923
id145	sample0	obj145	-4.103663177581655	-3.2082912133197867	-1.0563352768062237	-0.23283199815078315	-2.836393409350605
id146	sample0	obj146	-4.226089064944199	-2.7218552929153157	-0.22197108625258155	-0.9143322594432532	-2.7649593179522123
id147	sample0	obj147	-1.2219615249640967	-1.13553943072845	0.6325538169951206	-0.2887699201809777	-1.4087769589407657
id148	sample0	obj148	-4.278759252592064	-2.5839226063456393	2.2299108016669305	1.2216434473254443	-3.6125196347254733
id149	sample0	obj149	-2.3526012592344747	-0.5601983354989379	0.5940580152702393	-2.1423926845154915	-3.745460108659455
id150	sample0	obj150	-4.671139234863943	-0.42304953147923885	2.2469918642828075	-1.0476083509690164	-1.3530780847316437
id151	sample0	obj151	-1.5249894588457436	-1.5274732415694736	-0.7842559016722774	0.8029259234956989	-2.362244537872331
id152	sample0	obj152	-2.5897705854649713	-1.2806222265500458	-1.0915657246740627	-2.0886632230226434	-4.402636460955586
id153	sample0	obj153	-2.6428995663040435	-2.484727798492221	0.2650585934618537	-2.181343419454019	-2.7993793608287207
id154	sample0	obj154	-3.26058760917977	-1.617747045945688	1.2896668625266827	0.3336400025904134	-3.5421373011824606
id155	sample0	obj155	-1.9017120053869039	0.00634488981489878	0.6845957377374978	-1.3086408459891978	-3.3493991818235
id156	sample0	obj156	-4.495898985492914	-2.186019593234113	2.2733075880624645	0.13637179116748155	-1.5684430710634147
id157	sample0	obj157	-4.1733673896500685	-1.4972092684556098	-0.09502635647492519	0.7484394283215037	-2.582543154038497
id158	sample0	obj158	-2.1522850951686383	-2.8326248365957793	0.32983288359959206	0.4931459448274438	-1.4251029317737725
id159	sample0	obj159	-3.864923929401321	-2.3357308353138917	1.4749104972557017	1.0656523205327117	-0.949656869392095
id160	sample0	obj160	0.9301360524679522	-3.081731320240534	-3.570070117516637	0.3224052274729632	3.25781257972013
id161	sample0	obj161	0.24758102954568928	-1.3701499741530199	-3.594431385169258	-0.5654474408811738	3.9417059099531473
id162	sample0	obj162	0.490109958101975	-1.5919807354323428	-1.8324111563554342	-1.4930977303934878	3.4716707145609877
id163	sample0	obj163	3.4251045515738183	-1.1887222052843935	-4.231133260915865	-1.0873077634505455	4.090267152325116
id164	sample0	obj164	3.3236394478520985	-2.908573374361429	-4.431012352337161	-0.9599134322223744	3.8588493539345308
id165	sample0	obj165	1.0732421903215443	-0.9084930944913043	-3.0921408019720564	-1.8484123636018694	2.2407128034696027
id166	sample0	obj166	0.8863503201704029	-1.6856730336430983	-3.2702890801312634	-0.5394565970551357	2.1787722789032484
id167	sample0	obj167	0.2019987293439891	-2.0126305186905498	-2.70371986014088	-0.471850691339297	3.031162900948222
id168	sample0	obj168	1.4936406787994518	-2.9886044074369167	-4.107986295281007	-0.9826185917723349	3.0631079241435337
id169	sample0	obj169	3.3398184158533093	-3.9594595487144684	-2.109590796070231	-0.6757698865427455	3.2856949828956896
id170	sample0	obj170	3.5682948909618597	-3.426615602175294	-1.592917568683924	0.2699645137876481	0.6759923332971967
id171	sample0	obj171	1.6611266312708197	-0.9090944978507978	-3.569094033955153	-1.7093057258638003	3.8336020415033376
id172	sample0	obj172	0.15214287680735405	-0.8068591516907981	-3.3499822563351334	-2.3067619843987406	2.8829381823783926
id173	sample0	obj173	0.7347825105997174	-1.7221860479595283	-4.243715348878105	-2.968484486806383	1.9061167506117613
id174	sample0	obj174	2.4338753205147174	-2.9316016759218	-2.7671834788401606	-2.1511343064722888	3.10749405062408
id175	sample0	obj175	0.11762461686896653	-1.1854108576856792	-3.151500945959251	0.46362975859444755	3.6179872980411076
id176	sample0	obj176	2.6048926041449234	-0.7852785226964627	-4.3233565746765965	-2.635962588924582	2.4269847203488712
id177	sample0	obj177	2.2583077546198536	-2.511688721278587	-2.871624162226893	-1.67884302401347	1.0948051201509243
id178	sample0	obj178	0.3773310963794214	-4.020124214764918	-3.0168006690778397	-2.7960559582514524	0.6934297436927745
id179	sample0	obj179	2.880143899509433	-2.693973549359405	-1.6216020458124156	-0.6519999834085193	1.123001829729148
id180	sample0	obj180	1.7831745577888554	-3.3487140006033385	-2.7139900092801983	0.13055918449563708	2.7629999086076804
id181	sample0	obj181	0.1776764435776026	-1.6598219426848713	-4.007394061692928	0.26071604706482243	2.9779469816179054
id182	sample0	obj182	1.4206258411712287	-3.5888641410635103	-3.4340272931584455	-1.9904911082079657	2.277141531667738
id183	sample0	obj183	0.9902325227322625	-3.779803041973442	-1.9618480262082765	-2.4360507493131554	0.7265947005361457
id184	sample0	obj184	2.1236781178963358	-0.6809471139002687	-3.11848492874723	-2.0415524850462807	3.260759696104821
id185	sample0	obj185	0.20671310454989467	-2.5261744273735367	-4.3396955556738686	-1.9363977043653662	3.404641954551346
id186	sample0	obj186	1.1030917718200626	-3.6097871370438717	-2.5077641525735057	-0.7754969774856624	1.4876201622706557
id187	sample0	obj187	1.0093977209968577	-3.9591052629472197	-2.327530527913999	-0.3516841485969724	2.2341786871191274
id188	sample0	obj188	0.1417476677024454	-2.612910601820544	-2.7540873852804904	-1.4650087191026693	2.3103942783014553
id189	sample0	obj189	0.5805542240015646	-3.836089344212796	-4.254941315748633	0.3977151561350418	1.476322932230406
id190	sample0	obj190	0.624614012711562	-0.7440365102666797	-1.1477226268348277	-1.915256227018829	1.8625358344226026
id191	sample0	obj191	3.374161607643965	-1.2960497537954316	-3.55819970039025	-0.6737256273517882	2.604352408798211
id192	sample0	obj192	3.643328947005547	-3.5852995346960252	-2.817022933817129	-1.0949703648705724	1.811446653730855
id193	sample0	obj193	1.9960678397377352	-0.8629955536991247	-1.5506448861269815	0.0845389814121178	3.8363577295862763
id194	sample0	obj194	2.737667272987166	-0.8638094609988063	-3.4843498825646737	0.3031968637368496	2.5771518753304923
id195	sample0	obj195	2.539422287947511	-2.744951327470721	-2.2941357313377573	0.11483766066923606	0.6824591524234636
id196	sample0	obj196	1.2209244121895453	-2.3277593706964437	-1.5189324153549466	-0.23120336712185563	1.3279706539121396
id197	sample0	obj197	1.6882348600186299	-3.872238140042879	-4.243676897344185	0.4965055296638743	0.8401436509648734
id198	sample0	obj198	2.283517787191358	-0.47440375004263324	-3.024197868758985	-1.988905384835163	3.1244361627461323
id199	sample0	obj199	2.230433581429145	-3.62504609826365	-4.052561640442467	-2.7839680028338356	0.5122955830122278
id200	sample0	obj200	3.3788697308360636	-1.3968387722857838	-1.1310963777290486	-0.5754836848826395	1.104981976124066
id201	sample0	obj201	1.4128045765187507	-0.7435956416210725	-2.778106099589372	-2.7395648836544986	0.6260083630792082
id202	sample0	obj202	3.167902841779287	-2.128623683354949	-4.040424147866968	-1.1272889821129375	3.391679510254156
id203	sample0	obj203	0.4237149953381474	-3.0950465191159076	-3.318284726468626	-2.8424421912542073	2.496282203341827
id204	sample0	obj204	0.3332441961207939	-2.814894777739906	-2.866134647917506	-2.7614384060802677	1.6415741526317633
id205	sample0	obj205	2.4055373876652055	-2.1896706732486937	-3.037313000442702	-0.6251307150392285	2.807227414182745
id206	sample0	obj206	0.8714997942555487	-4.025730722216403	-1.1781125989192904	-0.09339253533517478	1.6789371133112307
id207	sample0	obj207	0.3772048384265567	-2.7946652512771424	-2.8034538825055533	-2.2612524036485655	1.3744076536703238
id208	sample0	obj208	2.83172726951334	-0.752136997707441	-2.1268691658690058	-2.1740112556462434	2.8160118861679715
id209	sample0	obj209	0.888347011282484	-1.0873429270086186	-1.0650633955878763	-1.6508918677026008	3.2054745474775466
id210	sample0	obj210	0.09049870453739128	-3.8871290032102017	-1.3541004598448627	-1.5538403056198422	1.304602461647417
id211	sample0	obj211	0.5299693775604186	-3.320293225357807	-2.7311212145789234	-0.6603649415828976	3.692260833715358
id212	sample0	obj212	2.038714171085253	-3.693999746440524	-2.9520376936368447	-2.775738962538725	2.858114624034833
id213	sample0	obj213	2.1926542643053177	-0.5394705208950736	-2.7002293358763136	0.07176329130801373	3.146013030843376
id214	sample0	obj214	1.2025886345889023	-2.3009703525745584	-1.9309997720305667	0.37218053540108653	1.343428179604592
id215	sample0	obj215	3.3917798265913155	-1.5020216918863125	-1.697294454235888	-2.8490536628130174	2.7284618920022172
id216	sample0	obj216	2.2310025381909555	-2.4360281607693364	-1.188544873664762	-1.9570272980810712	1.9642426665173502
id217	sample0	obj217	0.4702654126833543	-1.5840280114584548	-3.229845114352492	-2.5833588175905	1.3349443386561903
id218	sample0	obj218	1.753672728336776	-0.6278688377888006	-3.845100847613777	-2.549551510710052	1.9423056408330197
id219	sample0	obj219	1.6428703650720617	-1.349193164447348	-2.966168305271884	-1.617173201315565	0.9518052868705627
id220	sample0	obj220	0.14936288407161946	-0.9484669750482035	-3.8199396715797236	-2.927613546123033	1.8501979577781162
id221	sample0	obj221	1.462087517926448	-2.56786889043066	-3.265185575217986	0.09376686585010607	1.238824097573887
id222	sample0	obj222	2.460622530245577	-2.0599101651540757	-4.267844991077225	-1.8930424800011967	1.5591155390433038
id223	sample0	obj223	1.3641885202652018	-3.831671509485193	-1.1532216711839733	-2.189883819860194	1.7784269030241144
id224	sample0	obj224	1.7513053331222224	-3.052738622055295	-3.380805543226716	-2.2664026349177546	0.6373532764952163
id225	sample0	obj225	1.0949932201504173	-3.7022987089294626	-2.945554623386677	-2.0466376182793646	2.986958762094078
id226	sample0	obj226	0.9253853939248554	-1.9251454566088222	-2.4805539078814416	-1.1263019373109657	3.9699626828055994
id227	sample0	obj227	2.8184524243106086	-0.9640165954685924	-2.5508691985615597	-2.8880167645163652	1.2993089911766091
id228	sample0	obj228	2.4103554984823066	-1.751998389300516	-1.8867508860857025	-0.14686500550360404	1.3673200700445065
id229	sample0	obj229	2.777147196317427	-2.217648339012745	-2.074471048854039	-2.3494079707957556	3.7166958553695837
id230	sample0	obj230	0.35575621698664817	-2.829755331448051	-1.3421038095449427	-2.962217072472522	3.3901066864735965
id231	sample0	obj231	0.5023250193625806	-2.359751368335001	-1.85135314422617	-0.43626602664722935	0.7484334394633807
id232	sample0	obj232	1.5071509862733241	-2.7579547759385994	-1.4096883946834546	-0.6551835805944421	2.940470392924021
id233	sample0	obj233	2.362107243150562	-2.2340327919846867	-4.092939195845816	-0.12111402281320749	2.382019390362202
id234	sample0	obj234	0.28812754128034945	-2.930072297327449	-3.829230816422574	-1.6732688565076437	3.3539016374705257
id235	sample0	obj235	0.2900198566731873	-2.7229100113836653	-2.721565047392665	-1.0613952476735653	3.7818974928590414
id236	sample0	obj236	0.8576723309162475	-1.2561413581712089	-3.528088922127841	-1.1183371845709196	0.7736228445345465
id237	sample0	obj237	0.2520124111713862	-1.3654843790283067	-2.894492368809597	-2.3203437060302567	2.345764031016877
id238	sample0	obj238	2.007529120613037	-1.926649817031554	-3.229156338144459	-0.4372797206431607	3.4990572434994904
id239	sample0	obj239	1.9886494475612415	-3.0440533667436873	-3.18448265139967	0.37735360364331094	3.138304226350665
id240	sample0	obj240	0.27455437102292835	0.4107569515761955	-0.9678651550128141	-0.3154520465239192	-2.290932871336538
id241	sample0	obj241	1.8507222835035022	-4.283381029141131	-1.5968212374003201	2.5066086567004717	0.05714241770259987
id242	sample0	obj242	0.9665224035221041	1.1195201016122605	1.4632159663845663	-2.5738138039005634	1.7268839429218652
id243	sample0	obj243	-2.212214255751471	-0.5126114062067628	-0.2754200494564448	2.856241769271433	1.678409665425337
id244	sample0	obj244	-1.4051515373999357	1.778860653799559	3.6146343079464307	3.0537011804502567	-0.9079173003756547
id245	sample0	obj245	-2.5716390145265375	-1.5407962072990011	0.34179406416189995	0.2672386962809108	-1.5543468801332752
id246	sample0	obj246	-0.9198304571308851	-0.07796367747796595	0.05145036745225351	1.8006535490327324	0.4504348656522714
id247	sample0	obj247	1.2547434119024794	-0.4648920905364393	0.3772551335462808	-4.3491881375680155	0.6392187349611718
id248	sample0	obj248	0.16083291448836257	2.150084726117843	0.7492900314342525	-1.7842181314533823	-3.5385684018076855
id249	sample0	obj249	1.7040978930994237	0.2553216554328033	0.4840690468701805	1.2803461333893928	-1.301664776282973
id250	sample0	obj250	1.2384026837397895	-3.038883152516039	2.6649063080104103	-3.439137228663296	-2.576360452808094
id251	sample0	obj251	0.6028346857694988	2.2091597282645914	-3.202550009894435	-2.1209357198248346	-1.0702263135428207
id252	sample0	obj252	-1.3260393077297927	1.7985704063535772	1.080658496031651	0.6845978587551527	-1.48917905430897
id253	sample0	obj253	-1.1397404430070353	-0.1323386287435715	3.310911615530312	-0.8382268582230796	0.04877431576170621
id254	sample0	obj254	0.4864589009450664	1.7054917391091784	-0.34734331518794703	-1.8877616847188154	1.0560397734847569
id255	sample0	obj255	-0.7007047965230642	-0.734573973752791	-0.7709998673742324	3.5987469644815198	-1.591460683305629
id256	sample0	obj256	0.8516521079861472	1.4222016690897925	-2.945320689108538	-1.569249300561919	1.6212567613086875
id257	sample0	obj257	0.9715966135293168	0.8956290364093809	-3.3161593124738427	3.016491352887442	-0.5231270105453869
id258	sample0	obj258	-2.092814397452293	2.3095079118524575	0.744628067966262	0.5184056149931264	-2.885238739789946
id259	sample0	obj259	2.6613634471970555	0.049660227251296485	3.8039655258806873	0.6157569612051386	2.0092813534247016
id260	sample0	obj260	2.0764667414322577	4.044290596672772	-0.7525610065345327	-0.5754942633463733	-0.2596097969316673
id261	sample0	obj261	-2.5692523767653115	2.329772875755631	1.002629962457021	2.723623527716112	-0.3065688806968998
id262	sample0	obj262	-2.5784916899203907	1.919027101350444	2.974342454962457	-1.7284162528730682	-3.4380277408130935
id263	sample0	obj263	-0.12721328114127717	-1.6427438217628552	-1.4334864971172765	1.050329600130917	1.5679794894072094
id264	sample0	obj264	1.3530688534341921	0.6087216648069247	1.6806830376456754	-1.0111352859584295	-1.91777587135467
id265	sample0	obj265	-3.1591446416423308	1.6953683477169281	0.22107179163548163	2.356266688269793	-1.8218350460404775
id266	sample0	obj266	0.9262618619708267	-0.6543380197378375	4.084859495850373	1.5049223014342725	-0.8298004705762836
id267	sample0	obj267	2.3525788942702044	-1.3916244392986754	1.2801430327887666	2.5796698957294444	-1.7203098244974468
id268	sample0	obj268	1.0452033243420527	-0.16933332081407226	0.741607488268242	-1.2968097735609738	-0.9911678641245485
id269	sample0	obj269	0.1301270912716812	-1.459095389894562	-1.497087905025903	1.5059254704316676	0.29734006925072487
id270	sample0	obj270	2.303606623115689	-0.2035265067254899	-3.18117560475106	-0.5651316396303381	-2.0000068560690947
id271	sample0	obj271	-1.9769694042573902	1.8669919234120664	-0.6593380366761206	-1.5726869963891668	-1.1714204209402237
id272	sample0	obj272	2.3783555451192884	-3.0390715735230973	0.05896871248108426	-1.527947530124134	-1.5536034487443227
id273	sample0	obj273	0.3007516957514327	1.058769821575981	-0.970796443420737	1.9754005219563247	4.028455886185592
id274	sample0	obj274	-1.7126165071788348	-1.90466477584689	-1.4666308685481597	2.4551036657524734	2.911955893662448
id275	sample0	obj275	-0.6463116051907165	0.005005004907747912	1.0471655610335706	3.9363506188103132	0.30586394985762033
id276	sample0	obj276	4.753576552321401	1.1828413608015202	-1.9639507619900547	0.44221353697534505	-0.8129214494171235
id277	sample0	obj277	-1.0309137497569953	4.039694658500239	3.3240253071934003	1.896172341278972	-1.3452929860307765
id278	sample0	obj278	-1.1034654682423344	-1.3543451875991235	-2.9636749640475104	1.8818137823105947	0.650841064635912
id279	sample0	obj279	-1.1237169594219532	1.0604063313807202	3.2999576360081857	1.3543175204285665	-4.14189662100274
id280	sample0	obj280	-1.2016063953008118	-1.4220587444228685	1.2670228607787042	3.02713838719482	-0.5016997934371099
id281	sample0	obj281	-1.0425553269902272	3.3242697366907707	2.2093788663484792	-1.6535025572981155	1.589709260114964
id282	sample0	obj282	0.4046848305623141	1.5284729644255879	0.6232825639490738	-2.100529424979566	-2.1199002691369087
id283	sample0	obj283	0.33579093669685345	2.0920496647689966	0.12260873570356767	3.4338127028537304	-0.7634762480538744
id284	sample0	obj284	1.6935559681364738	-0.4684126298748794	0.879371992790489	-2.200676992309613	3.0805156927690858
id285	sample0	obj285	-2.8479185915067804	2.825279168146402	2.3173809168777573	-1.4371715673159902	-1.3712380415822898
id286	sample0	obj286	-3.2923255143161163	-2.2529659377902034	2.0202387720504875	2.089294330682974	-2.3524825027074154
id287	sample0	obj287	-0.9505750277521348	1.7107655329415075	-0.5366132927832117	-3.194042434080373	0.45526657466256526
id288	sample0	obj288	3.4188100384906575	-1.2889622907525067	1.4605098330341657	-0.6373712457304872	-1.2225035149587342
id289	sample0	obj289	4.044981223586804	-0.6522905667008116	-1.251409828225714	-1.883077569805529	0.7875246939465392
id290	sample0	obj290	-1.112068515582402	2.079584629309459	-2.680842400503698	3.3420036306678513	0.20321481815035125
id291	sample0	obj291	0.8891698702448092	-1.3521626124888835	0.8829125585084081	-0.8899878341736017	-2.6736732178988705
id292	sample0	obj292	-2.7455491780535937	-1.436267927277324	-2.3738401653716252	2.669273943574585	1.7880442035752306
id293	sample0	obj293	-0.6035044668893896	-0.8807592748303872	2.4295794319416597	1.5588565262629126	2.325048478175934
id294	sample0	obj294	2.1877571372755193	-1.8623948304379205	-0.017497746901319777	3.9337300551861176	3.3339524527806965
id295	sample0	obj295	2.62134896835311	-3.389536636842967	-1.1360815730426521	0.046902383279442406	-2.258824128207073
id296	sample0	obj296	-0.9731294121651444	-4.166132345218506	0.34624508888275884	1.4171143324431112	0.005550956287946329
id297	sample0	obj297	-0.46217560539884217	-0.8457837234032073	0.13717066463730854	-1.791607771424056	-2.029107443845901
id298	sample0	obj298	2.4139876548404575	-1.09763395992708	3.0353396189221913	-2.052258629938954	0.4160262134971384
id299	sample0	obj299	1.6210275902557465	3.480916177718523	-0.36156175886297026	0.3231998052670024	2.5609145686148462
id300	sample0	obj300	-1.8418833206188223	-1.7949824686535876	-0.5431500913760801	2.2968431436289896	0.4058089027333194
id301	sample0	obj301	1.786450407570852	4.112622876134258	-2.44328239025015	-1.7835786469409978	0.9878437056341218
id302	sample0	obj302	2.317350769544192	1.147910121240877	2.128232586657872	0.18342450355410045	1.4821724231116864
id303	sample0	obj303	1.407143091230775	-1.0393168206076024	-1.3178824766122765	2.0618829237284597	-1.9581391005218771
id304	sample0	obj304	0.6557459985384522	2.983988819725151	3.517330301286947	-1.9482539169613486	-2.0769544348534907
id305	sample0	obj305	-2.632535024791105	1.9558789029013468	-1.4460468429575506	0.3610622029245687	0.16372945805923478
id306	sample0	obj306	-1.265448377419943	2.949884343982471	1.9969272576685382	-0.5576731185570438	-2.974620245440052
id307	sample0	obj307	1.2554306185158695	1.967755591343341	-3.402798813438544	0.20351030546401572	1.4365282544465667
id308	sample0	obj308	-2.3323981249121415	1.8842846435720906	-1.769660513701552	-3.234532994610871	2.7383718729015185
id309	sample0	obj309	-0.5999762590467419	3.457282709017039	0.46880219706230597	-1.4460697455837737	-2.4019757449445365
id310	sample0	obj310	-1.6654863419782322	-1.2245197874532978	-1.7417986631455011	-1.449483818289669	-3.6206340408465074
id311	sample0	obj311	-1.9775577158605102	-3.5073553504155712	1.5484882607466297	1.0055403527325015	-1.1738455330900004
id312	sample0	obj312	2.571383468871127	4.024046669948799	-0.3194455389187165	-1.5424127695954972	1.0072313706591542
id313	sample0	obj313	-1.711905552617045	-3.0098940519683413	1.9698042731009104	-3.3553338782544078	-0.8201109197962959
id314	sample0	obj314	0.6832390078819051	-4.3738773738744925	-2.0379364259563166	2.306154073435372	-3.178652477554744
id315	sample0	obj315	3.9483021753514986	-1.2468637845666286	-0.1800656758135093	-1.0971764237501087	-0.27104448885135746
id316	sample0	obj316	-0.8372116141645469	0.40300678309313875	2.502413618036738	-3.166352740235111	0.8194341668185228
id317	sample0	obj317	2.7547044774300122	-0.009594041944402276	-1.3314136075699292	0.44745627726884973	1.1910630397582096
id318	sample0	obj318	-1.1681117360509963	-0.6339421726147088	-1.9170746921741044	0.21853490694719335	-3.81577899392289
id319	sample0	obj319	1.7827674155455873	2.0719146099641677	-1.6290129876281554	1.6696398108547845	-1.3055181627293693
id320	sample0	obj320	-1.8779253863122372	4.198646237861523	-4.289329487931774	-2.1774076448885333	0.9644573379208556
id321	sample0	obj321	2.2290141867182913	3.734240310237613	1.6614625237341032	3.392168317976722	-0.589100111135848
id322	sample0	obj322	-1.7155694678068316	3.7678147546886303	0.765296511046573	0.4489432369280586	0.31579528220177355
id323	sample0	obj323	-0.3515363028777321	-1.1725718284322386	-1.91085856663847	0.21280854570854646	3.2576179935539846
id324	sample0	obj324	-1.525198163573292	2.291794423051461	1.5406822067466701	-0.769961148230444	-3.9387542826203696
id325	sample0	obj325	3.744712952198703	0.20042644108279517	1.6605432674996592	-1.1018087876994282	-1.5152302598392935
id326	sample0	obj326	1.5689846428130225	-1.4813858361292584	1.7839970854614415	-2.905924205910722	1.7033046113506018
id327	sample0	obj327	-1.733582212828718	-2.183598648558158	0.26768758481304533	-0.8885131805387876	-0.15679642101827285
id328	sample0	obj328	-1.036988205840706	0.8973519790294051	-0.4908977401834165	-0.9894344095065768	-4.44733575275347
id329	sample0	obj329	-0.24360589069948824	1.3869661580939832	-2.3108320335450365	-0.44195662669657043	0.25548787500237724
id330	sample0	obj330	-1.806068932393217	-0.2398119099396736	1.5373057034233142	3.0178789149842484	-0.7393323170941923
id331	sample0	obj331	-0.7470253547324688	0.9021117937743985	-1.643847576940627	1.8481716400334285	-1.545915188310823
id332	sample0	obj332	-1.1542629983278736	-0.5439254746191118	2.7429380933123015	-0.14710845190380195	1.9598788531985347
id333	sample0	obj333	-1.0364015403114695	-3.6966541069731793	-0.33853298754982686	-0.15257900002874814	-2.570907933696599
id334	sample0	obj334	-2.01751654585904	-1.8745475050025338	-0.8388563907036679	-3.4275165823766374	-0.7559490838815592
id335	sample0	obj335	-2.330269335976953	0.3308746248347292	0.36309921443770254	-2.0251109673813597	0.5854952218904081
id336	sample0	obj336	-1.4010828875696613	1.2968997374550757	-2.7813802902985816	2.0630590223176846	-1.5413464961305572
id337	sample0	obj337	-2.4808683729761363	0.5773112992975744	2.340089427889998	-2.548670687556292	0.6850580258789978
id338	sample0	obj338	4.305988032769149	-0.8896231458047683	2.1248278831462377	1.7208842779733104	-1.239587473906725
id339	sample0	obj339	2.7326715331102713	3.720584047252091	-0.7561136205078185	-2.6826455761453154	-0.42360753242212756
id340	sample0	obj340	0.9741115694985599	-2.44799023003388	-1.0199705159077788	-1.6238425439487838	-1.3202676526672714
id341	sample0	obj341	1.715458451850478	-2.003756887557482	1.6781980834650188	-1.4102966214336778	-0.6728312613356853
id342	sample0	obj342	-0.06931437350522818	-3.45199876011012	1.8998992299137325	0.9772537255045692	-0.23242425027470381
id343	sample0	obj343	-0.8993359579313447	-0.16829107572766033	1.5643670854250389	-1.589425159653718	-1.897581634214376
id344	sample0	obj344	1.6917781465463422	-2.9500916294735484	2.857036960740035	-1.2821610150210472	0.11053400409955993
id345	sample0	obj345	-1.6207577351480302	4.443618255159776	2.035888440923989	-0.9069522290281038	0.6675598008001518
id346	sample0	obj346	2.4259346036171383	1.3378027863378923	-3.2285591287058417	-1.6171200692825314	-3.838080445696318
id347	sample0	obj347	1.7601615122692587	2.6007587427533068	0.9805897361976095	2.9213105098672507	-1.0193305698402042
id348	sample0	obj348	-1.609138137513716	-0.9386232640904082	3.4110288208418966	-2.632326927515006	1.088507890437022
id349	sample0	obj349	2.345244031250644	2.8241830950580225	2.4364106327019988	0.37916412796549737	-1.358585302955759
id350	sample0	obj350	0.5935986419135657	0.008336993652936053	-0.46314558024682895	0.5460036762374949	-0.5791496824754525
id351	sample0	obj351	0.19784133406834115	-3.4309998025412503	0.8180621451481206	-1.754193585936114	-0.5401873778992965
id352	sample0	obj352	0.7663346392233759	-1.1345658074880491	-3.6747811395106136	1.1173651059688774	1.6009435667523964
id353	sample0	obj353	0.8950245200750715	-3.2405612866729707	1.2812305520378633	-0.024530884380775442	-0.8690683757732822
id354	sample0	obj354	1.203863953072333	-3.4816397516710618	-0.6987350783246253	-1.4220237450134594	-0.21379025654724382
id355	sample0	obj355	1.6155289173076162	-2.121065212741081	2.996681966623397	0.5511371326958872	0.9847279728196837
id356	sample0	obj356	-2.008926130411399	1.0856136341141958	3.314204665659534	0.8630188756586803	-3.657621624336865
id357	sample0	obj357	1.4395423039054174	-1.2020805824225183	-0.4054277472439638	1.3519370051966695	3.134945759607705
id358	sample0	obj358	-2.4476377172241026	0.1345104790436189	-2.4833078374398303	1.3053180849488641	-0.2600145483607592
id359	sample0	obj359	-1.7520794187219293	-2.7715918511280764	-3.439711148099068	3.1273910875439865	2.419489185426338
id360	sample1	obj0	-0.7723654156928814	1.233732087762703	-1.774857393302234	-2.1657710513309643	-2.6111952640671134
id361	sample1	obj1	-1.1641244712107406	-0.26124881412128764	-1.983207485263032	0.5078938581078087	-1.8579164278968319
id362	sample1	obj2	-0.32832613607537886	1.9909247404371604	-0.973417907903243	-1.5632335423461194	-2.0680558564729576
id363	sample1	obj3	-2.973569558153452	0.24787291990317906	-1.9451304807632093	0.4388570332355506	-2.29059809378893
id364	sample1	obj4	-2.9888347550864345	0.3782696678536537	-0.29357690864166597	0.22453957610440445	-2.6150196140316577
id365	sample1	obj5	-2.1280256104493356	0.0987419834057075	-0.395014596772959	-0.31051856077719475	-0.5760014245649747
id366	sample1	obj6	-3.3422050946037025	1.9732249025094146	0.37768926955912696	-0.0026899913109776907	-1.608600719481265
id367	sample1	obj7	-0.501838060158305	0.34439185099115033	-2.42383198274655	-2.037377177270227	-2.7467134388225904
id368	sample1	obj8	-2.0924971452882826	0.7213117252067065	-0.21843748030303733	-0.9243210701334073	-1.903322976273958
id369	sample1	obj9	-2.3775651545392438	-0.5307516307723646	-3.0116278903248093	0.5422195900210436	-1.6235086924229327
id370	sample1	obj10	-1.0999179075993057	1.122202752782384	-2.200907179786928	0.33304126632301423	-0.976887233420362
id371	sample1	obj11	-0.3120352479510984	1.8266596768447896	-1.5349420512898735	-2.3931457663716698	-1.850531212143271
id372	sample1	obj12	-1.3935585955382506	1.2633560156246249	-2.2444861015409243	0.8846012584748337	-0.548672486476306
id373	sample1	obj13	-2.824716044398174	2.235605641048603	0.3522919283876489	-2.2445918588427523	-0.4941288768754364
id374	sample1	obj14	-1.0277386560272392	0.18539827543028697	-1.12729889262008	0.7659476943126264	-0.6136728392213311
id375	sample1	obj15	-3.331721865133707	1.8885383842635688	-1.8972920395007347	-0.21882407989742325	-3.0750595249839696
id376	sample1	obj16	-2.4077245134469045	2.0401698355887667	-1.8139861239106931	-0.23102167561005715	-1.0601964739993643
id377	sample1	obj17	-0.14392644896949025	1.100902953180556	-1.5357756723569447	-0.06596144863400322	-0.13859949077180178
id378	sample1	obj18	-3.2734167600144985	1.3341004154293208	-0.16849013803974766	-1.2670112519536976	-2.227530794136132
id379	sample1	obj19	-1.5371537041691823	1.7760606240345844	-2.390011675490726	-0.08420299060262759	-1.7209286534818102
id380	sample1	obj20	-1.6868440681667212	1.7009978989925056	-2.6799239905082537	-0.4699698359031588	-0.36056916290898156
id381	sample1	obj21	-0.7805384365713188	1.2555305155889644	0.4335874149490586	0.39894364702531315	-2.47727814797335
id382	sample1	obj22	-2.527598779527522	-0.5285776158089891	-2.584917267561495	0.4916239208398243	-1.1034316152165409
id383	sample1	obj23	-1.793356440823171	1.9939197388742163	0.07633587618742843	0.8577497962433898	-2.98827798350887
id384	sample1	obj24	-1.6682790762592787	2.0376136871222306	-0.9632895979408771	0.05811321004580372	-2.986951935089593
id385	sample1	obj25	-2.51290305018104	1.554276025102329	-1.6825609179686956	-0.22309850950537702	-0.6132534034117529
id386	sample1	obj26	-3.2175758217147186	0.1784492117081209	-1.4645881204018152	0.383559688931417	-0.8391350768600752
id387	sample1	obj27	-1.4939893086107325	0.736468150894152	-2.7383041719715076	-0.5163542931619804	0.2242116178125777
id388	sample1	obj28	-1.092207204645452	0.697770960811795	-2.5927823548644104	-0.579939864352399	-1.8646776741835236
id389	sample1	obj29	-3.107566853679677	-0.5555711421714824	-2.8885900594005363	-0.41401741944426695	-2.707174628747974
id390	sample1	obj30	-2.5612848650637905	1.7487329424190896	-1.638180981849719	-1.082024332628975	-1.0061726734242031
id391	sample1	obj31	-0.1891445056475931	1.963533328879841	-2.053304074851053	-2.0682218439198	-0.2575334549433823
id392	sample1	obj32	-1.3154375496288953	-0.6283930697388627	-0.70795726160778	-0.8737461740226313	-1.0392596436895365
id393	sample1	obj33	-0.7066204987720173	1.9108135633809755	0.4401611398647518	-0.8714874289680996	-1.2708168770767878
id394	sample1	obj34	-2.713529735651618	-0.48554006863533405	-2.5358554129145086	0.6344374581758216	-3.0894551463196964
id395	sample1	obj35	-3.1746377888466792	-0.24245617887798887	-2.588440861769225	-0.06833279379943513	-1.9981648347728997
id396	sample1	obj36	-1.09638895722066	0.6304427670193271	-2.4927750585418185	0.7039180785422727	0.23987779656648356
id397	sample1	obj37	-1.7973809818119313	0.9875500245294735	-3.040724058233806	-0.48181785720962034	-0.9075043151689581
id398	sample1	obj38	-2.088415629664231	1.4680641147526872	0.14453753617399312	-0.5394212438843233	-0.8744009763934935
id399	sample1	obj39	-2.3161457292655503	2.2182549904930866	-1.0754080505949613	0.5996006850401352	-0.9330706823483907
id400	sample1	obj40	-0.67797098866309	0.6290742843515715	-1.494929301885597	0.4878488677624444	-1.7987540175019485
id401	sample1	obj41	-2.369938321375713	1.5498010248421814	-0.5564805939086355	0.225791269269495	-0.25468319937201955
id402	sample1	obj42	-1.53979684156004	1.2061955717298403	-2.9409128823364092	-0.9877747630983171	-2.444129558642374
id403	sample1	obj43	-3.331551101225289	0.9075119726481373	-0.6035051555540238	-0.43178120318742885	-2.758210156967371
id404	sample1	obj44	-2.4349391383906767	0.4820973928489978	-3.120192466955337	-1.2245266650603517	-0.19219756186965564
id405	sample1	obj45	-2.707974133018655	1.166410940719204	-1.5661816985938606	-0.8641945964068574	-0.6933028126174239
id406	sample1	obj46	-0.008125749987467623	0.561126706346573	-2.3785424447172714	-1.0535082629387322	-2.953605619762393
id407	sample1	obj47	-1.4162327150994771	0.07000437692328432	-2.837227353892464	-0.6079030621032644	-0.7763162685308529
id408	sample1	obj48	-3.2500944895799098	2.043894133358423	-0.6495503548515293	-0.5425200375320096	0.29824606024186706
id409	sample1	obj49	-3.0395292490303802	-0.49482297831654176	-1.3924093290388466	0.8804268243850466	-1.8422274372632155
id410	sample1	obj50	-0.9222252938724178	1.5127643588711728	-0.7231014924649231	0.4932696476916132	-0.8080197099138953
id411	sample1	obj51	-2.7190445173152575	0.005811533123603274	-1.3602869745357855	-2.2446675096476434	-2.4366360295680924
id412	sample1	obj52	-1.3925311955035997	0.9962361457532276	-0.575715752406994	0.13737146229073027	-1.2486117012790439
id413	sample1	obj53	-2.4795084211934335	1.9734298240411128	0.1525432456721203	-1.985253796185516	-3.0874880148274055
id414	sample1	obj54	-2.424075396822722	0.5782704146583721	-1.8880166495783643	-2.28064102497433	-1.4547585219529553
id415	sample1	obj55	-2.533993438459677	2.1990302834702025	-3.030234988381407	-0.9806781915765854	-0.0015051022081278287
id416	sample1	obj56	-2.4734074787257416	-1.1801250637208245	-2.461283949045238	-2.182859427010449	-3.0712729667913745
id417	sample1	obj57	-2.85921662151837	0.7889025198924904	-1.2211176660860958	-1.7433210821505758	-2.4770639244447077
id418	sample1	obj58	-0.6631357416280015	0.41114805620574013	-1.8399374333572716	0.09529031822944778	-2.113709812384753
id419	sample1	obj59	-1.442901847285839	2.11979203265078	-0.9565446847945054	-0.1739718878035872	-1.831527018913072
id420	sample1	obj60	-0.18163917641341	1.6108313962989345	-2.7912923238761906	-0.3328458077851779	0.33647121603687835
id421	sample1	obj61	-0.6062015775663856	-0.18943728969238327	-1.6681375015676319	-1.1105249690774321	-1.6027042938050424
id422	sample1	obj62	-2.8102668825213195	2.0457987796354233	-1.8564237363442049	-2.1066189965231525	-2.5852493283766504
id423	sample1	obj63	-0.7123884011491828	-0.1201869007808507	-2.609488713329336	-1.3891284558692307	-3.0211756067709077
id424	sample1	obj64	-3.0244894400031677	-0.01909661064169077	-0.5677835699793043	-0.8147045494837355	-2.223994416266139
id425	sample1	obj65	-3.2259113401060295	1.6732358893423693	-2.8011746650054694	-0.9188898485205903	0.27659514869667157
id426	sample1	obj66	-3.0243516034140576	0.3132255621405977	-2.088299958699916	-0.327735376641902	-0.6282583948154621
id427	sample1	obj67	-0.95788436318809	0.49274569005323476	-3.06977614892114	-1.6509249340928491	-2.4667972879133933
id428	sample1	obj68	-3.092095342260052	1.8825249272088393	-0.8782865744904755	-2.3639055188181217	-2.4214768269142644
id429	sample1	obj69	-0.6437512710705595	1.5068120932329785	-1.5455614811499958	0.3031764008919777	-0.7215435552710392
id430	sample1	obj70	-2.680327358116845	1.1935733488461786	-0.914773070266252	-0.9266016584260388	-0.28769341242321267
id431	sample1	obj71	-3.355122618584923	-1.1839645726903443	-1.6641393338230146	-1.8709240591571756	-2.219834310973948
id432	sample1	obj72	-0.261880311832307	0.4773364164574181	-2.4972618421335473	1.0749686388241038	-3.0131290714923953
id433	sample1	obj73	-3.361767225843408	1.816063669253267	-1.937938724744022	-2.245396101628737	-0.6842985622267685
id434	sample1	obj74	-0.2113782487899003	1.1082314765433015	0.053322948728004915	-0.793423762683892	0.3939583939832676
id435	sample1	obj75	-0.5069565739438298	1.5283790563070634	-1.1043821018061826	-0.1691148521677992	-2.2233059233418326
id436	sample1	obj76	-1.9359811669308133	-0.4950800568225391	-0.9539872452591103	-1.1628420547862444	-2.9421071761121977
id437	sample1	obj77	-3.0900554973054626	0.9703873693252658	0.3516858002638201	-2.1363694713359105	-1.2132315249762722
id438	sample1	obj78	-0.5637986541986864	0.9399234546862385	0.06174520127361416	-1.4070156913925473	-0.1740737428775685
id439	sample1	obj79	-1.0470522488260856	0.9595640834165919	0.22491145176954608	-0.9199775317815977	-0.1486672661773707
id440	sample1	obj80	-2.9698213813100933	-1.3527056076972677	2.336681457247951	0.6369760135023219	-4.131524058812744
id441	sample1	obj81	-2.3162725116443044	-3.227748785130991	-0.7091699683890105	-1.4921763525094045	-1.2604550427268577
id442	sample1	obj82	-1.7831633285120547	-1.5080428834517916	1.7238822102916844	0.38868886861162166	-3.864967873957004
id443	sample1	obj83	-4.405010392808626	-0.9792082934304156	-0.7178892244303978	0.27753072879853247	-3.0228482576961415
id444	sample1	obj84	-1.8103243537119085	-1.280654310557437	0.7793466041776853	-0.23694101684430335	-3.1432923238455017
id445	sample1	obj85	-2.240725917095361	-0.9316800270404333	0.6245553342679884	-1.4772194272380075	-3.1001596840342667
id446	sample1	obj86	-1.9799453595923617	-3.2629781114243324	0.6664757683942264	0.8900897534968231	-2.365129647012049
id447	sample1	obj87	-3.4215087150427395	-0.768617207003887	-0.2796176724353734	-1.2380220164214033	-3.4222759729346706
id448	sample1	obj88	-3.4651394325145297	-1.0418679055198405	0.42092379973357885	-1.1580178988832104	-2.1398233627160623
id449	sample1	obj89	-1.928361609083115	-2.5616458415500283	0.4746548533938093	0.533445029231219	-2.6513357322244016
id450	sample1	obj90	-2.9375128082202098	-3.2043911778284455	-0.6910830383535105	-0.07105648706477852	-3.1114009650925905
id451	sample1	obj91	-3.5524871725085623	-0.39886105448725373	0.5563892112762281	-0.8883259722346601	-3.4105353631035715
id452	sample1	obj92	-1.9591067273917122	-3.4696164764467117	-0.49616888917213986	0.7684721119118849	-2.5472838629149814
id453	sample1	obj93	-4.239363388326336	-1.4722298069542126	2.3465523153710235	-0.20112276427096387	-2.903341918132885
id454	sample1	obj94	-1.930217341748534	-0.5903101490493154	1.4323038167162572	-1.5266574116335025	-2.8073662810552626
id455	sample1	obj95	-1.7526516844044278	-3.530035512212916	1.9893266630602284	-1.1935488454134546	-1.2734101967031364
id456	sample1	obj96	-4.024520623974463	-2.086584162466674	1.9792151318081925	-1.7005403007245716	-4.238342788983881
id457	sample1	obj97	-4.472361916835384	-2.6120461548217984	1.143331037538417	-1.9664364955801137	-2.6956844069409147
id458	sample1	obj98	-4.356512053689431	-1.2981704902885423	2.150251672018519	0.5550714801612064	-2.946236239480918
id459	sample1	obj99	-3.8670501008386964	-3.2805260555910216	2.1109149068634547	-1.1883783310735736	-2.3926913201087565
id460	sample1	obj100	-3.100536460244628	-1.4229385450034153	0.7987571323884071	0.8312653724992629	-1.348824122627058
id461	sample1	obj101	-2.173189466856866	-2.370759625688464	-0.9335139798860683	-0.028382250414846544	-1.9853394161250162
id462	sample1	obj102	-2.767790955631729	-3.1557534628716866	2.242709893267448	-0.5765621789187467	-1.1842680930213552
id463	sample1	obj103	-2.1707185971077942	-0.24999210829966478	2.155220290557562	0.2823598760759485	-4.430897544041439
id464	sample1	obj104	-4.172296135498781	-0.22575986485967348	2.17931223361121	0.6856926874559404	-1.6643635706153213
id465	sample1	obj105	-1.137124937074249	-2.276424440081243	-0.7536035177711724	1.2611164387894835	-2.8816851084109496
id466	sample1	obj106	-3.5789371488970794	-0.3516577694934313	1.0488135230784705	-1.8051101874903037	-4.110432689569597
id467	sample1	obj107	-3.693286008972834	-2.790135399421302	1.3009853949374588	-1.6257860341458699	-4.3163662627309565
id468	sample1	obj108	-1.5262882105113926	-1.493524064801414	-0.6941681407780591	-2.201669955962271	-4.296996813291903
id469	sample1	obj109	-4.322646531214758	-0.945537653286235	-0.7489837029331443	-2.07635374489809	-3.5515996649752415
id470	sample1	obj110	-2.4540416212885434	-3.5762154516696	0.5255794785360828	1.078830081512468	-3.2529704534604056
id471	sample1	obj111	-2.251171102158936	-2.010209514369784	-0.21136710215842747	-1.7432324689572751	-3.4351548515322863
id472	sample1	obj112	-4.539472562896638	-2.0933737018100302	1.5040366858789092	-0.7067956233083137	-2.8322308884387004
id473	sample1	obj113	-3.118870554995727	-1.0076771520536398	1.3256430282612646	-1.8603423478829657	-3.852464068882543
id474	sample1	obj114	-4.259480619668535	-3.3725398744626403	-0.49473960459513555	-1.575061926625997	-4.365025109395046
id475	sample1	obj115	-4.254559932209679	-1.7719583506224106	0.40975370709245484	-0.5992364510855732	-3.6469418163243796
id476	sample1	obj116	-2.5555574388210056	-3.5550255803036075	1.7971650061915756	-1.9265063122592274	-2.2849911589965117
id477	sample1	obj117	-4.3706328563740255	-1.727407951735909	0.12242761000305413	-1.3753751707727058	-1.620811224406043
id478	sample1	obj118	-3.4312986517062773	-1.195645884389312	-0.35108340514436975	0.5574647585744292	-1.4847328536668944
id479	sample1	obj119	-3.0740675047837582	-3.428243068429036	0.5227676320039345	-0.1667021885522939	-0.9463793233692497
id480	sample1	obj120	-3.0497850866064375	-2.2117027052668377	-0.9793358697752503	-1.8502152691317921	-2.493703159273766
id481	sample1	obj121	-2.6056099034678404	-1.6203845678683044	1.5540883367199576	-2.337243111453353	-1.3898149373515116
id482	sample1	obj122	-1.6375769364147852	-1.0552359944996723	1.8628274640451303	-0.09002792964704098	-1.2647257347705645
id483	sample1	obj123	-1.3477377127253847	-1.54288434393572	-0.3162074271985976	-2.117209107308269	-3.9607700053755197
id484	sample1	obj124	-4.125111616804456	-3.2516391218421172	-0.30888808421785463	-0.9209605883426812	-3.7794193138844387
id485	sample1	obj125	-2.156555808029702	-1.8052691082174208	-0.09569936104508758	-0.780920082236634	-0.9413663582521361
id486	sample1	obj126	-2.9867852794604124	-1.8429709225285162	0.33473880307179105	0.28958332227108197	-0.9832690586536164
id487	sample1	obj127	-4.3794979428286185	-3.1874682290967398	-0.30041218502655365	-2.250798341364828	-3.9542524417769647
id488	sample1	obj128	-3.8460001850564636	-0.4641628553276369	-0.37920849499962306	-2.0779614001864957	-2.7927813139480175
id489	sample1	obj129	-4.034740660635749	-2.802928149218331	-0.6796728314940195	0.9345299559816469	-2.7781999942802447
id490	sample1	obj130	-4.514354861644975	-1.6094800452878357	-0.5719628333495828	-1.2836621479003765	-2.6481936722119466
id491	sample1	obj131	-3.9025614977646863	-1.193016051478532	2.1730716892572532	0.7646485653802435	-3.709519744446608
id492	sample1	obj132	-3.7306384238830486	-2.4774598223229924	-0.09664587327512009	-1.8763927614490727	-4.069200507778692
id493	sample1	obj133	-1.6941075512335668	-2.9204255929230496	-0.8300777873091993	-1.6024542531177897	-2.470308334985874
id494	sample1	obj134	-4.599275104586415	-2.0509038105315343	2.2561549461293353	-1.3795796253563002	-4.192635911006713
id495	sample1	obj135	-4.6157752554740945	-3.066405179028204	0.18864466100053057	-0.6520079969055401	-2.2047752355407964
id496	sample1	obj136	-3.59934984519281	-1.7743648861659158	-0.569033632666551	0.908523874598903	-3.5300409001282294
id497	sample1	obj137	-2.937636643633196	-1.1112418107032445	-0.04078313879166262	-0.891851174995417	-1.9826311421982117
id498	sample1	obj138	-3.8443287746396484	-3.534926571296289	0.3055889699009253	-0.414163601836002	-1.3795281428255473
id499	sample1	obj139	-2.402080928015293	-0.7895396840565965	-0.07870280008503006	-2.3214063162680216	-4.243753528255985
id500	sample1	obj140	-2.6190745121809487	-0.6329326473314392	1.2720274437545782	-0.9000841146950747	-3.2603385282799238
id501	sample1	obj141	-3.0740757090759887	-2.461443777440345	2.288128428032886	-0.15541359170826508	-2.371080933354637
id502	sample1	obj142	-2.1047397188584993	-2.847683378677598	1.9296460132529287	-1.6170204949813751	-4.409970737185068
id503	sample1	obj143	-1.7371860801164163	-0.5280678623581438	0.10589922282121433	-0.6484530180532344	-0.8689205886658773
id504	sample1	obj144	-4.223606091487783	-1.558976720840277	0.354771409642068	0.31795146638567107	-2.592748235183404
id505	sample1	obj145	-2.179723676545846	-2.0439956020382857	0.7136074667402037	-2.1846496501984713	-1.6515891707375314
id506	sample1	obj146	-3.2949218660224515	-1.5787278422347801	-0.7917710516665211	-0.10209706529101292	-3.015173389718573
id507	sample1	obj147	-2.6931329336040504	-1.1418322246825252	0.08698190639213821	0.44718808240210506	-3.512539832512111
id508	sample1	obj148	-3.6892737778249645	-2.077764147189132	0.0020652157648868297	-0.5833566803306458	-3.2274016580888767
id509	sample1	obj149	-3.6199560507760955	-1.1833955207438904	0.49103320980019594	-1.1206148533204234	-1.1468642539221465
id510	sample1	obj150	-2.703015483776127	-3.361249602200509	0.36897486432570314	-2.133892991026853	-3.711653663337581
id511	sample1	obj151	-2.241451843944187	-0.2892408903012502	0.0693257916747736	-1.452297318287569	-1.5402922630058968
id512	sample1	obj152	-4.645755799608198	-0.4520519990580374	1.3627152756960978	0.9165744874727026	-4.01736764062522
id513	sample1	obj153	-1.3448986074929483	-0.17780432835038007	-0.782280371701124	0.7853013198551946	-2.821502338459582
id514	sample1	obj154	-1.5547769875594388	-0.7419319327484677	1.3236270467593647	-1.5021095179895103	-4.240421134884141
id515	sample1	obj155	-3.442883545017586	-1.3107418392860153	0.7896504267021158	-0.21720044917291514	-2.8443359948180316
id516	sample1	obj156	-3.5523303372356736	-1.928348451659653	0.8265631675025429	-1.4502232465118898	-3.3825413681371264
id517	sample1	obj157	-2.625674156343581	-0.9103937509490454	0.10029373500670169	0.28491907060730104	-4.073920725697684
id518	sample1	obj158	-1.7643890763103396	-3.36443667000386	0.08738946248631918	-1.77650548543649	-2.956505174940658
id519	sample1	obj159	-3.140202221846922	-1.0881101543687992	0.7169327281150268	-0.7437229443333258	-2.586933539866911
id520	sample1	obj160	1.946230138678634	-1.2656190157474827	-4.071450619534471	-0.5591413744958447	0.5844245661679981
id521	sample1	obj161	3.1838234919777633	-2.0782940396848595	-4.176115633621163	-0.7710646863490969	3.634887604694975
id522	sample1	obj162	0.635527815963081	-0.5351925447765684	-2.7998625635156618	-2.1552780285966113	1.4081405321278124
id523	sample1	obj163	1.9165120077016262	-2.75027762425727	-4.179878009738861	0.21175850254971773	1.0320348590421484
id524	sample1	obj164	2.1831556472713913	-3.0554644654065575	-3.9810090836282956	-2.7535801216486098	2.0505643158499094
id525	sample1	obj165	2.1897430334307053	-1.2748130088932335	-1.1636120723530057	-1.935027773332736	1.9716683166299374
id526	sample1	obj166	2.3054039790410474	-2.0022081543750936	-1.708559168957075	-0.5967633131361676	2.6512292489966827
id527	sample1	obj167	0.7339564035814632	-3.4092636414791615	-1.150770918818577	-2.949523243675963	2.4209226722509936
id528	sample1	obj168	1.2217377537271403	-1.0257969605501216	-3.1766722114528596	-1.732281459965772	2.9674843774815347
id529	sample1	obj169	2.515051791890998	-1.4571569689994377	-1.096432344573133	-1.5594390821736206	3.365124036848438
id530	sample1	obj170	0.7242698008722022	-1.5305524903450112	-2.567746281918553	-1.0857235800776806	3.7485102609990433
id531	sample1	obj171	2.631923562975419	-2.764691261084379	-2.9019626591681633	-2.387469349697966	2.3694920012626257
id532	sample1	obj172	1.0945819648939918	-0.7705960249170436	-2.5220590993059195	-2.48049213536231	0.6662660640495515
id533	sample1	obj173	0.3614220400993926	-0.522289142899176	-1.1805389613731017	-2.0909995715891108	4.030079263162753
id534	sample1	obj174	3.0759641268232354	-2.8587249902629557	-4.017758281529041	-2.2352465536178663	1.9040138391885362
id535	sample1	obj175	0.13244529011185713	-2.436274114771387	-3.30022363047177	-1.9830650189140344	3.494476982138603
id536	sample1	obj176	2.1970291823023187	-1.3563187153724294	-3.6955127377965744	-1.9858274480067863	1.7034595359198794
id537	sample1	obj177	1.8300018761560315	-1.0259802718999806	-1.2059007169045841	-2.515455108123037	2.564457694982317
id538	sample1	obj178	1.1930560798816081	-3.821264223628302	-4.105500057347011	-0.3311120566181913	1.3344364196542058
id539	sample1	obj179	2.2117286220556758	-4.029338982837681	-4.333486294611541	-2.276343385185928	0.5868661957239367
id540	sample1	obj180	2.6842984571611708	-3.537375891177293	-1.0352614663077226	-0.5924867956707811	2.8764518841645783
id541	sample1	obj181	2.363486145629404	-1.4652222296877857	-1.9794405991792956	-1.7638080376676954	1.5957100950478609
id542	sample1	obj182	1.845894427073444	-2.432766871859994	-3.395318164909332	0.19564493563200203	3.889305921854426
id543	sample1	obj183	0.6272969591502091	-2.903555238044561	-2.175714243867567	-0.9430929381620523	2.5875424417270443
id544	sample1	obj184	1.1418953921038264	-3.1161160361463933	-1.495297639580256	-1.6183356040718049	3.700381975374916
id545	sample1	obj185	0.30403088568610603	-1.234445597676378	-1.6448731307581157	-1.0794412364762709	2.99386897560011
id546	sample1	obj186	1.8963294068374077	-1.0187573489064221	-1.3366843221201836	-2.7065383386779733	2.6491004314198925
id547	sample1	obj187	0.2648823313203541	-2.105312295802994	-0.9722550549138644	0.04017893097898528	3.5584544867951537
id548	sample1	obj188	2.9371008004552412	-2.2270027655581064	-0.9791616549687616	-2.0895407919602165	2.6044164608621783
id549	sample1	obj189	1.999826428397694	-3.210228604300098	-4.331619458869991	-2.5758437038429065	3.1340410149546267
id550	sample1	obj190	2.773920159617905	-1.1230956628416384	-3.705877215734942	-1.1924224539011994	3.209133932836342
id551	sample1	obj191	2.987880805914182	-1.1684319569157056	-3.537863873518835	-1.8366627652856846	3.182133979139925
id552	sample1	obj192	2.7593501166033234	-2.0246744429688786	-2.818818939065636	-1.7474473344430546	2.005198255196368
id553	sample1	obj193	1.9931388420855654	-0.6191843346014922	-4.274986248034578	-0.31462368749828973	2.791151020651127
id554	sample1	obj194	1.2324399517567362	-2.6216108371892544	-4.038851148703587	0.2852786114227326	1.0570209132823827
id555	sample1	obj195	0.9721843436316686	-3.587902837564683	-2.859585358821975	-1.5979203049396749	1.8223693409303758
id556	sample1	obj196	3.157317390406187	-0.5555732994343654	-1.2658173180469292	-2.5823841720010074	1.5152803581252234
id557	sample1	obj197	1.922634499172985	-2.3437147660241813	-1.249797740790742	-2.5334973578364437	3.9497489620569164
id558	sample1	obj198	2.24449155710591	-1.5716472509484956	-1.8724784900458957	-2.7356298581491925	2.7515326379041163
id559	sample1	obj199	0.40920092046316836	-3.071325033417464	-0.9966817635800902	-1.8899229516737444	4.078848945878902
id560	sample1	obj200	0.18051561985555065	-0.6928312732957547	-3.1619114316636905	-2.649085446188112	2.6443579073270387
id561	sample1	obj201	3.072799031908511	-2.3203180807871036	-1.459666476340953	-0.35394071181228903	2.711693432617256
id562	sample1	obj202	3.5920459252139163	-2.02721151110676	-4.511354162979973	-0.05981085749159987	3.1106576419983885
id563	sample1	obj203	0.1598752834131183	-1.3727523466518357	-1.8697938941257954	-2.095892903825379	0.8685877267593332
id564	sample1	obj204	1.3332262088669184	-3.3140997752787373	-1.6563433586679766	-1.4184162482435554	2.451109860824748
id565	sample1	obj205	2.003263667349901	-2.9851371938423323	-3.9240917913149005	-2.5981924812268535	2.78452287687767
id566	sample1	obj206	3.410715722667547	-2.1494077798770364	-1.3373483014915941	-2.593531010270704	0.7166783552573572
id567	sample1	obj207	2.0425238477232703	-1.6136191767108101	-2.73152366520472	-1.437506257440239	1.7669472404051432
id568	sample1	obj208	1.5485701895456754	-3.202011911346051	-2.136965335756684	-0.6200888347830842	1.303464296220446
id569	sample1	obj209	1.590851249034266	-3.8214371001424974	-3.9055727994564298	0.15470585626363698	2.9333285593790697
id570	sample1	obj210	3.6455770105520107	-0.4418484462480994	-3.179096249839068	-0.43463023586196115	1.7460777178286353
id571	sample1	obj211	0.7372949500210617	-2.8954400741397572	-1.0106245374586689	-1.1428352628408363	3.0410635763255636
id572	sample1	obj212	2.1905334861800316	-0.6469638047871593	-1.6423932818468392	-1.6310582554005848	4.0050986987557256
id573	sample1	obj213	0.31715405159457144	-1.9636985242444729	-4.41892339193378	-0.7558562865170579	2.678940637372805
id574	sample1	obj214	1.276351368807872	-2.240727769042853	-4.358612383868261	-2.2980146451283456	2.6320865499938275
id575	sample1	obj215	2.9900682601504176	-3.1089693533605454	-3.5219878821688986	-0.6603599109346738	0.9084948799235917
id576	sample1	obj216	0.5917585116227759	-1.2319026648570188	-2.1223774120968564	0.43571625132130687	1.645988072007132
id577	sample1	obj217	2.734457224607405	-0.5130151809323833	-4.364977269359667	-1.995238037830047	3.025240214750826
id578	sample1	obj218	3.269760469809316	-2.0892463198458815	-1.3322147560431936	-1.1813585052328641	0.5676851328883523
id579	sample1	obj219	0.6986040564908798	-1.544507717673058	-2.53461325081844	0.001263127916918405	2.053901293950314
id580	sample1	obj220	0.9349153657301021	-0.578809235864836	-3.8135790558187463	-2.1125440735983725	1.634813289283618
id581	sample1	obj221	1.3428186040055037	-1.31848221035285	-2.9308692865829444	-0.5848265901845473	1.498409677911201
id582	sample1	obj222	1.31686624342707	-3.1260734506642356	-2.942949966674674	-1.8757044261870819	2.5568722565197755
id583	sample1	obj223	3.3637575890931344	-2.8080444456888136	-1.089748743363408	-1.3720120266829485	2.336569169645804
id584	sample1	obj224	0.9854642023230369	-3.936562086270129	-3.2979390239226305	0.4980062502455953	1.4710428682224779
id585	sample1	obj225	3.4111187541620493	-1.2792634450327023	-1.3990828111300615	-1.8111053810680553	3.2809348078622724
id586	sample1	obj226	1.7132090918760088	-0.5175353196395214	-2.4017035734606997	-0.22564817257316006	1.0220118397462534
id587	sample1	obj227	2.28856754564515	-1.0479216365115243	-3.4613903915453865	-2.4299658709208045	2.7215930753974593
id588	sample1	obj228	3.683621900229284	-3.589871291220735	-1.9108276861000728	-1.8101482392562775	0.7144992187240518
id589	sample1	obj229	0.7748930786859269	-3.122024455364004	-4.2074475256338415	-0.1221974453220771	2.723168957628922
id590	sample1	obj230	1.439556143260908	-2.6632158874299487	-2.6141849858455597	-1.1437960461471208	3.675072765638342
id591	sample1	obj231	2.608034837014343	-1.7967084459612452	-0.9513273680428969	-1.2532768298574104	2.7675269983904984
id592	sample1	obj232	2.7033452217790863	-1.7689688876237935	-4.066161593767851	0.1970142320821584	2.5102238610040866
id593	sample1	obj233	1.143758387819989	-3.90842013063232	-2.202278582121844	0.4584279508435707	2.015274908209343
id594	sample1	obj234	0.40107251174007663	-1.0046588199117592	-1.9709736851705146	0.5158179793985382	1.0605716881986194
id595	sample1	obj235	0.9324008514904233	-1.0329730181510135	-3.910920301646548	0.006807138992003248	2.9033181329710294
id596	sample1	obj236	3.586143406558285	-3.83974368200645	-2.1656760311380774	0.2541483539740723	3.7264514569099942
id597	sample1	obj237	2.7512473966290303	-2.8273228570440905	-2.9268415653239352	-2.428601844077183	1.5023538070168294
id598	sample1	obj238	0.2827277946191451	-3.5668573074873335	-1.6178147783498187	-1.779332601016917	0.8780329786473806
id599	sample1	obj239	3.286740187480281	-2.167639052295285	-4.381800716249923	-0.33539624646586286	0.827335268104489
id600	sample1	obj240	-2.072807463515194	1.6901170161440329	-2.0950210767355495	-1.3363804335461975	-2.3786822916259043
id601	sample1	obj241	3.3692024382252814	-2.273036427017294	-1.6559531987002218	3.042320010277556	2.6483866636869324
id602	sample1	obj242	1.867527910731582	2.5630594866499363	-1.5787709924761484	-3.417495105729752	2.179887202645719
id603	sample1	obj243	-2.3127687823972582	-1.0111715102334566	0.291302684984885	2.785692514282794	1.3148821309912757
id604	sample1	obj244	-0.09924910075931215	3.098318784394074	2.947214037384047	2.602386035675918	-2.2391298450776453
id605	sample1	obj245	-4.509608224148641	-0.9373014258756827	0.3312899231377331	-0.9328311884113627	-3.593302985806732
id606	sample1	obj246	-1.1174752310120193	1.543171478155829	0.878266520329722	2.8696819663946944	2.192043286974895
id607	sample1	obj247	1.6740996253200235	-3.1192623400426034	-1.2380978986375206	-4.177808445545273	1.0736014992011647
id608	sample1	obj248	1.3146193719705783	1.804269982969224	-1.0127131263979674	-2.1307734149181536	-1.8840786550832453
id609	sample1	obj249	3.5551005121328876	-0.3158898006154731	2.8272567661870287	2.0424113166083693	-3.5672224085722504
id610	sample1	obj250	0.9927989786414022	-1.3676020948388163	2.3155885590290883	-3.2808375546994624	-0.44814588000474864
id611	sample1	obj251	-0.32448038870577833	2.000657674548673	-1.6895605377341483	-1.9916343695617174	-1.6447131122972511
id612	sample1	obj252	0.6469871920375068	2.2377695768556034	2.460913310451863	-2.060003768822971	-1.1694799318463873
id613	sample1	obj253	-1.7893424952851649	1.2473680063785206	2.9987380184123245	-3.388080988500843	0.30028950240141006
id614	sample1	obj254	-0.09216066648294818	-1.6709654420722064	-1.460368896950812	-2.959088927757877	0.42808343702181006
id615	sample1	obj255	-1.7889898775316413	0.4854062645405095	-1.6926059021708206	2.284838324170046	-1.3555692590773045
id616	sample1	obj256	0.38722000812132973	-1.4900935955191341	-2.1301103155275607	-0.17616491611964036	1.5898711647166694
id617	sample1	obj257	-1.5772365980673464	1.5928517828833573	-3.754357981351055	-0.05668004393353265	0.4953416120606098
id618	sample1	obj258	-1.5785452597858016	3.0046605855953583	0.6650181600413171	3.369603489755168	-2.870890068933271
id619	sample1	obj259	2.7184326723983028	1.0246141846933197	2.9384893901868763	-1.5427231913494128	1.449215440517545
id620	sample1	obj260	1.7623453170547032	1.5597477084010267	-0.8501652007350649	-0.6807644368461274	0.3822674419321117
id621	sample1	obj261	-2.14410532708954	2.352147472364848	0.7831745664097121	2.4687628496288783	2.0082573520112215
id622	sample1	obj262	-1.0398514683918647	2.0316344918571305	3.54802880790952	-1.8064049029525637	-2.7773580952577097
id623	sample1	obj263	2.049969700525719	-4.174629035830025	1.041917778337919	4.392782085921463	-0.5144440423409744
id624	sample1	obj264	0.9537164088639851	0.0934409018624196	1.71166399329817	-0.8754498436077206	-1.0279583407502868
id625	sample1	obj265	-1.3912030716881871	1.6625750444700194	0.8151305070272168	1.696579581588851	-2.3481059356456315
id626	sample1	obj266	-0.41253267043670827	-1.6421985126659886	4.00162979003079	0.5068921636729053	-2.2083162305681285
id627	sample1	obj267	2.9778786114098175	-1.2451692988287713	-0.2274672216314897	2.790055256257112	-1.8954959029942697
id628	sample1	obj268	4.008544227148136	2.28733859495515	2.470493570347778	-0.7534235182783571	-3.223910152118386
id629	sample1	obj269	0.758881342145632	0.5682016955050069	-1.1389018530423731	3.2988138483334977	1.6829723350958008
id630	sample1	obj270	2.086148261063361	-1.1928541611129069	-0.9464223093428201	0.5542948702620956	-0.7774918540654017
id631	sample1	obj271	-1.2761104292353085	2.8778435988554714	-3.0463394521985387	-2.4465066791240355	-1.640297309038235
id632	sample1	obj272	2.059873679670924	-2.2702711712489614	-1.2836140154236197	-0.7262910996699559	-0.8472104886827141
id633	sample1	obj273	-1.3787995780330722	0.18931276447635703	-1.4977617923582298	1.4119343029345928	2.2100346459999884
id634	sample1	obj274	-0.7698176616712245	-3.193210790331263	-0.6627827180814287	4.173422365701062	3.060646757479981
id635	sample1	obj275	-0.04615200569925304	1.2043773884568296	2.903693104362846	3.620973149125044	-0.9070666031931018
id636	sample1	obj276	4.400743284136109	0.544099204668363	-1.1239781442910204	1.9884802776969832	-3.1026067974619274
id637	sample1	obj277	0.8579599999393557	1.8767549958987704	2.334697599871345	2.604870121063615	1.1676384185765454
id638	sample1	obj278	-1.1858329833012593	0.4102295112476486	-0.9414550267337602	3.0761884379610382	0.190716228326963
id639	sample1	obj279	-1.5184554062799036	3.4456548869797334	0.5292898003935718	3.1516328740477757	-2.4440488243162477
id640	sample1	obj280	-3.2888241838016454	-1.6614834321287573	2.200111143778651	2.209984038005934	-1.0815492140373149
id641	sample1	obj281	-2.1342467092127135	1.3400087416532827	1.9888016955366086	-2.602207101718488	3.469828277309814
id642	sample1	obj282	3.375427262177431	0.1298751850875537	3.4867109371767935	-3.445333580960866	-4.0872119526488255
id643	sample1	obj283	-0.672293412626108	0.7645159007715228	-1.4736597795655952	1.5975740130077265	0.04504217426476331
id644	sample1	obj284	2.4681242228461127	-1.791923275288599	2.0230018777378405	-2.5848952831639807	2.5277789455861743
id645	sample1	obj285	-0.7330425547547728	0.14503861033092047	2.8912098835039233	-0.06646123019053252	-1.5349813804854946
id646	sample1	obj286	-2.14647888206673	-1.829734292071084	1.422291967385507	2.2860487068108393	-2.7178715379678504
id647	sample1	obj287	-1.6202519245977924	2.3716481645808267	-1.9221116184910592	-4.361104137377084	0.49767930645203307
id648	sample1	obj288	2.6700835805468994	0.15051114839092672	2.3376821725500117	-0.6240262828545278	-2.655876119786388
id649	sample1	obj289	3.2140029620856714	-1.3471820716090301	0.9733284442954651	-1.7225363220710288	0.6431959333912207
id650	sample1	obj290	-0.5541254966150078	2.56641855278279	-2.433771032488732	0.43568326870409724	0.2047505412530206
id651	sample1	obj291	2.968010155556806	-0.17329014828188583	1.0807532957762764	1.454914081561802	-3.863111249411203
id652	sample1	obj292	-2.702618955331479	-0.09045736461737053	-0.7027635628917446	0.20603322945830516	4.045821852389523
id653	sample1	obj293	-2.7435486823904265	-0.9895760024953655	4.014315187294548	0.21961578842636986	-0.5006573435319159
id654	sample1	obj294	2.117880158019262	-2.265705636584813	-0.8534166362201585	0.8492398682294175	3.337099779202637
id655	sample1	obj295	0.6318213678828277	-3.3897639592191173	-2.3119054992861003	-0.3106030519090732	-1.1488360890467153
id656	sample1	obj296	-0.7478472439784112	-4.197964355211465	-2.7539608411070353	0.48195845360358347	0.24535297184961902
id657	sample1	obj297	-1.2696966601145192	-0.6333776859195139	1.956639860147492	-2.5160453138410643	-2.4521518447637156
id658	sample1	obj298	1.3872377007416166	-3.13868720769091	1.9389779472537119	-1.6271121980884278	-1.5924577551252597
id659	sample1	obj299	1.7014074034098907	2.717345207700789	-1.217280632034659	0.7480091195140914	2.008307580737851
id660	sample1	obj300	-0.8037813888062668	-2.1303513922767605	-0.3838099718312249	-0.08954922518816999	-1.639207010308074
id661	sample1	obj301	1.6241323923814974	1.3809336956488028	-0.38876721112971	-1.630914452121497	0.015045749944373688
id662	sample1	obj302	1.2592497861273702	-0.7998241845970255	1.4829309357225053	-0.8128659579962921	0.48227665080912985
id663	sample1	obj303	3.3667775746071946	-0.8685623145668486	-4.780159614696069	1.4809499890951845	-1.4049454930343128
id664	sample1	obj304	0.5021500157564434	2.126619830112121	2.5612225947146694	-3.936577618559442	-1.4132474452958237
id665	sample1	obj305	-2.735012848606376	1.8871825506902158	-0.5510936655808873	-0.34876124463899894	-1.9018086266815062
id666	sample1	obj306	-1.782216593462321	2.1121443745003	0.12822944633684408	-1.149043154370591	-3.3989140870209
id667	sample1	obj307	-1.0641034262924436	1.4486104668355553	-3.635790283886217	1.3057760811527015	2.5259176524630274
id668	sample1	obj308	-3.1189462324288035	0.5992390627496329	-2.8432625463196595	-3.317578770903582	4.366554058421659
id669	sample1	obj309	2.22641226893648	2.6253219161679366	0.26202213174522737	-1.6700396103279471	-1.938279306511256
id670	sample1	obj310	-0.39748557562439557	-0.04465274458212387	0.18772589160827358	-0.4321315798922274	-1.7436161361228073
id671	sample1	obj311	0.8658157198879393	-3.4133716632234616	1.3385095921195191	1.4208479650729944	-0.14534231105864648
id672	sample1	obj312	0.5965156427190845	2.613725010838543	-0.4406992474627105	-0.4039561363381552	-0.44525537074848853
id673	sample1	obj313	-0.8129274967920781	0.2727636396199993	2.146648452485562	-3.8784310623464835	-1.7887725396593535
id674	sample1	obj314	0.9265034774557621	-3.011547510269915	-2.345087512993122	2.36928845366043	-3.880602630663959
id675	sample1	obj315	3.8034991299494854	-3.502136954793645	-0.9566886081360488	-2.096565978017292	0.9855611083874203
id676	sample1	obj316	0.700992538395288	1.781163271255866	2.2409352407544834	-1.3399739066622203	1.3298284311972612
id677	sample1	obj317	3.303263834226102	-1.5448448395027357	1.3050581742611602	0.7554073229562503	3.323586376120719
id678	sample1	obj318	0.7517065121413518	0.24935624691375557	-2.4235682391983144	-0.904584228956125	-4.3307816030496555
id679	sample1	obj319	2.6091495531490745	0.614158209005613	-0.5495508379239284	-0.799923244151195	-1.6174845872425627
id680	sample1	obj320	-1.2759752780232876	2.4237309517959327	-2.3255627309783495	-2.853137242971779	3.811539978549118
id681	sample1	obj321	3.646648036124456	4.240157368860583	1.2504280317637697	4.013243578457638	0.7709324197520535
id682	sample1	obj322	-3.6597316078682263	2.4408263908871612	-0.7363022573464763	-0.16440087756695676	2.956387420728703
id683	sample1	obj323	1.2053936797297542	-0.28980160594860815	0.3813256089960808	0.6747839490833247	3.2098506035071237
id684	sample1	obj324	-0.3360774156374877	2.194652210181272	-0.9788133330071309	-2.033089618371556	-2.0635486780905143
id685	sample1	obj325	1.921187060913455	0.34061332587223636	-1.1404372072352196	-0.16575742883328282	-2.0118472368373794
id686	sample1	obj326	1.822191416177703	0.031220799792739617	-0.1154567920490297	-2.091354299271475	2.2944404834728016
id687	sample1	obj327	-1.0587632666852946	-1.3308342725727864	2.0119204544115936	0.7669146059136167	-0.13179339438455395
id688	sample1	obj328	-1.5002948414082031	1.1896979214564611	1.1640927746944147	0.09575297900824875	-1.520625447538012
id689	sample1	obj329	2.7259227589129402	4.332662799357836	0.4578871299173326	-1.245419643942145	2.05587147244583
id690	sample1	obj330	-2.4927767121536633	0.2904179492301153	0.4301542326950034	4.0290805489919075	1.8605275825364878
id691	sample1	obj331	0.03770340267593286	-0.3920489729064811	-1.314729889219565	1.5317667761943354	-0.9742405336743889
id692	sample1	obj332	-1.7336679215622819	-1.8234544220958404	4.302096972036994	-1.8388868477184692	1.2236312486665593
id693	sample1	obj333	1.2494342218158787	-2.2985811154309346	1.1092916825339898	1.3883478029171419	-1.2110371128460067
id694	sample1	obj334	-1.3402449541645027	-0.7948581526324792	-0.6703873387280299	-1.1957142762568276	-0.45763004711481203
id695	sample1	obj335	-2.4620130045464235	0.35330450295458893	0.972717561958176	-1.7806618379641266	2.6151285442617853
id696	sample1	obj336	-3.309139868297538	0.620659877404215	-1.0461438532235345	0.39121217296821276	-1.9580796832949487
id697	sample1	obj337	-1.4164621163065252	-0.36589347284926177	1.8611255446141335	-1.0406522147654027	1.3249860111649534
id698	sample1	obj338	3.435327793716656	-3.65270807623322	-0.40769108459637815	3.5598967330315663	-0.5006826198548072
id699	sample1	obj339	3.0529194116288583	3.928519181313596	0.03151894380612119	-3.1663443155216395	-2.7274152677002093
id700	sample1	obj340	3.470993575581594	-3.6497085457212908	-3.127217433950054	-2.6833203084892996	0.38310197282247027
id701	sample1	obj341	1.7425807668789757	-0.4119178071712055	0.10702940689005458	-1.9123065064337044	0.8703864069472342
id702	sample1	obj342	-2.5799772612001597	-1.4202350594291608	2.983970296060119	-0.3644806818649746	-1.0337124048874295
id703	sample1	obj343	-0.6331615637064071	-2.6830217639308165	-0.13624058192332833	-1.6284498975816937	-2.544461377673759
id704	sample1	obj344	-0.004568045581871516	-2.5439276549791137	0.14304305361155056	-0.7013994263085135	-1.2286458577612258
id705	sample1	obj345	-1.906871471964556	1.792372232343292	1.211120636916249	-1.1155647245763738	1.2728586097764443
id706	sample1	obj346	2.699580481319625	-0.49651876788587	-1.99662517915468	-0.3105803059898615	-1.0214037266644211
id707	sample1	obj347	1.912216110068309	1.6113887936777678	2.112210731674642	3.159255281013336	-1.6793215500535759
id708	sample1	obj348	-2.077216541225571	-2.3306105568515174	0.9461837374471724	-2.4681032301538464	1.2996656562521547
id709	sample1	obj349	4.621012189223998	1.803525619493658	-0.15025575275116476	-2.2097799924130257	-2.5039358016865965
id710	sample1	obj350	-1.7568004017577414	-3.238736047453463	-3.798352667001639	1.1044185015249675	-3.2149642521209802
id711	sample1	obj351	1.4917041473182557	-2.4922833186255264	0.4714492097573384	-0.5754641587515623	-0.7381894839876126
id712	sample1	obj352	1.4606706680516843	0.7203740834701062	-3.5004488037091614	1.377583533837537	0.434462725231358
id713	sample1	obj353	1.4793685046332687	-2.586224606914891	1.484236511219651	-1.5225814344548902	-1.6223791424148835
id714	sample1	obj354	1.9733044465819485	-1.9628112900031398	1.7698218893506377	-3.160487048257713	0.7434511217974371
id715	sample1	obj355	1.7369213293051324	-1.1008072528534916	2.5777944685803043	1.6963040047284308	2.54249855567992
id716	sample1	obj356	0.6327683177136765	2.6729755785940252	3.689287568574332	1.2214011388130919	-1.8870048902194074
id717	sample1	obj357	2.271228817230284	0.7681370418831415	1.8160346707573731	2.268661445578026	2.9617092580542117
id718	sample1	obj358	-2.9506302180813515	0.814133271034829	-2.0329044376670837	0.8569089769992989	-1.503754524012463
id719	sample1	obj359	-1.6692571648006362	-1.3838159245018444	-1.8669505368710555	4.032309524714053	0.7218994081795709
