id0	sample0	obj0	-1.4445255228164076	-1.9044716218433093	-2.388048108559925	2.355547963332127	3.1461447301240653
id1	sample0	obj1	-1.2360028608541167	-1.8983466328033787	-2.6237753525255325	2.5776058151444627	3.0536484237565453
id2	sample0	obj2	-1.04081830181577	-2.3065348266454517	-2.408767288688489	2.6543036110804406	3.0501896830932296
id3	sample0	obj3	-1.699837936762997	-2.2717034929492366	-2.5625355270201906	2.3068062379786243	3.169955092303854
id4	sample0	obj4	-1.3518828037351234	-1.9436656757108928	-2.0966268091574447	2.4364642774958396	2.9418577245933752
id5	sample0	obj5	-1.6256765976458611	-2.5152439420123476	-2.1992668548403347	2.4286360236758537	3.1423853445048717
id6	sample0	obj6	-1.439309203729986	-1.9128681462098827	-2.3113142768271073	2.4901994574568325	2.507392692939639
id7	sample0	obj7	-1.0324798041318717	-2.0698978956609078	-2.388292124264698	2.465179017650721	2.794474873456615
id8	sample0	obj8	-1.4624078872701305	-2.0996584411310226	-2.5240355003348616	2.71853236623235	2.466797538760763
id9	sample0	obj9	-1.1990945271281648	-2.4620193992458375	-2.5906532599379584	2.317952567608253	2.9633909911991854
id10	sample0	obj10	-1.3306743634163434	-2.246870998744689	-2.6356436928297797	2.975197470341087	2.6838458785769075
id11	sample0	obj11	-0.9935142956397686	-1.832407966567375	-2.1662223414170576	2.5421151588784743	2.8134831224827135
id12	sample0	obj12	-1.4205812750297082	-2.055559070480315	-2.126808184219156	2.8148510102858175	3.0273179795208938
id13	sample0	obj13	-1.5890131192955235	-2.0835452187132084	-2.0092657810764853	2.9178520682370586	3.1289018502960224
id14	sample0	obj14	-1.2648764843860598	-2.014254649100091	-1.8855109374643342	2.9648857439699072	2.707313868305041
id15	sample0	obj15	-1.398378821027253	-2.461233224615942	-2.6645466834757303	2.7875179353068837	2.548592618857392
id16	sample0	obj16	-1.7124095229792233	-1.9864458940312633	-2.084502665812912	2.455007137040199	2.7456522800252934
id17	sample0	obj17	-1.2348148162750525	-2.4079147620212678	-1.8758941824017172	2.6685217122674594	2.454625536245163
id18	sample0	obj18	-1.0213525987914203	-1.894724395320938	-2.0836939735111746	2.49463430616632	2.5995203655604544
id19	sample0	obj19	-1.660423596049741	-1.9210495953240405	-2.309012002180925	2.718345470711512	2.7974798632065903
id20	sample0	obj20	-1.288526316546007	-1.7236480325758383	-2.3098011444998403	2.5670956244356273	2.5426958177949075
id21	sample0	obj21	-1.0105285736954364	-2.2210145787198385	-2.555142725156443	2.519495163489656	2.7395572936999577
id22	sample0	obj22	-1.3323835831016695	-2.121959227114268	-2.617909360611456	2.613494868285346	3.018818473161438
id23	sample0	obj23	-1.6844350889815938	-2.079088963176442	-2.2620473720167293	2.7685870499496565	3.0208548158946855
id24	sample0	obj24	-1.6370493313144705	-2.1183919099795996	-1.9669604124682074	2.8080301240670007	2.8163455359035696
id25	sample0	obj25	-1.570574797703261	-2.0771803695040205	-2.153604478945046	2.395180634264105	2.9983842280354986
id26	sample0	obj26	-1.4296571874267632	-2.473894274541396	-2.343515334145613	2.4804540098942103	2.7749803419991466
id27	sample0	obj27	-1.3263214831643182	-2.3670402832809008	-2.5891756070759535	2.402374217242887	3.183581033350942
id28	sample0	obj28	-1.0030680545398067	-2.3766883620627763	-2.545486515650614	3.0202698664447163	2.4185208994546095
id29	sample0	obj29	-1.4601102097378797	-1.9678119418757647	-2.5787289482742635	2.312586277237096	2.999602621662802
id30	sample0	obj30	-1.2108993588365433	-1.9451810265851202	-1.889876996827281	2.5011649057082854	3.01923085867717
id31	sample0	obj31	-1.3658353762757645	-2.4868471417807956	-2.009555713225319	2.5183516568083686	2.603071167722291
id32	sample0	obj32	-1.4516373582586595	-2.1373347120014308	-2.535909254319189	2.693087557428859	2.9339916159437367
id33	sample0	obj33	-1.6368470237865598	-2.3698221774034463	-2.055258068899028	2.8793677984267747	2.562472981351677
id34	sample0	obj34	-1.4234488267775465	-2.3737001651322114	-1.9172686529546294	2.483282526470256	2.4126505664201465
id35	sample0	obj35	-1.539208445258877	-1.782276889961707	-2.327531209400523	2.5734328657575616	2.7580829772342446
id36	sample0	obj36	-1.6711519694227774	-2.4649071212149627	-2.154531146476527	2.306503191726078	3.0641369457699623
id37	sample0	obj37	-1.0512219265078055	-2.1957948956076585	-1.8961055778383833	2.5003233746138807	2.4659380488806844
id38	sample0	obj38	-1.4616502614163478	-2.4930022860845313	-2.471188228834392	2.388527439175091	2.9760725993195933
id39	sample0	obj39	-1.3785733154682842	-1.8981360567760945	-2.442059332326984	2.254065560635538	2.8110405923103867
id40	sample0	obj40	-1.0139768483712286	-2.12961839059577	-1.9640259748814706	2.636008993788371	2.5187616109505098
id41	sample0	obj41	-1.3317895846910779	-2.1677268660700255	-2.3245547579462307	2.4204608179005658	2.6226286765268325
id42	sample0	obj42	-1.3749405498186706	-2.2825512160482635	-1.9809587675973694	2.259603013158554	2.5245988301978666
id43	sample0	obj43	-1.4050475477476838	-2.3490075163904103	-2.630895992930682	2.5231318096381092	2.3970062503973475
id44	sample0	obj44	-1.671208412450932	-2.1459156448590555	-2.2367620474895356	2.2962102941216087	3.019093432285172
id45	sample0	obj45	-1.6227157353269017	-1.936228621335145	-1.944649471494928	2.9327620167273847	2.971082650701809
id46	sample0	obj46	-1.6835036736466356	-2.087645166512283	-2.2494921505369385	2.9000913183843866	2.589860232695618
id47	sample0	obj47	-1.22235465417076	-2.419383918783494	-2.0064117192720894	2.6706080285753306	2.4324273339526727
id48	sample0	obj48	-1.278441490931327	-1.741693545745277	-2.507725047768046	2.801507426173268	3.015087518251651
id49	sample0	obj49	-1.2202450536322764	-2.267059387767563	-2.4566536565099675	2.2787696498560006	3.139301323524141
id50	sample0	obj50	-1.5983686915601245	-2.3808905352930334	-2.3810897530475144	2.685452254226984	2.53314623467069
id51	sample0	obj51	-1.2578572766957783	-1.8170727229098977	-2.239913376781572	2.9961096955279056	2.8967839781866815
id52	sample0	obj52	-1.649417383136845	-2.3299976277857817	-2.163915384128587	2.621943660423468	2.9201621656796792
id53	sample0	obj53	-1.0550183476658972	-1.8168709240245828	-2.4144540989858534	2.7701211251216593	2.7327692011991878
id54	sample0	obj54	-1.6428263398069622	-1.8371035554337052	-1.994155360147972	2.8832515229102516	2.752528272130056
id55	sample0	obj55	-1.0978775169526291	-1.901747632519747	-2.4513467993013514	2.951445749411572	3.1402618624785275
id56	sample0	obj56	-1.5344275065918853	-2.2550928003572057	-1.917095278525173	2.71234420720458	2.6664913372086945
id57	sample0	obj57	-1.2671146146245786	-1.8200353518486865	-2.021781612998164	2.4591548050280836	2.7000613668777573
id58	sample0	obj58	-1.272038760148348	-2.3935145119280996	-2.6656951509948668	2.860741836887848	2.487102565161807
id59	sample0	obj59	-1.5641792593497101	-1.9105216370581002	-1.961255211119375	2.371307926747118	2.470575469938954
id60	sample0	obj60	-1.100348108429856	-2.484772271346732	-2.6067604259747106	2.992871120099132	3.18397886961641
id61	sample0	obj61	-1.5206926326251433	-2.208432084744993	-2.36412551932795	2.8867135484748845	2.8291638451419963
id62	sample0	obj62	-1.0877177672763478	-1.7671499231523016	-1.9544797257030617	2.757922861076676	2.7214769138167347
id63	sample0	obj63	-1.4784877081775298	-2.0024164517749528	-2.601868591381594	2.4202196740255704	2.9720668641538746
id64	sample0	obj64	-1.629180771240021	-2.420781441435247	-2.3802112445109556	2.259119268531941	2.806039176695161
id65	sample0	obj65	-1.7051070091353246	-2.086068504133626	-2.273216572494847	2.8352704339948076	2.6276318394335276
id66	sample0	obj66	-1.4447463377233514	-2.5012671868373753	-2.149743347466924	2.6042045236078746	2.4936266605762656
id67	sample0	obj67	-1.4619210226196742	-2.3436033389316604	-2.084198867028441	2.2838700032150165	3.110204582127839
id68	sample0	obj68	-1.3319737157270266	-2.3992323163832356	-1.896598708261093	2.999878372338741	3.005309797458681
id69	sample0	obj69	-1.2693741764415816	-2.0804099236563194	-2.220953161249953	2.6155018070397364	2.6397108482445875
id70	sample0	obj70	-1.046618571487758	-2.412717188794084	-2.0922951527625235	2.256798844339762	2.7092449332609214
id71	sample0	obj71	-1.316208978285262	-2.4552907062418385	-2.5180158889466844	3.0329569695218606	2.87460824678472
id72	sample0	obj72	-1.5749990664707503	-2.052882944603216	-2.2018198725631044	2.800685998706345	2.8624203566608784
id73	sample0	obj73	-1.6368625698639552	-1.8922932230062322	-2.039645974148088	2.814432546495099	2.653545680794102
id74	sample0	obj74	-1.326572957387412	-2.3121095470763255	-2.614917711240248	2.738965469120188	2.9657117487719207
id75	sample0	obj75	-1.3335738193153588	-2.446132874346533	-1.9815794172289403	2.2876659660995076	3.0137232536656455
id76	sample0	obj76	-1.6150608745450912	-1.9071571711035715	-2.121137934801437	3.011296544068921	2.6709433539743683
id77	sample0	obj77	-1.5470828188523467	-2.166299709841695	-2.2654558539225977	2.4332786750801967	3.051602336286206
id78	sample0	obj78	-1.4112939609069364	-1.8686555427594513	-2.348927360262718	2.55623543319397	2.6888075623968066
id79	sample0	obj79	-1.6821482714007274	-1.9510355346314687	-2.4380018616157426	2.7109078903265345	2.714271105379172
id80	sample0	obj80	-0.43359080021035784	-2.3489635869599645	1.2730678095339674	-0.47865335177561485	-1.576199413386415
id81	sample0	obj81	-0.4642339593641414	-2.5706458438159547	1.9875695383168595	-0.49073254234015506	-1.5004230424073133
id82	sample0	obj82	-0.1568387647379319	-2.85874785341811	1.8456977437715376	-0.0651060756253804	-1.5725551456226845
id83	sample0	obj83	-0.10658711601137905	-2.5654165656911236	1.5943528775308704	-0.4754028635650177	-1.7792509422274287
id84	sample0	obj84	-0.8097160960966985	-2.7370849097344476	1.7347287098439885	-0.2745900199048975	-2.0686442388251907
id85	sample0	obj85	-0.14269089132108614	-3.005363087200299	1.8891671301895927	-0.2473717445378914	-1.8259779417511408
id86	sample0	obj86	-0.6969737651765857	-2.86704818018247	1.3429291087385513	-0.03608491773791167	-1.843351569788775
id87	sample0	obj87	-0.734057726959654	-2.593693554873394	1.3837409807896173	-0.5198368987938027	-1.3047902449590003
id88	sample0	obj88	-0.32090046138077244	-2.3337721641263376	1.7538612215016935	0.047896166662664164	-1.693445281929744
id89	sample0	obj89	-0.7880333886421234	-2.568401423493053	1.2354088408595767	-0.5807912643765087	-1.8859482312498297
id90	sample0	obj90	-0.09252153644191807	-3.01971713616677	1.7012092776813468	-0.0891968226270129	-1.5758541404445539
id91	sample0	obj91	-0.3242094580709005	-3.0416323740723548	1.7843516912011288	-0.39625072087519064	-1.7973177444549562
id92	sample0	obj92	-0.7123987162437098	-2.2857395511982324	1.8664195272603323	0.18281263520724356	-1.6227437108172715
id93	sample0	obj93	-0.6048578488137495	-2.8578522229964882	1.485861196050534	0.023735308265039334	-1.2927311983439878
id94	sample0	obj94	-0.6229590676614495	-2.8779823904118254	1.5656141389833858	-0.23364056943802503	-1.5992889837576605
id95	sample0	obj95	-0.2543631747215682	-2.930752701837779	1.806792269434017	-0.1788807501621285	-1.8676226241691336
id96	sample0	obj96	-0.7241259207567369	-2.734194321817051	1.8593970697967745	0.01884405097433406	-1.8388846150285316
id97	sample0	obj97	-0.3699718689574145	-2.63992487158439	1.4405253121258683	-0.08582778233275634	-1.9047249575794216
id98	sample0	obj98	-0.10886784749683587	-2.471679274202889	1.5168264274429544	-0.3111712370434133	-1.3303776709490789
id99	sample0	obj99	-0.5785215392349882	-2.464424775403806	2.0049156398770682	-0.2172761689949138	-1.4599610367603053
id100	sample0	obj100	-0.3151256024537712	-2.6226729135720817	1.6874838042458082	0.1309423969814162	-1.4467515623519236
id101	sample0	obj101	-0.7211570986895203	-2.801448498663222	1.222863868099061	-0.5616271822010275	-1.9010043451038747
id102	sample0	obj102	-0.7054207691228114	-2.5415351194556632	1.5832276676683898	0.1286198226313836	-1.594533937923179
id103	sample0	obj103	-0.150384533345036	-2.864428707149598	1.6452974553016535	-0.4798772386075434	-1.2883284879370032
id104	sample0	obj104	-0.07529377526845771	-2.341742319733174	1.3438738887062782	-0.11729185081097271	-1.4280442616555322
id105	sample0	obj105	-0.5011563841344072	-2.675957563528728	1.2615094981982689	-0.002697091995091827	-1.3409086525359823
id106	sample0	obj106	-0.25656213143520956	-2.6292564631364983	1.558702838190876	-0.022121519524417876	-1.6124414080915177
id107	sample0	obj107	-0.2500271842722712	-2.667035230492065	1.6519573599151443	-0.07195886278910313	-1.3560818730413207
id108	sample0	obj108	-0.32123403235234993	-2.982441790599084	1.6383487067811182	-0.1823125853512707	-1.434374845211838
id109	sample0	obj109	-0.4037606875177705	-2.465236596418243	1.6737800600759032	-0.487038543835192	-1.7554166533414415
id110	sample0	obj110	-0.6067562320913729	-2.287293894711575	1.7792829975539133	-0.07696012106650862	-2.0488869243943872
id111	sample0	obj111	-0.2611143574615665	-2.3004829912068696	1.6294492874979287	-0.29981442712463496	-1.4057862246259243
id112	sample0	obj112	-0.17311820552939428	-2.970339583136018	1.6357602980075057	0.017710058192779488	-2.0160573392661782
id113	sample0	obj113	-0.7688706200575429	-3.0781987796113794	1.2541254022691677	-0.16087649682366123	-1.3171837162200704
id114	sample0	obj114	-0.6671792463037833	-2.480159594821022	1.4117507828328038	-0.021515987011034188	-1.8207249518507438
id115	sample0	obj115	-0.14552775023137687	-2.9657272945379276	1.8674460157665698	-0.053054832371317806	-1.9461608448285364
id116	sample0	obj116	-0.7094281302033956	-3.0520801155563633	1.5080401438833715	-0.09360605842202707	-1.883465508508113
id117	sample0	obj117	-0.5734074824937021	-2.5089735277886835	1.8706308297023633	-0.5569695490949533	-1.3361159162364857
id118	sample0	obj118	-0.23322936842981623	-2.449172729602971	1.9073337774642187	-0.42058030538490854	-1.760847734126547
id119	sample0	obj119	-0.262279788451124	-2.442335322763727	1.4299428196161528	-0.07689774483393619	-1.9030002443864569
id120	sample0	obj120	-0.09645313364337393	-2.406296260619036	1.3528584389906733	-0.4240599198887243	-1.9978341498362566
id121	sample0	obj121	-0.46494903840423235	-2.876078176193914	1.872702170978766	0.0861524857299627	-2.027356373311987
id122	sample0	obj122	-0.35023046460164575	-2.3125075044844383	1.873610819771722	0.012122231727714539	-1.6350363495475209
id123	sample0	obj123	-0.07758992408517662	-3.041402870671353	1.2322052119262628	-0.5063221193861576	-1.5409446038186376
id124	sample0	obj124	-0.3894184099542306	-2.8507619376061086	1.9320586339891235	-0.28465612952796127	-1.688378693250186
id125	sample0	obj125	-0.4849647537161534	-2.8445484887746915	1.5130575210831325	-0.3678516303692724	-1.298558687087112
id126	sample0	obj126	-0.22420399290201953	-3.0724189166942937	1.8177561596603553	-0.44035052383129625	-1.608567618267268
id127	sample0	obj127	-0.3129977794199301	-2.7273675361205116	2.0085858828045327	0.16603705948445036	-1.5029748865551134
id128	sample0	obj128	-0.7021193347715399	-2.7176598500059774	1.4829924693877492	-0.18185265622997504	-1.392608095853021
id129	sample0	obj129	-0.5285258408076766	-2.752903267700642	1.987150628807754	0.11014738074705865	-1.3033224176306355
id130	sample0	obj130	-0.07458430223924628	-2.7015213500616806	1.4142465527475487	-0.05883856533312726	-1.4594518331632835
id131	sample0	obj131	-0.07838854640549953	-2.6305933952670437	1.6743357842289517	-0.08362126684118532	-1.4145074447110608
id132	sample0	obj132	-0.8419364955576918	-2.5688395586600477	1.355880328591228	0.14785731741220876	-1.6167062384656867
id133	sample0	obj133	-0.1873646796778573	-2.3668178777616853	1.493150877353348	-0.43852132292030643	-1.7076656896207263
id134	sample0	obj134	-0.725752310806158	-2.7799948427388808	1.7501561338383573	-0.37703157487200134	-1.835176439025266
id135	sample0	obj135	-0.33680545051686206	-2.3726022009561154	1.5845343338721958	-0.36126431586550806	-1.2989634559015466
id136	sample0	obj136	-0.10710666339167496	-2.3229407314427415	1.4303220278004747	-0.46084522467315814	-1.912856554536486
id137	sample0	obj137	-0.8231590439867708	-2.9813818061130455	1.5156049525874722	-0.4020271883805463	-1.6164099588809928
id138	sample0	obj138	-0.13426245473920673	-2.3555939866376012	2.001164343786681	0.1794326801391053	-2.0498304120710853
id139	sample0	obj139	-0.8479243358985582	-2.425826056368543	1.793263726792416	0.044608973923291884	-1.6516877278105435
id140	sample0	obj140	-0.543124690745979	-2.766256622141111	1.664082984513254	-0.2869799300240854	-1.8703850591237379
id141	sample0	obj141	-0.5179158415332642	-2.9938151960393897	1.5359050937675702	-3.9500279907622726E-5	-1.5063518818064696
id142	sample0	obj142	-0.44863818800428473	-2.698334819699009	1.7914016145597906	0.08184852905005846	-1.5184847683384959
id143	sample0	obj143	-0.7370653302094008	-2.9297564295769662	1.6161524420225772	0.04136230392739715	-1.8190922983172477
id144	sample0	obj144	-0.5551511021871416	-2.6192128282201272	1.5272807212717523	-0.21610078986060233	-1.9175967639350833
id145	sample0	obj145	-0.3483294572268373	-3.068519350034919	1.372689146381076	-0.11790624556824048	-1.913097213313433
id146	sample0	obj146	-0.5986106320626711	-2.421734198909799	1.4902580329036321	0.09342606647810603	-1.325703553636834
id147	sample0	obj147	-0.6366166638126959	-2.5853649796557376	1.9994129148613835	-0.1824988696013669	-1.7298995169048863
id148	sample0	obj148	-0.5733007260817549	-2.9303361953655322	1.275096914623781	0.037036203411655144	-1.5311804614268145
id149	sample0	obj149	-0.23098979555089383	-2.416336146832282	1.755296984084155	-0.4448857776101488	-1.818431906306216
id150	sample0	obj150	-0.4106756861460149	-3.0424769973032286	1.6992798125959878	-0.15149667465041422	-1.4250610952741922
id151	sample0	obj151	-0.14674557192609738	-2.649670481836187	1.5984982532816319	0.06296143909134211	-1.4253598026969303
id152	sample0	obj152	-0.6676869852328402	-2.369589103264709	2.012139606198076	-0.1459036342739905	-1.8500567745398626
id153	sample0	obj153	-0.7853147589065141	-2.709891635898034	1.9334087995333304	-0.18830631303554146	-1.8851052965716664
id154	sample0	obj154	-0.4468445364402348	-2.4503861194968763	1.782278706278005	-0.20588800058488455	-1.5665398026791992
id155	sample0	obj155	-0.1622713364952102	-2.4523275071255277	1.8695031301915668	0.152533433906492	-1.4353189973040235
id156	sample0	obj156	-0.2100973196981638	-2.792943827664001	1.701581030239403	-0.3347943914288992	-1.8905446517711302
id157	sample0	obj157	-0.26108255089674803	-2.3568984142810385	1.3259899801031843	-0.4355278744116168	-1.4859003017153674
id158	sample0	obj158	-0.7634623802886904	-2.3605701008410187	1.4917793358627711	-0.327978332212619	-1.8486839931492098
id159	sample0	obj159	-0.21257534276088452	-3.0561115074693994	1.4764339028185491	-0.0794551396369213	-2.0470103588149233
id160	sample0	obj160	2.5291632928097942	-0.8969520920693798	-2.7273421808333635	-1.823347537175039	-1.1669477998529878
id161	sample0	obj161	3.0308989804543964	-1.1001719640007759	-1.9868702519691404	-1.8644607356489398	-1.2810924832952548
id162	sample0	obj162	2.4213667170014532	-1.066503437817189	-2.054608461639779	-1.9094909207382362	-1.5996110308518134
id163	sample0	obj163	2.4469140280083708	-0.9300552208944524	-2.6820650743308394	-2.573949233218836	-1.5206726035225995
id164	sample0	obj164	2.7023605285928345	-1.0539055346738828	-2.4231141066185087	-2.2743519244474704	-1.8710766178392322
id165	sample0	obj165	2.8880862706229697	-0.5849566092487973	-2.128874449904972	-1.9012442568625443	-1.8478132848663575
id166	sample0	obj166	2.5048496810112257	-1.2846351949662917	-2.3975403108707574	-2.2627518485118343	-1.2403956990157052
id167	sample0	obj167	2.9947624351789663	-0.7758321855443309	-2.3261768013643978	-2.4900749092309313	-1.6555099980229802
id168	sample0	obj168	2.9515374716793046	-1.0026599780876757	-2.2469526354288574	-2.1929069698214048	-1.1159790533449434
id169	sample0	obj169	2.863643504239944	-0.718634141166673	-2.039128996345234	-1.8301377522495739	-1.4165909017018308
id170	sample0	obj170	2.649254983956822	-1.0655991916645249	-2.4989531541097394	-2.4217309041782378	-1.1361008073357373
id171	sample0	obj171	3.0332826102379657	-1.2324606473008446	-2.018511115617421	-2.061197201507886	-1.6612673718358775
id172	sample0	obj172	2.9582162457213093	-0.829401405561491	-2.2551689043150884	-2.3719554717135187	-1.496224350049926
id173	sample0	obj173	2.978412316836386	-0.8070927449252224	-2.436571517310075	-2.3499298937113338	-1.5174128936060547
id174	sample0	obj174	2.9407207871679297	-0.906303027217582	-2.6008652378778305	-2.6013194586208743	-1.1867982048675034
id175	sample0	obj175	2.8943760829485665	-1.1436048862576431	-2.063956766858327	-2.4584339721985464	-1.4377642916039752
id176	sample0	obj176	2.703780783965198	-0.913426382267688	-2.4688153657415537	-2.265167687422231	-1.2700128389922742
id177	sample0	obj177	2.775593957549533	-0.8928292113032569	-2.327155557268801	-2.481917906351071	-1.5905834899454896
id178	sample0	obj178	2.885306705178203	-1.037969384682071	-2.5199020947603556	-1.9698972467771685	-1.1638534448153164
id179	sample0	obj179	2.4396500311918112	-1.312547753377666	-2.7757285330712103	-2.4666771505484415	-1.2176616902123838
id180	sample0	obj180	2.4936415363830426	-0.7285328856409298	-2.1802707945752293	-2.435780908140346	-1.3166275520270772
id181	sample0	obj181	2.4212444265202633	-0.935380354299522	-2.0534409116821766	-1.928061086298582	-1.8658915314202478
id182	sample0	obj182	2.795389837033639	-1.0807250633260832	-2.727196927987085	-2.183791935340862	-1.6449896516008269
id183	sample0	obj183	2.957909388245425	-1.2854295982803465	-2.2072572352454602	-1.971725727582541	-1.1759764647081707
id184	sample0	obj184	3.0566440935631793	-1.118776461450055	-2.4431747764502942	-1.8321479577885347	-1.273329262971905
id185	sample0	obj185	3.0120450680040958	-0.6028383659299609	-2.0830023123066077	-2.5800621553720466	-1.864190581827398
id186	sample0	obj186	3.07786740353492	-0.983492821803382	-2.7600780933144717	-2.53438535370493	-1.4522323611368142
id187	sample0	obj187	3.0214870118771047	-0.6315086992903024	-2.446335809888085	-2.259284007787603	-1.4604456701481945
id188	sample0	obj188	2.822847112415133	-0.6204664244814292	-2.5925869145764926	-2.4118697599780994	-1.2485697785099026
id189	sample0	obj189	2.643473432791512	-0.7963250707245655	-2.5325314274019406	-1.8512511252637491	-1.8682660192208331
id190	sample0	obj190	3.0272911266196445	-1.3210608924825247	-2.5124186634484245	-1.9297411614146105	-1.0896101906496471
id191	sample0	obj191	2.9545366945753853	-0.5423182521390942	-2.5683960542034066	-2.4977001823813363	-1.489615415313184
id192	sample0	obj192	2.4827942283896687	-1.0022774634639817	-2.2422455003211272	-2.2363869117754143	-1.3083987151735907
id193	sample0	obj193	2.5914996675879927	-0.6293003374810756	-2.6245071836881073	-2.3031471754211816	-1.7098643301248213
id194	sample0	obj194	2.527058120521803	-0.8202052985733601	-2.150523128791501	-1.9326288773919083	-1.4774863225438872
id195	sample0	obj195	2.366413964114435	-0.5715948038383982	-2.545791347318468	-1.9763199400684153	-1.165529217538834
id196	sample0	obj196	3.1314053452297452	-0.99535138699761	-2.4058009501979547	-1.9579050807509404	-1.1329384831523033
id197	sample0	obj197	2.9609331197797903	-0.9835793425688864	-2.273309628492316	-1.8385730086939471	-1.4197594579293247
id198	sample0	obj198	3.0617834726376865	-0.7867398642945409	-2.601426142267023	-2.476819681970795	-1.480395843426933
id199	sample0	obj199	2.603270008099088	-1.1378531583138494	-2.2099602187988037	-2.2713305434589164	-1.647891178901833
id200	sample0	obj200	2.8996117902577963	-0.9852641614989011	-2.3888987843951415	-2.220529563336342	-1.2398027788114696
id201	sample0	obj201	2.5535445642474563	-0.7639338410125303	-2.197651915739037	-2.13319715911561	-1.687731327796307
id202	sample0	obj202	3.0439795400355516	-1.1053689603175247	-2.7604785467783817	-2.4835283746021974	-1.5252640717987915
id203	sample0	obj203	2.970983224651637	-0.6114828370132301	-2.363345668481775	-2.510969961879454	-1.5365785443162645
id204	sample0	obj204	2.7768607679383646	-1.2377331388583863	-2.4989871931755854	-2.0974838150121204	-1.3713333245480657
id205	sample0	obj205	2.709088615483386	-0.5731524674736432	-2.7562058189988905	-2.3773788529816127	-1.8793314528492968
id206	sample0	obj206	2.6581667521080377	-1.0842179999004569	-2.1650952413886384	-2.199877023437753	-1.2068805161737497
id207	sample0	obj207	2.982553798451804	-1.208240864778291	-2.1379455201441875	-2.3119762920572566	-1.7093790216596967
id208	sample0	obj208	2.927613975230771	-0.8299395473372492	-2.419724210660807	-2.086286771788891	-1.842530044621617
id209	sample0	obj209	3.0723516184265685	-1.1294350147445185	-2.303295540023077	-2.000190712818002	-1.1563105592010257
id210	sample0	obj210	2.4255411419999873	-0.615916638540444	-2.4815404406833084	-2.2812550651606807	-1.7775039845692304
id211	sample0	obj211	3.0830862274843893	-0.9110162562566313	-2.4973684805732677	-1.9591524806004434	-1.461827680784365
id212	sample0	obj212	3.00496528098951	-1.0593411851209509	-2.4968595602131	-2.1837644112744194	-1.4465495884385484
id213	sample0	obj213	3.03934993293822	-1.1479955986233379	-2.061534876232987	-2.247494161702052	-1.6475834504960294
id214	sample0	obj214	3.0923235105594955	-0.9271097700436444	-2.551624805915388	-2.439450813107694	-1.8174732308286285
id215	sample0	obj215	2.9054846096200277	-1.2417407645266763	-2.379271132913536	-1.9999211923245466	-1.1960183883397923
id216	sample0	obj216	2.5645025415433143	-0.9018503840972256	-2.1824660299946164	-2.162770128410499	-1.31464712170836
id217	sample0	obj217	2.83580361326872	-0.8087499250050821	-2.708282795733459	-1.8859425731504942	-1.2176059958788494
id218	sample0	obj218	2.64491521298672	-0.7882711585928657	-2.3461898653048343	-2.2784295314014296	-1.3836987481203782
id219	sample0	obj219	2.709985858762606	-1.3053213208563559	-2.5750508517632795	-1.8257449515973683	-1.1052650184552268
id220	sample0	obj220	2.6815386394849634	-0.6912521892363787	-2.48439555616689	-2.1724891536345963	-1.5274366486168276
id221	sample0	obj221	2.3810104153209237	-0.7319615382558903	-2.4727922270193483	-2.1047871730480434	-1.5790389792670967
id222	sample0	obj222	2.4549855851771016	-0.6556949368027745	-2.1722544107078137	-1.9396330033349902	-1.7329102083288763
id223	sample0	obj223	2.6606558802259497	-1.1274688285964172	-2.6436693503327398	-2.212286478238252	-1.101487020698978
id224	sample0	obj224	2.8748365376609666	-1.1917377913390161	-2.2678347829025127	-2.384201975980537	-1.8743444695300944
id225	sample0	obj225	2.6902453059137446	-0.5837219627211798	-2.340927463611281	-1.8873605898203185	-1.2965744627399405
id226	sample0	obj226	2.7576160178149274	-0.6175397080145127	-2.4806980913326	-2.3786754477443877	-1.1165349490632528
id227	sample0	obj227	2.791973559168712	-1.1082984361452894	-2.3564824133818525	-2.190184374946183	-1.432194865504867
id228	sample0	obj228	2.839953655930376	-1.035428116805887	-2.0558353660794335	-2.6043816948894807	-1.1581312698329629
id229	sample0	obj229	2.768810257839463	-1.233139896577127	-2.1643246748856413	-2.5241132440982534	-1.4287988833608665
id230	sample0	obj230	3.0656257011743397	-1.0158004530175055	-2.2213571360964828	-2.4953111228825318	-1.3440820844856518
id231	sample0	obj231	2.718627657315195	-1.0135763632584798	-2.169950150740389	-2.018318891097469	-1.6339498709968254
id232	sample0	obj232	2.6953301779074494	-0.896762832732152	-2.3756937957900552	-2.577000376494269	-1.241357307324571
id233	sample0	obj233	2.750859403590758	-0.5831143758362868	-2.4708708696904838	-2.1390774323548425	-1.7549684706801618
id234	sample0	obj234	2.523203899672123	-0.81608316422465	-2.292406978265728	-2.1385482629143024	-1.2119077668547686
id235	sample0	obj235	2.7416516208026347	-0.9254881970231661	-2.623103426456238	-2.2314429973734513	-1.6691738539158263
id236	sample0	obj236	2.844246684664401	-0.9756293073924279	-2.698055879365853	-1.8969194633181568	-1.831666092446867
id237	sample0	obj237	2.6361248620322657	-0.9965669187053366	-2.5733762987309676	-2.501634122907841	-1.3335716751126663
id238	sample0	obj238	2.6019740592711966	-0.597057186951489	-2.0309073159798716	-2.208784513692873	-1.4942360140537674
id239	sample0	obj239	2.6040212692129328	-0.7748036662058502	-2.356640887781632	-2.134053740438045	-1.6931831979871497
id240	sample0	obj240	2.9466150109140137	-2.984479363192558	-2.9046633413367067	0.41327912902928765	-0.2196969133932526
id241	sample0	obj241	-0.2806697548682718	1.3771461628528334	2.4493467687029558	1.6236459125154479	0.2052937495302839
id242	sample0	obj242	-3.064215976038414	2.3925727912253403	-1.023293030901483	2.4675627078810205	0.1465053306006251
id243	sample0	obj243	1.5650941690089215	-1.096019051574058	2.338711086469035	-0.5495602157896006	-0.6053672524555542
id244	sample0	obj244	-1.5919794662534317	1.7999551307187562	-2.3602829022740917	0.9434761787552817	-1.1206673500869435
id245	sample0	obj245	1.8996543446167093	0.9874001416364884	1.1693349912765743	1.4600550750447772	-1.8263937019614311
id246	sample0	obj246	-0.17319795901337587	-1.2489139789911512	0.7446699282101399	-2.2559024339589926	-0.19984650911969998
id247	sample0	obj247	0.560616217998238	-1.3835902040305978	-0.8291561456947727	-0.6410561881404215	2.6324632905919403
id248	sample0	obj248	1.5216814721757612	1.1887163356388397	1.9295054007602013	-3.1596434250383316	-0.10514780361835607
id249	sample0	obj249	-1.9205032629443832	-1.7807624698619215	1.4169175898155424	2.0961571850622294	1.7374678756321054
id250	sample0	obj250	2.5662224927990924	1.076420981159656	3.223482302674832	1.568092199328432	1.5030582986337122
id251	sample0	obj251	-2.306503512703008	0.18882178214925782	0.8503950969481303	-2.043652330747405	-0.8888126609112099
id252	sample0	obj252	2.4935860341790783	-1.8036608909802594	0.2785785015341191	1.204746632478517	2.093449721585821
id253	sample0	obj253	0.8069390049088705	0.9315000442750141	0.8950165413732121	0.2062151820113275	1.6107795148752717
id254	sample0	obj254	-2.7438114653512273	-2.740986349042428	-1.0943685827067424	-2.657326555858317	-0.814833933891114
id255	sample0	obj255	0.6015206914111084	1.8619277389170317	1.8353490891379711	2.3107342151699575	3.229963645003177
id256	sample0	obj256	-2.3402140328544188	-1.578149959128457	0.7439282130739046	-2.6321334434177057	2.175035281101465
id257	sample0	obj257	1.0912702076276937	-0.09024898371703394	-1.3146455363098333	-1.6573933787739095	-2.58769829354794
id258	sample0	obj258	1.9233714654938843	-1.6391667390693256	2.7289997747414754	-1.1849312373502092	1.2778618580088428
id259	sample0	obj259	0.5937961350310063	2.596270696754619	-1.4594570049545583	1.7129891141269749	0.2238098684491483
id260	sample0	obj260	-0.5003689846025036	0.595319856108935	-1.2372354902909497	0.24607123078881288	3.3351826006485767
id261	sample0	obj261	-0.8501263124700943	-0.0025075952835756365	0.01832558308664267	0.11261389467803073	2.2851442758027103
id262	sample0	obj262	0.15788012986682193	-2.816195687796515	0.798135344142107	1.9371759012277021	-1.3943591989052393
id263	sample0	obj263	-1.3192075397957166	-1.5949299612643557	2.8418818980071636	-0.5148056135882799	2.4072548235181666
id264	sample0	obj264	-0.7398785665441311	2.9516799198550565	-1.5517603731559284	-0.4798836074802306	-0.11728441970784759
id265	sample0	obj265	-0.8544793951301725	0.45641977131374245	-1.9732811023382075	1.730972750619586	2.915339860273303
id266	sample0	obj266	-0.5148802377696564	-1.8514927666661491	-0.20377113711263484	1.460328903090075	0.5144278481479853
id267	sample0	obj267	1.5722339987050822	1.4137162635643996	2.5044550796586456	-3.014851309170906	2.8962790008159622
id268	sample0	obj268	-0.3345872325893966	-2.6632049372788824	-2.450726795917664	2.845698455778238	2.4025922159329567
id269	sample0	obj269	-2.778010089522254	0.9688125742280136	-2.610143844048209	2.317725021871289	2.5828145696139098
id270	sample0	obj270	-0.1555593424770787	-1.8323577053029427	-2.1600409593122594	1.1723809665325429	0.5701515909527057
id271	sample0	obj271	2.5333850988827633	2.533818428176651	0.39560006719156826	2.698237877507734	2.3182256662573715
id272	sample0	obj272	2.438244489094669	-2.5121044906475687	0.276445742865591	-1.4671226093543956	1.0943713459872997
id273	sample0	obj273	2.239297284137778	-3.1021088719230714	2.4618023901822	-0.9425990912396425	-0.7410716219173499
id274	sample0	obj274	-2.742599323244916	1.8420994243303923	-0.9179004612323831	-1.2776719475859148	-0.7423366396997755
id275	sample0	obj275	-2.5101244697156493	1.0986932342193878	2.337322844012132	-0.7893867120165043	-1.9935294193266606
id276	sample0	obj276	1.825294427056469	-1.4199207270799081	2.204907738910364	-0.12464651075830524	-0.43071943407141766
id277	sample0	obj277	-1.7843261602366782	0.23720969139791742	0.6769274126957212	-3.1054540422927026	-2.5418835233361152
id278	sample0	obj278	2.489952690113206	-1.7366607628608133	0.7320203770694919	1.3273123862119012	0.6190733856780299
id279	sample0	obj279	-1.6166744454855704	-1.7213340942243796	-2.6416617798106783	-0.4271310104064401	-0.7237502038615056
id280	sample0	obj280	-1.4037999023143954	0.2927048006051407	-2.7132591448640104	2.7664256789928783	-1.1458574310956462
id281	sample0	obj281	-2.5982032104261576	-0.8921162761331212	-0.8617999636160044	2.2120851062280784	-1.242977157844173
id282	sample0	obj282	-0.15315235712221903	0.9741483766640908	0.34194178768480954	-1.8810500660140845	2.2920679323951076
id283	sample0	obj283	2.3046372383682203	0.7785396539365275	-0.8756426896218998	-2.7088543432037953	-2.6098461330038325
id284	sample0	obj284	-1.7237807496296913	2.124104954345083	0.639187165586042	0.4068196789635177	-2.3718535792683393
id285	sample0	obj285	-0.05637131623035174	-1.2973092213273523	3.118207044289454	1.5230102326437516	0.8128771004450821
id286	sample0	obj286	2.7830334776516126	-0.3793106464953723	0.3970454058629696	-0.7394616501096564	-0.05725399169693479
id287	sample0	obj287	1.9689307444798287	0.8160725938638633	1.856106875249152	1.7228197252761461	1.9464066532120006
id288	sample0	obj288	-0.12476297814923304	-2.5298375388083634	3.0216520237013285	1.390433041380902	2.2086878806946633
id289	sample0	obj289	1.0335878724499277	-1.7711887299269982	0.5400004534897551	-1.9976486869149699	-0.8562773140066218
id290	sample0	obj290	-2.0241897533132227	2.7221297975965135	0.45026900107297685	0.4538080625542391	-1.5659933078520905
id291	sample0	obj291	-0.15429024343975772	0.889289641741162	-2.7120764254675938	-0.5933246704972818	0.6601539715976216
id292	sample0	obj292	-2.5089394962505946	-1.1181061062666369	0.5733650686572063	1.0474042386966622	-1.0947645157185477
id293	sample0	obj293	2.5056264818539944	-1.5337838835372843	-0.44551705528967556	-2.104616123409116	1.476468979765122
id294	sample0	obj294	-0.927010212827482	0.5899888963684075	2.257857405375664	1.6534926785808717	1.229497815667985
id295	sample0	obj295	0.7199538415241991	-3.038065005575893	1.175628621271691	1.4226856107123678	2.4576009887786854
id296	sample0	obj296	-0.3073197149658617	-1.070697701589404	0.05507322044243945	1.8297716928440977	1.6754162112820468
id297	sample0	obj297	1.398154825691733	2.236438567355677	-1.7068461417618463	-1.7404934192597565	-2.075407990276715
id298	sample0	obj298	-3.283710596922267	-2.6522950794824682	-1.8005342419026091	-1.2798997457392711	-0.6953769847298794
id299	sample0	obj299	-3.1655581850742447	3.030361404310325	2.1307446419519285	0.4542699567417141	-1.5350574824266512
id300	sample0	obj300	-2.6705945937992084	2.423365177771018	-2.4778801614598835	-2.0566524286665073	-2.4547558616510092
id301	sample0	obj301	-2.5103899054623597	0.5667049320891667	0.34964415111966013	-0.8687937902398672	0.42567468477996623
id302	sample0	obj302	3.035675640348802	-0.36821939820512267	1.7068544625344533	-1.634120901325681	1.6200885806878695
id303	sample0	obj303	-1.1492791272203178	-1.2183670974524616	0.5389760758459314	1.216123060663555	0.2486415212080868
id304	sample0	obj304	-2.2354796839169877	-1.614864804156042	-2.5472484954817016	-0.03970660608218779	-2.2043445457667232
id305	sample0	obj305	2.8048240211214397	-2.5628711941411417	-0.6694182398239032	-2.143985720575766	-2.650167159725264
id306	sample0	obj306	-0.9806424946716895	-2.3007726962651986	2.8779440516089903	2.086079607740378	0.6099538528762632
id307	sample0	obj307	-2.934254083706096	-0.18839704271977625	2.2142380415816736	3.1134495663923536	1.5507206909866116
id308	sample0	obj308	-1.5026595535197824	2.1005400096854645	-0.9355227542198123	0.3902386729162869	-1.5297574360274628
id309	sample0	obj309	-1.0037913967952101	0.9139151361997528	2.91593454342137	2.9783410458171433	-2.4165670570960383
id310	sample0	obj310	-2.414386103545507	0.32188655914930475	-1.881765491041818	-1.7827761229162573	2.9451371843118364
id311	sample0	obj311	-2.5666786366624814	2.24321564295735	-0.15462870121307082	2.413670898587408	2.3623418321117353
id312	sample0	obj312	-1.884717360398729	-2.7384234572379564	-0.7272121206114935	-2.4563519720080578	0.5243189551418359
id313	sample0	obj313	2.122133241573695	0.19924595684882285	-1.118909596007815	2.959559888355422	-2.5016299254247443
id314	sample0	obj314	2.616622703083433	-2.3834331609668515	1.5293289723653016	-2.3737958777283845	-0.3451906034675908
id315	sample0	obj315	2.3640895694282733	-0.6307403166099785	-0.38895424295971404	2.439405601192739	-1.908945672504446
id316	sample0	obj316	-2.092203376362831	3.1692061317796685	-0.9194695553901139	-1.9104992514640435	-2.0868235517691245
id317	sample0	obj317	3.0757280323213068	-1.7312393648624882	-1.1424583587322679	-1.723302742932399	-3.164471347592894
id318	sample0	obj318	-0.13905472118227347	3.040791570834525	2.654532921201433	-1.3913612884445077	2.5220945480781527
id319	sample0	obj319	0.2149158295878964	-1.659708906365936	0.1692121623850662	-2.8682415841590863	0.20170736681643825
id320	sample0	obj320	-1.1232591290876424	2.2603638664852164	0.13271529111192865	-1.5097983675067472	3.1076344690948376
id321	sample0	obj321	-0.23929066482777128	3.1202764481086023	-1.7538496511233215	2.9505681085035906	-1.1380870427091452
id322	sample0	obj322	-2.1296969331798596	-2.022682170545031	0.09423830908805697	0.7620277611741284	-1.2830197321799213
id323	sample0	obj323	2.6281337599912247	2.7274248691512404	1.3708209521514927	2.1856884983156144	-0.7518731687065405
id324	sample0	obj324	1.093019774106098	2.0211058862363975	-2.8694830350102243	-0.009991107220056805	-1.6722870501405929
id325	sample0	obj325	-1.1333204320457477	-1.577373871747465	-0.1534174748556013	1.2611831514229888	-1.3957094175478608
id326	sample0	obj326	1.60776770828251	-1.9635608868512464	-1.780966282292198	-2.501145083677905	-1.9116749738235002
id327	sample0	obj327	-2.1567795236958336	2.41117822919506	-1.4966135306799293	2.4244617744127144	-0.9377314131045928
id328	sample0	obj328	2.1770337404612676	-2.5399705884391786	2.169716571835292	-1.760882175044913	1.2004967508916216
id329	sample0	obj329	2.3647141981741657	1.3312293846233858	1.228604636968131	0.12973492142807175	-1.481946419921251
id330	sample0	obj330	1.2484712336087525	-0.17655032654574904	1.5362162348636328	-0.32310497193539495	-2.5916661855658663
id331	sample0	obj331	-0.821918767193428	-0.7184641138791271	-2.1616647000150926	-0.24207529439611508	1.2296697200550013
id332	sample0	obj332	-0.07927329951255158	-0.2592926862502078	-1.5471832013370144	1.7539008752769751	-2.424008834259246
id333	sample0	obj333	-1.375090212654349	-0.9727556836313634	1.2455499974415165	-0.619542595289605	0.01835800575516916
id334	sample0	obj334	-0.009573411585145242	-2.3504961085226745	-0.19438272105144103	0.5485943108024689	1.946858604210654
id335	sample0	obj335	-1.7357652392682075	2.0808879444646284	0.7369361872260104	0.15957345885947927	-0.9453746185407265
id336	sample0	obj336	-0.47824837255459784	-0.6910120145405712	-0.7794566095601296	-1.1553346523916983	1.8750068415806052
id337	sample0	obj337	-0.8490770582409222	-2.260118910610254	-1.0226317839665158	-0.7578628209425609	-1.7185326239382077
id338	sample0	obj338	1.4020320646478552	-0.8925342934466179	-2.446614507246964	-1.131498466637457	-2.1506369993081917
id339	sample0	obj339	-1.6802028664067443	-1.2195203888013508	0.16296659845809047	1.0001271092385207	0.805635052479293
id340	sample0	obj340	1.7655103011856081	-2.099375177272579	-1.2425650558343397	1.9856461056306922	2.595840533620398
id341	sample0	obj341	1.3323925967484522	-2.1733025579475944	-1.209718760379132	0.20803726384249083	1.4175787721818711
id342	sample0	obj342	-2.2456793923156066	-1.009798314595832	-0.20239252599078228	0.9473353391888044	1.3013768404506818
id343	sample0	obj343	2.156271793208772	0.9524931024834563	-1.6438648491200294	2.1905439503196424	-0.8687376590898168
id344	sample0	obj344	-0.4314482132764357	1.1768035480504202	-0.8522977521879415	-2.542186739455739	1.4717601895188586
id345	sample0	obj345	2.53449620718244	-2.0855765386776612	-2.2878186365152353	-1.655518604163705	-2.877724812476635
id346	sample0	obj346	1.1199962488721278	1.0971302247912265	2.3773796369255478	1.3033837720062178	1.1837495191749878
id347	sample0	obj347	1.1397653793966496	-0.31613214042091153	-1.561368412650559	1.1151604142518088	1.5486709775353704
id348	sample0	obj348	0.1870574052202914	3.2097484858934258	-3.3084709914096906	0.46343283183293993	2.4490293651311945
id349	sample0	obj349	-1.525252223271921	-1.056895300627645	-2.05248913156859	-2.677671402745382	-0.9678975493314546
id350	sample0	obj350	3.1677848030627382	-0.1443000803476786	1.867179334940797	-2.663458511384996	-1.943005445958793
id351	sample0	obj351	1.3643547610049502	-1.3255497244047394	-0.5419574615842615	-2.1241390011686843	-1.768299353428571
id352	sample0	obj352	-1.3031330052058139	1.227697853733874	-0.861535763492447	0.1921764564197434	-0.8545534645894862
id353	sample0	obj353	2.3805099214066203	-1.590918828907837	1.6924787785013715	-1.9579453172464496	-0.35936774693910767
id354	sample0	obj354	-2.060386797325614	1.9778281533068771	1.4611180106678174	-0.26260033112082654	-1.3404952664276166
id355	sample0	obj355	1.4449415803357073	3.2710462131822737	1.4132253872492262	2.3209245675295582	-2.837536044314132
id356	sample0	obj356	2.266738663898682	2.328145966818726	-2.446455296456479	-2.0880618095267836	0.3521064586994297
id357	sample0	obj357	-2.7234535449939106	0.567558688473419	3.0610723966794366	-2.2678612623970205	1.574729781181357
id358	sample0	obj358	1.6696120975084208	0.9771915131240196	-0.5731077785212292	1.5434104771215997	2.0633993585095913
id359	sample0	obj359	0.599042483091475	0.3104368924952456	-1.8344059728774227	0.0974279526658835	-1.7399536442704988
id360	sample1	obj0	-1.4004401984468107	-1.8053790646826542	-2.0030542916949363	2.677843372585971	3.1519270104737744
id361	sample1	obj1	-1.664553489338738	-1.9134021081686814	-2.4776904142415637	2.914500742483812	2.6668357603278716
id362	sample1	obj2	-1.02125874964503	-2.3608214240485013	-2.3314138665741977	2.7984130487055494	3.053534662922576
id363	sample1	obj3	-1.297336013374864	-2.266105623565873	-2.603592733927841	2.8392925814557985	2.9306843669577494
id364	sample1	obj4	-1.6336734990451616	-2.122677313499659	-2.485208977950248	3.0175641509491884	2.702241887632041
id365	sample1	obj5	-1.0902627247859193	-2.3688602154539162	-2.4982849640167286	2.429971106640537	2.7025669730024506
id366	sample1	obj6	-1.2899286582597835	-2.2112101547429734	-2.568558921605831	3.0016624879627023	2.4880920612889876
id367	sample1	obj7	-1.5885933629854223	-2.285249567353058	-2.0027891538784757	2.7375562516884266	2.675019147080547
id368	sample1	obj8	-1.288226309524804	-1.9007192740629288	-2.0304891786796158	2.9405010574902724	2.6704219217493015
id369	sample1	obj9	-1.7482670523165749	-2.340883794721457	-2.4225659995838766	2.657441637538474	3.007331224546734
id370	sample1	obj10	-1.642062554944415	-1.8507665194521161	-2.333595976625381	2.9063356467392785	2.9580193397698213
id371	sample1	obj11	-0.9740842619174367	-1.9285467607787081	-2.4951704395029406	2.8773817479368917	2.861433159930944
id372	sample1	obj12	-1.3362238435473706	-2.186312448581769	-1.9672199041280702	2.496103191642745	3.170712114851189
id373	sample1	obj13	-1.3396539275570816	-1.9170260569518267	-2.1723259494983624	2.7993965149248883	2.627620847383141
id374	sample1	obj14	-1.7024267607128043	-2.427519287808681	-2.42209645343062	2.537706215497494	3.0376852647623886
id375	sample1	obj15	-1.5795106753427053	-2.2936796276736104	-1.9095572966392496	2.6184302010402067	2.5004999321552903
id376	sample1	obj16	-1.4561781526482924	-1.772320917357133	-2.2895450468311282	2.9014038108854967	2.9042311823040485
id377	sample1	obj17	-1.1399013836860905	-2.1606359466144434	-2.390115219557001	2.4132578091453105	2.694429278130224
id378	sample1	obj18	-1.3200269240332305	-2.3122044723940105	-1.969351633561108	2.542505164752518	2.8600428688132076
id379	sample1	obj19	-1.2458338426634887	-2.46936956771221	-2.018519945658347	2.802788233237801	2.6416524568723965
id380	sample1	obj20	-1.5169718054910315	-2.413991510876455	-2.366594153317266	3.0117182253101222	3.168566962272777
id381	sample1	obj21	-1.3880739606592207	-2.118236595335044	-1.9026447748095385	3.043570092962001	2.5952122879394546
id382	sample1	obj22	-1.5513836168005954	-2.3277506245940844	-2.2287533129358876	2.8046624478212374	3.068339230808653
id383	sample1	obj23	-1.4548717435036291	-2.05239886289794	-2.001854021964231	2.391962025736533	3.1626491458237016
id384	sample1	obj24	-1.0033942277988648	-1.8833170729706192	-2.020545597256211	2.282210550879349	2.833631791929314
id385	sample1	obj25	-1.529290286172515	-1.795409530512833	-2.052303980525498	2.327085430901426	2.825390255949212
id386	sample1	obj26	-1.346298066282871	-2.115238750272291	-2.6550083373314775	2.278480378096896	2.623147423519342
id387	sample1	obj27	-1.5441053416753991	-2.006575909103591	-1.989109002874914	2.4283345204093605	2.4526436484847904
id388	sample1	obj28	-1.2551057481799324	-2.4083117227855766	-2.59546130283183	2.723454923988846	2.7119023954141537
id389	sample1	obj29	-1.53233703693069	-2.398059820076173	-2.4686684984827054	2.923873765362541	2.3975163475080157
id390	sample1	obj30	-1.5079833528696565	-1.8832118468887424	-2.014062177909775	2.6423636412218228	2.3928458664046044
id391	sample1	obj31	-1.3325690732955915	-1.860519000049117	-2.353044563727799	2.5742102756685785	2.766982805233961
id392	sample1	obj32	-1.5909044516856736	-1.8440734375733763	-2.638767842273091	2.5541156623575842	2.7511697732868425
id393	sample1	obj33	-1.1043043753547825	-2.135937033562154	-2.251873663772827	2.827583674014222	2.8862358313480487
id394	sample1	obj34	-1.6994356852147692	-1.9872090726366378	-2.6416064050019905	2.576230905510712	2.455669811963677
id395	sample1	obj35	-1.2797000289651728	-2.241133232467971	-2.625889500133371	2.8815733578436515	2.6318584113233845
id396	sample1	obj36	-0.99017072538582	-1.9225086196760799	-2.6172591814916153	2.4538715874288313	2.877923727874791
id397	sample1	obj37	-1.4241179181207766	-2.485287027855393	-1.9397279417949065	2.6079785475159714	2.5871613079540507
id398	sample1	obj38	-1.6679208859054262	-2.1863995194231762	-2.1720453206861112	2.465733175771077	2.8414601856585833
id399	sample1	obj39	-1.0990214213557696	-2.339655992302482	-2.110278565576597	2.845683056327455	2.676937267364823
id400	sample1	obj40	-1.6033645083931023	-2.127593689565498	-2.489495736826771	2.3197095237883105	2.51949710298433
id401	sample1	obj41	-1.0168421945731234	-2.0075096702295183	-2.2304416224113193	2.9388731442088347	2.8677890535063097
id402	sample1	obj42	-1.6594512178103535	-2.224190522779484	-2.45979637590592	2.7364037167826534	2.441234680548799
id403	sample1	obj43	-1.5485347702359153	-2.5071455847188946	-2.4567418553294673	2.7956325117581935	2.674094948696403
id404	sample1	obj44	-1.3634503511580278	-1.9430489703191243	-2.156475082411928	2.6287119583234753	2.8330950220739544
id405	sample1	obj45	-1.1906305381559164	-1.8206973341732107	-2.4328458575766194	2.7645955171664784	2.5885812456823567
id406	sample1	obj46	-1.5951273921766167	-1.9796856772223805	-2.014799686313232	2.420864554491686	3.0127060107580546
id407	sample1	obj47	-1.1196962711105707	-1.9762884260593436	-1.8796220203089649	2.4749952064333507	2.9603779064330893
id408	sample1	obj48	-1.1701251593762008	-2.019299589490593	-2.612448953281425	2.31046374946068	3.0698335775049186
id409	sample1	obj49	-1.0581964940753923	-1.8209294058140215	-2.2159767881416492	2.2580993954231237	3.072339377023998
id410	sample1	obj50	-1.5812208469042608	-2.436867472271062	-2.074111516960423	2.3622148162957872	3.009872648106354
id411	sample1	obj51	-1.5468520358068214	-2.3063994499283433	-2.4832942577485193	2.2656844121833997	2.8233192670022507
id412	sample1	obj52	-1.518723649842502	-1.8065984551387775	-2.2177619731388534	2.8322030897413883	2.7019135589528185
id413	sample1	obj53	-1.1646817399806921	-1.7501974158846454	-2.0299000270759233	2.923851829993883	3.0999935089054587
id414	sample1	obj54	-1.3248711181871595	-2.118379342132258	-2.6314567579621593	2.4567254595195394	2.9648065705182907
id415	sample1	obj55	-1.4590073195118594	-2.148490936914807	-2.3705639629661026	2.3081504674155973	3.026732972769285
id416	sample1	obj56	-1.6456766022108613	-2.2011863955621873	-2.315586567131789	2.799841546509086	2.741053763002288
id417	sample1	obj57	-1.7437954181021604	-1.8078362436611284	-2.1696502984548376	2.9986214070413775	2.810932689690666
id418	sample1	obj58	-1.4272736383282054	-1.8307826701057142	-2.1466152910557126	2.5389658461518447	2.749763483631434
id419	sample1	obj59	-1.295804810026344	-2.327284688368084	-2.4051171023458475	2.9710409606741934	3.0551115173058707
id420	sample1	obj60	-1.2623968207451113	-2.351364430095818	-2.6144296852489193	2.7779782230354986	3.076309179945686
id421	sample1	obj61	-1.424100036566656	-2.1023360853037274	-2.654161314680323	2.5032916778716503	2.786001303364277
id422	sample1	obj62	-1.3262327054312015	-2.368163022163148	-2.4565175254787546	2.312486838114963	2.447740193227469
id423	sample1	obj63	-1.6095868612811342	-2.4370425570336955	-2.099898436195401	2.323448793755274	3.054752293415066
id424	sample1	obj64	-1.549467800612689	-1.9703530757427086	-2.558285743040514	2.6320331211577574	2.4593988918706615
id425	sample1	obj65	-1.2073187370012544	-2.440410281362495	-1.8920609833442432	2.898825054469064	2.3912864040035675
id426	sample1	obj66	-1.2599545822683245	-2.0209612759222795	-2.609923758714966	2.3291856029153335	2.7596042620843217
id427	sample1	obj67	-1.4754166455525908	-1.9480903801370146	-2.103292276086619	2.4628732196039644	3.0497372293007836
id428	sample1	obj68	-1.0830101498973579	-1.9028137940880439	-2.306311172820063	2.695624598743499	3.1656687455993606
id429	sample1	obj69	-1.5405392351564309	-2.150194011782926	-2.3062067222194766	2.4995021957624615	2.460821201726915
id430	sample1	obj70	-1.0239559766650026	-2.1369042234527775	-1.9475625272775254	2.6204770125623735	2.6759209924602856
id431	sample1	obj71	-1.1309333746453443	-1.8209101787089605	-2.554981233167368	2.3520185836531677	2.610891166109756
id432	sample1	obj72	-1.3651007916850377	-1.8919075845959576	-2.3438954867665944	2.6663159970950727	2.558813807417625
id433	sample1	obj73	-1.7041890349647733	-1.8354488876086295	-2.088836087036805	2.59656157900909	2.3963294038185854
id434	sample1	obj74	-1.692962687847606	-2.380909819417169	-2.149603085878444	2.9833967361983893	2.741602551903763
id435	sample1	obj75	-1.5679164989126144	-2.4246758058326296	-2.383357481119498	3.0175561558943254	2.75584361051027
id436	sample1	obj76	-1.2301198126245174	-2.293765655883396	-2.1470036907622907	2.7328563375703188	2.7874855618290613
id437	sample1	obj77	-1.7376572287267795	-2.3576483344675347	-2.459207579939511	2.6453645973931716	2.7621356779934523
id438	sample1	obj78	-1.0796734386376774	-2.340842028492814	-2.572336697356182	2.724760867602539	2.441504516057755
id439	sample1	obj79	-1.597433837687652	-2.1571069016444735	-2.01636181739728	2.3639737763789053	2.4583190830776824
id440	sample1	obj80	-0.6916817907697235	-2.4534311237901445	1.7678043698747534	0.0031956259535341758	-1.6159420439755663
id441	sample1	obj81	-0.4172195783946693	-2.3100028232040404	1.8938629776648757	-0.5646336345100547	-1.4044837491698061
id442	sample1	obj82	-0.5950457844139133	-2.4931742194039286	1.6935277108105917	-0.16733738432834955	-1.6227563544626138
id443	sample1	obj83	-0.6032304657373342	-2.329700197041385	1.7118441307871501	-0.17820633581544926	-1.3130700064411185
id444	sample1	obj84	-0.14533639921065034	-2.686043136695493	1.448984725274867	-0.260532431227222	-1.4592171671997987
id445	sample1	obj85	-0.15145135781164354	-3.0771962281532383	1.675877220971131	-0.4009147121241212	-1.542280154894633
id446	sample1	obj86	-0.12528857199379762	-2.972332504524023	1.7842603147496547	-0.018500921859116448	-1.8895324992909623
id447	sample1	obj87	-0.5485430009982376	-2.9121094093369173	1.449679627964781	-0.11364843417399173	-1.7012973583711333
id448	sample1	obj88	-0.7906386663778782	-2.9178975690053197	1.2914206273955338	-0.0046053641115271216	-1.3763040880746775
id449	sample1	obj89	-0.8077288784487241	-2.285467536682422	1.9271111015718883	-0.49447379325421104	-1.9639791500903239
id450	sample1	obj90	-0.6891618046668574	-2.2983530333521895	1.6643704337510763	0.0659827005732967	-1.6670626818792287
id451	sample1	obj91	-0.7499399643076943	-3.0403079281598853	1.682590736605004	-0.5074079514592522	-1.7023023694565012
id452	sample1	obj92	-0.48882999839838437	-2.990580288499608	1.7823651657138118	-0.363865895744234	-1.8905832671440983
id453	sample1	obj93	-0.8360603562369869	-2.796233831498352	1.8783841657628568	-0.4319242596574716	-1.8680525840251374
id454	sample1	obj94	-0.5918246119555466	-2.966049506323585	1.256460313548672	-0.05584379993795152	-1.3514328661797124
id455	sample1	obj95	-0.08442902220960868	-2.541730545389694	1.2918714712526391	-0.4441017105153804	-1.606132087872157
id456	sample1	obj96	-0.11973045763639922	-2.8828074305269245	1.3320862178283055	-0.06398010798414955	-1.6947961798752946
id457	sample1	obj97	-0.10384690494664095	-2.4478890494873085	1.2923122640544373	-0.5876753659795719	-1.3539539815748691
id458	sample1	obj98	-0.43883205516597046	-2.450325090111008	1.9198435654409565	-0.5151340568955171	-1.5722193452038589
id459	sample1	obj99	-0.543431849112652	-2.7820280519123832	1.988030809481967	-0.3755883628558492	-2.02748431506095
id460	sample1	obj100	-0.7530271296891984	-2.593743602659186	1.6305199168597424	0.06039308247983122	-1.7725046123582984
id461	sample1	obj101	-0.10675819557502864	-2.4395495114817853	1.7813503573214766	0.06001021498599912	-2.0155870112912706
id462	sample1	obj102	-0.825465384931509	-2.471399823433788	1.8192349453097871	0.12588640452043298	-1.9905836368385041
id463	sample1	obj103	-0.09881109908907848	-2.627206433198699	2.0100121073803345	-0.10096651086362884	-1.4004211365737693
id464	sample1	obj104	-0.5986150122933862	-2.801857415660655	1.3975277637855947	-0.09919829365892496	-1.5907899528155698
id465	sample1	obj105	-0.2703796376470182	-2.4208053319603957	1.4202200179903166	-0.3516408735937603	-1.2927328699338647
id466	sample1	obj106	-0.3660525403426395	-2.7340128123703753	1.7511059822739483	0.11197631300358535	-1.4795452404343292
id467	sample1	obj107	-0.29560656822517184	-2.685209401671865	1.9078599486040515	0.040390235781217476	-1.8169789806428245
id468	sample1	obj108	-0.6078659243526784	-2.6461889624213573	1.3048823670601875	-0.4333054139739202	-1.7360680531287385
id469	sample1	obj109	-0.1645060851751925	-2.384352758739591	1.2808466391619615	-0.5620444253069214	-1.5023118529433404
id470	sample1	obj110	-0.8351539929932026	-2.9874739068602905	1.5058318342098862	-0.3840084847962919	-1.5583069328136678
id471	sample1	obj111	-0.2933551315480897	-3.0238190998568077	1.5369591910560059	0.01588596830336264	-2.03155026982037
id472	sample1	obj112	-0.19769989319714576	-2.776904554938785	1.4481064729868747	-0.5632655694561497	-1.5648939203069652
id473	sample1	obj113	-0.4519569359167809	-2.4583823109216016	1.917931629810845	-0.5377400785588653	-1.4713536740196766
id474	sample1	obj114	-0.3924886786652471	-2.653440107384528	1.4437540708590824	0.14617947400847897	-1.9525079946203179
id475	sample1	obj115	-0.0778698461968188	-2.5617504609734416	1.9919712523960196	-0.3600318219785781	-1.8529113584861092
id476	sample1	obj116	-0.36933452424539465	-2.422013382721332	1.7462906208611297	0.07285488341592017	-1.8416320087991915
id477	sample1	obj117	-0.7937878233700681	-2.6955977830385933	1.633284102318537	0.17190258560642702	-1.6935519403738641
id478	sample1	obj118	-0.46347524515244876	-3.0682914352333235	1.7632843624031596	-0.3572196803261119	-1.7522800754608259
id479	sample1	obj119	-0.16535290618990583	-2.529813709298362	1.6085926547333436	0.06073127055113503	-1.9457721255392584
id480	sample1	obj120	-0.09358682906103588	-3.0171215278670713	1.4480144380185411	-0.09981309125766602	-1.334866498744541
id481	sample1	obj121	-0.7327737165030468	-2.3557411326690643	1.3470375271772026	-0.573121513245671	-1.7312775196698396
id482	sample1	obj122	-0.44726348411399613	-2.7869814974689806	1.7391744119959043	0.06705960193007299	-1.8399807609343493
id483	sample1	obj123	-0.12071765568327619	-2.599020278341308	1.7612609352774267	-0.5540169441846344	-2.0637219925645454
id484	sample1	obj124	-0.43460302193538514	-2.7450977796541403	1.3214961637484917	-0.04402082373752081	-1.7444269555538776
id485	sample1	obj125	-0.5770385253291492	-2.778498170454858	1.9038760816593387	-0.010233213651851036	-1.9849259370046037
id486	sample1	obj126	-0.6241310741310394	-2.5952377005298652	1.40907667501939	-0.3141022846442648	-1.6594799851144673
id487	sample1	obj127	-0.41199456660799394	-2.8725071358002094	1.5849327227591679	0.1218989961642698	-1.3354473731997847
id488	sample1	obj128	-0.2838909696040025	-2.932526904433532	1.9070959953725724	-0.3893623066246016	-1.5309041314260468
id489	sample1	obj129	-0.7057062120972268	-2.5436602188064352	1.442395696411908	-0.32689900302591196	-1.7514737227175368
id490	sample1	obj130	-0.6341205207389903	-3.0769859919158433	1.9865212571975739	0.055060866006167886	-1.5988740475963636
id491	sample1	obj131	-0.722696167044085	-2.338154346306349	1.7490590685173966	-0.1826105371945611	-1.6260957233454372
id492	sample1	obj132	-0.176530249905816	-3.0498247242535843	1.810297708357826	0.16400950591101082	-1.419531059812761
id493	sample1	obj133	-0.7184483452780696	-3.015416485371304	1.4557250453318007	-0.3059854199377095	-1.294118807653626
id494	sample1	obj134	-0.6987912715961577	-2.9838752567547484	1.4784337548717301	-0.4957211921119837	-2.0585024919215735
id495	sample1	obj135	-0.44401603483653906	-2.5787712006699373	1.6118831598883334	-0.13269512774566444	-1.995660953564733
id496	sample1	obj136	-0.06143523712957022	-2.461890475232569	1.8132939351476116	-0.17996448107845203	-1.7503043524472701
id497	sample1	obj137	-0.4508031616797449	-2.967652442723012	1.5715310952505566	-0.21071319006302086	-1.8448797853437318
id498	sample1	obj138	-0.5579621488619781	-2.4537762665715537	1.385319089824618	-0.4727459198248829	-1.2761425866123237
id499	sample1	obj139	-0.4687366580352098	-2.9367254624957844	1.483185165046301	-0.572396350978858	-1.6762654150380325
id500	sample1	obj140	-0.6975456036122175	-2.8761712342225865	1.5832999420103788	-0.25710240096889203	-2.0462207605438043
id501	sample1	obj141	-0.6771411513600855	-2.387128954385131	1.6795345263503898	0.043914161846072	-2.0620292986591386
id502	sample1	obj142	-0.4933189756174288	-2.9251303607039993	1.3622364297832963	-0.520272020280997	-1.7812567073509127
id503	sample1	obj143	-0.40872147336005665	-2.7298911741282077	1.9235994263404113	0.15560814254430955	-1.590213274064183
id504	sample1	obj144	-0.5478197328200326	-2.8350134496672474	1.5557208534752358	-0.5022154135803469	-1.7715038919015442
id505	sample1	obj145	-0.3231520339732772	-2.5514173253988126	1.4346600153487024	-0.013668051840904027	-2.0642363048384134
id506	sample1	obj146	-0.6107624728357776	-2.594022572911968	1.31869009797587	-0.01127177971439608	-1.5501672006036138
id507	sample1	obj147	-0.35786559221069075	-2.715789686043678	1.8086288883661696	-0.3915266448200365	-1.4306905639585725
id508	sample1	obj148	-0.6429058805119025	-2.599176561891686	1.9702974318754989	-0.4205972822741689	-1.8516963183735722
id509	sample1	obj149	-0.4097282902304902	-2.8784651427181025	1.7639460307615797	0.10341149018611184	-1.9632923631949937
id510	sample1	obj150	-0.7533713216176461	-2.8608545207150304	1.8355614377023253	-0.3238769578049605	-1.7340342954454564
id511	sample1	obj151	-0.12238082940535433	-2.600799119192221	1.8854818288051205	-0.1870063132565113	-1.926986461119751
id512	sample1	obj152	-0.08636595336680197	-2.369383790450634	1.6383554032923646	0.13135492701240647	-1.527491732976443
id513	sample1	obj153	-0.7501201945975411	-2.8446681134439107	2.005339627002004	-0.0716424442330661	-1.6172969676244215
id514	sample1	obj154	-0.8168555327636506	-2.6134918117287125	1.9772068154365687	-0.4003928172482046	-1.8315115187156106
id515	sample1	obj155	-0.640289466682259	-2.391307192626991	1.5508557365482223	0.05987245108455508	-1.7161111873631365
id516	sample1	obj156	-0.6733271648678885	-2.992784948603347	1.6192832526454861	-0.44048550372364415	-1.71418246858687
id517	sample1	obj157	-0.8222372566095575	-2.668322545643644	1.7065009045046668	-0.14536872740268036	-1.726176680789468
id518	sample1	obj158	-0.23937498859627726	-2.5937610520757883	1.7768464721198587	-0.38575571363221783	-1.777953888196967
id519	sample1	obj159	-0.11200216945308372	-2.3836823457812	1.5777936733569695	-0.02442068345227255	-2.0426854846448017
id520	sample1	obj160	2.713901178937188	-1.1480863248940616	-2.4151742688263407	-1.8863606903472885	-1.6458237524066428
id521	sample1	obj161	2.3703662183670486	-0.9022138090133467	-2.087795590332041	-2.3998550132370093	-1.198640057347039
id522	sample1	obj162	2.3707391269232923	-0.9410514238356054	-2.3261682465187676	-2.171187227043071	-1.230280494929496
id523	sample1	obj163	2.844482603399974	-1.0368180977684776	-2.2798001897825624	-2.103957715669213	-1.7162028970305914
id524	sample1	obj164	3.011345834593225	-0.6749432482704039	-2.353454958330763	-2.086377603444639	-1.5326304756883806
id525	sample1	obj165	2.7769220032614514	-0.7509361168883525	-2.2343105175549356	-2.5518754621069673	-1.2690835806412206
id526	sample1	obj166	3.047460642350654	-1.0786164226318793	-2.2218576713891993	-2.066649792395527	-1.876006906952931
id527	sample1	obj167	2.8418581809842913	-1.2428465797689918	-2.479633363532618	-2.43143046540872	-1.1041810245981991
id528	sample1	obj168	2.633209399275374	-0.6976885323971043	-2.1684928452383314	-1.9096726402705386	-1.3118796383267088
id529	sample1	obj169	3.0204815059089856	-0.7130169198821643	-2.340983000335848	-2.4154120827988153	-1.7947222306777544
id530	sample1	obj170	2.4729286399607653	-0.8926489376052692	-2.352828719275134	-2.0321547899499084	-1.5467209817466885
id531	sample1	obj171	2.3784542518595226	-0.8960938259561307	-2.345429137886939	-2.1980499277028698	-1.6914745549742114
id532	sample1	obj172	2.8474081578623234	-0.7526742599187621	-2.024924893070984	-1.8782977657111084	-1.71966261735607
id533	sample1	obj173	2.5729287232657003	-0.7071234903715472	-2.0486856881425997	-2.3368667288920126	-1.7102884084831171
id534	sample1	obj174	2.838068190851356	-1.3134072999273694	-2.5563206379918237	-1.8872297391864465	-1.8633457342391084
id535	sample1	obj175	2.8112235355039594	-0.8195550086589855	-2.2643797820827922	-1.9045735768932963	-1.4830944279284046
id536	sample1	obj176	2.7199941862899157	-0.7693000844476248	-2.1841335704508373	-1.9658797037726297	-1.3637602699481408
id537	sample1	obj177	2.887158644126422	-1.2824246960448016	-2.310034422700207	-2.083014634276088	-1.4705727571774585
id538	sample1	obj178	2.711158201835885	-1.248465190039668	-2.4400237929347077	-2.5285960164537284	-1.793462865535314
id539	sample1	obj179	2.649956367755619	-0.7489622210968305	-2.0925920349414344	-2.333511873500245	-1.180806183106359
id540	sample1	obj180	3.10656240186698	-0.7703237143925117	-2.7317727892038643	-1.8546565062744902	-1.726156972266545
id541	sample1	obj181	2.41452204807314	-1.328703780856367	-2.0398999743894985	-2.455304147525199	-1.1593222114741129
id542	sample1	obj182	2.692446219911981	-0.833681352345781	-2.016319563927965	-2.5796615527090627	-1.3492123250545995
id543	sample1	obj183	3.000823934868258	-1.090040803352571	-2.643172089533656	-2.296118548622785	-1.51202319067177
id544	sample1	obj184	2.6271048489780107	-0.6852085649633884	-2.1491906399077534	-2.576645000218062	-1.67429455708793
id545	sample1	obj185	2.693998411658347	-0.8299769244004811	-2.109035391876208	-1.9062562135409142	-1.5935972570091126
id546	sample1	obj186	2.8912734140525744	-0.8956438757037058	-2.716354363939659	-2.4975817490720917	-1.3048697019613256
id547	sample1	obj187	2.645712560090957	-1.2927090168705533	-2.528363577710563	-2.129917783637162	-1.7400965182741346
id548	sample1	obj188	2.352437163036054	-0.6233835099459503	-2.350623310723267	-1.8358141311075458	-1.4529418674474814
id549	sample1	obj189	2.8912227416200356	-0.7584927847345642	-2.0526933202624926	-2.604838237524465	-1.3454630014068762
id550	sample1	obj190	3.0538339872593205	-0.8724641963199813	-2.3058225812451956	-2.334763900158922	-1.6059763510341114
id551	sample1	obj191	3.035473934225617	-0.839096068363497	-2.4276132301665045	-2.093643753229448	-1.377876046678784
id552	sample1	obj192	2.530322504236336	-0.9542896857021953	-2.0080357406192384	-2.3081390615465054	-1.5285541385496861
id553	sample1	obj193	2.765490608184511	-0.8059878213911708	-2.6661086056678323	-2.5976878335872993	-1.6028892758963025
id554	sample1	obj194	2.769694562258464	-1.2397954759883998	-2.624333410533591	-2.351689923425749	-1.741897143216966
id555	sample1	obj195	2.8752164945411147	-0.6422535525586454	-2.253439254269624	-2.2064670669859545	-1.3264183017228988
id556	sample1	obj196	2.879417540385654	-0.5410894756866745	-2.1854836014467978	-2.416411286765175	-1.4579980026884536
id557	sample1	obj197	3.0428668585072476	-1.0490725022812837	-2.6587212508265323	-2.513060908286783	-1.7917347806554924
id558	sample1	obj198	2.5851982408135865	-1.0889508877844223	-2.4702367619684735	-1.8779324281892789	-1.3536811215064102
id559	sample1	obj199	2.9797626348822126	-0.8524351418144213	-2.08697738546879	-1.878383476249681	-1.2607156328158764
id560	sample1	obj200	2.9791658478441088	-0.8749125385274329	-2.5048717844636856	-2.0766794535487847	-1.3535163949825102
id561	sample1	obj201	2.773522825710212	-0.6456233402394052	-2.1390144614437405	-2.2543795396726383	-1.4806901767947134
id562	sample1	obj202	3.0518784806842656	-1.303996229699826	-2.152783279263414	-2.018239131169171	-1.5490997199601122
id563	sample1	obj203	3.0773970646007855	-1.2678197291283702	-2.355079815444905	-2.278639613924369	-1.0843219255058498
id564	sample1	obj204	2.6837634350239514	-1.2565140139217885	-2.6649844685618733	-2.113196162103389	-1.1158089937376428
id565	sample1	obj205	3.0514269950054733	-0.8590558092690358	-2.301842949225088	-2.1302544061146436	-1.4910550725907181
id566	sample1	obj206	2.9380076749794783	-1.1846923685264146	-2.033492982251034	-2.400560682022138	-1.59673784436249
id567	sample1	obj207	2.840031148159075	-0.7465529062118548	-2.520841708436316	-2.1890707941879666	-1.274749782314419
id568	sample1	obj208	2.6883217157588697	-1.1722197991982926	-2.3356615345273046	-2.238745479052687	-1.207102610332384
id569	sample1	obj209	2.6745142582681427	-1.1073531518041115	-2.490126618752056	-1.8678568499879251	-1.7332241585494375
id570	sample1	obj210	2.8314055719743254	-0.9621621907732911	-2.7786083219844686	-1.9628968520687344	-1.471012657107194
id571	sample1	obj211	2.817908286732565	-0.6169818222197444	-2.1594305267877214	-1.88922607491098	-1.5415141984288558
id572	sample1	obj212	2.3753525952652366	-1.0110339533089758	-2.6489965992803013	-2.297226530509293	-1.3360870611108249
id573	sample1	obj213	2.723458629141491	-0.5337260137961595	-2.0027842736368457	-1.9565154675770555	-1.0917572302938994
id574	sample1	obj214	2.9616323664947193	-0.8541570682079727	-2.044505883708796	-2.3758359887499423	-1.3199950370063789
id575	sample1	obj215	2.7569752273063597	-0.8829583107710284	-2.491093157294116	-2.220155269995033	-1.818697696256162
id576	sample1	obj216	2.6697008469970376	-0.8697831389846161	-2.709431416544055	-2.465367754402332	-1.226591037507034
id577	sample1	obj217	2.8371745083140394	-0.5957779129822793	-2.6207826896660347	-1.9684124116031716	-1.2809081810009297
id578	sample1	obj218	2.6696916426618675	-0.7067982241011207	-2.117942269441059	-2.0976629572354764	-1.5279088367285152
id579	sample1	obj219	2.9770444738414925	-1.0210854798602054	-2.2432155646706295	-2.573733144229448	-1.4139120229142805
id580	sample1	obj220	2.630048842467116	-0.9931733207496778	-2.744621840403706	-1.9104470677559866	-1.8418734770824567
id581	sample1	obj221	2.5631714008537947	-0.7700516023134678	-2.023175910903984	-2.3032542202492996	-1.1924880302090282
id582	sample1	obj222	2.7533680646663066	-0.8696673461536091	-2.0330088782940914	-2.458910358472093	-1.2441828310886018
id583	sample1	obj223	2.688872715807369	-0.9667826463349172	-2.3133104226755554	-2.154395734181127	-1.5355311779695138
id584	sample1	obj224	2.705118460669045	-0.7956333613087525	-2.1189502114522627	-2.4008929512938653	-1.2364049218984472
id585	sample1	obj225	2.9608872884882427	-0.8688313398588527	-2.4650097290350854	-2.0037923650485614	-1.6579369336302936
id586	sample1	obj226	2.5163248105889093	-0.7511220884856734	-2.6866706930898037	-2.173228096082224	-1.8509304848529982
id587	sample1	obj227	2.9282801923567883	-0.8860435413187767	-2.3048072763639684	-2.260163771415582	-1.8200711198744894
id588	sample1	obj228	2.982695233211813	-1.2118210379848418	-2.6315592964207486	-2.3666413196336062	-1.4070142655774047
id589	sample1	obj229	3.036125362019949	-0.8660758589444574	-2.0889664582157885	-1.8890682778662677	-1.1464801156190374
id590	sample1	obj230	2.749085771108387	-0.9007110530459117	-2.074764071538979	-2.071446385384895	-1.6407322961920596
id591	sample1	obj231	2.785436139897878	-1.3297630199222592	-2.207520656196889	-2.329828133683001	-1.2815907932459767
id592	sample1	obj232	2.5595999630736683	-1.3226657700539064	-2.5207826707911547	-1.9061233284582142	-1.5152756913792977
id593	sample1	obj233	2.584719334647779	-0.9293574134303916	-2.4426248643876045	-2.0522580314591794	-1.1212428179415743
id594	sample1	obj234	2.870027514073166	-0.665563386180396	-2.370328489600684	-2.4557070325702113	-1.3765960888218292
id595	sample1	obj235	2.6074352949835524	-1.167506993004354	-2.294670631918295	-2.303172532825311	-1.1049897360299241
id596	sample1	obj236	2.360732235317612	-0.8038238111141393	-2.3968466097244745	-2.2367589571262165	-1.4530107675331267
id597	sample1	obj237	2.4235523096044753	-0.9546814951897636	-2.373210450728985	-2.5699917020638448	-1.1751993435905077
id598	sample1	obj238	3.0545060308166976	-0.8676280396754312	-2.3661472651006705	-2.470538142864481	-1.805969788430788
id599	sample1	obj239	2.452290248605432	-0.8976007606836653	-2.1083313759365483	-2.041108192184649	-1.705077141151138
id600	sample1	obj240	3.1889708932249405	-3.081066674359254	-2.5532600823294396	0.30365311379043164	-0.8364697950562098
id601	sample1	obj241	-0.6430408103510368	1.4599689388966817	2.3373585245509494	2.214737733125669	0.19792215620267728
id602	sample1	obj242	-2.7688280582708797	2.475281092143538	-1.3264302860395727	1.8746772962851306	-0.2281602530866753
id603	sample1	obj243	1.1586177643348377	-0.8514388731859408	2.1569889239781066	-0.7371670096022417	-0.8696559258238954
id604	sample1	obj244	-1.475838753328801	1.540218125960785	-2.229175967900114	1.3091301675600913	-0.8080546450299002
id605	sample1	obj245	1.8501790306781183	1.084111274080184	1.5186037916792974	1.490887418583966	-1.7485068635743448
id606	sample1	obj246	-0.5379364847068151	-1.4838191382603332	0.5386835971177435	-2.788093838799443	0.0870424603429919
id607	sample1	obj247	0.0633807952478167	-1.1507931075729858	-0.8832155725746836	-0.6739522769523332	2.386717075305733
id608	sample1	obj248	1.0243533754936123	1.0130377178356884	1.920491251056894	-2.5206424170634008	-0.18640138672556822
id609	sample1	obj249	-2.0223757378234724	-1.542474196263821	0.8320993454893715	1.9187795472480629	1.9544852150226508
id610	sample1	obj250	2.762046075319081	1.3528599852014696	3.0184296657048906	1.5277122215095327	1.3969119190699462
id611	sample1	obj251	-2.3465037913094937	0.2555519018052025	0.8123063778574604	-1.5509631105935897	-0.7493236864583555
id612	sample1	obj252	2.7480352974036406	-1.8076499750024595	0.23113070624274612	0.929913802577909	2.109952724927681
id613	sample1	obj253	1.1654452830090836	1.130394402692058	0.7807640183471972	-0.09158778250285682	1.089792081602095
id614	sample1	obj254	-2.668342090889748	-2.9290204412614003	-1.4318490604645162	-2.5358765705348314	-1.3030132202573912
id615	sample1	obj255	1.2292205580136741	1.4247375046481976	1.7110731080095056	2.446226570417912	3.0046882094097076
id616	sample1	obj256	-1.917285148101312	-1.0762795532914606	0.7673537539018523	-2.6295632381846947	2.25201747401697
id617	sample1	obj257	1.592143426346289	-0.635719889110578	-1.248332134044833	-1.2053278029815373	-2.0145280271685007
id618	sample1	obj258	2.056723926179668	-1.2632965497997752	2.87974927858874	-1.7540642658113903	0.8202983432986652
id619	sample1	obj259	0.48809467721195154	2.3118762433177498	-1.2344788949068706	1.335814220670008	0.835644331214992
id620	sample1	obj260	-0.6424036949007491	0.703072228722502	-0.967502154120175	0.0066292620262385915	2.6230405373991057
id621	sample1	obj261	-1.05862901153938	0.2224299171166364	0.14917419659545636	-0.6682839906570437	2.7139973659019336
id622	sample1	obj262	0.5689637082548129	-2.80819009478984	0.9310598634387874	1.7390021251127938	-1.1488016475797114
id623	sample1	obj263	-1.6723388197919329	-1.7138086380565727	2.7990607877381133	-0.1453400878108383	2.495056240714244
id624	sample1	obj264	-1.1199968110235128	3.017784131294813	-1.131382629449487	0.09089269090384411	-0.06963989260326564
id625	sample1	obj265	-1.3340793006272729	0.1743997552589831	-1.805076465918982	1.7301321242282002	3.006097320048862
id626	sample1	obj266	-0.6889362219970506	-2.253729111872678	-0.21612659160260117	1.654613765462427	0.4780139158165945
id627	sample1	obj267	1.8277337722873956	0.9554778793148739	2.1696290992853515	-2.9000987565590264	2.47834060059795
id628	sample1	obj268	0.27016733355724376	-2.5643489794626766	-2.1875966962173226	2.9242354860437607	2.965808460282074
id629	sample1	obj269	-2.977027604952892	1.1036852018125969	-2.86225497210853	2.341390851936824	2.3834043795927595
id630	sample1	obj270	-0.3787344434323302	-1.5200687284617467	-2.7666471508860297	1.5196171931981208	0.628096600902398
id631	sample1	obj271	3.0705336600936586	2.50299857886005	1.0739328966514443	2.8141016251558155	2.0194003975264754
id632	sample1	obj272	2.252992072816793	-2.47341609862964	-0.09979078386598916	-1.475785712354799	0.9455372536351357
id633	sample1	obj273	2.0152780213213144	-2.7589747845583013	1.9849270434984807	-0.22818147829562707	-1.2237728865719073
id634	sample1	obj274	-2.7072460333168236	2.0895301599386804	-1.2044256444130825	-1.8497350886298252	-0.8434324948235765
id635	sample1	obj275	-2.562136776860242	1.131164499733082	2.2301905187419697	-1.2352752577974049	-1.334936378975754
id636	sample1	obj276	2.1618770494255948	-1.3672163558351638	2.6555923490248134	-0.5017227682727248	-0.9558809009653058
id637	sample1	obj277	-2.239925854506476	0.5925342056721513	1.3471483944157896	-2.701428200277871	-2.432621820401369
id638	sample1	obj278	2.1158686021803943	-1.645583071667907	0.3164113641590843	1.5986618608378604	0.8002911326650424
id639	sample1	obj279	-2.282149918427002	-1.7909187062859402	-2.0357162798515165	-0.38478705659604695	-1.0251977896669804
id640	sample1	obj280	-1.6813181294572281	-0.2535176589885171	-3.254483092564106	2.8989851293708897	-1.1657314228686186
id641	sample1	obj281	-2.4928771152873392	-0.9092035811112168	-0.6172744121018731	2.1628155194169043	-1.2099029675100317
id642	sample1	obj282	-0.6236108073497244	1.543924390539678	0.49395518684019146	-1.7159745971704519	2.6613531676783757
id643	sample1	obj283	2.5596516654627743	1.136279077992615	-1.0761544673182795	-2.956067081051189	-2.815486585753004
id644	sample1	obj284	-1.424613152012701	1.5102062222737176	0.5565965827410774	0.387197683635342	-2.1474950545585427
id645	sample1	obj285	-0.06061437567856898	-1.431451878523751	2.5326915008516715	1.2305514271743807	0.9077174826395862
id646	sample1	obj286	2.760886611998961	-0.34853286405449235	0.42816373519222484	-0.723161243370392	0.14954112435544392
id647	sample1	obj287	1.9328724227733018	0.5626754557286511	2.156917001795203	2.0387331738345034	1.479004697098574
id648	sample1	obj288	0.2369941911411394	-1.9771261071615114	2.9204927900801647	1.891419717649591	2.4325670808477704
id649	sample1	obj289	0.9144515769677758	-1.2614503739462806	0.7565825097301228	-1.360731081508097	-0.7851640382792442
id650	sample1	obj290	-1.9896396685089144	3.015048857873381	0.7453997230740179	0.4723339396553666	-1.608929454250296
id651	sample1	obj291	-0.12069896488015164	1.6450603883096306	-2.683585459963635	-1.1211531126334364	0.6361812283364101
id652	sample1	obj292	-2.868303686380484	-1.0840995567078304	0.20781398614975832	1.3261135569610865	-0.7176273825319106
id653	sample1	obj293	2.841944899108779	-1.7402597199240768	-1.0903326819267227	-1.6111687941759767	1.024352052988148
id654	sample1	obj294	-0.6338777877916357	0.2709644568982982	2.0920174578584576	1.2706037451116485	1.4010278114692079
id655	sample1	obj295	0.7879393329823944	-3.1268807131717375	0.8887616751889389	1.5123526850706668	2.8367982150759308
id656	sample1	obj296	-0.046673184337305385	-1.1431587747057539	-0.18739900166526963	1.618891479294314	2.026801686053436
id657	sample1	obj297	1.2417486020126538	1.8787494985307513	-1.454286652301957	-2.2122580305554727	-1.5581460499822715
id658	sample1	obj298	-3.232883519382191	-3.1129005397136056	-2.1498697925636803	-1.026001991179714	-0.18026210045655655
id659	sample1	obj299	-2.7198500330205895	3.063251560877768	2.394645556383593	0.04639560934240072	-2.2230044331106082
id660	sample1	obj300	-2.627413614388092	1.8439646383202928	-2.535286595687292	-1.7038882393644341	-2.5024358837156977
id661	sample1	obj301	-2.510009080155662	0.7573245435593577	0.5852425846019628	-0.9688295752905313	0.2784385334303503
id662	sample1	obj302	3.2856031088713777	-0.26566785712487995	1.6001831776743285	-1.3816790961072243	1.3284992861591638
id663	sample1	obj303	-1.2398887163059609	-1.0038277248584915	0.6719676862945788	1.4888504461623073	0.0766937104760112
id664	sample1	obj304	-2.202471642206238	-1.8264942222830398	-2.364830550773115	-0.21148646548248706	-2.277100214057203
id665	sample1	obj305	2.7343475725186357	-2.56978432655849	-1.0424083905682782	-1.6351497510915554	-2.0848393136859613
id666	sample1	obj306	-0.9716348870709853	-2.5208426347848776	2.9389366336540483	2.372704605051568	0.7878608092459397
id667	sample1	obj307	-2.6333727911129112	0.06451960437522797	1.8256727670663422	2.714096844504016	1.5452888891762522
id668	sample1	obj308	-1.3397335707673734	2.7922099452170714	-1.4602751278090877	0.443130471027941	-1.4461595840410149
id669	sample1	obj309	-1.1526726014974777	0.9845508074713396	2.5059466288865373	2.8791987248812685	-3.0930840660500007
id670	sample1	obj310	-1.9166648926718999	-0.18224072229215418	-1.8420506407612698	-1.4261059447445654	2.881853193979305
id671	sample1	obj311	-2.344302158148679	2.1994268689648515	-0.7837588141445142	2.8720588430052483	2.1469460806910425
id672	sample1	obj312	-1.884143497461284	-2.30886464787272	-0.9012900261367618	-2.6351631565274465	0.6602507874131014
id673	sample1	obj313	1.6858130334305903	0.010707527897171443	-1.662113651502239	3.1807403606529636	-2.3993260919234416
id674	sample1	obj314	3.0567696504075133	-2.0786305660450455	1.7966384711094876	-2.095962224350753	-0.19568149475147678
id675	sample1	obj315	2.2491184434706546	-1.1397501867995337	-0.44175364315876897	2.7186461336545236	-1.8988557291142285
id676	sample1	obj316	-1.739215038782234	2.8525443237289254	-0.5236199211118776	-2.5395115391838714	-1.561153290424513
id677	sample1	obj317	3.037240019216311	-2.1538187316546673	-1.1901766797010795	-1.9968490023621754	-3.1574169597934505
id678	sample1	obj318	0.12383610335430717	2.3248543118179565	2.405472536866756	-1.2230634031402676	1.8887178465219534
id679	sample1	obj319	-0.0972700285388845	-1.2006241390071652	-0.5875150138924123	-2.782781882566466	0.05999205504581581
id680	sample1	obj320	-0.987517230766471	2.030070444948308	0.3007684283705333	-1.5792740280906008	3.1968752837182026
id681	sample1	obj321	-0.742591351669714	2.6179313344338624	-1.9479060249164084	2.6479729830613965	-1.4394176445947475
id682	sample1	obj322	-1.6942902823471884	-2.3349094694275645	-0.2111564730352991	0.8660657675487562	-1.5394692108329353
id683	sample1	obj323	2.578808728811632	2.6542764779148897	0.6797973667524593	2.4446773017414336	-0.8778118020237924
id684	sample1	obj324	0.8377680092997221	1.3232081496319468	-2.844736729026171	0.04912446379079205	-1.9908747438994552
id685	sample1	obj325	-1.6579707879386414	-1.6148326854975261	0.3723083956418809	0.5852893253450919	-1.9662382571575372
id686	sample1	obj326	1.4890130419769956	-1.4372106030342413	-1.2563556572748964	-1.9114591796374585	-2.0184051477422726
id687	sample1	obj327	-1.8495623126184897	1.9716966272284542	-1.8581951541203394	2.732282492310789	-1.2256379605446073
id688	sample1	obj328	1.7771044846041155	-3.099466551783117	1.6358679724485836	-1.2645234760809594	1.2924209467887326
id689	sample1	obj329	1.8237118500369247	1.6935291013666192	1.6179269964217609	-0.20262600355559351	-1.0031761115386968
id690	sample1	obj330	1.7186653522655144	-0.45895335486884636	2.2685639932781863	0.2525597186959424	-2.0415328815852045
id691	sample1	obj331	-1.47843728015637	-0.5658879331006748	-2.1565988632974205	-0.5197442825829119	1.0938889352853232
id692	sample1	obj332	0.48304689044888427	-0.6680790043111677	-1.4166638811019676	1.5696081045259116	-2.399264410151354
id693	sample1	obj333	-1.351776709065517	-0.7269080966282075	1.2348951038497482	-0.28642536051347345	-0.02239272882920701
id694	sample1	obj334	-0.4770567338492323	-2.214000485853339	-0.2094019074590026	0.381712023956773	1.702125758430427
id695	sample1	obj335	-2.3852014486834574	1.836316602147952	0.573943845405127	0.006742112737865624	-0.6968683666743113
id696	sample1	obj336	-0.12477083187481308	-0.591618716003331	-0.5728934914144089	-1.1957634402836084	1.4155481875115734
id697	sample1	obj337	-1.3415610464995016	-2.1533850589324324	-0.6724781906735482	-1.1375836627325473	-1.172256222676589
id698	sample1	obj338	1.4697870375968676	-0.42041565377480306	-2.860745851767642	-1.152093480234305	-2.345938535977465
id699	sample1	obj339	-2.14009463271086	-1.4497609873057788	0.2786992905808601	0.7256678276150444	0.8334250777851094
id700	sample1	obj340	1.910737816861717	-2.340993707276314	-1.6817995256682567	1.6999868111843242	2.7900460609814046
id701	sample1	obj341	1.9015311397620325	-2.3390606692945406	-0.8943495574991266	0.05714857564852016	1.8811282802568767
id702	sample1	obj342	-1.593875582177715	-0.6285030532033545	-0.40458195278702896	1.075526023783687	1.2340455112734317
id703	sample1	obj343	2.3092174262073044	0.6188211873161656	-1.8807913813219346	2.6945206523903447	-0.962028013086314
id704	sample1	obj344	-0.3223089174192644	1.8178648833154563	-1.1190256899115836	-2.3772059950228894	1.8022679691598298
id705	sample1	obj345	2.6745422778025874	-2.1865818501549366	-2.501471034894674	-1.7663059016464338	-3.038007413073612
id706	sample1	obj346	1.0972151504212575	1.1070665032896225	2.950831228670412	1.122779060851296	1.4175945352733441
id707	sample1	obj347	1.512166647763306	-0.7649755022078155	-1.2991549407829937	1.132068993960718	1.586185302677125
id708	sample1	obj348	0.9413374002077738	2.849552527921657	-2.6211410725760595	0.4135292181717973	2.2812583255684227
id709	sample1	obj349	-1.9644001534519953	-1.4832457640318457	-2.179356009950421	-2.4248095140743047	-1.2360202730029919
id710	sample1	obj350	2.860754650352689	0.18986455868557017	2.5356122975526714	-2.697923017471035	-1.8836151987735041
id711	sample1	obj351	0.99940001372274	-1.2102335425905146	-1.1020507512967916	-1.7224865070563065	-1.8221351226430358
id712	sample1	obj352	-1.394036090674992	1.2104589790636442	-0.7330515827459181	0.7117924143815259	-0.6082057648395637
id713	sample1	obj353	2.6326431412097975	-1.2704014108903028	1.7931468877897387	-1.5149480516862341	0.13372933673371212
id714	sample1	obj354	-1.9192885509959199	2.1324787178179667	1.405242163862533	-0.23037471783836416	-1.6873930400158976
id715	sample1	obj355	1.4578506764136479	2.912821899495857	2.131533182501075	2.1465524431257434	-2.866037276779925
id716	sample1	obj356	2.3023933547864948	1.6036752268858858	-2.3054633045619575	-2.309570371100112	0.3972283513178697
id717	sample1	obj357	-2.461362657294523	-0.12324752056875365	2.355353213741544	-2.2892896343871083	1.1170905513952747
id718	sample1	obj358	1.5886046177150324	1.3359906310520866	-0.47508584819672867	1.6952742585030698	1.9884833225789322
id719	sample1	obj359	0.6214839557213512	0.38346037913879294	-1.3083448996237197	0.33632812267970214	-1.9484576042142794
