	-2.717202185865755	-1.0928238112087652	-1.4168594725965447	2.0238177167330416	-1.7547093757837011
	0.27620527926105387	-2.1215024873479074	1.8895697361036667	2.6930184476358114	2.488502944940567
	1.8839697684181425	0.17510112724041882	-1.1808442261363403	-0.4155288790152225	1.7662117687966639
