obj0	obj0
obj0	obj3
obj0	obj8
obj0	obj12
obj0	obj105
obj0	obj129
obj0	obj202
obj0	obj213
obj0	obj256
obj0	obj313
obj0	obj338
obj1	obj1
obj1	obj13
obj1	obj99
obj1	obj187
obj2	obj2
obj2	obj71
obj2	obj116
obj2	obj334
obj3	obj3
obj3	obj67
obj3	obj81
obj3	obj120
obj3	obj185
obj4	obj4
obj4	obj28
obj4	obj32
obj4	obj48
obj4	obj63
obj4	obj162
obj4	obj232
obj4	obj312
obj5	obj5
obj5	obj13
obj5	obj59
obj5	obj114
obj5	obj157
obj5	obj257
obj5	obj326
obj5	obj353
obj6	obj6
obj6	obj93
obj6	obj167
obj7	obj7
obj7	obj44
obj7	obj45
obj7	obj82
obj7	obj87
obj7	obj255
obj7	obj309
obj7	obj335
obj8	obj8
obj8	obj47
obj8	obj60
obj8	obj97
obj8	obj112
obj8	obj344
obj8	obj358
obj9	obj9
obj9	obj11
obj9	obj125
obj9	obj153
obj9	obj242
obj9	obj313
obj10	obj10
obj10	obj41
obj10	obj63
obj10	obj143
obj10	obj236
obj10	obj267
obj11	obj11
obj11	obj65
obj11	obj73
obj11	obj90
obj11	obj93
obj11	obj130
obj12	obj12
obj12	obj155
obj12	obj253
obj12	obj268
obj13	obj13
obj13	obj25
obj13	obj216
obj13	obj343
obj14	obj14
obj14	obj29
obj14	obj72
obj14	obj104
obj14	obj127
obj14	obj357
obj15	obj15
obj15	obj23
obj15	obj41
obj15	obj66
obj15	obj100
obj15	obj150
obj15	obj224
obj15	obj302
obj16	obj16
obj16	obj245
obj16	obj285
obj17	obj17
obj17	obj71
obj17	obj134
obj17	obj155
obj17	obj295
obj18	obj18
obj18	obj35
obj18	obj217
obj18	obj243
obj18	obj300
obj18	obj308
obj19	obj19
obj19	obj59
obj19	obj293
obj19	obj334
obj20	obj20
obj20	obj141
obj20	obj143
obj20	obj227
obj20	obj333
obj21	obj21
obj21	obj29
obj21	obj63
obj21	obj87
obj22	obj22
obj22	obj311
obj22	obj339
obj23	obj23
obj23	obj36
obj23	obj67
obj23	obj68
obj23	obj88
obj23	obj94
obj23	obj148
obj24	obj24
obj24	obj217
obj24	obj320
obj25	obj25
obj25	obj332
obj25	obj333
obj26	obj26
obj26	obj76
obj26	obj206
obj26	obj261
obj27	obj27
obj27	obj173
obj27	obj242
obj27	obj243
obj28	obj28
obj28	obj60
obj28	obj100
obj28	obj168
obj29	obj29
obj29	obj46
obj29	obj58
obj29	obj74
obj29	obj280
obj30	obj30
obj30	obj36
obj30	obj77
obj30	obj98
obj30	obj128
obj30	obj343
obj30	obj356
obj31	obj31
obj31	obj33
obj31	obj47
obj31	obj108
obj31	obj140
obj32	obj32
obj32	obj244
obj32	obj255
obj33	obj33
obj33	obj73
obj33	obj141
obj34	obj34
obj34	obj181
obj34	obj357
obj35	obj35
obj35	obj77
obj35	obj115
obj35	obj133
obj35	obj238
obj36	obj36
obj36	obj182
obj36	obj255
obj37	obj37
obj37	obj259
obj37	obj283
obj38	obj38
obj38	obj63
obj38	obj80
obj38	obj95
obj38	obj329
obj39	obj39
obj39	obj50
obj39	obj326
obj40	obj40
obj40	obj77
obj40	obj125
obj40	obj301
obj40	obj317
obj41	obj41
obj41	obj85
obj41	obj109
obj41	obj124
obj41	obj278
obj41	obj341
obj41	obj357
obj42	obj42
obj43	obj43
obj43	obj115
obj43	obj209
obj44	obj44
obj44	obj46
obj44	obj90
obj44	obj134
obj44	obj138
obj45	obj45
obj45	obj164
obj46	obj46
obj46	obj230
obj47	obj47
obj47	obj60
obj47	obj109
obj47	obj148
obj48	obj48
obj48	obj105
obj48	obj112
obj48	obj203
obj48	obj231
obj49	obj49
obj49	obj60
obj49	obj85
obj49	obj255
obj49	obj328
obj50	obj50
obj50	obj285
obj50	obj289
obj50	obj343
obj51	obj51
obj51	obj131
obj51	obj134
obj51	obj144
obj51	obj205
obj51	obj212
obj51	obj254
obj52	obj52
obj52	obj112
obj52	obj327
obj52	obj329
obj52	obj356
obj53	obj53
obj53	obj69
obj54	obj54
obj54	obj182
obj54	obj246
obj54	obj253
obj54	obj286
obj54	obj322
obj54	obj351
obj55	obj55
obj55	obj70
obj55	obj99
obj55	obj146
obj55	obj202
obj55	obj252
obj56	obj56
obj56	obj62
obj56	obj146
obj57	obj57
obj57	obj76
obj57	obj120
obj57	obj129
obj57	obj139
obj57	obj170
obj57	obj188
obj57	obj254
obj57	obj260
obj57	obj283
obj57	obj287
obj58	obj58
obj58	obj206
obj58	obj250
obj58	obj291
obj59	obj59
obj59	obj110
obj59	obj138
obj59	obj146
obj59	obj349
obj60	obj60
obj60	obj112
obj60	obj123
obj60	obj147
obj60	obj148
obj61	obj61
obj61	obj110
obj61	obj134
obj62	obj62
obj62	obj81
obj62	obj154
obj62	obj310
obj63	obj63
obj63	obj91
obj63	obj127
obj64	obj64
obj64	obj93
obj65	obj65
obj65	obj188
obj65	obj314
obj66	obj66
obj66	obj107
obj66	obj115
obj66	obj132
obj66	obj151
obj66	obj241
obj66	obj291
obj67	obj67
obj67	obj100
obj67	obj157
obj67	obj195
obj67	obj214
obj68	obj68
obj68	obj82
obj68	obj140
obj69	obj69
obj69	obj76
obj69	obj246
obj69	obj253
obj69	obj259
obj70	obj70
obj70	obj78
obj70	obj143
obj70	obj240
obj70	obj323
obj70	obj337
obj71	obj71
obj71	obj128
obj72	obj72
obj72	obj92
obj73	obj73
obj73	obj74
obj73	obj250
obj73	obj313
obj74	obj74
obj75	obj75
obj75	obj309
obj75	obj313
obj76	obj76
obj76	obj93
obj76	obj322
obj77	obj77
obj77	obj146
obj77	obj152
obj78	obj78
obj78	obj87
obj78	obj114
obj78	obj141
obj78	obj320
obj79	obj79
obj79	obj119
obj79	obj208
obj79	obj279
obj79	obj310
obj79	obj325
obj79	obj329
obj80	obj80
obj80	obj141
obj80	obj261
obj80	obj330
obj81	obj81
obj81	obj126
obj81	obj140
obj81	obj255
obj81	obj274
obj82	obj82
obj82	obj84
obj82	obj143
obj83	obj83
obj83	obj93
obj83	obj279
obj83	obj312
obj83	obj320
obj84	obj84
obj84	obj99
obj84	obj148
obj84	obj159
obj84	obj198
obj84	obj312
obj84	obj348
obj85	obj85
obj85	obj95
obj85	obj108
obj86	obj86
obj86	obj159
obj87	obj87
obj87	obj95
obj87	obj109
obj88	obj88
obj88	obj219
obj88	obj297
obj88	obj352
obj89	obj89
obj89	obj92
obj89	obj131
obj89	obj290
obj90	obj90
obj90	obj146
obj90	obj157
obj90	obj173
obj90	obj298
obj91	obj91
obj91	obj93
obj91	obj170
obj91	obj217
obj91	obj222
obj91	obj291
obj91	obj321
obj92	obj92
obj92	obj120
obj92	obj145
obj92	obj163
obj92	obj292
obj92	obj300
obj92	obj354
obj93	obj93
obj94	obj94
obj94	obj158
obj94	obj188
obj94	obj313
obj94	obj314
obj95	obj95
obj95	obj136
obj95	obj286
obj95	obj334
obj96	obj96
obj96	obj351
obj97	obj97
obj98	obj98
obj98	obj103
obj98	obj308
obj99	obj99
obj99	obj159
obj99	obj285
obj100	obj100
obj100	obj244
obj101	obj101
obj101	obj141
obj101	obj165
obj101	obj268
obj101	obj272
obj101	obj342
obj102	obj102
obj102	obj103
obj102	obj123
obj102	obj284
obj102	obj347
obj103	obj103
obj104	obj104
obj104	obj132
obj104	obj135
obj104	obj200
obj104	obj243
obj104	obj244
obj104	obj247
obj104	obj270
obj105	obj105
obj105	obj115
obj105	obj221
obj105	obj255
obj106	obj106
obj106	obj114
obj106	obj176
obj106	obj233
obj106	obj314
obj106	obj348
obj106	obj353
obj107	obj107
obj107	obj132
obj107	obj173
obj107	obj198
obj107	obj357
obj108	obj108
obj108	obj159
obj108	obj241
obj108	obj253
obj108	obj254
obj108	obj300
obj109	obj109
obj109	obj139
obj110	obj110
obj110	obj169
obj110	obj321
obj111	obj111
obj111	obj206
obj111	obj283
obj112	obj112
obj112	obj115
obj113	obj113
obj113	obj123
obj113	obj127
obj113	obj148
obj114	obj114
obj114	obj252
obj114	obj284
obj115	obj115
obj115	obj134
obj116	obj116
obj116	obj129
obj116	obj153
obj116	obj261
obj117	obj117
obj117	obj298
obj117	obj307
obj118	obj118
obj118	obj135
obj118	obj143
obj118	obj241
obj119	obj119
obj119	obj215
obj120	obj120
obj120	obj291
obj120	obj301
obj121	obj121
obj121	obj172
obj121	obj315
obj121	obj341
obj122	obj122
obj122	obj134
obj122	obj203
obj122	obj261
obj123	obj123
obj123	obj140
obj123	obj148
obj123	obj161
obj123	obj244
obj123	obj256
obj124	obj124
obj124	obj256
obj124	obj354
obj125	obj125
obj125	obj133
obj125	obj182
obj125	obj208
obj125	obj276
obj125	obj281
obj125	obj356
obj126	obj126
obj126	obj131
obj126	obj321
obj126	obj324
obj127	obj127
obj127	obj322
obj128	obj128
obj128	obj136
obj128	obj296
obj129	obj129
obj129	obj136
obj129	obj169
obj129	obj191
obj129	obj263
obj130	obj130
obj130	obj140
obj131	obj131
obj132	obj132
obj132	obj140
obj132	obj201
obj133	obj133
obj133	obj297
obj134	obj134
obj134	obj158
obj134	obj235
obj134	obj272
obj134	obj340
obj135	obj135
obj135	obj250
obj135	obj283
obj135	obj321
obj136	obj136
obj136	obj143
obj136	obj161
obj136	obj301
obj136	obj313
obj136	obj337
obj137	obj137
obj138	obj138
obj138	obj260
obj138	obj269
obj138	obj327
obj138	obj328
obj138	obj350
obj139	obj139
obj140	obj140
obj140	obj156
obj140	obj289
obj140	obj309
obj141	obj141
obj141	obj330
obj142	obj142
obj142	obj155
obj142	obj236
obj142	obj265
obj143	obj143
obj143	obj175
obj143	obj247
obj144	obj144
obj144	obj171
obj144	obj176
obj145	obj145
obj145	obj158
obj145	obj294
obj145	obj339
obj146	obj146
obj146	obj192
obj146	obj257
obj146	obj309
obj147	obj147
obj147	obj179
obj147	obj276
obj147	obj298
obj147	obj307
obj148	obj148
obj148	obj166
obj149	obj149
obj149	obj251
obj149	obj266
obj150	obj150
obj150	obj254
obj150	obj287
obj150	obj321
obj151	obj151
obj152	obj152
obj152	obj331
obj153	obj153
obj153	obj222
obj153	obj248
obj153	obj298
obj154	obj154
obj154	obj225
obj154	obj337
obj155	obj155
obj155	obj162
obj155	obj320
obj156	obj156
obj156	obj212
obj156	obj294
obj156	obj295
obj156	obj351
obj157	obj157
obj157	obj257
obj158	obj158
obj158	obj258
obj159	obj159
obj160	obj160
obj160	obj191
obj160	obj259
obj160	obj276
obj160	obj304
obj161	obj161
obj161	obj233
obj161	obj272
obj161	obj295
obj161	obj351
obj162	obj162
obj162	obj216
obj162	obj258
obj162	obj287
obj162	obj334
obj163	obj163
obj163	obj177
obj163	obj202
obj163	obj213
obj164	obj164
obj164	obj179
obj164	obj235
obj164	obj273
obj164	obj313
obj165	obj165
obj165	obj305
obj166	obj166
obj166	obj223
obj166	obj237
obj166	obj238
obj166	obj326
obj167	obj167
obj167	obj201
obj167	obj280
obj167	obj300
obj168	obj168
obj169	obj169
obj170	obj170
obj170	obj171
obj170	obj197
obj170	obj237
obj170	obj264
obj171	obj171
obj171	obj215
obj171	obj321
obj172	obj172
obj172	obj200
obj172	obj235
obj172	obj286
obj173	obj173
obj173	obj176
obj173	obj229
obj174	obj174
obj174	obj307
obj175	obj175
obj175	obj181
obj175	obj237
obj176	obj176
obj177	obj177
obj177	obj197
obj177	obj215
obj177	obj237
obj178	obj178
obj178	obj188
obj179	obj179
obj179	obj185
obj179	obj189
obj179	obj193
obj179	obj259
obj179	obj321
obj179	obj322
obj179	obj328
obj180	obj180
obj180	obj326
obj181	obj181
obj182	obj182
obj182	obj304
obj182	obj333
obj183	obj183
obj183	obj197
obj183	obj334
obj184	obj184
obj184	obj192
obj184	obj331
obj185	obj185
obj185	obj295
obj186	obj186
obj186	obj195
obj186	obj309
obj187	obj187
obj188	obj188
obj188	obj236
obj188	obj313
obj189	obj189
obj189	obj195
obj189	obj269
obj190	obj190
obj190	obj261
obj190	obj298
obj191	obj191
obj191	obj221
obj191	obj236
obj191	obj358
obj192	obj192
obj192	obj221
obj192	obj242
obj192	obj308
obj193	obj193
obj193	obj265
obj193	obj266
obj193	obj269
obj194	obj194
obj195	obj195
obj195	obj294
obj195	obj334
obj196	obj196
obj196	obj204
obj196	obj219
obj197	obj197
obj197	obj283
obj197	obj286
obj197	obj305
obj198	obj198
obj198	obj233
obj198	obj354
obj199	obj199
obj199	obj253
obj199	obj286
obj200	obj200
obj200	obj205
obj201	obj201
obj201	obj211
obj201	obj306
obj202	obj202
obj202	obj224
obj202	obj239
obj202	obj349
obj203	obj203
obj204	obj204
obj204	obj250
obj204	obj257
obj205	obj205
obj205	obj241
obj205	obj251
obj205	obj262
obj206	obj206
obj206	obj251
obj206	obj295
obj207	obj207
obj207	obj291
obj207	obj311
obj207	obj341
obj208	obj208
obj208	obj233
obj208	obj244
obj208	obj264
obj208	obj287
obj208	obj289
obj208	obj317
obj209	obj209
obj209	obj340
obj210	obj210
obj211	obj211
obj211	obj212
obj212	obj212
obj213	obj213
obj213	obj215
obj214	obj214
obj214	obj228
obj214	obj330
obj215	obj215
obj215	obj278
obj215	obj279
obj216	obj216
obj216	obj296
obj216	obj310
obj216	obj331
obj216	obj334
obj216	obj339
obj217	obj217
obj218	obj218
obj218	obj226
obj218	obj255
obj219	obj219
obj219	obj227
obj219	obj298
obj220	obj220
obj220	obj281
obj220	obj284
obj221	obj221
obj221	obj228
obj222	obj222
obj222	obj230
obj222	obj287
obj223	obj223
obj224	obj224
obj225	obj225
obj225	obj316
obj226	obj226
obj226	obj257
obj227	obj227
obj227	obj290
obj228	obj228
obj229	obj229
obj229	obj256
obj230	obj230
obj230	obj306
obj230	obj353
obj231	obj231
obj232	obj232
obj233	obj233
obj233	obj287
obj234	obj234
obj234	obj271
obj234	obj325
obj235	obj235
obj235	obj316
obj236	obj236
obj236	obj292
obj237	obj237
obj237	obj349
obj238	obj238
obj239	obj239
obj240	obj240
obj240	obj309
obj241	obj241
obj242	obj242
obj242	obj333
obj243	obj243
obj243	obj292
obj243	obj300
obj244	obj244
obj245	obj245
obj245	obj274
obj245	obj335
obj245	obj348
obj246	obj246
obj247	obj247
obj247	obj253
obj248	obj248
obj248	obj253
obj248	obj326
obj249	obj249
obj249	obj253
obj249	obj257
obj250	obj250
obj251	obj251
obj252	obj252
obj253	obj253
obj253	obj296
obj253	obj326
obj254	obj254
obj254	obj317
obj254	obj348
obj255	obj255
obj256	obj256
obj256	obj282
obj257	obj257
obj258	obj258
obj259	obj259
obj260	obj260
obj260	obj269
obj261	obj261
obj261	obj306
obj262	obj262
obj262	obj287
obj263	obj263
obj263	obj298
obj263	obj349
obj264	obj264
obj265	obj265
obj265	obj350
obj266	obj266
obj266	obj278
obj266	obj282
obj266	obj342
obj267	obj267
obj267	obj310
obj268	obj268
obj269	obj269
obj269	obj303
obj270	obj270
obj271	obj271
obj271	obj275
obj271	obj302
obj272	obj272
obj273	obj273
obj273	obj291
obj273	obj321
obj273	obj356
obj274	obj274
obj275	obj275
obj276	obj276
obj276	obj345
obj277	obj277
obj277	obj340
obj278	obj278
obj278	obj339
obj279	obj279
obj279	obj292
obj280	obj280
obj280	obj289
obj280	obj314
obj281	obj281
obj282	obj282
obj282	obj287
obj282	obj309
obj283	obj283
obj283	obj341
obj283	obj346
obj284	obj284
obj285	obj285
obj286	obj286
obj286	obj292
obj286	obj297
obj286	obj353
obj287	obj287
obj288	obj288
obj289	obj289
obj289	obj292
obj289	obj359
obj290	obj290
obj290	obj304
obj291	obj291
obj292	obj292
obj293	obj293
obj293	obj332
obj294	obj294
obj295	obj295
obj295	obj319
obj296	obj296
obj297	obj297
obj297	obj355
obj298	obj298
obj298	obj313
obj299	obj299
obj300	obj300
obj301	obj301
obj301	obj337
obj302	obj302
obj303	obj303
obj304	obj304
obj305	obj305
obj305	obj306
obj305	obj322
obj306	obj306
obj306	obj356
obj307	obj307
obj307	obj324
obj308	obj308
obj309	obj309
obj309	obj319
obj309	obj322
obj310	obj310
obj310	obj318
obj311	obj311
obj312	obj312
obj312	obj327
obj313	obj313
obj313	obj324
obj313	obj326
obj314	obj314
obj315	obj315
obj316	obj316
obj316	obj318
obj316	obj337
obj317	obj317
obj317	obj332
obj318	obj318
obj318	obj329
obj319	obj319
obj319	obj346
obj319	obj356
obj320	obj320
obj321	obj321
obj322	obj322
obj322	obj324
obj322	obj331
obj323	obj323
obj324	obj324
obj325	obj325
obj326	obj326
obj326	obj345
obj327	obj327
obj328	obj328
obj329	obj329
obj329	obj348
obj329	obj352
obj330	obj330
obj330	obj343
obj331	obj331
obj332	obj332
obj333	obj333
obj333	obj351
obj334	obj334
obj335	obj335
obj336	obj336
obj337	obj337
obj338	obj338
obj339	obj339
obj340	obj340
obj341	obj341
obj342	obj342
obj343	obj343
obj344	obj344
obj345	obj345
obj346	obj346
obj347	obj347
obj348	obj348
obj349	obj349
obj350	obj350
obj351	obj351
obj352	obj352
obj353	obj353
obj354	obj354
obj355	obj355
obj356	obj356
obj357	obj357
obj358	obj358
obj359	obj359
