obj1	obj15
obj90	obj1
obj1	obj124
obj1	obj172
obj226	obj1
obj340	obj1
obj24	obj2
obj266	obj2
obj179	obj3
obj180	obj3
obj3	obj183
obj3	obj224
obj319	obj3
obj330	obj3
obj347	obj4
obj10	obj5
obj139	obj5
obj57	obj6
obj6	obj67
obj80	obj6
obj243	obj6
obj268	obj6
obj6	obj280
obj51	obj7
obj7	obj308
obj128	obj8
obj191	obj8
obj9	obj37
obj9	obj47
obj9	obj48
obj9	obj157
obj10	obj168
obj10	obj353
obj5	obj11
obj11	obj102
obj239	obj11
obj330	obj11
obj12	obj19
obj123	obj12
obj155	obj12
obj12	obj258
obj12	obj318
obj13	obj16
obj253	obj13
obj13	obj303
obj338	obj13
obj14	obj172
obj194	obj14
obj196	obj14
obj14	obj308
obj15	obj144
obj15	obj154
obj15	obj167
obj191	obj16
obj209	obj16
obj16	obj245
obj17	obj138
obj353	obj17
obj43	obj18
obj54	obj18
obj18	obj109
obj217	obj18
obj348	obj18
obj19	obj130
obj169	obj19
obj180	obj19
obj19	obj225
obj19	obj233
obj259	obj20
obj20	obj261
obj20	obj274
obj20	obj292
obj232	obj21
obj22	obj100
obj147	obj22
obj22	obj182
obj184	obj22
obj22	obj220
obj263	obj22
obj348	obj22
obj23	obj1
obj59	obj23
obj150	obj23
obj212	obj23
obj272	obj23
obj24	obj123
obj24	obj262
obj283	obj24
obj24	obj300
obj303	obj24
obj25	obj105
obj232	obj25
obj303	obj25
obj318	obj25
obj25	obj353
obj26	obj12
obj26	obj107
obj204	obj26
obj315	obj26
obj142	obj27
obj27	obj192
obj351	obj27
obj88	obj28
obj28	obj235
obj286	obj28
obj91	obj29
obj104	obj29
obj135	obj29
obj29	obj142
obj5	obj30
obj127	obj30
obj252	obj30
obj287	obj30
obj30	obj289
obj31	obj146
obj31	obj278
obj294	obj31
obj299	obj31
obj223	obj32
obj32	obj255
obj32	obj271
obj32	obj275
obj5	obj33
obj57	obj33
obj33	obj220
obj260	obj33
obj35	obj2
obj118	obj35
obj201	obj35
obj36	obj197
obj295	obj36
obj88	obj37
obj215	obj37
obj37	obj232
obj37	obj237
obj292	obj37
obj324	obj37
obj39	obj38
obj38	obj224
obj39	obj8
obj39	obj72
obj79	obj39
obj39	obj114
obj146	obj40
obj275	obj40
obj351	obj40
obj41	obj32
obj62	obj41
obj41	obj72
obj41	obj142
obj41	obj266
obj62	obj42
obj145	obj42
obj42	obj187
obj43	obj94
obj174	obj43
obj258	obj43
obj44	obj17
obj44	obj102
obj44	obj280
obj296	obj44
obj248	obj45
obj46	obj122
obj46	obj208
obj264	obj46
obj16	obj47
obj47	obj28
obj47	obj130
obj47	obj253
obj270	obj47
obj33	obj48
obj89	obj48
obj118	obj48
obj48	obj311
obj48	obj334
obj49	obj126
obj184	obj49
obj260	obj49
obj298	obj49
obj49	obj354
obj0	obj50
obj203	obj50
obj206	obj50
obj50	obj212
obj231	obj50
obj251	obj50
obj51	obj48
obj90	obj51
obj51	obj165
obj61	obj52
obj104	obj52
obj138	obj52
obj52	obj165
obj85	obj53
obj53	obj102
obj53	obj124
obj127	obj53
obj53	obj136
obj53	obj162
obj188	obj53
obj54	obj7
obj54	obj16
obj54	obj32
obj79	obj54
obj54	obj90
obj54	obj238
obj54	obj271
obj54	obj283
obj210	obj55
obj55	obj219
obj354	obj55
obj56	obj83
obj56	obj84
obj56	obj150
obj195	obj56
obj253	obj56
obj57	obj133
obj328	obj57
obj58	obj10
obj59	obj2
obj224	obj59
obj235	obj59
obj247	obj59
obj328	obj59
obj59	obj331
obj11	obj60
obj60	obj156
obj60	obj167
obj262	obj60
obj274	obj60
obj289	obj60
obj61	obj42
obj44	obj61
obj50	obj61
obj57	obj61
obj76	obj61
obj140	obj61
obj148	obj61
obj61	obj166
obj61	obj299
obj61	obj321
obj63	obj57
obj148	obj63
obj63	obj349
obj64	obj16
obj32	obj64
obj64	obj37
obj64	obj205
obj217	obj64
obj64	obj233
obj65	obj104
obj65	obj248
obj65	obj323
obj66	obj169
obj66	obj206
obj280	obj66
obj66	obj350
obj282	obj67
obj68	obj75
obj68	obj103
obj142	obj68
obj178	obj68
obj265	obj68
obj286	obj68
obj330	obj68
obj46	obj69
obj79	obj69
obj147	obj69
obj274	obj69
obj304	obj69
obj70	obj5
obj151	obj70
obj70	obj154
obj104	obj71
obj314	obj71
obj72	obj64
obj208	obj72
obj245	obj72
obj90	obj73
obj109	obj73
obj73	obj159
obj73	obj164
obj73	obj315
obj74	obj80
obj210	obj74
obj74	obj272
obj75	obj107
obj75	obj120
obj75	obj135
obj75	obj76
obj254	obj77
obj77	obj281
obj141	obj78
obj234	obj78
obj79	obj91
obj79	obj111
obj79	obj147
obj79	obj207
obj220	obj79
obj295	obj79
obj80	obj9
obj66	obj80
obj80	obj150
obj202	obj80
obj80	obj276
obj303	obj81
obj82	obj4
obj138	obj82
obj82	obj228
obj82	obj312
obj82	obj314
obj83	obj11
obj83	obj53
obj83	obj176
obj83	obj226
obj279	obj83
obj83	obj311
obj83	obj323
obj84	obj112
obj84	obj136
obj84	obj238
obj84	obj287
obj85	obj82
obj108	obj85
obj85	obj149
obj86	obj62
obj86	obj94
obj170	obj86
obj200	obj87
obj305	obj87
obj88	obj35
obj126	obj88
obj143	obj88
obj234	obj88
obj88	obj302
obj89	obj275
obj310	obj89
obj90	obj259
obj90	obj351
obj91	obj60
obj91	obj159
obj352	obj91
obj100	obj92
obj92	obj117
obj92	obj223
obj92	obj238
obj269	obj92
obj92	obj327
obj92	obj353
obj92	obj356
obj87	obj93
obj93	obj98
obj274	obj93
obj353	obj93
obj94	obj18
obj178	obj94
obj94	obj339
obj356	obj94
obj95	obj145
obj95	obj296
obj95	obj331
obj12	obj96
obj31	obj96
obj96	obj43
obj96	obj101
obj324	obj96
obj129	obj97
obj180	obj97
obj97	obj225
obj244	obj97
obj16	obj98
obj155	obj98
obj98	obj232
obj98	obj252
obj270	obj98
obj99	obj208
obj99	obj235
obj100	obj111
obj174	obj100
obj262	obj100
obj100	obj319
obj325	obj100
obj101	obj226
obj289	obj101
obj102	obj55
obj102	obj191
obj102	obj240
obj288	obj102
obj103	obj92
obj103	obj96
obj170	obj103
obj178	obj103
obj39	obj104
obj244	obj104
obj104	obj246
obj313	obj104
obj105	obj64
obj232	obj105
obj105	obj313
obj105	obj347
obj158	obj106
obj107	obj134
obj108	obj122
obj108	obj319
obj23	obj109
obj128	obj109
obj109	obj153
obj311	obj109
obj323	obj109
obj265	obj110
obj291	obj110
obj145	obj111
obj198	obj111
obj312	obj111
obj44	obj112
obj112	obj123
obj269	obj112
obj113	obj138
obj221	obj113
obj239	obj113
obj318	obj113
obj110	obj114
obj208	obj114
obj115	obj88
obj208	obj115
obj115	obj257
obj22	obj116
obj34	obj116
obj50	obj116
obj172	obj116
obj116	obj205
obj116	obj293
obj117	obj118
obj117	obj169
obj117	obj358
obj118	obj30
obj32	obj118
obj118	obj145
obj118	obj352
obj155	obj119
obj45	obj120
obj120	obj241
obj288	obj120
obj5	obj121
obj121	obj49
obj121	obj154
obj273	obj121
obj121	obj293
obj341	obj121
obj122	obj184
obj356	obj122
obj123	obj251
obj68	obj124
obj124	obj281
obj124	obj321
obj125	obj14
obj125	obj19
obj76	obj125
obj117	obj125
obj126	obj125
obj125	obj190
obj334	obj125
obj126	obj109
obj158	obj127
obj193	obj127
obj127	obj353
obj128	obj341
obj129	obj14
obj129	obj31
obj106	obj129
obj129	obj131
obj75	obj130
obj279	obj130
obj131	obj112
obj131	obj187
obj131	obj209
obj228	obj131
obj131	obj264
obj132	obj238
obj174	obj133
obj133	obj352
obj134	obj83
obj134	obj192
obj318	obj134
obj135	obj139
obj135	obj164
obj135	obj188
obj236	obj135
obj135	obj243
obj136	obj204
obj136	obj290
obj309	obj136
obj322	obj136
obj137	obj233
obj137	obj301
obj138	obj48
obj138	obj49
obj71	obj138
obj253	obj138
obj345	obj138
obj44	obj139
obj139	obj176
obj210	obj139
obj350	obj139
obj117	obj140
obj145	obj140
obj178	obj140
obj197	obj140
obj140	obj200
obj140	obj345
obj86	obj141
obj141	obj102
obj141	obj113
obj160	obj141
obj316	obj141
obj53	obj142
obj224	obj142
obj266	obj142
obj286	obj142
obj142	obj291
obj142	obj306
obj38	obj144
obj144	obj119
obj144	obj183
obj217	obj144
obj145	obj109
obj145	obj169
obj145	obj172
obj145	obj178
obj145	obj236
obj145	obj314
obj146	obj80
obj146	obj190
obj146	obj262
obj107	obj147
obj108	obj147
obj126	obj147
obj147	obj148
obj147	obj158
obj176	obj147
obj147	obj196
obj147	obj203
obj255	obj147
obj357	obj147
obj148	obj41
obj126	obj148
obj165	obj148
obj351	obj148
obj149	obj59
obj127	obj149
obj252	obj149
obj150	obj316
obj341	obj150
obj135	obj151
obj151	obj154
obj151	obj325
obj113	obj152
obj152	obj133
obj153	obj14
obj153	obj20
obj41	obj153
obj104	obj153
obj217	obj153
obj255	obj153
obj153	obj286
obj154	obj1
obj154	obj19
obj136	obj154
obj344	obj154
obj155	obj121
obj17	obj156
obj156	obj19
obj20	obj156
obj156	obj39
obj156	obj118
obj155	obj156
obj156	obj221
obj332	obj156
obj68	obj157
obj157	obj105
obj157	obj224
obj244	obj157
obj157	obj261
obj158	obj91
obj246	obj158
obj252	obj158
obj158	obj296
obj19	obj159
obj22	obj159
obj179	obj159
obj159	obj195
obj159	obj223
obj258	obj159
obj345	obj160
obj161	obj62
obj81	obj161
obj161	obj134
obj154	obj161
obj161	obj178
obj222	obj161
obj162	obj51
obj162	obj72
obj162	obj138
obj140	obj162
obj162	obj143
obj162	obj188
obj162	obj231
obj319	obj162
obj154	obj163
obj196	obj163
obj163	obj204
obj163	obj258
obj163	obj281
obj163	obj311
obj164	obj260
obj165	obj107
obj210	obj165
obj307	obj165
obj328	obj165
obj165	obj349
obj167	obj30
obj234	obj167
obj168	obj26
obj168	obj94
obj251	obj168
obj276	obj168
obj197	obj169
obj169	obj201
obj189	obj170
obj301	obj170
obj309	obj170
obj58	obj171
obj64	obj171
obj171	obj322
obj6	obj172
obj269	obj172
obj172	obj341
obj41	obj173
obj70	obj173
obj173	obj173
obj209	obj173
obj316	obj173
obj174	obj306
obj20	obj175
obj117	obj175
obj242	obj175
obj176	obj6
obj75	obj176
obj176	obj109
obj176	obj195
obj176	obj302
obj176	obj316
obj66	obj177
obj117	obj177
obj177	obj130
obj235	obj177
obj16	obj178
obj178	obj26
obj147	obj178
obj179	obj15
obj2	obj180
obj41	obj180
obj180	obj239
obj1	obj181
obj37	obj181
obj258	obj181
obj204	obj182
obj6	obj183
obj183	obj110
obj183	obj118
obj183	obj128
obj184	obj97
obj184	obj356
obj357	obj184
obj258	obj185
obj185	obj351
obj185	obj359
obj92	obj186
obj291	obj186
obj258	obj187
obj187	obj344
obj243	obj188
obj140	obj189
obj189	obj156
obj160	obj189
obj189	obj166
obj189	obj199
obj260	obj189
obj189	obj286
obj189	obj288
obj190	obj51
obj190	obj177
obj190	obj192
obj190	obj211
obj216	obj190
obj236	obj190
obj300	obj190
obj190	obj311
obj191	obj70
obj191	obj175
obj191	obj250
obj278	obj192
obj337	obj192
obj193	obj37
obj193	obj144
obj193	obj223
obj193	obj303
obj194	obj48
obj194	obj64
obj115	obj195
obj196	obj17
obj196	obj83
obj98	obj196
obj196	obj197
obj217	obj196
obj196	obj333
obj197	obj41
obj157	obj197
obj197	obj190
obj220	obj197
obj264	obj197
obj198	obj96
obj199	obj7
obj16	obj199
obj154	obj199
obj31	obj200
obj56	obj200
obj121	obj200
obj177	obj202
obj252	obj202
obj202	obj263
obj307	obj202
obj220	obj203
obj203	obj235
obj267	obj203
obj356	obj203
obj204	obj74
obj204	obj164
obj204	obj222
obj297	obj204
obj55	obj205
obj205	obj56
obj206	obj20
obj206	obj46
obj58	obj206
obj85	obj207
obj109	obj207
obj161	obj207
obj207	obj293
obj50	obj208
obj208	obj77
obj91	obj208
obj208	obj174
obj208	obj312
obj208	obj352
obj209	obj66
obj209	obj294
obj87	obj210
obj98	obj210
obj210	obj99
obj132	obj210
obj162	obj210
obj209	obj210
obj211	obj15
obj211	obj69
obj150	obj211
obj211	obj205
obj215	obj211
obj225	obj211
obj336	obj211
obj90	obj212
obj212	obj93
obj212	obj140
obj180	obj212
obj340	obj212
obj213	obj4
obj213	obj5
obj214	obj34
obj47	obj214
obj214	obj129
obj178	obj214
obj214	obj306
obj215	obj45
obj215	obj151
obj215	obj210
obj271	obj215
obj340	obj215
obj216	obj64
obj92	obj216
obj160	obj216
obj192	obj216
obj216	obj253
obj216	obj298
obj216	obj302
obj331	obj216
obj140	obj218
obj141	obj218
obj185	obj218
obj224	obj218
obj218	obj321
obj218	obj344
obj219	obj84
obj159	obj219
obj266	obj219
obj80	obj220
obj220	obj275
obj288	obj220
obj221	obj163
obj221	obj331
obj9	obj222
obj222	obj13
obj14	obj222
obj222	obj30
obj62	obj222
obj222	obj69
obj90	obj222
obj222	obj100
obj222	obj237
obj222	obj268
obj272	obj222
obj222	obj289
obj223	obj263
obj223	obj343
obj223	obj359
obj156	obj224
obj284	obj224
obj224	obj339
obj358	obj224
obj5	obj225
obj225	obj29
obj225	obj40
obj212	obj225
obj249	obj225
obj347	obj225
obj226	obj7
obj154	obj226
obj226	obj299
obj227	obj65
obj254	obj227
obj259	obj227
obj350	obj227
obj135	obj228
obj310	obj228
obj16	obj229
obj229	obj190
obj229	obj192
obj229	obj254
obj230	obj48
obj230	obj296
obj231	obj21
obj64	obj231
obj171	obj231
obj265	obj231
obj232	obj93
obj152	obj232
obj232	obj198
obj232	obj287
obj61	obj233
obj85	obj233
obj240	obj233
obj233	obj289
obj48	obj234
obj57	obj234
obj234	obj93
obj234	obj120
obj195	obj234
obj234	obj198
obj234	obj275
obj234	obj342
obj235	obj35
obj113	obj235
obj235	obj217
obj221	obj235
obj148	obj236
obj236	obj178
obj231	obj236
obj258	obj236
obj109	obj237
obj131	obj237
obj140	obj237
obj237	obj179
obj238	obj117
obj238	obj131
obj47	obj239
obj226	obj239
obj231	obj239
obj239	obj243
obj324	obj239
obj240	obj38
obj58	obj240
obj240	obj172
obj240	obj309
obj335	obj240
obj240	obj345
obj30	obj241
obj241	obj176
obj242	obj94
obj242	obj264
obj257	obj243
obj101	obj244
obj244	obj186
obj197	obj244
obj241	obj244
obj244	obj292
obj71	obj245
obj245	obj92
obj245	obj219
obj245	obj291
obj246	obj1
obj246	obj123
obj246	obj179
obj246	obj336
obj7	obj247
obj247	obj17
obj145	obj247
obj247	obj217
obj331	obj247
obj248	obj34
obj49	obj248
obj248	obj103
obj248	obj143
obj248	obj173
obj248	obj196
obj295	obj248
obj249	obj241
obj293	obj249
obj250	obj90
obj250	obj159
obj250	obj177
obj250	obj219
obj237	obj250
obj251	obj194
obj297	obj251
obj251	obj320
obj97	obj252
obj233	obj252
obj252	obj237
obj164	obj253
obj253	obj235
obj2	obj254
obj140	obj254
obj254	obj287
obj328	obj254
obj149	obj255
obj255	obj253
obj256	obj59
obj256	obj95
obj251	obj257
obj258	obj24
obj82	obj258
obj258	obj261
obj344	obj258
obj15	obj259
obj259	obj87
obj259	obj121
obj136	obj259
obj259	obj163
obj230	obj259
obj261	obj259
obj260	obj176
obj260	obj343
obj95	obj261
obj107	obj261
obj261	obj272
obj261	obj326
obj262	obj88
obj262	obj130
obj262	obj178
obj262	obj322
obj262	obj325
obj37	obj263
obj10	obj264
obj264	obj30
obj264	obj41
obj264	obj132
obj136	obj264
obj264	obj308
obj265	obj27
obj133	obj265
obj265	obj347
obj266	obj42
obj266	obj245
obj267	obj118
obj267	obj244
obj267	obj264
obj298	obj267
obj341	obj267
obj268	obj37
obj268	obj122
obj268	obj236
obj302	obj268
obj269	obj180
obj208	obj269
obj22	obj270
obj56	obj270
obj270	obj241
obj270	obj262
obj270	obj352
obj271	obj66
obj161	obj271
obj186	obj271
obj171	obj272
obj72	obj273
obj187	obj273
obj273	obj206
obj273	obj224
obj273	obj311
obj274	obj242
obj18	obj275
obj101	obj275
obj180	obj275
obj199	obj275
obj275	obj262
obj21	obj276
obj125	obj276
obj276	obj139
obj314	obj276
obj15	obj277
obj50	obj277
obj277	obj133
obj140	obj277
obj237	obj277
obj263	obj277
obj278	obj62
obj278	obj75
obj279	obj19
obj279	obj59
obj127	obj279
obj230	obj279
obj326	obj279
obj41	obj280
obj116	obj280
obj124	obj280
obj85	obj281
obj146	obj281
obj281	obj193
obj245	obj281
obj281	obj336
obj282	obj135
obj310	obj282
obj338	obj282
obj275	obj283
obj212	obj284
obj2	obj285
obj285	obj21
obj285	obj282
obj71	obj286
obj286	obj74
obj176	obj286
obj286	obj281
obj287	obj113
obj207	obj287
obj287	obj288
obj287	obj317
obj287	obj333
obj32	obj288
obj66	obj288
obj217	obj288
obj288	obj278
obj117	obj289
obj289	obj122
obj289	obj283
obj289	obj325
obj120	obj290
obj130	obj290
obj290	obj138
obj20	obj291
obj291	obj25
obj46	obj291
obj291	obj100
obj223	obj291
obj305	obj291
obj6	obj292
obj128	obj292
obj292	obj309
obj314	obj292
obj278	obj293
obj321	obj293
obj325	obj293
obj294	obj58
obj167	obj294
obj50	obj295
obj295	obj167
obj295	obj293
obj31	obj296
obj296	obj145
obj296	obj210
obj296	obj262
obj291	obj296
obj55	obj297
obj101	obj297
obj297	obj189
obj36	obj298
obj298	obj260
obj334	obj298
obj268	obj299
obj299	obj299
obj300	obj15
obj136	obj300
obj300	obj184
obj321	obj300
obj301	obj283
obj302	obj166
obj302	obj172
obj302	obj226
obj256	obj302
obj303	obj112
obj303	obj196
obj259	obj303
obj313	obj303
obj303	obj324
obj304	obj40
obj156	obj304
obj304	obj260
obj304	obj265
obj305	obj22
obj305	obj47
obj305	obj239
obj305	obj243
obj305	obj286
obj305	obj317
obj45	obj306
obj306	obj261
obj306	obj284
obj17	obj307
obj115	obj307
obj124	obj307
obj182	obj307
obj308	obj24
obj32	obj308
obj308	obj151
obj197	obj308
obj308	obj226
obj317	obj308
obj309	obj44
obj105	obj309
obj309	obj111
obj167	obj309
obj185	obj309
obj309	obj207
obj310	obj28
obj310	obj96
obj310	obj295
obj310	obj338
obj310	obj342
obj97	obj311
obj311	obj171
obj311	obj188
obj258	obj311
obj344	obj311
obj312	obj10
obj312	obj283
obj295	obj312
obj312	obj347
obj72	obj313
obj313	obj339
obj53	obj314
obj314	obj150
obj214	obj314
obj270	obj314
obj314	obj290
obj315	obj106
obj315	obj128
obj315	obj229
obj60	obj316
obj206	obj316
obj316	obj229
obj316	obj234
obj316	obj286
obj296	obj316
obj317	obj36
obj317	obj100
obj317	obj107
obj262	obj317
obj269	obj317
obj317	obj317
obj274	obj318
obj319	obj64
obj2	obj320
obj320	obj30
obj111	obj320
obj26	obj321
obj321	obj227
obj321	obj232
obj321	obj340
obj322	obj40
obj43	obj322
obj322	obj90
obj126	obj322
obj39	obj323
obj323	obj45
obj323	obj174
obj323	obj258
obj324	obj156
obj87	obj325
obj109	obj325
obj325	obj110
obj167	obj325
obj325	obj295
obj325	obj349
obj132	obj326
obj183	obj326
obj327	obj326
obj327	obj111
obj175	obj327
obj234	obj327
obj327	obj335
obj327	obj351
obj328	obj113
obj328	obj138
obj153	obj328
obj156	obj328
obj308	obj328
obj346	obj328
obj85	obj329
obj103	obj329
obj116	obj329
obj128	obj329
obj154	obj329
obj200	obj329
obj286	obj329
obj329	obj344
obj330	obj48
obj70	obj330
obj80	obj330
obj200	obj330
obj229	obj330
obj330	obj272
obj330	obj299
obj226	obj331
obj327	obj331
obj353	obj331
obj188	obj332
obj333	obj332
obj333	obj95
obj319	obj333
obj334	obj52
obj334	obj189
obj334	obj211
obj227	obj334
obj244	obj334
obj291	obj334
obj336	obj334
obj29	obj335
obj124	obj335
obj338	obj336
obj336	obj359
obj337	obj213
obj338	obj90
obj338	obj131
obj205	obj338
obj52	obj339
obj339	obj102
obj339	obj145
obj339	obj215
obj339	obj233
obj340	obj91
obj340	obj169
obj206	obj340
obj341	obj10
obj17	obj341
obj341	obj82
obj341	obj234
obj291	obj341
obj342	obj94
obj342	obj184
obj343	obj5
obj343	obj109
obj343	obj164
obj299	obj343
obj344	obj21
obj106	obj345
obj115	obj345
obj143	obj345
obj345	obj186
obj345	obj300
obj345	obj355
obj346	obj228
obj242	obj346
obj289	obj346
obj347	obj187
obj204	obj347
obj213	obj347
obj347	obj233
obj347	obj242
obj347	obj331
obj37	obj348
obj182	obj348
obj348	obj245
obj348	obj302
obj348	obj309
obj348	obj335
obj126	obj349
obj349	obj200
obj260	obj349
obj57	obj351
obj101	obj351
obj187	obj351
obj24	obj352
obj352	obj121
obj204	obj352
obj210	obj352
obj352	obj227
obj352	obj301
obj353	obj18
obj353	obj216
obj317	obj353
obj354	obj76
obj354	obj132
obj136	obj354
obj265	obj354
obj355	obj158
obj27	obj356
obj118	obj356
obj212	obj356
obj356	obj294
obj74	obj357
obj357	obj93
obj357	obj95
obj13	obj358
obj358	obj97
obj358	obj279
obj344	obj358
obj359	obj56
obj169	obj359
obj359	obj171
obj279	obj359
obj328	obj359
obj359	obj333
