	-0.8589225439255559	2.665511911080622	-0.9343294349193831	-0.31382807851436745	-0.11221972273649561
	2.1913477985002037	1.0302800710120559	0.8251517755275484	0.9701407254714001	-2.5901527600049272
	-2.3004283041155773	1.0053018318068	-1.0950622281851992	2.7956780148609663	1.3390815108095617
