obj67	1
obj68	1
obj69	1
obj60	0
obj61	1
obj62	1
obj63	1
obj64	1
obj65	1
obj66	1
obj100	1
obj101	1
obj104	1
obj105	1
obj102	1
obj103	1
obj107	1
obj58	0
obj106	1
obj59	0
obj109	1
obj56	0
obj108	1
obj57	0
obj180	2
obj50	0
obj51	0
obj54	0
obj55	0
obj52	0
obj53	0
obj110	1
obj111	1
obj112	1
obj113	1
obj114	1
obj115	1
obj116	1
obj49	0
obj45	0
obj119	1
obj46	0
obj118	1
obj47	0
obj117	1
obj48	0
obj41	0
obj42	0
obj43	0
obj44	0
obj40	0
obj126	2
obj127	2
obj124	2
obj125	2
obj122	2
obj123	2
obj120	1
obj121	2
obj38	0
obj39	0
obj129	2
obj36	0
obj128	2
obj37	0
obj34	0
obj35	0
obj32	0
obj33	0
obj30	0
obj31	0
obj130	2
obj135	2
obj136	2
obj137	2
obj138	2
obj131	2
obj132	2
obj133	2
obj134	2
obj159	2
obj158	2
obj157	2
obj156	2
obj20	0
obj155	2
obj154	2
obj22	0
obj153	2
obj21	0
obj152	2
obj24	0
obj151	2
obj23	0
obj150	2
obj26	0
obj90	1
obj25	0
obj91	1
obj28	0
obj27	0
obj29	0
obj97	1
obj96	1
obj99	1
obj98	1
obj93	1
obj92	1
obj95	1
obj94	1
obj147	2
obj146	2
obj149	2
obj148	2
obj143	2
obj11	0
obj142	2
obj10	0
obj145	2
obj144	2
obj15	0
obj14	0
obj141	2
obj13	0
obj140	2
obj12	0
obj19	0
obj18	0
obj17	0
obj16	0
obj139	2
obj178	2
obj177	2
obj176	2
obj175	2
obj179	2
obj170	2
obj174	2
obj173	2
obj172	2
obj171	2
obj3	0
obj71	1
obj4	0
obj70	1
obj5	0
obj73	1
obj6	0
obj72	1
obj75	1
obj74	1
obj1	0
obj77	1
obj2	0
obj76	1
obj79	1
obj78	1
obj165	2
obj164	2
obj167	2
obj166	2
obj169	2
obj168	2
obj161	2
obj160	2
obj9	0
obj80	1
obj163	2
obj8	0
obj162	2
obj7	0
obj84	1
obj83	1
obj82	1
obj81	1
obj88	1
obj87	1
obj86	1
obj85	1
obj89	1
