sample0	obj0	175.0	26.0	124.0	54.0	27.0
sample0	obj1	194.0	1484.0	3655.0	3321.0	1210.0
sample0	obj2	33.0	4.0	0.0	0.0	0.0
sample0	obj3	25.0	43.0	11.0	13.0	11.0
sample0	obj4	86.0	30.0	12.0	56.0	295.0
sample0	obj5	164.0	44.0	160.0	170.0	25.0
sample0	obj6	96.0	323.0	141.0	536.0	328.0
sample0	obj7	199.0	47.0	12.0	2.0	15.0
sample0	obj8	193.0	230.0	1373.0	277.0	97.0
sample0	obj9	16.0	3.0	8.0	31.0	140.0
sample0	obj10	149.0	19.0	7.0	2.0	0.0
sample0	obj11	26.0	119.0	47.0	246.0	361.0
sample0	obj12	21.0	163.0	730.0	830.0	2649.0
sample0	obj13	174.0	68.0	437.0	3085.0	1792.0
sample0	obj14	83.0	20.0	72.0	8.0	6.0
sample0	obj15	33.0	50.0	8.0	28.0	4.0
sample0	obj16	140.0	34.0	36.0	7.0	14.0
sample0	obj17	76.0	90.0	15.0	3.0	14.0
sample0	obj18	58.0	107.0	17.0	54.0	63.0
sample0	obj19	196.0	24.0	11.0	1.0	0.0
sample0	obj20	108.0	407.0	332.0	128.0	220.0
sample0	obj21	138.0	797.0	999.0	1389.0	862.0
sample0	obj22	199.0	121.0	66.0	71.0	12.0
sample0	obj23	163.0	163.0	277.0	127.0	96.0
sample0	obj24	66.0	8.0	1.0	0.0	0.0
sample0	obj25	196.0	237.0	351.0	323.0	103.0
sample0	obj26	79.0	48.0	195.0	24.0	28.0
sample0	obj27	31.0	5.0	1.0	2.0	0.0
sample0	obj28	167.0	34.0	12.0	81.0	153.0
sample0	obj29	189.0	1285.0	4157.0	1652.0	2837.0
sample0	obj30	168.0	17.0	3.0	11.0	39.0
sample0	obj31	110.0	755.0	120.0	619.0	112.0
sample0	obj32	30.0	5.0	35.0	20.0	2.0
sample0	obj33	12.0	84.0	375.0	2548.0	850.0
sample0	obj34	29.0	42.0	157.0	32.0	6.0
sample0	obj35	182.0	827.0	2476.0	661.0	1940.0
sample0	obj36	6.0	3.0	2.0	8.0	4.0
sample0	obj37	28.0	9.0	5.0	11.0	2.0
sample0	obj38	45.0	59.0	186.0	274.0	465.0
sample0	obj39	42.0	84.0	14.0	12.0	75.0
sample0	obj40	115.0	543.0	61.0	341.0	520.0
sample0	obj41	35.0	3.0	0.0	0.0	0.0
sample0	obj42	147.0	488.0	165.0	744.0	1121.0
sample0	obj43	98.0	19.0	100.0	24.0	25.0
sample0	obj44	103.0	17.0	31.0	59.0	134.0
sample0	obj45	123.0	198.0	76.0	346.0	335.0
sample0	obj46	148.0	192.0	1168.0	256.0	52.0
sample0	obj47	7.0	28.0	66.0	71.0	11.0
sample0	obj48	93.0	148.0	400.0	1404.0	686.0
sample0	obj49	21.0	3.0	2.0	0.0	0.0
sample0	obj50	152.0	29.0	2.0	17.0	196.0
sample0	obj51	10.0	11.0	1.0	5.0	1.0
sample0	obj52	136.0	45.0	6.0	1.0	0.0
sample0	obj53	153.0	878.0	496.0	116.0	190.0
sample0	obj54	70.0	52.0	19.0	5.0	7.0
sample0	obj55	134.0	19.0	2.0	1.0	0.0
sample0	obj56	69.0	417.0	164.0	814.0	187.0
sample0	obj57	59.0	367.0	2017.0	4590.0	4657.0
sample0	obj58	124.0	108.0	396.0	1077.0	2900.0
sample0	obj59	165.0	14.0	0.0	0.0	0.0
sample0	obj60	86.0	600.0	119.0	577.0	722.0
sample0	obj61	150.0	31.0	20.0	7.0	31.0
sample0	obj62	1.0	0.0	0.0	0.0	0.0
sample0	obj63	150.0	634.0	332.0	51.0	10.0
sample0	obj64	135.0	29.0	124.0	19.0	27.0
sample0	obj65	42.0	126.0	75.0	514.0	154.0
sample0	obj66	80.0	93.0	200.0	29.0	4.0
sample0	obj67	76.0	11.0	8.0	8.0	11.0
sample0	obj68	86.0	23.0	15.0	35.0	25.0
sample0	obj69	74.0	175.0	53.0	33.0	97.0
sample0	obj70	56.0	362.0	2092.0	4770.0	2704.0
sample0	obj71	33.0	98.0	80.0	126.0	52.0
sample0	obj72	33.0	259.0	1937.0	5517.0	1324.0
sample0	obj73	151.0	29.0	5.0	63.0	494.0
sample0	obj74	75.0	48.0	95.0	49.0	88.0
sample0	obj75	48.0	87.0	27.0	83.0	565.0
sample0	obj76	14.0	6.0	7.0	18.0	79.0
sample0	obj77	100.0	502.0	187.0	328.0	315.0
sample0	obj78	180.0	185.0	30.0	13.0	76.0
sample0	obj79	76.0	138.0	88.0	12.0	5.0
sample0	obj80	163.0	740.0	776.0	205.0	210.0
sample0	obj81	14.0	73.0	189.0	193.0	339.0
sample0	obj82	178.0	195.0	379.0	96.0	609.0
sample0	obj83	114.0	25.0	8.0	5.0	27.0
sample0	obj84	127.0	11.0	1.0	10.0	75.0
sample0	obj85	200.0	259.0	449.0	668.0	246.0
sample0	obj86	83.0	33.0	6.0	0.0	0.0
sample0	obj87	50.0	10.0	11.0	4.0	13.0
sample0	obj88	126.0	584.0	669.0	647.0	732.0
sample0	obj89	127.0	42.0	103.0	147.0	167.0
sample0	obj90	131.0	697.0	384.0	951.0	2947.0
sample0	obj91	37.0	289.0	94.0	453.0	529.0
sample0	obj92	25.0	31.0	13.0	90.0	118.0
sample0	obj93	28.0	11.0	12.0	1.0	0.0
sample0	obj94	3.0	4.0	9.0	2.0	1.0
sample0	obj95	89.0	233.0	238.0	280.0	51.0
sample0	obj96	70.0	450.0	725.0	174.0	82.0
sample0	obj97	154.0	72.0	36.0	26.0	120.0
sample0	obj98	62.0	13.0	3.0	0.0	0.0
sample0	obj99	32.0	50.0	29.0	38.0	204.0
sample0	obj100	143.0	663.0	388.0	2957.0	859.0
sample0	obj101	75.0	203.0	37.0	6.0	41.0
sample0	obj102	166.0	564.0	335.0	1222.0	4629.0
sample0	obj103	89.0	28.0	68.0	12.0	12.0
sample0	obj104	121.0	449.0	95.0	18.0	2.0
sample0	obj105	138.0	652.0	226.0	287.0	58.0
sample0	obj106	125.0	21.0	47.0	45.0	6.0
sample0	obj107	153.0	451.0	123.0	701.0	787.0
sample0	obj108	151.0	17.0	2.0	12.0	90.0
sample0	obj109	187.0	23.0	57.0	25.0	120.0
sample0	obj110	124.0	58.0	230.0	651.0	295.0
sample0	obj111	39.0	269.0	128.0	175.0	35.0
sample0	obj112	46.0	216.0	42.0	51.0	46.0
sample0	obj113	133.0	18.0	127.0	275.0	124.0
sample0	obj114	127.0	326.0	1136.0	306.0	232.0
sample0	obj115	172.0	550.0	378.0	321.0	1632.0
sample0	obj116	3.0	2.0	4.0	0.0	0.0
sample0	obj117	176.0	764.0	674.0	787.0	3278.0
sample0	obj118	97.0	76.0	24.0	134.0	51.0
sample0	obj119	184.0	38.0	183.0	168.0	23.0
sample0	obj120	165.0	189.0	298.0	546.0	1217.0
sample0	obj121	124.0	412.0	74.0	457.0	499.0
sample0	obj122	171.0	57.0	148.0	955.0	148.0
sample0	obj123	153.0	222.0	66.0	25.0	39.0
sample0	obj124	103.0	158.0	379.0	259.0	826.0
sample0	obj125	11.0	2.0	1.0	1.0	1.0
sample0	obj126	131.0	18.0	52.0	176.0	114.0
sample0	obj127	75.0	11.0	8.0	10.0	3.0
sample0	obj128	61.0	28.0	27.0	7.0	47.0
sample0	obj129	184.0	276.0	352.0	143.0	290.0
sample0	obj130	120.0	17.0	1.0	12.0	93.0
sample0	obj131	111.0	64.0	22.0	5.0	1.0
sample0	obj132	94.0	22.0	30.0	5.0	34.0
sample0	obj133	137.0	125.0	196.0	55.0	108.0
sample0	obj134	181.0	46.0	31.0	39.0	21.0
sample0	obj135	14.0	16.0	6.0	7.0	22.0
sample0	obj136	11.0	31.0	59.0	109.0	318.0
sample0	obj137	183.0	56.0	364.0	62.0	368.0
sample0	obj138	162.0	173.0	277.0	230.0	149.0
sample0	obj139	130.0	244.0	271.0	1145.0	304.0
sample0	obj140	107.0	231.0	808.0	910.0	247.0
sample0	obj141	148.0	23.0	1.0	5.0	19.0
sample0	obj142	177.0	82.0	559.0	145.0	325.0
sample0	obj143	16.0	22.0	128.0	407.0	717.0
sample0	obj144	129.0	13.0	78.0	14.0	15.0
sample0	obj145	43.0	15.0	93.0	22.0	18.0
sample0	obj146	110.0	43.0	98.0	14.0	7.0
sample0	obj147	193.0	52.0	7.0	0.0	0.0
sample0	obj148	55.0	8.0	1.0	0.0	0.0
sample0	obj149	108.0	10.0	0.0	0.0	0.0
sample0	obj150	99.0	75.0	340.0	255.0	126.0
sample0	obj151	171.0	45.0	16.0	9.0	8.0
sample0	obj152	157.0	54.0	9.0	1.0	1.0
sample0	obj153	196.0	563.0	413.0	270.0	2082.0
sample0	obj154	11.0	1.0	0.0	0.0	0.0
sample0	obj155	168.0	876.0	269.0	885.0	538.0
sample0	obj156	84.0	28.0	87.0	34.0	40.0
sample0	obj157	83.0	14.0	67.0	387.0	202.0
sample0	obj158	173.0	154.0	62.0	49.0	275.0
sample0	obj159	79.0	500.0	1634.0	2562.0	2098.0
sample0	obj160	60.0	10.0	0.0	0.0	0.0
sample0	obj161	82.0	15.0	4.0	3.0	0.0
sample0	obj162	155.0	780.0	1099.0	6882.0	1098.0
sample0	obj163	89.0	30.0	29.0	135.0	92.0
sample0	obj164	59.0	167.0	512.0	72.0	17.0
sample0	obj165	6.0	0.0	0.0	0.0	0.0
sample0	obj166	190.0	246.0	82.0	12.0	5.0
sample0	obj167	61.0	18.0	65.0	21.0	23.0
sample0	obj168	109.0	79.0	101.0	86.0	274.0
sample0	obj169	10.0	8.0	21.0	5.0	37.0
sample0	obj170	183.0	27.0	16.0	90.0	255.0
sample0	obj171	187.0	28.0	5.0	40.0	445.0
sample0	obj172	172.0	81.0	33.0	11.0	32.0
sample0	obj173	13.0	1.0	0.0	0.0	0.0
sample0	obj174	26.0	11.0	16.0	35.0	15.0
sample0	obj175	62.0	85.0	27.0	8.0	4.0
sample0	obj176	48.0	176.0	40.0	93.0	91.0
sample0	obj177	18.0	71.0	12.0	27.0	42.0
sample0	obj178	152.0	23.0	54.0	17.0	84.0
sample0	obj179	55.0	320.0	120.0	711.0	681.0
sample0	obj180	124.0	632.0	310.0	92.0	470.0
sample0	obj181	163.0	249.0	188.0	187.0	149.0
sample0	obj182	115.0	175.0	95.0	664.0	209.0
sample0	obj183	103.0	50.0	75.0	12.0	4.0
sample0	obj184	70.0	24.0	22.0	109.0	91.0
sample0	obj185	163.0	78.0	31.0	11.0	51.0
sample0	obj186	133.0	9.0	1.0	7.0	36.0
sample0	obj187	140.0	21.0	40.0	62.0	45.0
sample0	obj188	111.0	655.0	1240.0	298.0	119.0
sample0	obj189	138.0	33.0	14.0	37.0	223.0
sample0	obj190	69.0	12.0	1.0	10.0	116.0
sample0	obj191	166.0	1315.0	248.0	50.0	215.0
sample0	obj192	36.0	31.0	12.0	1.0	1.0
sample0	obj193	76.0	18.0	5.0	1.0	0.0
sample0	obj194	58.0	12.0	1.0	2.0	11.0
sample0	obj195	13.0	10.0	7.0	19.0	42.0
sample0	obj196	152.0	47.0	271.0	81.0	85.0
sample0	obj197	101.0	27.0	8.0	16.0	3.0
sample0	obj198	193.0	41.0	163.0	90.0	60.0
sample0	obj199	128.0	149.0	67.0	14.0	17.0
sample0	obj200	117.0	708.0	456.0	406.0	302.0
sample0	obj201	46.0	28.0	16.0	18.0	35.0
sample0	obj202	162.0	16.0	2.0	24.0	135.0
sample0	obj203	178.0	49.0	201.0	24.0	26.0
sample0	obj204	152.0	647.0	4209.0	4142.0	890.0
sample0	obj205	165.0	465.0	1625.0	1398.0	3038.0
sample0	obj206	65.0	56.0	19.0	28.0	63.0
sample0	obj207	111.0	93.0	33.0	7.0	13.0
sample0	obj208	196.0	1042.0	354.0	1564.0	1187.0
sample0	obj209	103.0	526.0	1696.0	9260.0	51773.0
sample0	obj210	128.0	51.0	8.0	45.0	111.0
sample0	obj211	112.0	13.0	81.0	19.0	25.0
sample0	obj212	55.0	92.0	69.0	70.0	15.0
sample0	obj213	79.0	289.0	99.0	80.0	55.0
sample0	obj214	11.0	5.0	4.0	10.0	4.0
sample0	obj215	149.0	8.0	1.0	5.0	32.0
sample0	obj216	134.0	24.0	115.0	21.0	16.0
sample0	obj217	123.0	49.0	53.0	13.0	42.0
sample0	obj218	183.0	35.0	6.0	72.0	415.0
sample0	obj219	2.0	0.0	0.0	0.0	0.0
sample0	obj220	179.0	172.0	233.0	927.0	431.0
sample0	obj221	71.0	42.0	40.0	207.0	48.0
sample0	obj222	109.0	43.0	203.0	24.0	12.0
sample0	obj223	139.0	183.0	33.0	114.0	98.0
sample0	obj224	72.0	401.0	579.0	1715.0	1255.0
sample0	obj225	152.0	175.0	421.0	493.0	906.0
sample0	obj226	174.0	58.0	373.0	2203.0	1780.0
sample0	obj227	115.0	225.0	767.0	255.0	850.0
sample0	obj228	12.0	2.0	15.0	2.0	2.0
sample0	obj229	3.0	2.0	6.0	1.0	0.0
sample0	obj230	129.0	1007.0	161.0	211.0	283.0
sample0	obj231	183.0	443.0	106.0	150.0	76.0
sample0	obj232	37.0	5.0	1.0	0.0	0.0
sample0	obj233	167.0	12.0	1.0	5.0	36.0
sample0	obj234	113.0	43.0	135.0	798.0	837.0
sample0	obj235	80.0	105.0	504.0	607.0	239.0
sample0	obj236	8.0	15.0	80.0	503.0	1771.0
sample0	obj237	46.0	10.0	6.0	6.0	3.0
sample0	obj238	152.0	61.0	74.0	9.0	1.0
sample0	obj239	157.0	766.0	122.0	618.0	534.0
sample0	obj240	13.0	1.0	0.0	0.0	0.0
sample0	obj241	123.0	25.0	4.0	3.0	0.0
sample0	obj242	79.0	131.0	417.0	981.0	1906.0
sample0	obj243	83.0	45.0	28.0	12.0	27.0
sample0	obj244	197.0	250.0	194.0	1079.0	673.0
sample0	obj245	142.0	27.0	57.0	13.0	14.0
sample0	obj246	91.0	11.0	2.0	19.0	194.0
sample0	obj247	95.0	41.0	12.0	33.0	263.0
sample0	obj248	26.0	2.0	0.0	0.0	0.0
sample0	obj249	123.0	779.0	343.0	254.0	32.0
sample0	obj250	83.0	30.0	54.0	12.0	14.0
sample0	obj251	169.0	251.0	1041.0	607.0	122.0
sample0	obj252	127.0	27.0	160.0	28.0	32.0
sample0	obj253	76.0	10.0	6.0	2.0	3.0
sample0	obj254	127.0	954.0	2829.0	1150.0	2708.0
sample0	obj255	116.0	65.0	61.0	132.0	195.0
sample0	obj256	184.0	24.0	1.0	11.0	86.0
sample0	obj257	156.0	301.0	72.0	561.0	85.0
sample0	obj258	59.0	81.0	90.0	11.0	15.0
sample0	obj259	112.0	250.0	381.0	794.0	3934.0
sample0	obj260	52.0	9.0	4.0	0.0	0.0
sample0	obj261	20.0	2.0	2.0	2.0	2.0
sample0	obj262	27.0	7.0	3.0	4.0	3.0
sample0	obj263	154.0	180.0	110.0	30.0	96.0
sample0	obj264	123.0	59.0	109.0	184.0	34.0
sample0	obj265	79.0	69.0	14.0	32.0	42.0
sample0	obj266	166.0	501.0	653.0	231.0	41.0
sample0	obj267	12.0	3.0	0.0	0.0	0.0
sample0	obj268	40.0	26.0	5.0	1.0	2.0
sample0	obj269	130.0	69.0	122.0	35.0	273.0
sample0	obj270	67.0	74.0	53.0	147.0	75.0
sample0	obj271	83.0	16.0	98.0	318.0	751.0
sample0	obj272	177.0	63.0	258.0	96.0	111.0
sample0	obj273	160.0	31.0	105.0	11.0	9.0
sample0	obj274	81.0	243.0	275.0	1523.0	8499.0
sample0	obj275	158.0	160.0	50.0	328.0	51.0
sample0	obj276	95.0	22.0	22.0	26.0	118.0
sample0	obj277	86.0	13.0	7.0	7.0	24.0
sample0	obj278	195.0	595.0	675.0	2494.0	1202.0
sample0	obj279	101.0	37.0	12.0	2.0	3.0
sample0	obj280	114.0	491.0	824.0	636.0	3546.0
sample0	obj281	120.0	271.0	819.0	6334.0	1237.0
sample0	obj282	199.0	519.0	191.0	1034.0	1308.0
sample0	obj283	181.0	59.0	20.0	120.0	38.0
sample0	obj284	62.0	16.0	11.0	5.0	0.0
sample0	obj285	181.0	675.0	2617.0	1238.0	7620.0
sample0	obj286	87.0	23.0	6.0	1.0	0.0
sample0	obj287	27.0	7.0	44.0	9.0	2.0
sample0	obj288	28.0	11.0	5.0	1.0	4.0
sample0	obj289	199.0	1120.0	286.0	1384.0	2129.0
sample0	obj290	196.0	1544.0	698.0	2535.0	576.0
sample0	obj291	131.0	22.0	5.0	2.0	10.0
sample0	obj292	108.0	6.0	0.0	0.0	0.0
sample0	obj293	144.0	19.0	151.0	22.0	3.0
sample0	obj294	87.0	237.0	91.0	16.0	16.0
sample0	obj295	87.0	25.0	127.0	46.0	49.0
sample0	obj296	102.0	36.0	115.0	22.0	15.0
sample0	obj297	41.0	121.0	22.0	5.0	5.0
sample0	obj298	153.0	41.0	11.0	47.0	179.0
sample0	obj299	80.0	428.0	702.0	1214.0	5089.0
sample0	obj300	83.0	11.0	0.0	0.0	0.0
sample0	obj301	198.0	507.0	141.0	18.0	25.0
sample0	obj302	191.0	38.0	17.0	27.0	76.0
sample0	obj303	66.0	61.0	42.0	31.0	38.0
sample0	obj304	190.0	619.0	133.0	804.0	602.0
sample0	obj305	36.0	72.0	154.0	644.0	411.0
sample0	obj306	168.0	32.0	11.0	6.0	36.0
sample0	obj307	97.0	31.0	101.0	19.0	11.0
sample0	obj308	115.0	16.0	45.0	7.0	7.0
sample0	obj309	8.0	1.0	0.0	0.0	0.0
sample0	obj310	171.0	27.0	3.0	12.0	72.0
sample0	obj311	140.0	175.0	642.0	1276.0	688.0
sample0	obj312	34.0	5.0	2.0	8.0	41.0
sample0	obj313	34.0	34.0	93.0	295.0	48.0
sample0	obj314	45.0	17.0	104.0	30.0	15.0
sample0	obj315	120.0	113.0	198.0	1278.0	6543.0
sample0	obj316	70.0	5.0	0.0	0.0	0.0
sample0	obj317	121.0	18.0	126.0	729.0	1173.0
sample0	obj318	121.0	131.0	737.0	3696.0	19109.0
sample0	obj319	57.0	33.0	115.0	812.0	5128.0
sample0	obj320	194.0	187.0	607.0	143.0	129.0
sample0	obj321	50.0	319.0	48.0	249.0	169.0
sample0	obj322	139.0	34.0	17.0	3.0	9.0
sample0	obj323	173.0	29.0	3.0	26.0	283.0
sample0	obj324	126.0	32.0	248.0	263.0	108.0
sample0	obj325	103.0	813.0	1471.0	5968.0	7562.0
sample0	obj326	72.0	446.0	108.0	631.0	850.0
sample0	obj327	186.0	392.0	2740.0	446.0	629.0
sample0	obj328	118.0	35.0	117.0	11.0	7.0
sample0	obj329	199.0	172.0	845.0	359.0	317.0
sample0	obj330	146.0	94.0	679.0	458.0	188.0
sample0	obj331	118.0	15.0	1.0	12.0	112.0
sample0	obj332	146.0	285.0	180.0	576.0	240.0
sample0	obj333	171.0	80.0	55.0	11.0	7.0
sample0	obj334	141.0	464.0	158.0	537.0	275.0
sample0	obj335	151.0	208.0	1392.0	852.0	162.0
sample0	obj336	82.0	10.0	5.0	1.0	2.0
sample0	obj337	164.0	40.0	81.0	193.0	41.0
sample0	obj338	38.0	10.0	22.0	142.0	88.0
sample0	obj339	134.0	302.0	155.0	127.0	21.0
sample0	obj340	30.0	226.0	178.0	162.0	107.0
sample0	obj341	181.0	95.0	53.0	18.0	4.0
sample0	obj342	69.0	22.0	42.0	17.0	6.0
sample0	obj343	86.0	29.0	8.0	1.0	0.0
sample0	obj344	195.0	37.0	122.0	14.0	9.0
sample0	obj345	84.0	13.0	1.0	0.0	0.0
sample0	obj346	136.0	40.0	124.0	24.0	13.0
sample0	obj347	27.0	5.0	1.0	6.0	33.0
sample0	obj348	148.0	24.0	94.0	112.0	70.0
sample0	obj349	95.0	263.0	71.0	350.0	1127.0
sample0	obj350	31.0	4.0	7.0	38.0	5.0
sample0	obj351	184.0	463.0	580.0	474.0	1059.0
sample0	obj352	108.0	111.0	28.0	124.0	25.0
sample0	obj353	120.0	456.0	239.0	210.0	532.0
sample0	obj354	187.0	326.0	62.0	53.0	44.0
sample0	obj355	88.0	14.0	10.0	2.0	6.0
sample0	obj356	62.0	137.0	482.0	70.0	474.0
sample0	obj357	184.0	232.0	1675.0	12367.0	13225.0
sample0	obj358	50.0	106.0	75.0	99.0	25.0
sample0	obj359	41.0	5.0	37.0	40.0	20.0
sample0	obj360	54.0	133.0	27.0	18.0	12.0
sample0	obj361	93.0	245.0	1532.0	1791.0	2043.0
sample0	obj362	151.0	631.0	382.0	859.0	3011.0
sample0	obj363	170.0	61.0	29.0	157.0	246.0
sample0	obj364	171.0	1048.0	227.0	45.0	100.0
sample0	obj365	116.0	29.0	40.0	10.0	46.0
sample0	obj366	151.0	21.0	61.0	22.0	83.0
sample0	obj367	75.0	206.0	23.0	109.0	149.0
sample0	obj368	42.0	18.0	34.0	61.0	28.0
sample0	obj369	155.0	731.0	255.0	921.0	295.0
sample0	obj370	188.0	1070.0	813.0	1397.0	1425.0
sample0	obj371	67.0	137.0	34.0	216.0	209.0
sample0	obj372	98.0	125.0	112.0	40.0	11.0
sample0	obj373	9.0	5.0	1.0	2.0	2.0
sample0	obj374	136.0	26.0	30.0	15.0	12.0
sample0	obj375	72.0	204.0	285.0	154.0	235.0
sample0	obj376	94.0	32.0	62.0	354.0	47.0
sample0	obj377	46.0	60.0	356.0	2031.0	9862.0
sample0	obj378	29.0	53.0	13.0	58.0	46.0
sample0	obj379	194.0	124.0	498.0	105.0	693.0
sample0	obj380	40.0	5.0	16.0	10.0	10.0
sample0	obj381	168.0	53.0	16.0	5.0	3.0
sample0	obj382	137.0	453.0	130.0	520.0	252.0
sample0	obj383	140.0	890.0	175.0	450.0	278.0
sample0	obj384	53.0	7.0	2.0	10.0	1.0
sample0	obj385	107.0	546.0	3808.0	2365.0	2099.0
sample0	obj386	114.0	616.0	248.0	36.0	9.0
sample0	obj387	162.0	585.0	676.0	1016.0	6319.0
sample0	obj388	128.0	415.0	183.0	1006.0	202.0
sample0	obj389	194.0	422.0	148.0	485.0	393.0
sample0	obj390	61.0	196.0	38.0	83.0	83.0
sample0	obj391	24.0	27.0	7.0	1.0	3.0
sample0	obj392	102.0	21.0	15.0	8.0	4.0
sample0	obj393	155.0	50.0	133.0	28.0	19.0
sample0	obj394	195.0	479.0	2950.0	3812.0	568.0
sample0	obj395	63.0	153.0	56.0	23.0	97.0
sample0	obj396	199.0	502.0	108.0	663.0	810.0
sample0	obj397	58.0	375.0	607.0	3309.0	15242.0
sample0	obj398	104.0	444.0	121.0	742.0	710.0
sample0	obj399	85.0	29.0	96.0	37.0	48.0
sample0	obj400	133.0	514.0	151.0	1182.0	456.0
sample0	obj401	90.0	45.0	9.0	19.0	82.0
sample0	obj402	131.0	48.0	78.0	271.0	292.0
sample0	obj403	171.0	61.0	382.0	814.0	394.0
sample0	obj404	8.0	8.0	18.0	4.0	6.0
sample0	obj405	178.0	23.0	1.0	9.0	42.0
sample0	obj406	66.0	10.0	78.0	92.0	91.0
sample0	obj407	89.0	70.0	75.0	43.0	103.0
sample0	obj408	19.0	6.0	20.0	7.0	7.0
sample0	obj409	84.0	5.0	0.0	0.0	0.0
sample0	obj410	57.0	358.0	114.0	360.0	557.0
sample0	obj411	192.0	13.0	1.0	12.0	74.0
sample0	obj412	105.0	178.0	25.0	37.0	74.0
sample0	obj413	20.0	2.0	0.0	0.0	0.0
sample0	obj414	88.0	177.0	679.0	3021.0	4220.0
sample0	obj415	101.0	70.0	262.0	295.0	2079.0
sample0	obj416	14.0	104.0	21.0	58.0	125.0
sample0	obj417	93.0	558.0	189.0	89.0	31.0
sample0	obj418	146.0	148.0	1167.0	5076.0	2720.0
sample0	obj419	63.0	39.0	69.0	22.0	3.0
sample0	obj420	68.0	11.0	18.0	13.0	37.0
sample0	obj421	148.0	582.0	109.0	98.0	14.0
sample0	obj422	183.0	101.0	509.0	333.0	70.0
sample0	obj423	162.0	968.0	5170.0	2416.0	3691.0
sample0	obj424	195.0	891.0	1046.0	1454.0	1601.0
sample0	obj425	152.0	483.0	281.0	498.0	321.0
sample0	obj426	140.0	88.0	311.0	1062.0	393.0
sample0	obj427	90.0	662.0	3233.0	883.0	2061.0
sample0	obj428	173.0	1280.0	1345.0	9281.0	4409.0
sample0	obj429	198.0	610.0	282.0	136.0	21.0
sample0	obj430	60.0	35.0	60.0	98.0	13.0
sample0	obj431	132.0	980.0	2457.0	1313.0	522.0
sample0	obj432	12.0	90.0	337.0	150.0	214.0
sample0	obj433	134.0	359.0	1820.0	1975.0	6586.0
sample0	obj434	164.0	56.0	225.0	83.0	116.0
sample0	obj435	118.0	24.0	155.0	48.0	9.0
sample0	obj436	165.0	29.0	17.0	75.0	293.0
sample0	obj437	12.0	49.0	10.0	18.0	5.0
sample0	obj438	70.0	386.0	604.0	232.0	206.0
sample0	obj439	42.0	249.0	51.0	8.0	5.0
sample0	obj440	160.0	144.0	87.0	15.0	7.0
sample0	obj441	164.0	86.0	171.0	55.0	15.0
sample0	obj442	80.0	17.0	116.0	417.0	175.0
sample0	obj443	105.0	32.0	9.0	5.0	9.0
sample0	obj444	100.0	8.0	0.0	0.0	0.0
sample0	obj445	179.0	73.0	81.0	17.0	113.0
sample0	obj446	11.0	21.0	114.0	38.0	97.0
sample0	obj447	163.0	41.0	135.0	18.0	9.0
sample0	obj448	40.0	25.0	8.0	11.0	39.0
sample0	obj449	54.0	48.0	288.0	1895.0	498.0
sample0	obj450	97.0	37.0	4.0	4.0	2.0
sample0	obj451	25.0	42.0	205.0	53.0	386.0
sample0	obj452	54.0	412.0	2005.0	426.0	67.0
sample0	obj453	15.0	31.0	11.0	1.0	0.0
sample0	obj454	91.0	16.0	77.0	22.0	11.0
sample0	obj455	170.0	623.0	3586.0	9814.0	4831.0
sample0	obj456	172.0	9.0	0.0	0.0	0.0
sample0	obj457	153.0	28.0	26.0	159.0	74.0
sample0	obj458	154.0	14.0	1.0	12.0	128.0
sample0	obj459	22.0	2.0	2.0	0.0	0.0
sample0	obj460	155.0	766.0	1007.0	1052.0	7772.0
sample0	obj461	135.0	33.0	13.0	3.0	10.0
sample0	obj462	147.0	74.0	114.0	446.0	1944.0
sample0	obj463	65.0	15.0	13.0	7.0	2.0
sample0	obj464	124.0	115.0	264.0	1347.0	4565.0
sample0	obj465	103.0	134.0	679.0	5289.0	32946.0
sample0	obj466	36.0	67.0	79.0	23.0	13.0
sample0	obj467	102.0	35.0	20.0	5.0	10.0
sample0	obj468	36.0	186.0	114.0	170.0	292.0
sample0	obj469	152.0	593.0	86.0	11.0	8.0
sample0	obj470	114.0	619.0	130.0	582.0	553.0
sample0	obj471	4.0	5.0	1.0	0.0	0.0
sample0	obj472	7.0	27.0	8.0	12.0	5.0
sample0	obj473	75.0	408.0	625.0	1191.0	7967.0
sample0	obj474	84.0	119.0	286.0	628.0	955.0
sample0	obj475	59.0	38.0	43.0	46.0	79.0
sample0	obj476	109.0	150.0	365.0	134.0	36.0
sample0	obj477	179.0	299.0	139.0	284.0	106.0
sample0	obj478	6.0	2.0	6.0	1.0	0.0
sample0	obj479	141.0	25.0	1.0	4.0	29.0
sample0	obj480	190.0	141.0	1067.0	1217.0	815.0
sample0	obj481	56.0	106.0	25.0	104.0	43.0
sample0	obj482	151.0	29.0	54.0	5.0	7.0
sample0	obj483	64.0	85.0	241.0	48.0	9.0
sample0	obj484	49.0	14.0	56.0	6.0	8.0
sample0	obj485	26.0	2.0	0.0	0.0	0.0
sample0	obj486	55.0	148.0	203.0	96.0	272.0
sample0	obj487	6.0	12.0	6.0	0.0	0.0
sample0	obj488	29.0	4.0	1.0	2.0	0.0
sample0	obj489	34.0	5.0	24.0	5.0	3.0
sample0	obj490	13.0	7.0	3.0	1.0	7.0
sample0	obj491	114.0	64.0	396.0	89.0	71.0
sample0	obj492	5.0	11.0	3.0	0.0	0.0
sample0	obj493	10.0	2.0	11.0	2.0	2.0
sample0	obj494	81.0	265.0	50.0	13.0	46.0
sample0	obj495	38.0	35.0	25.0	29.0	5.0
sample0	obj496	187.0	44.0	143.0	54.0	73.0
sample0	obj497	4.0	1.0	0.0	0.0	0.0
sample0	obj498	76.0	35.0	16.0	59.0	9.0
sample0	obj499	116.0	25.0	4.0	0.0	0.0
sample0	obj500	51.0	377.0	961.0	123.0	240.0
sample0	obj501	120.0	11.0	0.0	0.0	0.0
sample0	obj502	84.0	193.0	301.0	45.0	130.0
sample0	obj503	132.0	598.0	203.0	981.0	463.0
sample0	obj504	179.0	25.0	5.0	0.0	0.0
sample0	obj505	19.0	134.0	45.0	223.0	339.0
sample0	obj506	103.0	343.0	95.0	424.0	574.0
sample0	obj507	8.0	21.0	2.0	6.0	2.0
sample0	obj508	57.0	8.0	48.0	27.0	48.0
sample0	obj509	135.0	209.0	55.0	34.0	206.0
sample0	obj510	103.0	190.0	398.0	1137.0	5247.0
sample0	obj511	153.0	806.0	2319.0	895.0	4382.0
sample0	obj512	140.0	374.0	55.0	22.0	52.0
sample0	obj513	101.0	172.0	37.0	146.0	91.0
sample0	obj514	83.0	6.0	0.0	0.0	0.0
sample0	obj515	46.0	15.0	2.0	4.0	2.0
sample0	obj516	145.0	188.0	268.0	569.0	504.0
sample0	obj517	61.0	43.0	113.0	625.0	3044.0
sample0	obj518	120.0	8.0	0.0	0.0	0.0
sample0	obj519	83.0	25.0	4.0	23.0	4.0
sample0	obj520	103.0	363.0	364.0	204.0	309.0
sample0	obj521	67.0	23.0	131.0	334.0	186.0
sample0	obj522	77.0	6.0	1.0	6.0	58.0
sample0	obj523	20.0	6.0	0.0	0.0	0.0
sample0	obj524	44.0	31.0	18.0	15.0	7.0
sample0	obj525	19.0	150.0	467.0	434.0	536.0
sample0	obj526	181.0	155.0	31.0	34.0	37.0
sample0	obj527	5.0	4.0	6.0	7.0	5.0
sample0	obj528	153.0	21.0	70.0	11.0	61.0
sample0	obj529	72.0	23.0	27.0	4.0	9.0
sample0	obj530	123.0	30.0	18.0	11.0	18.0
sample0	obj531	115.0	16.0	59.0	48.0	12.0
sample0	obj532	103.0	566.0	4071.0	947.0	580.0
sample0	obj533	59.0	178.0	52.0	299.0	223.0
sample0	obj534	148.0	659.0	170.0	935.0	123.0
sample0	obj535	184.0	24.0	5.0	3.0	5.0
sample0	obj536	98.0	17.0	20.0	3.0	0.0
sample0	obj537	119.0	47.0	6.0	15.0	2.0
sample0	obj538	158.0	424.0	57.0	7.0	4.0
sample0	obj539	76.0	247.0	1197.0	617.0	3992.0
sample0	obj540	61.0	41.0	16.0	11.0	7.0
sample0	obj541	176.0	529.0	418.0	206.0	54.0
sample0	obj542	16.0	90.0	35.0	127.0	58.0
sample0	obj543	61.0	22.0	37.0	4.0	3.0
sample0	obj544	195.0	271.0	578.0	2551.0	1956.0
sample0	obj545	25.0	5.0	1.0	7.0	41.0
sample0	obj546	22.0	14.0	4.0	3.0	22.0
sample0	obj547	89.0	17.0	63.0	17.0	38.0
sample0	obj548	99.0	44.0	333.0	480.0	279.0
sample0	obj549	47.0	236.0	257.0	565.0	185.0
sample0	obj550	125.0	60.0	198.0	123.0	38.0
sample0	obj551	88.0	210.0	97.0	127.0	27.0
sample0	obj552	97.0	214.0	901.0	1475.0	943.0
sample0	obj553	33.0	41.0	57.0	145.0	869.0
sample0	obj554	102.0	404.0	139.0	786.0	1026.0
sample0	obj555	158.0	20.0	30.0	5.0	0.0
sample0	obj556	50.0	202.0	74.0	340.0	1478.0
sample0	obj557	173.0	49.0	42.0	65.0	423.0
sample0	obj558	122.0	569.0	158.0	323.0	135.0
sample0	obj559	28.0	173.0	54.0	179.0	202.0
sample0	obj560	88.0	205.0	1391.0	5098.0	29286.0
sample0	obj561	46.0	356.0	1908.0	1265.0	323.0
sample0	obj562	167.0	32.0	1.0	5.0	34.0
sample0	obj563	69.0	24.0	6.0	0.0	0.0
sample0	obj564	28.0	153.0	15.0	66.0	38.0
sample0	obj565	181.0	133.0	51.0	7.0	5.0
sample0	obj566	28.0	43.0	13.0	82.0	20.0
sample0	obj567	99.0	134.0	30.0	50.0	7.0
sample0	obj568	43.0	17.0	8.0	20.0	3.0
sample0	obj569	65.0	59.0	11.0	33.0	84.0
sample0	obj570	20.0	144.0	713.0	111.0	17.0
sample0	obj571	137.0	87.0	359.0	73.0	97.0
sample0	obj572	93.0	37.0	137.0	39.0	203.0
sample0	obj573	121.0	20.0	8.0	19.0	4.0
sample0	obj574	37.0	28.0	9.0	1.0	0.0
sample0	obj575	35.0	78.0	12.0	51.0	78.0
sample0	obj576	166.0	329.0	51.0	80.0	20.0
sample0	obj577	109.0	225.0	290.0	519.0	144.0
sample0	obj578	22.0	6.0	22.0	3.0	1.0
sample0	obj579	147.0	1059.0	1152.0	2187.0	390.0
sample0	obj580	48.0	12.0	35.0	262.0	2035.0
sample0	obj581	137.0	712.0	868.0	631.0	2490.0
sample0	obj582	110.0	165.0	93.0	12.0	3.0
sample0	obj583	86.0	685.0	230.0	96.0	35.0
sample0	obj584	78.0	164.0	135.0	19.0	14.0
sample0	obj585	139.0	77.0	359.0	135.0	46.0
sample0	obj586	69.0	21.0	5.0	1.0	0.0
sample0	obj587	44.0	12.0	76.0	22.0	39.0
sample0	obj588	73.0	535.0	88.0	59.0	18.0
sample0	obj589	126.0	25.0	9.0	35.0	82.0
sample0	obj590	185.0	251.0	581.0	770.0	147.0
sample0	obj591	156.0	45.0	57.0	14.0	1.0
sample0	obj592	53.0	7.0	22.0	27.0	37.0
sample0	obj593	34.0	5.0	1.0	7.0	1.0
sample0	obj594	29.0	38.0	74.0	13.0	11.0
sample0	obj595	114.0	684.0	202.0	1037.0	1056.0
sample0	obj596	181.0	48.0	29.0	27.0	18.0
sample0	obj597	5.0	2.0	0.0	0.0	0.0
sample0	obj598	153.0	69.0	100.0	14.0	4.0
sample0	obj599	160.0	50.0	213.0	35.0	42.0
sample0	obj600	91.0	491.0	382.0	855.0	679.0
sample0	obj601	95.0	544.0	160.0	680.0	583.0
sample0	obj602	19.0	7.0	2.0	0.0	0.0
sample0	obj603	165.0	95.0	214.0	849.0	2436.0
sample0	obj604	95.0	87.0	136.0	54.0	31.0
sample0	obj605	141.0	133.0	144.0	204.0	80.0
sample0	obj606	146.0	462.0	97.0	97.0	192.0
sample0	obj607	138.0	89.0	436.0	105.0	133.0
sample0	obj608	20.0	39.0	10.0	66.0	133.0
sample0	obj609	193.0	794.0	575.0	2956.0	4991.0
sample0	obj610	77.0	7.0	0.0	0.0	0.0
sample0	obj611	88.0	24.0	17.0	6.0	0.0
sample0	obj612	42.0	99.0	145.0	841.0	2588.0
sample0	obj613	131.0	985.0	3120.0	1231.0	6078.0
sample0	obj614	140.0	622.0	4789.0	1099.0	3072.0
sample0	obj615	18.0	8.0	1.0	5.0	4.0
sample0	obj616	115.0	16.0	1.0	8.0	91.0
sample0	obj617	19.0	2.0	6.0	2.0	2.0
sample0	obj618	28.0	55.0	65.0	14.0	38.0
sample0	obj619	57.0	9.0	1.0	4.0	45.0
sample0	obj620	124.0	25.0	5.0	21.0	2.0
sample0	obj621	12.0	6.0	8.0	14.0	95.0
sample0	obj622	130.0	61.0	18.0	9.0	4.0
sample0	obj623	123.0	952.0	200.0	70.0	117.0
sample0	obj624	53.0	307.0	57.0	200.0	190.0
sample0	obj625	88.0	575.0	200.0	1287.0	3601.0
sample0	obj626	177.0	378.0	197.0	595.0	366.0
sample0	obj627	142.0	188.0	700.0	129.0	34.0
sample0	obj628	80.0	112.0	384.0	239.0	724.0
sample0	obj629	143.0	37.0	15.0	12.0	1.0
sample0	obj630	196.0	93.0	16.0	46.0	22.0
sample0	obj631	157.0	103.0	169.0	250.0	300.0
sample0	obj632	196.0	24.0	116.0	177.0	214.0
sample0	obj633	155.0	463.0	393.0	132.0	178.0
sample0	obj634	78.0	22.0	130.0	32.0	38.0
sample0	obj635	8.0	31.0	156.0	33.0	20.0
sample0	obj636	102.0	58.0	71.0	297.0	842.0
sample0	obj637	194.0	362.0	2669.0	2657.0	7769.0
sample0	obj638	117.0	26.0	34.0	10.0	1.0
sample0	obj639	158.0	134.0	116.0	209.0	386.0
sample0	obj640	177.0	26.0	2.0	24.0	150.0
sample0	obj641	23.0	22.0	21.0	5.0	0.0
sample0	obj642	198.0	30.0	4.0	1.0	0.0
sample0	obj643	87.0	242.0	238.0	61.0	36.0
sample0	obj644	189.0	1464.0	7674.0	21977.0	9139.0
sample0	obj645	84.0	116.0	487.0	2308.0	5941.0
sample0	obj646	92.0	17.0	106.0	26.0	3.0
sample0	obj647	195.0	71.0	29.0	3.0	2.0
sample0	obj648	165.0	217.0	48.0	9.0	13.0
sample0	obj649	168.0	1156.0	5967.0	758.0	179.0
sample0	obj650	136.0	99.0	40.0	51.0	25.0
sample0	obj651	22.0	7.0	9.0	14.0	20.0
sample0	obj652	91.0	13.0	2.0	9.0	1.0
sample0	obj653	186.0	133.0	408.0	193.0	70.0
sample0	obj654	140.0	272.0	425.0	1096.0	1079.0
sample0	obj655	11.0	1.0	0.0	0.0	0.0
sample0	obj656	12.0	11.0	32.0	105.0	61.0
sample0	obj657	184.0	12.0	1.0	10.0	59.0
sample0	obj658	180.0	686.0	678.0	251.0	381.0
sample0	obj659	73.0	348.0	820.0	6180.0	13433.0
sample0	obj660	191.0	467.0	60.0	13.0	6.0
sample0	obj661	123.0	369.0	99.0	17.0	2.0
sample0	obj662	122.0	107.0	110.0	36.0	69.0
sample0	obj663	72.0	539.0	3671.0	6926.0	18549.0
sample0	obj664	47.0	54.0	151.0	56.0	28.0
sample0	obj665	30.0	16.0	91.0	277.0	85.0
sample0	obj666	107.0	591.0	166.0	82.0	59.0
sample0	obj667	124.0	718.0	239.0	86.0	420.0
sample0	obj668	193.0	979.0	727.0	1022.0	261.0
sample0	obj669	17.0	40.0	29.0	12.0	30.0
sample0	obj670	28.0	145.0	85.0	102.0	784.0
sample0	obj671	122.0	131.0	55.0	328.0	94.0
sample0	obj672	184.0	159.0	48.0	89.0	440.0
sample0	obj673	37.0	7.0	28.0	80.0	58.0
sample0	obj674	179.0	112.0	138.0	337.0	235.0
sample0	obj675	91.0	180.0	195.0	58.0	13.0
sample0	obj676	13.0	1.0	0.0	0.0	0.0
sample0	obj677	62.0	46.0	85.0	516.0	1669.0
sample0	obj678	45.0	21.0	9.0	2.0	2.0
sample0	obj679	87.0	167.0	386.0	1793.0	3280.0
sample0	obj680	35.0	83.0	19.0	113.0	107.0
sample0	obj681	152.0	371.0	1059.0	3457.0	2901.0
sample0	obj682	135.0	22.0	5.0	19.0	2.0
sample0	obj683	40.0	112.0	14.0	31.0	31.0
sample0	obj684	117.0	21.0	14.0	6.0	12.0
sample0	obj685	110.0	17.0	1.0	5.0	51.0
sample0	obj686	138.0	784.0	3744.0	23221.0	3662.0
sample0	obj687	89.0	328.0	85.0	16.0	93.0
sample0	obj688	62.0	336.0	287.0	445.0	76.0
sample0	obj689	41.0	6.0	6.0	1.0	2.0
sample0	obj690	100.0	27.0	96.0	20.0	16.0
sample0	obj691	122.0	17.0	41.0	106.0	345.0
sample0	obj692	87.0	96.0	21.0	12.0	9.0
sample0	obj693	5.0	11.0	38.0	53.0	387.0
sample0	obj694	53.0	402.0	471.0	73.0	215.0
sample0	obj695	67.0	267.0	262.0	87.0	320.0
sample0	obj696	169.0	37.0	232.0	46.0	45.0
sample0	obj697	73.0	27.0	12.0	25.0	4.0
sample0	obj698	153.0	905.0	871.0	5343.0	18670.0
sample0	obj699	64.0	211.0	154.0	36.0	110.0
sample0	obj700	54.0	12.0	7.0	15.0	40.0
sample0	obj701	105.0	253.0	82.0	493.0	549.0
sample0	obj702	25.0	91.0	196.0	58.0	186.0
sample0	obj703	70.0	222.0	195.0	350.0	462.0
sample0	obj704	30.0	8.0	13.0	49.0	297.0
sample0	obj705	28.0	77.0	7.0	27.0	40.0
sample0	obj706	18.0	3.0	2.0	4.0	0.0
sample0	obj707	57.0	436.0	102.0	24.0	3.0
sample0	obj708	92.0	24.0	7.0	21.0	104.0
sample0	obj709	199.0	413.0	86.0	33.0	6.0
sample0	obj710	112.0	26.0	44.0	17.0	100.0
sample0	obj711	156.0	310.0	2009.0	4670.0	904.0
sample0	obj712	127.0	46.0	60.0	390.0	96.0
sample0	obj713	21.0	5.0	20.0	3.0	1.0
sample0	obj714	67.0	19.0	100.0	31.0	40.0
sample0	obj715	171.0	1176.0	1234.0	208.0	840.0
sample0	obj716	58.0	130.0	33.0	6.0	10.0
sample0	obj717	158.0	137.0	701.0	376.0	1383.0
sample0	obj718	190.0	353.0	739.0	2964.0	1979.0
sample0	obj719	130.0	342.0	590.0	1739.0	2579.0
sample0	obj720	81.0	14.0	17.0	37.0	6.0
sample0	obj721	155.0	550.0	1265.0	233.0	294.0
sample0	obj722	48.0	188.0	671.0	2197.0	14087.0
sample0	obj723	106.0	351.0	67.0	250.0	371.0
sample0	obj724	22.0	40.0	21.0	3.0	12.0
sample0	obj725	27.0	21.0	8.0	2.0	1.0
sample0	obj726	29.0	9.0	36.0	4.0	4.0
sample0	obj727	194.0	50.0	35.0	41.0	124.0
sample0	obj728	152.0	24.0	69.0	14.0	18.0
sample0	obj729	34.0	42.0	89.0	663.0	2092.0
sample0	obj730	26.0	60.0	21.0	30.0	126.0
sample0	obj731	198.0	85.0	19.0	34.0	5.0
sample0	obj732	179.0	31.0	187.0	49.0	61.0
sample0	obj733	171.0	69.0	76.0	31.0	12.0
sample0	obj734	8.0	11.0	26.0	181.0	230.0
sample0	obj735	173.0	40.0	9.0	1.0	3.0
sample0	obj736	121.0	383.0	444.0	58.0	32.0
sample0	obj737	175.0	726.0	92.0	13.0	82.0
sample0	obj738	102.0	16.0	57.0	17.0	23.0
sample0	obj739	129.0	51.0	315.0	124.0	64.0
sample0	obj740	150.0	560.0	136.0	135.0	62.0
sample0	obj741	28.0	89.0	60.0	83.0	65.0
sample0	obj742	40.0	57.0	34.0	4.0	1.0
sample0	obj743	109.0	28.0	126.0	28.0	223.0
sample0	obj744	58.0	23.0	40.0	9.0	12.0
sample0	obj745	82.0	363.0	1113.0	363.0	269.0
sample0	obj746	66.0	140.0	374.0	1196.0	603.0
sample0	obj747	99.0	143.0	374.0	1683.0	319.0
sample0	obj748	183.0	101.0	93.0	15.0	31.0
sample0	obj749	135.0	559.0	213.0	1170.0	1054.0
sample0	obj750	113.0	69.0	515.0	1054.0	1112.0
sample0	obj751	158.0	36.0	10.0	23.0	81.0
sample0	obj752	189.0	772.0	147.0	19.0	38.0
sample0	obj753	22.0	6.0	22.0	15.0	4.0
sample0	obj754	6.0	14.0	5.0	29.0	43.0
sample0	obj755	146.0	35.0	32.0	12.0	5.0
sample0	obj756	37.0	15.0	3.0	1.0	5.0
sample0	obj757	92.0	13.0	38.0	9.0	28.0
sample0	obj758	29.0	144.0	1007.0	186.0	407.0
sample0	obj759	1.0	0.0	0.0	0.0	0.0
sample0	obj760	126.0	31.0	7.0	10.0	8.0
sample0	obj761	79.0	15.0	46.0	77.0	99.0
sample0	obj762	134.0	555.0	145.0	601.0	878.0
sample0	obj763	192.0	1067.0	231.0	99.0	92.0
sample0	obj764	188.0	308.0	1481.0	408.0	178.0
sample0	obj765	7.0	3.0	8.0	3.0	8.0
sample0	obj766	125.0	71.0	58.0	159.0	137.0
sample0	obj767	168.0	23.0	110.0	39.0	20.0
sample0	obj768	68.0	293.0	313.0	1279.0	420.0
sample0	obj769	126.0	134.0	191.0	616.0	2232.0
sample0	obj770	117.0	17.0	88.0	142.0	71.0
sample0	obj771	103.0	15.0	1.0	2.0	0.0
sample0	obj772	80.0	211.0	52.0	222.0	328.0
sample0	obj773	91.0	22.0	42.0	7.0	6.0
sample0	obj774	129.0	75.0	87.0	57.0	52.0
sample0	obj775	30.0	5.0	0.0	0.0	0.0
sample0	obj776	55.0	25.0	197.0	54.0	249.0
sample0	obj777	65.0	13.0	16.0	2.0	0.0
sample0	obj778	43.0	17.0	4.0	1.0	0.0
sample0	obj779	135.0	23.0	87.0	30.0	44.0
sample0	obj780	189.0	28.0	51.0	7.0	6.0
sample0	obj781	159.0	26.0	53.0	307.0	220.0
sample0	obj782	184.0	46.0	67.0	108.0	531.0
sample0	obj783	55.0	106.0	129.0	146.0	40.0
sample0	obj784	137.0	76.0	50.0	16.0	4.0
sample0	obj785	25.0	74.0	102.0	73.0	14.0
sample0	obj786	98.0	228.0	1728.0	221.0	31.0
sample0	obj787	58.0	11.0	37.0	293.0	61.0
sample0	obj788	146.0	911.0	243.0	1252.0	1239.0
sample0	obj789	80.0	28.0	32.0	6.0	0.0
sample0	obj790	11.0	68.0	25.0	71.0	111.0
sample0	obj791	125.0	218.0	762.0	337.0	1556.0
sample0	obj792	103.0	599.0	122.0	36.0	61.0
sample0	obj793	65.0	69.0	53.0	414.0	3283.0
sample0	obj794	198.0	448.0	85.0	456.0	236.0
sample0	obj795	52.0	182.0	27.0	127.0	79.0
sample0	obj796	192.0	675.0	757.0	325.0	377.0
sample0	obj797	41.0	224.0	38.0	120.0	146.0
sample0	obj798	34.0	68.0	16.0	72.0	66.0
sample0	obj799	107.0	35.0	4.0	1.0	1.0
sample0	obj800	191.0	763.0	3112.0	2283.0	11839.0
sample0	obj801	167.0	1286.0	988.0	402.0	1104.0
sample0	obj802	87.0	129.0	26.0	83.0	21.0
sample0	obj803	16.0	63.0	27.0	5.0	5.0
sample0	obj804	184.0	107.0	349.0	342.0	1602.0
sample0	obj805	82.0	28.0	131.0	49.0	28.0
sample0	obj806	76.0	11.0	81.0	11.0	4.0
sample0	obj807	91.0	112.0	21.0	17.0	62.0
sample0	obj808	79.0	69.0	364.0	1433.0	189.0
sample0	obj809	34.0	4.0	1.0	3.0	3.0
sample0	obj810	4.0	1.0	0.0	0.0	0.0
sample0	obj811	71.0	189.0	72.0	192.0	307.0
sample0	obj812	187.0	620.0	1587.0	8985.0	20761.0
sample0	obj813	72.0	76.0	52.0	169.0	255.0
sample0	obj814	28.0	4.0	0.0	0.0	0.0
sample0	obj815	45.0	16.0	64.0	59.0	53.0
sample0	obj816	55.0	11.0	5.0	2.0	2.0
sample0	obj817	154.0	50.0	195.0	22.0	20.0
sample0	obj818	43.0	6.0	37.0	286.0	1923.0
sample0	obj819	169.0	599.0	134.0	1067.0	997.0
sample0	obj820	44.0	216.0	1513.0	7683.0	3007.0
sample0	obj821	86.0	93.0	40.0	299.0	61.0
sample0	obj822	173.0	46.0	74.0	15.0	22.0
sample0	obj823	134.0	737.0	100.0	473.0	492.0
sample0	obj824	107.0	14.0	96.0	154.0	548.0
sample0	obj825	8.0	47.0	129.0	851.0	135.0
sample0	obj826	51.0	26.0	8.0	53.0	19.0
sample0	obj827	155.0	209.0	333.0	68.0	74.0
sample0	obj828	129.0	889.0	306.0	2136.0	268.0
sample0	obj829	7.0	13.0	21.0	96.0	42.0
sample0	obj830	90.0	21.0	15.0	2.0	0.0
sample0	obj831	161.0	418.0	752.0	1744.0	2884.0
sample0	obj832	67.0	12.0	2.0	8.0	28.0
sample0	obj833	140.0	13.0	0.0	0.0	0.0
sample0	obj834	65.0	195.0	512.0	275.0	85.0
sample0	obj835	65.0	299.0	60.0	23.0	13.0
sample0	obj836	13.0	6.0	8.0	29.0	94.0
sample0	obj837	137.0	36.0	18.0	74.0	14.0
sample0	obj838	90.0	155.0	34.0	55.0	22.0
sample0	obj839	94.0	21.0	132.0	34.0	23.0
sample0	obj840	63.0	48.0	181.0	103.0	157.0
sample0	obj841	11.0	19.0	4.0	15.0	22.0
sample0	obj842	27.0	1.0	0.0	0.0	0.0
sample0	obj843	126.0	19.0	8.0	5.0	15.0
sample0	obj844	157.0	1065.0	1872.0	752.0	208.0
sample0	obj845	47.0	110.0	800.0	3202.0	1554.0
sample0	obj846	20.0	10.0	10.0	14.0	14.0
sample0	obj847	8.0	6.0	18.0	118.0	107.0
sample0	obj848	52.0	29.0	124.0	46.0	11.0
sample0	obj849	17.0	30.0	3.0	18.0	23.0
sample0	obj850	22.0	20.0	2.0	0.0	0.0
sample0	obj851	86.0	75.0	36.0	253.0	1584.0
sample0	obj852	29.0	21.0	54.0	119.0	15.0
sample0	obj853	174.0	75.0	163.0	278.0	179.0
sample0	obj854	110.0	18.0	1.0	9.0	59.0
sample0	obj855	30.0	34.0	140.0	1033.0	238.0
sample0	obj856	88.0	51.0	20.0	30.0	4.0
sample0	obj857	25.0	7.0	18.0	27.0	46.0
sample0	obj858	148.0	1179.0	525.0	935.0	1029.0
sample0	obj859	56.0	239.0	702.0	370.0	505.0
sample0	obj860	174.0	531.0	97.0	660.0	513.0
sample0	obj861	117.0	362.0	58.0	216.0	463.0
sample0	obj862	39.0	33.0	233.0	1058.0	6784.0
sample0	obj863	108.0	130.0	783.0	2858.0	586.0
sample0	obj864	91.0	412.0	1334.0	257.0	335.0
sample0	obj865	60.0	101.0	50.0	6.0	9.0
sample0	obj866	26.0	4.0	2.0	0.0	0.0
sample0	obj867	44.0	94.0	37.0	114.0	114.0
sample0	obj868	6.0	2.0	0.0	0.0	0.0
sample0	obj869	195.0	47.0	196.0	63.0	98.0
sample0	obj870	164.0	64.0	57.0	256.0	34.0
sample0	obj871	92.0	96.0	361.0	1903.0	239.0
sample0	obj872	45.0	106.0	28.0	151.0	63.0
sample0	obj873	106.0	57.0	29.0	7.0	11.0
sample0	obj874	99.0	156.0	225.0	468.0	384.0
sample0	obj875	137.0	20.0	8.0	1.0	1.0
sample0	obj876	158.0	320.0	1248.0	614.0	147.0
sample0	obj877	25.0	40.0	62.0	70.0	17.0
sample0	obj878	72.0	80.0	519.0	3593.0	949.0
sample0	obj879	126.0	484.0	91.0	475.0	534.0
sample0	obj880	151.0	75.0	17.0	60.0	23.0
sample0	obj881	68.0	27.0	126.0	420.0	59.0
sample0	obj882	183.0	34.0	111.0	50.0	199.0
sample0	obj883	187.0	1245.0	8642.0	1269.0	5940.0
sample0	obj884	118.0	660.0	1459.0	358.0	1124.0
sample0	obj885	183.0	74.0	24.0	148.0	83.0
sample0	obj886	24.0	24.0	123.0	206.0	324.0
sample0	obj887	2.0	1.0	0.0	0.0	0.0
sample0	obj888	175.0	916.0	1973.0	674.0	4376.0
sample0	obj889	199.0	487.0	76.0	491.0	397.0
sample0	obj890	64.0	358.0	2574.0	11443.0	59729.0
sample0	obj891	168.0	871.0	786.0	5650.0	3555.0
sample0	obj892	21.0	2.0	0.0	0.0	0.0
sample0	obj893	58.0	348.0	81.0	467.0	518.0
sample0	obj894	114.0	39.0	11.0	9.0	24.0
sample0	obj895	37.0	18.0	68.0	95.0	111.0
sample0	obj896	45.0	80.0	223.0	899.0	1065.0
sample0	obj897	166.0	1047.0	384.0	2059.0	3133.0
sample0	obj898	59.0	14.0	50.0	5.0	4.0
sample0	obj899	135.0	254.0	421.0	226.0	701.0
sample1	obj0	58.0	107.0	17.0	54.0	63.0
sample1	obj1	152.0	61.0	74.0	9.0	1.0
sample1	obj2	35.0	78.0	12.0	51.0	78.0
sample1	obj3	28.0	89.0	60.0	83.0	65.0
sample1	obj4	57.0	9.0	1.0	4.0	45.0
sample1	obj5	7.0	28.0	66.0	71.0	11.0
sample1	obj6	65.0	299.0	60.0	23.0	13.0
sample1	obj7	89.0	328.0	85.0	16.0	93.0
sample1	obj8	158.0	137.0	701.0	376.0	1383.0
sample1	obj9	153.0	41.0	11.0	47.0	179.0
sample1	obj10	193.0	52.0	7.0	0.0	0.0
sample1	obj11	86.0	23.0	15.0	35.0	25.0
sample1	obj12	123.0	369.0	99.0	17.0	2.0
sample1	obj13	40.0	26.0	5.0	1.0	2.0
sample1	obj14	25.0	42.0	205.0	53.0	386.0
sample1	obj15	28.0	43.0	13.0	82.0	20.0
sample1	obj16	184.0	463.0	580.0	474.0	1059.0
sample1	obj17	70.0	386.0	604.0	232.0	206.0
sample1	obj18	64.0	211.0	154.0	36.0	110.0
sample1	obj19	174.0	58.0	373.0	2203.0	1780.0
sample1	obj20	9.0	5.0	1.0	2.0	2.0
sample1	obj21	25.0	74.0	102.0	73.0	14.0
sample1	obj22	91.0	16.0	77.0	22.0	11.0
sample1	obj23	37.0	18.0	68.0	95.0	111.0
sample1	obj24	140.0	13.0	0.0	0.0	0.0
sample1	obj25	181.0	46.0	31.0	39.0	21.0
sample1	obj26	121.0	383.0	444.0	58.0	32.0
sample1	obj27	169.0	251.0	1041.0	607.0	122.0
sample1	obj28	103.0	17.0	31.0	59.0	134.0
sample1	obj29	126.0	25.0	9.0	35.0	82.0
sample1	obj30	72.0	204.0	285.0	154.0	235.0
sample1	obj31	83.0	11.0	0.0	0.0	0.0
sample1	obj32	98.0	228.0	1728.0	221.0	31.0
sample1	obj33	165.0	14.0	0.0	0.0	0.0
sample1	obj34	5.0	11.0	38.0	53.0	387.0
sample1	obj35	5.0	2.0	0.0	0.0	0.0
sample1	obj36	101.0	27.0	8.0	16.0	3.0
sample1	obj37	89.0	30.0	29.0	135.0	92.0
sample1	obj38	55.0	92.0	69.0	70.0	15.0
sample1	obj39	158.0	36.0	10.0	23.0	81.0
sample1	obj40	8.0	11.0	26.0	181.0	230.0
sample1	obj41	194.0	187.0	607.0	143.0	129.0
sample1	obj42	146.0	285.0	180.0	576.0	240.0
sample1	obj43	170.0	623.0	3586.0	9814.0	4831.0
sample1	obj44	27.0	1.0	0.0	0.0	0.0
sample1	obj45	76.0	35.0	16.0	59.0	9.0
sample1	obj46	126.0	484.0	91.0	475.0	534.0
sample1	obj47	42.0	18.0	34.0	61.0	28.0
sample1	obj48	134.0	24.0	115.0	21.0	16.0
sample1	obj49	11.0	19.0	4.0	15.0	22.0
sample1	obj50	103.0	190.0	398.0	1137.0	5247.0
sample1	obj51	19.0	7.0	2.0	0.0	0.0
sample1	obj52	183.0	35.0	6.0	72.0	415.0
sample1	obj53	107.0	14.0	96.0	154.0	548.0
sample1	obj54	34.0	4.0	1.0	3.0	3.0
sample1	obj55	173.0	29.0	3.0	26.0	283.0
sample1	obj56	27.0	7.0	44.0	9.0	2.0
sample1	obj57	152.0	371.0	1059.0	3457.0	2901.0
sample1	obj58	60.0	35.0	60.0	98.0	13.0
sample1	obj59	30.0	226.0	178.0	162.0	107.0
sample1	obj60	135.0	209.0	55.0	34.0	206.0
sample1	obj61	107.0	231.0	808.0	910.0	247.0
sample1	obj62	115.0	175.0	95.0	664.0	209.0
sample1	obj63	7.0	13.0	21.0	96.0	42.0
sample1	obj64	165.0	29.0	17.0	75.0	293.0
sample1	obj65	181.0	59.0	20.0	120.0	38.0
sample1	obj66	164.0	40.0	81.0	193.0	41.0
sample1	obj67	118.0	35.0	117.0	11.0	7.0
sample1	obj68	176.0	764.0	674.0	787.0	3278.0
sample1	obj69	97.0	214.0	901.0	1475.0	943.0
sample1	obj70	189.0	772.0	147.0	19.0	38.0
sample1	obj71	199.0	121.0	66.0	71.0	12.0
sample1	obj72	101.0	37.0	12.0	2.0	3.0
sample1	obj73	87.0	23.0	6.0	1.0	0.0
sample1	obj74	76.0	11.0	81.0	11.0	4.0
sample1	obj75	26.0	119.0	47.0	246.0	361.0
sample1	obj76	30.0	16.0	91.0	277.0	85.0
sample1	obj77	86.0	93.0	40.0	299.0	61.0
sample1	obj78	171.0	61.0	382.0	814.0	394.0
sample1	obj79	99.0	156.0	225.0	468.0	384.0
sample1	obj80	162.0	173.0	277.0	230.0	149.0
sample1	obj81	131.0	18.0	52.0	176.0	114.0
sample1	obj82	198.0	30.0	4.0	1.0	0.0
sample1	obj83	175.0	916.0	1973.0	674.0	4376.0
sample1	obj84	44.0	31.0	18.0	15.0	7.0
sample1	obj85	101.0	70.0	262.0	295.0	2079.0
sample1	obj86	103.0	813.0	1471.0	5968.0	7562.0
sample1	obj87	27.0	21.0	8.0	2.0	1.0
sample1	obj88	127.0	42.0	103.0	147.0	167.0
sample1	obj89	120.0	17.0	1.0	12.0	93.0
sample1	obj90	117.0	17.0	88.0	142.0	71.0
sample1	obj91	127.0	954.0	2829.0	1150.0	2708.0
sample1	obj92	74.0	175.0	53.0	33.0	97.0
sample1	obj93	174.0	68.0	437.0	3085.0	1792.0
sample1	obj94	6.0	14.0	5.0	29.0	43.0
sample1	obj95	13.0	6.0	8.0	29.0	94.0
sample1	obj96	68.0	11.0	18.0	13.0	37.0
sample1	obj97	84.0	119.0	286.0	628.0	955.0
sample1	obj98	97.0	76.0	24.0	134.0	51.0
sample1	obj99	79.0	500.0	1634.0	2562.0	2098.0
sample1	obj100	19.0	150.0	467.0	434.0	536.0
sample1	obj101	168.0	17.0	3.0	11.0	39.0
sample1	obj102	83.0	33.0	6.0	0.0	0.0
sample1	obj103	173.0	1280.0	1345.0	9281.0	4409.0
sample1	obj104	152.0	29.0	2.0	17.0	196.0
sample1	obj105	41.0	224.0	38.0	120.0	146.0
sample1	obj106	162.0	585.0	676.0	1016.0	6319.0
sample1	obj107	55.0	8.0	1.0	0.0	0.0
sample1	obj108	72.0	446.0	108.0	631.0	850.0
sample1	obj109	31.0	4.0	7.0	38.0	5.0
sample1	obj110	50.0	202.0	74.0	340.0	1478.0
sample1	obj111	26.0	2.0	0.0	0.0	0.0
sample1	obj112	106.0	57.0	29.0	7.0	11.0
sample1	obj113	146.0	35.0	32.0	12.0	5.0
sample1	obj114	55.0	106.0	129.0	146.0	40.0
sample1	obj115	29.0	38.0	74.0	13.0	11.0
sample1	obj116	151.0	208.0	1392.0	852.0	162.0
sample1	obj117	8.0	21.0	2.0	6.0	2.0
sample1	obj118	71.0	189.0	72.0	192.0	307.0
sample1	obj119	24.0	27.0	7.0	1.0	3.0
sample1	obj120	194.0	362.0	2669.0	2657.0	7769.0
sample1	obj121	67.0	23.0	131.0	334.0	186.0
sample1	obj122	141.0	133.0	144.0	204.0	80.0
sample1	obj123	40.0	25.0	8.0	11.0	39.0
sample1	obj124	154.0	50.0	195.0	22.0	20.0
sample1	obj125	186.0	133.0	408.0	193.0	70.0
sample1	obj126	196.0	563.0	413.0	270.0	2082.0
sample1	obj127	25.0	5.0	1.0	7.0	41.0
sample1	obj128	67.0	19.0	100.0	31.0	40.0
sample1	obj129	11.0	5.0	4.0	10.0	4.0
sample1	obj130	87.0	129.0	26.0	83.0	21.0
sample1	obj131	124.0	25.0	5.0	21.0	2.0
sample1	obj132	78.0	22.0	130.0	32.0	38.0
sample1	obj133	17.0	40.0	29.0	12.0	30.0
sample1	obj134	25.0	31.0	13.0	90.0	118.0
sample1	obj135	54.0	12.0	7.0	15.0	40.0
sample1	obj136	29.0	21.0	54.0	119.0	15.0
sample1	obj137	47.0	54.0	151.0	56.0	28.0
sample1	obj138	3.0	4.0	9.0	2.0	1.0
sample1	obj139	140.0	21.0	40.0	62.0	45.0
sample1	obj140	152.0	593.0	86.0	11.0	8.0
sample1	obj141	124.0	115.0	264.0	1347.0	4565.0
sample1	obj142	140.0	88.0	311.0	1062.0	393.0
sample1	obj143	171.0	57.0	148.0	955.0	148.0
sample1	obj144	142.0	188.0	700.0	129.0	34.0
sample1	obj145	191.0	763.0	3112.0	2283.0	11839.0
sample1	obj146	158.0	424.0	57.0	7.0	4.0
sample1	obj147	181.0	48.0	29.0	27.0	18.0
sample1	obj148	10.0	8.0	21.0	5.0	37.0
sample1	obj149	22.0	14.0	4.0	3.0	22.0
sample1	obj150	94.0	32.0	62.0	354.0	47.0
sample1	obj151	108.0	10.0	0.0	0.0	0.0
sample1	obj152	34.0	5.0	1.0	7.0	1.0
sample1	obj153	12.0	90.0	337.0	150.0	214.0
sample1	obj154	183.0	74.0	24.0	148.0	83.0
sample1	obj155	174.0	531.0	97.0	660.0	513.0
sample1	obj156	11.0	21.0	114.0	38.0	97.0
sample1	obj157	175.0	726.0	92.0	13.0	82.0
sample1	obj158	62.0	85.0	27.0	8.0	4.0
sample1	obj159	82.0	10.0	5.0	1.0	2.0
sample1	obj160	91.0	180.0	195.0	58.0	13.0
sample1	obj161	100.0	502.0	187.0	328.0	315.0
sample1	obj162	147.0	74.0	114.0	446.0	1944.0
sample1	obj163	8.0	8.0	18.0	4.0	6.0
sample1	obj164	13.0	1.0	0.0	0.0	0.0
sample1	obj165	188.0	1070.0	813.0	1397.0	1425.0
sample1	obj166	165.0	95.0	214.0	849.0	2436.0
sample1	obj167	99.0	134.0	30.0	50.0	7.0
sample1	obj168	28.0	4.0	0.0	0.0	0.0
sample1	obj169	31.0	5.0	1.0	2.0	0.0
sample1	obj170	138.0	33.0	14.0	37.0	223.0
sample1	obj171	83.0	45.0	28.0	12.0	27.0
sample1	obj172	16.0	63.0	27.0	5.0	5.0
sample1	obj173	138.0	89.0	436.0	105.0	133.0
sample1	obj174	83.0	30.0	54.0	12.0	14.0
sample1	obj175	132.0	980.0	2457.0	1313.0	522.0
sample1	obj176	153.0	451.0	123.0	701.0	787.0
sample1	obj177	122.0	17.0	41.0	106.0	345.0
sample1	obj178	127.0	27.0	160.0	28.0	32.0
sample1	obj179	153.0	878.0	496.0	116.0	190.0
sample1	obj180	82.0	363.0	1113.0	363.0	269.0
sample1	obj181	93.0	37.0	137.0	39.0	203.0
sample1	obj182	34.0	42.0	89.0	663.0	2092.0
sample1	obj183	147.0	1059.0	1152.0	2187.0	390.0
sample1	obj184	67.0	12.0	2.0	8.0	28.0
sample1	obj185	20.0	144.0	713.0	111.0	17.0
sample1	obj186	171.0	80.0	55.0	11.0	7.0
sample1	obj187	158.0	160.0	50.0	328.0	51.0
sample1	obj188	13.0	10.0	7.0	19.0	42.0
sample1	obj189	178.0	23.0	1.0	9.0	42.0
sample1	obj190	45.0	16.0	64.0	59.0	53.0
sample1	obj191	110.0	165.0	93.0	12.0	3.0
sample1	obj192	36.0	72.0	154.0	644.0	411.0
sample1	obj193	95.0	41.0	12.0	33.0	263.0
sample1	obj194	129.0	75.0	87.0	57.0	52.0
sample1	obj195	194.0	1484.0	3655.0	3321.0	1210.0
sample1	obj196	11.0	68.0	25.0	71.0	111.0
sample1	obj197	65.0	69.0	53.0	414.0	3283.0
sample1	obj198	153.0	905.0	871.0	5343.0	18670.0
sample1	obj199	127.0	46.0	60.0	390.0	96.0
sample1	obj200	175.0	26.0	124.0	54.0	27.0
sample1	obj201	168.0	871.0	786.0	5650.0	3555.0
sample1	obj202	41.0	6.0	6.0	1.0	2.0
sample1	obj203	121.0	20.0	8.0	19.0	4.0
sample1	obj204	162.0	968.0	5170.0	2416.0	3691.0
sample1	obj205	114.0	25.0	8.0	5.0	27.0
sample1	obj206	55.0	11.0	5.0	2.0	2.0
sample1	obj207	92.0	24.0	7.0	21.0	104.0
sample1	obj208	122.0	569.0	158.0	323.0	135.0
sample1	obj209	166.0	329.0	51.0	80.0	20.0
sample1	obj210	145.0	188.0	268.0	569.0	504.0
sample1	obj211	126.0	31.0	7.0	10.0	8.0
sample1	obj212	12.0	2.0	15.0	2.0	2.0
sample1	obj213	181.0	133.0	51.0	7.0	5.0
sample1	obj214	54.0	412.0	2005.0	426.0	67.0
sample1	obj215	37.0	7.0	28.0	80.0	58.0
sample1	obj216	39.0	33.0	233.0	1058.0	6784.0
sample1	obj217	95.0	87.0	136.0	54.0	31.0
sample1	obj218	193.0	979.0	727.0	1022.0	261.0
sample1	obj219	123.0	30.0	18.0	11.0	18.0
sample1	obj220	117.0	21.0	14.0	6.0	12.0
sample1	obj221	81.0	243.0	275.0	1523.0	8499.0
sample1	obj222	109.0	43.0	203.0	24.0	12.0
sample1	obj223	70.0	52.0	19.0	5.0	7.0
sample1	obj224	90.0	45.0	9.0	19.0	82.0
sample1	obj225	102.0	16.0	57.0	17.0	23.0
sample1	obj226	72.0	76.0	52.0	169.0	255.0
sample1	obj227	28.0	11.0	5.0	1.0	4.0
sample1	obj228	69.0	12.0	1.0	10.0	116.0
sample1	obj229	87.0	237.0	91.0	16.0	16.0
sample1	obj230	184.0	12.0	1.0	10.0	59.0
sample1	obj231	14.0	73.0	189.0	193.0	339.0
sample1	obj232	97.0	31.0	101.0	19.0	11.0
sample1	obj233	10.0	2.0	11.0	2.0	2.0
sample1	obj234	8.0	1.0	0.0	0.0	0.0
sample1	obj235	41.0	5.0	37.0	40.0	20.0
sample1	obj236	47.0	110.0	800.0	3202.0	1554.0
sample1	obj237	8.0	31.0	156.0	33.0	20.0
sample1	obj238	6.0	2.0	0.0	0.0	0.0
sample1	obj239	58.0	12.0	1.0	2.0	11.0
sample1	obj240	192.0	1067.0	231.0	99.0	92.0
sample1	obj241	192.0	13.0	1.0	12.0	74.0
sample1	obj242	160.0	144.0	87.0	15.0	7.0
sample1	obj243	187.0	23.0	57.0	25.0	120.0
sample1	obj244	15.0	31.0	11.0	1.0	0.0
sample1	obj245	133.0	9.0	1.0	7.0	36.0
sample1	obj246	12.0	49.0	10.0	18.0	5.0
sample1	obj247	130.0	244.0	271.0	1145.0	304.0
sample1	obj248	103.0	158.0	379.0	259.0	826.0
sample1	obj249	10.0	11.0	1.0	5.0	1.0
sample1	obj250	115.0	16.0	1.0	8.0	91.0
sample1	obj251	120.0	456.0	239.0	210.0	532.0
sample1	obj252	161.0	418.0	752.0	1744.0	2884.0
sample1	obj253	171.0	69.0	76.0	31.0	12.0
sample1	obj254	8.0	6.0	18.0	118.0	107.0
sample1	obj255	178.0	49.0	201.0	24.0	26.0
sample1	obj256	98.0	125.0	112.0	40.0	11.0
sample1	obj257	107.0	35.0	4.0	1.0	1.0
sample1	obj258	83.0	20.0	72.0	8.0	6.0
sample1	obj259	75.0	48.0	95.0	49.0	88.0
sample1	obj260	149.0	8.0	1.0	5.0	32.0
sample1	obj261	8.0	47.0	129.0	851.0	135.0
sample1	obj262	166.0	501.0	653.0	231.0	41.0
sample1	obj263	30.0	5.0	0.0	0.0	0.0
sample1	obj264	183.0	443.0	106.0	150.0	76.0
sample1	obj265	103.0	343.0	95.0	424.0	574.0
sample1	obj266	79.0	289.0	99.0	80.0	55.0
sample1	obj267	72.0	23.0	27.0	4.0	9.0
sample1	obj268	105.0	178.0	25.0	37.0	74.0
sample1	obj269	53.0	7.0	2.0	10.0	1.0
sample1	obj270	183.0	56.0	364.0	62.0	368.0
sample1	obj271	105.0	253.0	82.0	493.0	549.0
sample1	obj272	177.0	63.0	258.0	96.0	111.0
sample1	obj273	112.0	250.0	381.0	794.0	3934.0
sample1	obj274	166.0	1315.0	248.0	50.0	215.0
sample1	obj275	102.0	35.0	20.0	5.0	10.0
sample1	obj276	111.0	93.0	33.0	7.0	13.0
sample1	obj277	69.0	22.0	42.0	17.0	6.0
sample1	obj278	53.0	7.0	22.0	27.0	37.0
sample1	obj279	131.0	22.0	5.0	2.0	10.0
sample1	obj280	52.0	182.0	27.0	127.0	79.0
sample1	obj281	115.0	543.0	61.0	341.0	520.0
sample1	obj282	123.0	952.0	200.0	70.0	117.0
sample1	obj283	125.0	218.0	762.0	337.0	1556.0
sample1	obj284	45.0	106.0	28.0	151.0	63.0
sample1	obj285	86.0	600.0	119.0	577.0	722.0
sample1	obj286	123.0	49.0	53.0	13.0	42.0
sample1	obj287	48.0	188.0	671.0	2197.0	14087.0
sample1	obj288	153.0	69.0	100.0	14.0	4.0
sample1	obj289	72.0	80.0	519.0	3593.0	949.0
sample1	obj290	155.0	766.0	1007.0	1052.0	7772.0
sample1	obj291	86.0	13.0	7.0	7.0	24.0
sample1	obj292	144.0	19.0	151.0	22.0	3.0
sample1	obj293	118.0	660.0	1459.0	358.0	1124.0
sample1	obj294	40.0	5.0	16.0	10.0	10.0
sample1	obj295	26.0	11.0	16.0	35.0	15.0
sample1	obj296	139.0	34.0	17.0	3.0	9.0
sample1	obj297	156.0	45.0	57.0	14.0	1.0
sample1	obj298	102.0	404.0	139.0	786.0	1026.0
sample1	obj299	121.0	18.0	126.0	729.0	1173.0
sample1	obj300	196.0	1544.0	698.0	2535.0	576.0
sample1	obj301	164.0	44.0	160.0	170.0	25.0
sample1	obj302	11.0	31.0	59.0	109.0	318.0
sample1	obj303	42.0	249.0	51.0	8.0	5.0
sample1	obj304	62.0	137.0	482.0	70.0	474.0
sample1	obj305	187.0	620.0	1587.0	8985.0	20761.0
sample1	obj306	114.0	64.0	396.0	89.0	71.0
sample1	obj307	83.0	14.0	67.0	387.0	202.0
sample1	obj308	155.0	50.0	133.0	28.0	19.0
sample1	obj309	28.0	55.0	65.0	14.0	38.0
sample1	obj310	128.0	149.0	67.0	14.0	17.0
sample1	obj311	95.0	22.0	22.0	26.0	118.0
sample1	obj312	109.0	28.0	126.0	28.0	223.0
sample1	obj313	125.0	71.0	58.0	159.0	137.0
sample1	obj314	4.0	1.0	0.0	0.0	0.0
sample1	obj315	157.0	1065.0	1872.0	752.0	208.0
sample1	obj316	46.0	356.0	1908.0	1265.0	323.0
sample1	obj317	34.0	5.0	24.0	5.0	3.0
sample1	obj318	25.0	91.0	196.0	58.0	186.0
sample1	obj319	168.0	32.0	11.0	6.0	36.0
sample1	obj320	12.0	11.0	32.0	105.0	61.0
sample1	obj321	151.0	29.0	5.0	63.0	494.0
sample1	obj322	199.0	47.0	12.0	2.0	15.0
sample1	obj323	34.0	34.0	93.0	295.0	48.0
sample1	obj324	59.0	81.0	90.0	11.0	15.0
sample1	obj325	188.0	308.0	1481.0	408.0	178.0
sample1	obj326	148.0	24.0	94.0	112.0	70.0
sample1	obj327	126.0	584.0	669.0	647.0	732.0
sample1	obj328	183.0	101.0	509.0	333.0	70.0
sample1	obj329	118.0	15.0	1.0	12.0	112.0
sample1	obj330	150.0	634.0	332.0	51.0	10.0
sample1	obj331	6.0	12.0	6.0	0.0	0.0
sample1	obj332	90.0	662.0	3233.0	883.0	2061.0
sample1	obj333	174.0	75.0	163.0	278.0	179.0
sample1	obj334	28.0	11.0	12.0	1.0	0.0
sample1	obj335	137.0	76.0	50.0	16.0	4.0
sample1	obj336	111.0	655.0	1240.0	298.0	119.0
sample1	obj337	43.0	6.0	37.0	286.0	1923.0
sample1	obj338	22.0	40.0	21.0	3.0	12.0
sample1	obj339	91.0	13.0	2.0	9.0	1.0
sample1	obj340	137.0	125.0	196.0	55.0	108.0
sample1	obj341	56.0	106.0	25.0	104.0	43.0
sample1	obj342	196.0	24.0	11.0	1.0	0.0
sample1	obj343	110.0	18.0	1.0	9.0	59.0
sample1	obj344	65.0	13.0	16.0	2.0	0.0
sample1	obj345	90.0	155.0	34.0	55.0	22.0
sample1	obj346	115.0	225.0	767.0	255.0	850.0
sample1	obj347	123.0	779.0	343.0	254.0	32.0
sample1	obj348	167.0	34.0	12.0	81.0	153.0
sample1	obj349	185.0	251.0	581.0	770.0	147.0
sample1	obj350	79.0	69.0	14.0	32.0	42.0
sample1	obj351	21.0	5.0	20.0	3.0	1.0
sample1	obj352	34.0	5.0	2.0	8.0	41.0
sample1	obj353	133.0	18.0	127.0	275.0	124.0
sample1	obj354	183.0	101.0	93.0	15.0	31.0
sample1	obj355	43.0	17.0	8.0	20.0	3.0
sample1	obj356	6.0	3.0	2.0	8.0	4.0
sample1	obj357	182.0	827.0	2476.0	661.0	1940.0
sample1	obj358	37.0	289.0	94.0	453.0	529.0
sample1	obj359	184.0	46.0	67.0	108.0	531.0
sample1	obj360	73.0	348.0	820.0	6180.0	13433.0
sample1	obj361	3.0	2.0	6.0	1.0	0.0
sample1	obj362	51.0	26.0	8.0	53.0	19.0
sample1	obj363	180.0	686.0	678.0	251.0	381.0
sample1	obj364	196.0	1042.0	354.0	1564.0	1187.0
sample1	obj365	177.0	82.0	559.0	145.0	325.0
sample1	obj366	33.0	50.0	8.0	28.0	4.0
sample1	obj367	22.0	7.0	9.0	14.0	20.0
sample1	obj368	168.0	876.0	269.0	885.0	538.0
sample1	obj369	136.0	99.0	40.0	51.0	25.0
sample1	obj370	189.0	1285.0	4157.0	1652.0	2837.0
sample1	obj371	40.0	57.0	34.0	4.0	1.0
sample1	obj372	187.0	1245.0	8642.0	1269.0	5940.0
sample1	obj373	107.0	546.0	3808.0	2365.0	2099.0
sample1	obj374	155.0	731.0	255.0	921.0	295.0
sample1	obj375	143.0	663.0	388.0	2957.0	859.0
sample1	obj376	71.0	42.0	40.0	207.0	48.0
sample1	obj377	38.0	35.0	25.0	29.0	5.0
sample1	obj378	76.0	10.0	6.0	2.0	3.0
sample1	obj379	77.0	7.0	0.0	0.0	0.0
sample1	obj380	88.0	24.0	17.0	6.0	0.0
sample1	obj381	166.0	1047.0	384.0	2059.0	3133.0
sample1	obj382	181.0	675.0	2617.0	1238.0	7620.0
sample1	obj383	80.0	17.0	116.0	417.0	175.0
sample1	obj384	135.0	33.0	13.0	3.0	10.0
sample1	obj385	76.0	247.0	1197.0	617.0	3992.0
sample1	obj386	80.0	211.0	52.0	222.0	328.0
sample1	obj387	190.0	619.0	133.0	804.0	602.0
sample1	obj388	93.0	245.0	1532.0	1791.0	2043.0
sample1	obj389	169.0	599.0	134.0	1067.0	997.0
sample1	obj390	76.0	90.0	15.0	3.0	14.0
sample1	obj391	19.0	134.0	45.0	223.0	339.0
sample1	obj392	99.0	44.0	333.0	480.0	279.0
sample1	obj393	151.0	75.0	17.0	60.0	23.0
sample1	obj394	66.0	8.0	1.0	0.0	0.0
sample1	obj395	62.0	336.0	287.0	445.0	76.0
sample1	obj396	198.0	507.0	141.0	18.0	25.0
sample1	obj397	151.0	17.0	2.0	12.0	90.0
sample1	obj398	172.0	550.0	378.0	321.0	1632.0
sample1	obj399	151.0	21.0	61.0	22.0	83.0
sample1	obj400	11.0	1.0	0.0	0.0	0.0
sample1	obj401	194.0	422.0	148.0	485.0	393.0
sample1	obj402	36.0	186.0	114.0	170.0	292.0
sample1	obj403	114.0	619.0	130.0	582.0	553.0
sample1	obj404	128.0	415.0	183.0	1006.0	202.0
sample1	obj405	66.0	10.0	78.0	92.0	91.0
sample1	obj406	56.0	239.0	702.0	370.0	505.0
sample1	obj407	43.0	15.0	93.0	22.0	18.0
sample1	obj408	173.0	154.0	62.0	49.0	275.0
sample1	obj409	156.0	301.0	72.0	561.0	85.0
sample1	obj410	121.0	131.0	737.0	3696.0	19109.0
sample1	obj411	48.0	176.0	40.0	93.0	91.0
sample1	obj412	20.0	6.0	0.0	0.0	0.0
sample1	obj413	7.0	3.0	8.0	3.0	8.0
sample1	obj414	69.0	417.0	164.0	814.0	187.0
sample1	obj415	105.0	32.0	9.0	5.0	9.0
sample1	obj416	184.0	276.0	352.0	143.0	290.0
sample1	obj417	195.0	37.0	122.0	14.0	9.0
sample1	obj418	61.0	196.0	38.0	83.0	83.0
sample1	obj419	61.0	22.0	37.0	4.0	3.0
sample1	obj420	103.0	15.0	1.0	2.0	0.0
sample1	obj421	26.0	60.0	21.0	30.0	126.0
sample1	obj422	98.0	19.0	100.0	24.0	25.0
sample1	obj423	94.0	22.0	30.0	5.0	34.0
sample1	obj424	108.0	407.0	332.0	128.0	220.0
sample1	obj425	167.0	12.0	1.0	5.0	36.0
sample1	obj426	4.0	5.0	1.0	0.0	0.0
sample1	obj427	36.0	31.0	12.0	1.0	1.0
sample1	obj428	199.0	519.0	191.0	1034.0	1308.0
sample1	obj429	171.0	1048.0	227.0	45.0	100.0
sample1	obj430	137.0	87.0	359.0	73.0	97.0
sample1	obj431	56.0	362.0	2092.0	4770.0	2704.0
sample1	obj432	184.0	232.0	1675.0	12367.0	13225.0
sample1	obj433	99.0	75.0	340.0	255.0	126.0
sample1	obj434	104.0	444.0	121.0	742.0	710.0
sample1	obj435	137.0	453.0	130.0	520.0	252.0
sample1	obj436	102.0	21.0	15.0	8.0	4.0
sample1	obj437	150.0	31.0	20.0	7.0	31.0
sample1	obj438	148.0	23.0	1.0	5.0	19.0
sample1	obj439	69.0	21.0	5.0	1.0	0.0
sample1	obj440	83.0	6.0	0.0	0.0	0.0
sample1	obj441	199.0	502.0	108.0	663.0	810.0
sample1	obj442	158.0	134.0	116.0	209.0	386.0
sample1	obj443	67.0	137.0	34.0	216.0	209.0
sample1	obj444	143.0	37.0	15.0	12.0	1.0
sample1	obj445	44.0	94.0	37.0	114.0	114.0
sample1	obj446	179.0	299.0	139.0	284.0	106.0
sample1	obj447	87.0	167.0	386.0	1793.0	3280.0
sample1	obj448	124.0	718.0	239.0	86.0	420.0
sample1	obj449	154.0	14.0	1.0	12.0	128.0
sample1	obj450	195.0	71.0	29.0	3.0	2.0
sample1	obj451	52.0	9.0	4.0	0.0	0.0
sample1	obj452	135.0	22.0	5.0	19.0	2.0
sample1	obj453	92.0	13.0	38.0	9.0	28.0
sample1	obj454	58.0	11.0	37.0	293.0	61.0
sample1	obj455	181.0	155.0	31.0	34.0	37.0
sample1	obj456	28.0	145.0	85.0	102.0	784.0
sample1	obj457	172.0	9.0	0.0	0.0	0.0
sample1	obj458	168.0	53.0	16.0	5.0	3.0
sample1	obj459	147.0	488.0	165.0	744.0	1121.0
sample1	obj460	78.0	164.0	135.0	19.0	14.0
sample1	obj461	66.0	61.0	42.0	31.0	38.0
sample1	obj462	164.0	56.0	225.0	83.0	116.0
sample1	obj463	1.0	0.0	0.0	0.0	0.0
sample1	obj464	75.0	408.0	625.0	1191.0	7967.0
sample1	obj465	140.0	175.0	642.0	1276.0	688.0
sample1	obj466	66.0	140.0	374.0	1196.0	603.0
sample1	obj467	20.0	39.0	10.0	66.0	133.0
sample1	obj468	16.0	90.0	35.0	127.0	58.0
sample1	obj469	120.0	113.0	198.0	1278.0	6543.0
sample1	obj470	193.0	794.0	575.0	2956.0	4991.0
sample1	obj471	22.0	6.0	22.0	15.0	4.0
sample1	obj472	44.0	216.0	1513.0	7683.0	3007.0
sample1	obj473	118.0	24.0	155.0	48.0	9.0
sample1	obj474	165.0	465.0	1625.0	1398.0	3038.0
sample1	obj475	52.0	29.0	124.0	46.0	11.0
sample1	obj476	13.0	1.0	0.0	0.0	0.0
sample1	obj477	25.0	43.0	11.0	13.0	11.0
sample1	obj478	48.0	87.0	27.0	83.0	565.0
sample1	obj479	63.0	153.0	56.0	23.0	97.0
sample1	obj480	88.0	14.0	10.0	2.0	6.0
sample1	obj481	108.0	6.0	0.0	0.0	0.0
sample1	obj482	77.0	6.0	1.0	6.0	58.0
sample1	obj483	57.0	436.0	102.0	24.0	3.0
sample1	obj484	131.0	985.0	3120.0	1231.0	6078.0
sample1	obj485	157.0	54.0	9.0	1.0	1.0
sample1	obj486	127.0	11.0	1.0	10.0	75.0
sample1	obj487	148.0	659.0	170.0	935.0	123.0
sample1	obj488	148.0	582.0	109.0	98.0	14.0
sample1	obj489	120.0	8.0	0.0	0.0	0.0
sample1	obj490	167.0	32.0	1.0	5.0	34.0
sample1	obj491	191.0	38.0	17.0	27.0	76.0
sample1	obj492	86.0	30.0	12.0	56.0	295.0
sample1	obj493	30.0	8.0	13.0	49.0	297.0
sample1	obj494	136.0	26.0	30.0	15.0	12.0
sample1	obj495	46.0	10.0	6.0	6.0	3.0
sample1	obj496	20.0	10.0	10.0	14.0	14.0
sample1	obj497	61.0	28.0	27.0	7.0	47.0
sample1	obj498	55.0	320.0	120.0	711.0	681.0
sample1	obj499	176.0	529.0	418.0	206.0	54.0
sample1	obj500	65.0	15.0	13.0	7.0	2.0
sample1	obj501	96.0	323.0	141.0	536.0	328.0
sample1	obj502	73.0	535.0	88.0	59.0	18.0
sample1	obj503	107.0	591.0	166.0	82.0	59.0
sample1	obj504	45.0	59.0	186.0	274.0	465.0
sample1	obj505	62.0	13.0	3.0	0.0	0.0
sample1	obj506	123.0	59.0	109.0	184.0	34.0
sample1	obj507	92.0	96.0	361.0	1903.0	239.0
sample1	obj508	63.0	39.0	69.0	22.0	3.0
sample1	obj509	158.0	20.0	30.0	5.0	0.0
sample1	obj510	159.0	26.0	53.0	307.0	220.0
sample1	obj511	88.0	210.0	97.0	127.0	27.0
sample1	obj512	199.0	172.0	845.0	359.0	317.0
sample1	obj513	114.0	491.0	824.0	636.0	3546.0
sample1	obj514	75.0	11.0	8.0	10.0	3.0
sample1	obj515	69.0	24.0	6.0	0.0	0.0
sample1	obj516	81.0	265.0	50.0	13.0	46.0
sample1	obj517	83.0	16.0	98.0	318.0	751.0
sample1	obj518	196.0	93.0	16.0	46.0	22.0
sample1	obj519	173.0	49.0	42.0	65.0	423.0
sample1	obj520	151.0	29.0	54.0	5.0	7.0
sample1	obj521	73.0	27.0	12.0	25.0	4.0
sample1	obj522	36.0	67.0	79.0	23.0	13.0
sample1	obj523	146.0	462.0	97.0	97.0	192.0
sample1	obj524	146.0	148.0	1167.0	5076.0	2720.0
sample1	obj525	198.0	448.0	85.0	456.0	236.0
sample1	obj526	152.0	24.0	69.0	14.0	18.0
sample1	obj527	152.0	23.0	54.0	17.0	84.0
sample1	obj528	29.0	42.0	157.0	32.0	6.0
sample1	obj529	139.0	77.0	359.0	135.0	46.0
sample1	obj530	164.0	64.0	57.0	256.0	34.0
sample1	obj531	14.0	6.0	7.0	18.0	79.0
sample1	obj532	199.0	1120.0	286.0	1384.0	2129.0
sample1	obj533	18.0	8.0	1.0	5.0	4.0
sample1	obj534	155.0	550.0	1265.0	233.0	294.0
sample1	obj535	91.0	11.0	2.0	19.0	194.0
sample1	obj536	84.0	13.0	1.0	0.0	0.0
sample1	obj537	11.0	2.0	1.0	1.0	1.0
sample1	obj538	54.0	48.0	288.0	1895.0	498.0
sample1	obj539	22.0	6.0	22.0	3.0	1.0
sample1	obj540	86.0	75.0	36.0	253.0	1584.0
sample1	obj541	167.0	1286.0	988.0	402.0	1104.0
sample1	obj542	133.0	514.0	151.0	1182.0	456.0
sample1	obj543	80.0	112.0	384.0	239.0	724.0
sample1	obj544	84.0	193.0	301.0	45.0	130.0
sample1	obj545	153.0	222.0	66.0	25.0	39.0
sample1	obj546	135.0	254.0	421.0	226.0	701.0
sample1	obj547	103.0	363.0	364.0	204.0	309.0
sample1	obj548	91.0	491.0	382.0	855.0	679.0
sample1	obj549	169.0	37.0	232.0	46.0	45.0
sample1	obj550	33.0	41.0	57.0	145.0	869.0
sample1	obj551	110.0	17.0	1.0	5.0	51.0
sample1	obj552	177.0	378.0	197.0	595.0	366.0
sample1	obj553	172.0	81.0	33.0	11.0	32.0
sample1	obj554	151.0	631.0	382.0	859.0	3011.0
sample1	obj555	65.0	59.0	11.0	33.0	84.0
sample1	obj556	163.0	78.0	31.0	11.0	51.0
sample1	obj557	59.0	14.0	50.0	5.0	4.0
sample1	obj558	134.0	19.0	2.0	1.0	0.0
sample1	obj559	163.0	163.0	277.0	127.0	96.0
sample1	obj560	80.0	105.0	504.0	607.0	239.0
sample1	obj561	65.0	56.0	19.0	28.0	63.0
sample1	obj562	59.0	38.0	43.0	46.0	79.0
sample1	obj563	171.0	45.0	16.0	9.0	8.0
sample1	obj564	130.0	61.0	18.0	9.0	4.0
sample1	obj565	129.0	889.0	306.0	2136.0	268.0
sample1	obj566	135.0	23.0	87.0	30.0	44.0
sample1	obj567	189.0	1464.0	7674.0	21977.0	9139.0
sample1	obj568	109.0	79.0	101.0	86.0	274.0
sample1	obj569	92.0	17.0	106.0	26.0	3.0
sample1	obj570	166.0	564.0	335.0	1222.0	4629.0
sample1	obj571	13.0	1.0	0.0	0.0	0.0
sample1	obj572	163.0	249.0	188.0	187.0	149.0
sample1	obj573	141.0	25.0	1.0	4.0	29.0
sample1	obj574	23.0	22.0	21.0	5.0	0.0
sample1	obj575	58.0	23.0	40.0	9.0	12.0
sample1	obj576	82.0	15.0	4.0	3.0	0.0
sample1	obj577	153.0	21.0	70.0	11.0	61.0
sample1	obj578	198.0	610.0	282.0	136.0	21.0
sample1	obj579	160.0	50.0	213.0	35.0	42.0
sample1	obj580	157.0	103.0	169.0	250.0	300.0
sample1	obj581	42.0	84.0	14.0	12.0	75.0
sample1	obj582	46.0	60.0	356.0	2031.0	9862.0
sample1	obj583	86.0	685.0	230.0	96.0	35.0
sample1	obj584	124.0	58.0	230.0	651.0	295.0
sample1	obj585	79.0	15.0	46.0	77.0	99.0
sample1	obj586	103.0	50.0	75.0	12.0	4.0
sample1	obj587	79.0	131.0	417.0	981.0	1906.0
sample1	obj588	61.0	18.0	65.0	21.0	23.0
sample1	obj589	88.0	51.0	20.0	30.0	4.0
sample1	obj590	70.0	24.0	22.0	109.0	91.0
sample1	obj591	80.0	428.0	702.0	1214.0	5089.0
sample1	obj592	60.0	10.0	0.0	0.0	0.0
sample1	obj593	35.0	83.0	19.0	113.0	107.0
sample1	obj594	93.0	558.0	189.0	89.0	31.0
sample1	obj595	137.0	20.0	8.0	1.0	1.0
sample1	obj596	72.0	401.0	579.0	1715.0	1255.0
sample1	obj597	138.0	652.0	226.0	287.0	58.0
sample1	obj598	21.0	2.0	0.0	0.0	0.0
sample1	obj599	122.0	107.0	110.0	36.0	69.0
sample1	obj600	64.0	85.0	241.0	48.0	9.0
sample1	obj601	108.0	130.0	783.0	2858.0	586.0
sample1	obj602	55.0	148.0	203.0	96.0	272.0
sample1	obj603	155.0	463.0	393.0	132.0	178.0
sample1	obj604	117.0	26.0	34.0	10.0	1.0
sample1	obj605	191.0	467.0	60.0	13.0	6.0
sample1	obj606	84.0	116.0	487.0	2308.0	5941.0
sample1	obj607	152.0	647.0	4209.0	4142.0	890.0
sample1	obj608	28.0	77.0	7.0	27.0	40.0
sample1	obj609	29.0	53.0	13.0	58.0	46.0
sample1	obj610	179.0	73.0	81.0	17.0	113.0
sample1	obj611	194.0	50.0	35.0	41.0	124.0
sample1	obj612	184.0	24.0	5.0	3.0	5.0
sample1	obj613	199.0	413.0	86.0	33.0	6.0
sample1	obj614	53.0	307.0	57.0	200.0	190.0
sample1	obj615	26.0	4.0	2.0	0.0	0.0
sample1	obj616	163.0	41.0	135.0	18.0	9.0
sample1	obj617	194.0	124.0	498.0	105.0	693.0
sample1	obj618	150.0	560.0	136.0	135.0	62.0
sample1	obj619	45.0	17.0	104.0	30.0	15.0
sample1	obj620	58.0	348.0	81.0	467.0	518.0
sample1	obj621	155.0	209.0	333.0	68.0	74.0
sample1	obj622	61.0	41.0	16.0	11.0	7.0
sample1	obj623	63.0	48.0	181.0	103.0	157.0
sample1	obj624	140.0	34.0	36.0	7.0	14.0
sample1	obj625	88.0	205.0	1391.0	5098.0	29286.0
sample1	obj626	114.0	39.0	11.0	9.0	24.0
sample1	obj627	87.0	96.0	21.0	12.0	9.0
sample1	obj628	67.0	267.0	262.0	87.0	320.0
sample1	obj629	138.0	797.0	999.0	1389.0	862.0
sample1	obj630	111.0	64.0	22.0	5.0	1.0
sample1	obj631	14.0	104.0	21.0	58.0	125.0
sample1	obj632	134.0	302.0	155.0	127.0	21.0
sample1	obj633	157.0	766.0	122.0	618.0	534.0
sample1	obj634	18.0	71.0	12.0	27.0	42.0
sample1	obj635	93.0	148.0	400.0	1404.0	686.0
sample1	obj636	136.0	45.0	6.0	1.0	0.0
sample1	obj637	28.0	173.0	54.0	179.0	202.0
sample1	obj638	138.0	784.0	3744.0	23221.0	3662.0
sample1	obj639	173.0	46.0	74.0	15.0	22.0
sample1	obj640	33.0	98.0	80.0	126.0	52.0
sample1	obj641	7.0	27.0	8.0	12.0	5.0
sample1	obj642	84.0	28.0	87.0	34.0	40.0
sample1	obj643	165.0	217.0	48.0	9.0	13.0
sample1	obj644	70.0	222.0	195.0	350.0	462.0
sample1	obj645	168.0	1156.0	5967.0	758.0	179.0
sample1	obj646	179.0	25.0	5.0	0.0	0.0
sample1	obj647	152.0	483.0	281.0	498.0	321.0
sample1	obj648	195.0	479.0	2950.0	3812.0	568.0
sample1	obj649	137.0	712.0	868.0	631.0	2490.0
sample1	obj650	21.0	3.0	2.0	0.0	0.0
sample1	obj651	134.0	737.0	100.0	473.0	492.0
sample1	obj652	113.0	43.0	135.0	798.0	837.0
sample1	obj653	132.0	598.0	203.0	981.0	463.0
sample1	obj654	171.0	27.0	3.0	12.0	72.0
sample1	obj655	89.0	28.0	68.0	12.0	12.0
sample1	obj656	35.0	3.0	0.0	0.0	0.0
sample1	obj657	126.0	32.0	248.0	263.0	108.0
sample1	obj658	58.0	375.0	607.0	3309.0	15242.0
sample1	obj659	14.0	16.0	6.0	7.0	22.0
sample1	obj660	162.0	16.0	2.0	24.0	135.0
sample1	obj661	189.0	28.0	51.0	7.0	6.0
sample1	obj662	109.0	225.0	290.0	519.0	144.0
sample1	obj663	134.0	555.0	145.0	601.0	878.0
sample1	obj664	62.0	16.0	11.0	5.0	0.0
sample1	obj665	129.0	51.0	315.0	124.0	64.0
sample1	obj666	11.0	1.0	0.0	0.0	0.0
sample1	obj667	30.0	5.0	35.0	20.0	2.0
sample1	obj668	116.0	65.0	61.0	132.0	195.0
sample1	obj669	65.0	195.0	512.0	275.0	85.0
sample1	obj670	122.0	131.0	55.0	328.0	94.0
sample1	obj671	184.0	107.0	349.0	342.0	1602.0
sample1	obj672	37.0	28.0	9.0	1.0	0.0
sample1	obj673	79.0	69.0	364.0	1433.0	189.0
sample1	obj674	70.0	5.0	0.0	0.0	0.0
sample1	obj675	68.0	27.0	126.0	420.0	59.0
sample1	obj676	60.0	101.0	50.0	6.0	9.0
sample1	obj677	126.0	134.0	191.0	616.0	2232.0
sample1	obj678	4.0	1.0	0.0	0.0	0.0
sample1	obj679	146.0	911.0	243.0	1252.0	1239.0
sample1	obj680	128.0	51.0	8.0	45.0	111.0
sample1	obj681	45.0	80.0	223.0	899.0	1065.0
sample1	obj682	25.0	7.0	18.0	27.0	46.0
sample1	obj683	120.0	11.0	0.0	0.0	0.0
sample1	obj684	134.0	359.0	1820.0	1975.0	6586.0
sample1	obj685	28.0	153.0	15.0	66.0	38.0
sample1	obj686	88.0	177.0	679.0	3021.0	4220.0
sample1	obj687	179.0	172.0	233.0	927.0	431.0
sample1	obj688	102.0	36.0	115.0	22.0	15.0
sample1	obj689	86.0	29.0	8.0	1.0	0.0
sample1	obj690	129.0	1007.0	161.0	211.0	283.0
sample1	obj691	41.0	121.0	22.0	5.0	5.0
sample1	obj692	57.0	358.0	114.0	360.0	557.0
sample1	obj693	72.0	539.0	3671.0	6926.0	18549.0
sample1	obj694	12.0	3.0	0.0	0.0	0.0
sample1	obj695	178.0	195.0	379.0	96.0	609.0
sample1	obj696	184.0	24.0	1.0	11.0	86.0
sample1	obj697	27.0	5.0	1.0	6.0	33.0
sample1	obj698	51.0	377.0	961.0	123.0	240.0
sample1	obj699	46.0	15.0	2.0	4.0	2.0
sample1	obj700	50.0	10.0	11.0	4.0	13.0
sample1	obj701	46.0	216.0	42.0	51.0	46.0
sample1	obj702	18.0	3.0	2.0	4.0	0.0
sample1	obj703	142.0	27.0	57.0	13.0	14.0
sample1	obj704	110.0	755.0	120.0	619.0	112.0
sample1	obj705	121.0	449.0	95.0	18.0	2.0
sample1	obj706	99.0	143.0	374.0	1683.0	319.0
sample1	obj707	70.0	450.0	725.0	174.0	82.0
sample1	obj708	135.0	559.0	213.0	1170.0	1054.0
sample1	obj709	19.0	2.0	6.0	2.0	2.0
sample1	obj710	100.0	27.0	96.0	20.0	16.0
sample1	obj711	89.0	17.0	63.0	17.0	38.0
sample1	obj712	50.0	319.0	48.0	249.0	169.0
sample1	obj713	22.0	2.0	2.0	0.0	0.0
sample1	obj714	89.0	233.0	238.0	280.0	51.0
sample1	obj715	64.0	358.0	2574.0	11443.0	59729.0
sample1	obj716	87.0	25.0	127.0	46.0	49.0
sample1	obj717	119.0	47.0	6.0	15.0	2.0
sample1	obj718	120.0	271.0	819.0	6334.0	1237.0
sample1	obj719	115.0	16.0	45.0	7.0	7.0
sample1	obj720	193.0	230.0	1373.0	277.0	97.0
sample1	obj721	57.0	33.0	115.0	812.0	5128.0
sample1	obj722	68.0	293.0	313.0	1279.0	420.0
sample1	obj723	5.0	11.0	3.0	0.0	0.0
sample1	obj724	13.0	7.0	3.0	1.0	7.0
sample1	obj725	6.0	0.0	0.0	0.0	0.0
sample1	obj726	27.0	7.0	3.0	4.0	3.0
sample1	obj727	171.0	1176.0	1234.0	208.0	840.0
sample1	obj728	155.0	780.0	1099.0	6882.0	1098.0
sample1	obj729	152.0	175.0	421.0	493.0	906.0
sample1	obj730	117.0	362.0	58.0	216.0	463.0
sample1	obj731	179.0	31.0	187.0	49.0	61.0
sample1	obj732	42.0	126.0	75.0	514.0	154.0
sample1	obj733	46.0	28.0	16.0	18.0	35.0
sample1	obj734	187.0	44.0	143.0	54.0	73.0
sample1	obj735	183.0	27.0	16.0	90.0	255.0
sample1	obj736	130.0	342.0	590.0	1739.0	2579.0
sample1	obj737	16.0	3.0	8.0	31.0	140.0
sample1	obj738	163.0	740.0	776.0	205.0	210.0
sample1	obj739	48.0	12.0	35.0	262.0	2035.0
sample1	obj740	19.0	6.0	20.0	7.0	7.0
sample1	obj741	199.0	487.0	76.0	491.0	397.0
sample1	obj742	47.0	236.0	257.0	565.0	185.0
sample1	obj743	197.0	250.0	194.0	1079.0	673.0
sample1	obj744	114.0	616.0	248.0	36.0	9.0
sample1	obj745	95.0	544.0	160.0	680.0	583.0
sample1	obj746	40.0	112.0	14.0	31.0	31.0
sample1	obj747	59.0	178.0	52.0	299.0	223.0
sample1	obj748	37.0	5.0	1.0	0.0	0.0
sample1	obj749	187.0	28.0	5.0	40.0	445.0
sample1	obj750	50.0	106.0	75.0	99.0	25.0
sample1	obj751	29.0	144.0	1007.0	186.0	407.0
sample1	obj752	38.0	10.0	22.0	142.0	88.0
sample1	obj753	91.0	412.0	1334.0	257.0	335.0
sample1	obj754	26.0	2.0	0.0	0.0	0.0
sample1	obj755	190.0	141.0	1067.0	1217.0	815.0
sample1	obj756	17.0	30.0	3.0	18.0	23.0
sample1	obj757	2.0	0.0	0.0	0.0	0.0
sample1	obj758	45.0	21.0	9.0	2.0	2.0
sample1	obj759	25.0	40.0	62.0	70.0	17.0
sample1	obj760	89.0	70.0	75.0	43.0	103.0
sample1	obj761	61.0	43.0	113.0	625.0	3044.0
sample1	obj762	177.0	26.0	2.0	24.0	150.0
sample1	obj763	20.0	2.0	0.0	0.0	0.0
sample1	obj764	80.0	93.0	200.0	29.0	4.0
sample1	obj765	2.0	1.0	0.0	0.0	0.0
sample1	obj766	34.0	68.0	16.0	72.0	66.0
sample1	obj767	152.0	47.0	271.0	81.0	85.0
sample1	obj768	76.0	11.0	8.0	8.0	11.0
sample1	obj769	98.0	17.0	20.0	3.0	0.0
sample1	obj770	140.0	272.0	425.0	1096.0	1079.0
sample1	obj771	149.0	19.0	7.0	2.0	0.0
sample1	obj772	158.0	320.0	1248.0	614.0	147.0
sample1	obj773	115.0	16.0	59.0	48.0	12.0
sample1	obj774	126.0	19.0	8.0	5.0	15.0
sample1	obj775	44.0	12.0	76.0	22.0	39.0
sample1	obj776	113.0	69.0	515.0	1054.0	1112.0
sample1	obj777	192.0	675.0	757.0	325.0	377.0
sample1	obj778	140.0	374.0	55.0	22.0	52.0
sample1	obj779	179.0	112.0	138.0	337.0	235.0
sample1	obj780	24.0	24.0	123.0	206.0	324.0
sample1	obj781	165.0	189.0	298.0	546.0	1217.0
sample1	obj782	82.0	28.0	131.0	49.0	28.0
sample1	obj783	103.0	599.0	122.0	36.0	61.0
sample1	obj784	160.0	31.0	105.0	11.0	9.0
sample1	obj785	131.0	48.0	78.0	271.0	292.0
sample1	obj786	190.0	246.0	82.0	12.0	5.0
sample1	obj787	124.0	108.0	396.0	1077.0	2900.0
sample1	obj788	156.0	310.0	2009.0	4670.0	904.0
sample1	obj789	102.0	58.0	71.0	297.0	842.0
sample1	obj790	110.0	43.0	98.0	14.0	7.0
sample1	obj791	103.0	566.0	4071.0	947.0	580.0
sample1	obj792	187.0	326.0	62.0	53.0	44.0
sample1	obj793	30.0	34.0	140.0	1033.0	238.0
sample1	obj794	3.0	2.0	4.0	0.0	0.0
sample1	obj795	62.0	46.0	85.0	516.0	1669.0
sample1	obj796	67.0	74.0	53.0	147.0	75.0
sample1	obj797	76.0	138.0	88.0	12.0	5.0
sample1	obj798	29.0	9.0	36.0	4.0	4.0
sample1	obj799	127.0	326.0	1136.0	306.0	232.0
sample1	obj800	153.0	806.0	2319.0	895.0	4382.0
sample1	obj801	190.0	353.0	739.0	2964.0	1979.0
sample1	obj802	116.0	25.0	4.0	0.0	0.0
sample1	obj803	123.0	25.0	4.0	3.0	0.0
sample1	obj804	58.0	130.0	33.0	6.0	10.0
sample1	obj805	173.0	40.0	9.0	1.0	3.0
sample1	obj806	59.0	367.0	2017.0	4590.0	4657.0
sample1	obj807	103.0	134.0	679.0	5289.0	32946.0
sample1	obj808	195.0	271.0	578.0	2551.0	1956.0
sample1	obj809	195.0	891.0	1046.0	1454.0	1601.0
sample1	obj810	32.0	50.0	29.0	38.0	204.0
sample1	obj811	168.0	23.0	110.0	39.0	20.0
sample1	obj812	33.0	259.0	1937.0	5517.0	1324.0
sample1	obj813	12.0	84.0	375.0	2548.0	850.0
sample1	obj814	108.0	111.0	28.0	124.0	25.0
sample1	obj815	87.0	242.0	238.0	61.0	36.0
sample1	obj816	43.0	17.0	4.0	1.0	0.0
sample1	obj817	123.0	198.0	76.0	346.0	335.0
sample1	obj818	112.0	13.0	81.0	19.0	25.0
sample1	obj819	55.0	25.0	197.0	54.0	249.0
sample1	obj820	137.0	36.0	18.0	74.0	14.0
sample1	obj821	130.0	69.0	122.0	35.0	273.0
sample1	obj822	164.0	86.0	171.0	55.0	15.0
sample1	obj823	135.0	29.0	124.0	19.0	27.0
sample1	obj824	76.0	18.0	5.0	1.0	0.0
sample1	obj825	57.0	8.0	48.0	27.0	48.0
sample1	obj826	20.0	2.0	2.0	2.0	2.0
sample1	obj827	196.0	237.0	351.0	323.0	103.0
sample1	obj828	80.0	28.0	32.0	6.0	0.0
sample1	obj829	28.0	9.0	5.0	11.0	2.0
sample1	obj830	53.0	402.0	471.0	73.0	215.0
sample1	obj831	129.0	13.0	78.0	14.0	15.0
sample1	obj832	97.0	37.0	4.0	4.0	2.0
sample1	obj833	29.0	4.0	1.0	2.0	0.0
sample1	obj834	154.0	72.0	36.0	26.0	120.0
sample1	obj835	21.0	163.0	730.0	830.0	2649.0
sample1	obj836	91.0	22.0	42.0	7.0	6.0
sample1	obj837	8.0	15.0	80.0	503.0	1771.0
sample1	obj838	85.0	29.0	96.0	37.0	48.0
sample1	obj839	22.0	20.0	2.0	0.0	0.0
sample1	obj840	75.0	203.0	37.0	6.0	41.0
sample1	obj841	198.0	85.0	19.0	34.0	5.0
sample1	obj842	195.0	595.0	675.0	2494.0	1202.0
sample1	obj843	170.0	61.0	29.0	157.0	246.0
sample1	obj844	88.0	575.0	200.0	1287.0	3601.0
sample1	obj845	116.0	29.0	40.0	10.0	46.0
sample1	obj846	125.0	60.0	198.0	123.0	38.0
sample1	obj847	6.0	2.0	6.0	1.0	0.0
sample1	obj848	139.0	183.0	33.0	114.0	98.0
sample1	obj849	84.0	5.0	0.0	0.0	0.0
sample1	obj850	103.0	526.0	1696.0	9260.0	51773.0
sample1	obj851	140.0	622.0	4789.0	1099.0	3072.0
sample1	obj852	106.0	351.0	67.0	250.0	371.0
sample1	obj853	54.0	133.0	27.0	18.0	12.0
sample1	obj854	94.0	21.0	132.0	34.0	23.0
sample1	obj855	181.0	95.0	53.0	18.0	4.0
sample1	obj856	148.0	1179.0	525.0	935.0	1029.0
sample1	obj857	124.0	412.0	74.0	457.0	499.0
sample1	obj858	95.0	263.0	71.0	350.0	1127.0
sample1	obj859	196.0	24.0	116.0	177.0	214.0
sample1	obj860	91.0	112.0	21.0	17.0	62.0
sample1	obj861	33.0	4.0	0.0	0.0	0.0
sample1	obj862	184.0	38.0	183.0	168.0	23.0
sample1	obj863	37.0	15.0	3.0	1.0	5.0
sample1	obj864	136.0	40.0	124.0	24.0	13.0
sample1	obj865	49.0	14.0	56.0	6.0	8.0
sample1	obj866	112.0	26.0	44.0	17.0	100.0
sample1	obj867	184.0	159.0	48.0	89.0	440.0
sample1	obj868	75.0	206.0	23.0	109.0	149.0
sample1	obj869	83.0	25.0	4.0	23.0	4.0
sample1	obj870	186.0	392.0	2740.0	446.0	629.0
sample1	obj871	16.0	22.0	128.0	407.0	717.0
sample1	obj872	153.0	28.0	26.0	159.0	74.0
sample1	obj873	154.0	180.0	110.0	30.0	96.0
sample1	obj874	1.0	0.0	0.0	0.0	0.0
sample1	obj875	146.0	94.0	679.0	458.0	188.0
sample1	obj876	125.0	21.0	47.0	45.0	6.0
sample1	obj877	114.0	684.0	202.0	1037.0	1056.0
sample1	obj878	100.0	8.0	0.0	0.0	0.0
sample1	obj879	90.0	21.0	15.0	2.0	0.0
sample1	obj880	148.0	192.0	1168.0	256.0	52.0
sample1	obj881	5.0	4.0	6.0	7.0	5.0
sample1	obj882	101.0	172.0	37.0	146.0	91.0
sample1	obj883	12.0	6.0	8.0	14.0	95.0
sample1	obj884	183.0	34.0	111.0	50.0	199.0
sample1	obj885	195.0	47.0	196.0	63.0	98.0
sample1	obj886	200.0	259.0	449.0	668.0	246.0
sample1	obj887	193.0	41.0	163.0	90.0	60.0
sample1	obj888	140.0	890.0	175.0	450.0	278.0
sample1	obj889	180.0	185.0	30.0	13.0	76.0
sample1	obj890	59.0	167.0	512.0	72.0	17.0
sample1	obj891	117.0	708.0	456.0	406.0	302.0
sample1	obj892	81.0	14.0	17.0	37.0	6.0
sample1	obj893	124.0	632.0	310.0	92.0	470.0
sample1	obj894	39.0	269.0	128.0	175.0	35.0
sample1	obj895	42.0	99.0	145.0	841.0	2588.0
sample1	obj896	131.0	697.0	384.0	951.0	2947.0
sample1	obj897	141.0	464.0	158.0	537.0	275.0
sample1	obj898	109.0	150.0	365.0	134.0	36.0
sample1	obj899	79.0	48.0	195.0	24.0	28.0
