obj407	2
obj408	2
obj409	2
obj403	2
obj404	2
obj405	2
obj406	2
obj411	2
obj410	2
obj413	2
obj412	2
obj402	2
obj401	2
obj400	2
obj195	1
obj335	2
obj196	1
obj336	2
obj193	1
obj333	2
obj194	1
obj334	2
obj191	1
obj331	2
obj192	1
obj332	2
obj190	1
obj330	2
obj430	2
obj431	2
obj434	2
obj199	1
obj435	2
obj432	2
obj197	1
obj433	2
obj198	1
obj428	2
obj427	2
obj426	2
obj425	2
obj429	2
obj329	2
obj328	2
obj327	2
obj326	2
obj182	1
obj322	2
obj183	1
obj323	2
obj184	1
obj324	2
obj185	1
obj325	2
obj180	1
obj320	2
obj181	1
obj321	2
obj420	2
obj421	2
obj186	1
obj422	2
obj187	1
obj423	2
obj188	1
obj424	2
obj189	1
obj415	2
obj414	2
obj417	2
obj416	2
obj419	2
obj418	2
obj319	2
obj316	2
obj315	2
obj318	2
obj317	2
obj310	2
obj313	2
obj314	2
obj311	2
obj312	2
obj450	2
obj449	2
obj448	2
obj447	2
obj307	2
obj306	2
obj305	2
obj304	2
obj309	2
obj308	2
obj300	1
obj301	2
obj302	2
obj303	2
obj443	2
obj444	2
obj445	2
obj446	2
obj440	2
obj441	2
obj442	2
obj437	2
obj436	2
obj439	2
obj438	2
obj291	1
obj372	2
obj159	1
obj290	1
obj371	2
obj158	1
obj370	2
obj157	1
obj156	1
obj295	1
obj155	1
obj294	1
obj154	1
obj293	1
obj153	1
obj292	1
obj152	1
obj299	1
obj151	1
obj298	1
obj379	2
obj150	0
obj90	0
obj297	1
obj378	2
obj91	0
obj296	1
obj377	2
obj376	2
obj375	2
obj374	2
obj373	2
obj97	0
obj96	0
obj99	0
obj98	0
obj93	0
obj92	0
obj95	0
obj94	0
obj147	0
obj146	0
obj149	0
obj280	1
obj361	2
obj148	0
obj360	2
obj143	0
obj282	1
obj142	0
obj281	1
obj145	0
obj284	1
obj144	0
obj283	1
obj286	1
obj367	2
obj285	1
obj366	2
obj141	0
obj288	1
obj369	2
obj140	0
obj287	1
obj368	2
obj363	2
obj289	1
obj362	2
obj365	2
obj364	2
obj359	2
obj139	0
obj178	1
obj273	1
obj177	1
obj272	1
obj176	1
obj271	1
obj175	1
obj270	1
obj350	2
obj179	1
obj170	1
obj354	2
obj353	2
obj279	1
obj352	2
obj278	1
obj351	2
obj174	1
obj277	1
obj358	2
obj173	1
obj276	1
obj357	2
obj172	1
obj275	1
obj356	2
obj171	1
obj274	1
obj355	2
obj3	0
obj71	0
obj4	0
obj70	0
obj5	0
obj73	0
obj348	2
obj6	0
obj72	0
obj349	2
obj75	0
obj74	0
obj1	0
obj77	0
obj2	0
obj76	0
obj79	0
obj78	0
obj165	1
obj260	1
obj164	1
obj167	1
obj262	1
obj166	1
obj261	1
obj169	1
obj168	1
obj268	1
obj341	2
obj267	1
obj340	2
obj343	2
obj269	1
obj342	2
obj161	1
obj264	1
obj345	2
obj160	1
obj9	0
obj80	0
obj263	1
obj344	2
obj163	1
obj8	0
obj266	1
obj347	2
obj162	1
obj7	0
obj265	1
obj346	2
obj84	0
obj337	2
obj83	0
obj338	2
obj82	0
obj339	2
obj81	0
obj88	0
obj87	0
obj86	0
obj85	0
obj89	0
obj67	0
obj68	0
obj69	0
obj60	0
obj61	0
obj62	0
obj63	0
obj64	0
obj65	0
obj239	1
obj66	0
obj238	1
obj247	1
obj248	1
obj245	1
obj246	1
obj243	1
obj244	1
obj241	1
obj242	1
obj100	0
obj101	0
obj240	1
obj104	0
obj105	0
obj102	0
obj103	0
obj107	0
obj58	0
obj106	0
obj59	0
obj109	0
obj56	0
obj108	0
obj57	0
obj50	0
obj51	0
obj54	0
obj55	0
obj249	1
obj52	0
obj53	0
obj256	1
obj257	1
obj258	1
obj259	1
obj252	1
obj253	1
obj254	1
obj255	1
obj110	0
obj111	0
obj250	1
obj112	0
obj251	1
obj113	0
obj114	0
obj115	0
obj116	0
obj49	0
obj45	0
obj119	0
obj46	0
obj118	0
obj47	0
obj117	0
obj48	0
obj41	0
obj219	1
obj42	0
obj218	1
obj43	0
obj217	1
obj44	0
obj216	1
obj40	0
obj221	1
obj222	1
obj388	2
obj389	2
obj220	1
obj386	2
obj225	1
obj387	2
obj226	1
obj223	1
obj384	2
obj385	2
obj224	1
obj126	0
obj382	2
obj127	0
obj383	2
obj124	0
obj380	2
obj125	0
obj381	2
obj122	0
obj123	0
obj120	0
obj121	0
obj38	0
obj39	0
obj129	0
obj36	0
obj128	0
obj37	0
obj34	0
obj35	0
obj32	0
obj228	1
obj33	0
obj227	1
obj30	0
obj31	0
obj229	1
obj399	2
obj230	1
obj231	1
obj232	1
obj130	0
obj233	1
obj395	2
obj234	1
obj396	2
obj235	1
obj397	2
obj236	1
obj398	2
obj237	1
obj391	2
obj135	0
obj392	2
obj136	0
obj393	2
obj137	0
obj394	2
obj138	0
obj131	0
obj132	0
obj133	0
obj390	2
obj134	0
obj20	0
obj22	0
obj21	0
obj24	0
obj23	0
obj26	0
obj25	0
obj28	0
obj27	0
obj29	0
obj204	1
obj203	1
obj202	1
obj201	1
obj200	1
obj209	1
obj11	0
obj205	1
obj10	0
obj206	1
obj207	1
obj208	1
obj15	0
obj14	0
obj13	0
obj12	0
obj19	0
obj18	0
obj17	0
obj16	0
obj213	1
obj212	1
obj215	1
obj214	1
obj211	1
obj210	1
