obj0	obj20
obj0	obj28
obj0	obj58
obj0	obj139
obj0	obj178
obj0	obj199
obj1	obj3
obj1	obj5
obj1	obj16
obj1	obj23
obj1	obj25
obj1	obj27
obj1	obj34
obj1	obj36
obj1	obj267
obj2	obj15
obj2	obj18
obj2	obj35
obj2	obj332
obj3	obj20
obj3	obj30
obj3	obj77
obj3	obj80
obj3	obj148
obj3	obj306
obj3	obj313
obj4	obj6
obj4	obj12
obj4	obj14
obj4	obj22
obj4	obj24
obj4	obj27
obj4	obj32
obj4	obj38
obj4	obj336
obj5	obj16
obj5	obj25
obj5	obj27
obj5	obj31
obj5	obj32
obj5	obj34
obj5	obj35
obj5	obj169
obj5	obj238
obj5	obj332
obj6	obj11
obj6	obj13
obj6	obj17
obj6	obj19
obj6	obj21
obj6	obj26
obj6	obj29
obj6	obj36
obj6	obj37
obj6	obj71
obj6	obj288
obj7	obj8
obj7	obj9
obj7	obj29
obj7	obj32
obj7	obj34
obj7	obj36
obj7	obj39
obj7	obj338
obj8	obj9
obj8	obj13
obj8	obj19
obj8	obj24
obj8	obj32
obj8	obj34
obj8	obj39
obj8	obj43
obj8	obj81
obj8	obj85
obj8	obj111
obj8	obj280
obj8	obj281
obj8	obj341
obj9	obj14
obj9	obj22
obj9	obj24
obj9	obj26
obj9	obj29
obj9	obj37
obj9	obj45
obj9	obj100
obj9	obj183
obj9	obj253
obj10	obj12
obj10	obj14
obj10	obj20
obj10	obj34
obj11	obj36
obj11	obj40
obj11	obj328
obj12	obj15
obj12	obj16
obj12	obj19
obj12	obj21
obj12	obj36
obj12	obj38
obj12	obj40
obj12	obj68
obj12	obj89
obj12	obj105
obj12	obj196
obj12	obj243
obj12	obj353
obj13	obj13
obj13	obj18
obj13	obj20
obj13	obj21
obj13	obj23
obj13	obj24
obj13	obj25
obj13	obj26
obj13	obj28
obj13	obj39
obj13	obj40
obj13	obj147
obj13	obj162
obj13	obj222
obj13	obj237
obj13	obj250
obj13	obj272
obj13	obj345
obj14	obj16
obj14	obj19
obj14	obj32
obj14	obj33
obj14	obj35
obj14	obj278
obj14	obj301
obj15	obj21
obj15	obj22
obj15	obj31
obj15	obj33
obj15	obj132
obj15	obj183
obj15	obj184
obj15	obj308
obj15	obj339
obj15	obj358
obj16	obj19
obj16	obj32
obj16	obj34
obj16	obj40
obj16	obj52
obj16	obj126
obj16	obj180
obj16	obj182
obj16	obj190
obj16	obj325
obj17	obj19
obj17	obj24
obj17	obj26
obj17	obj32
obj17	obj33
obj17	obj37
obj17	obj38
obj17	obj205
obj17	obj273
obj17	obj344
obj17	obj347
obj18	obj20
obj18	obj28
obj18	obj30
obj18	obj32
obj18	obj36
obj18	obj38
obj18	obj40
obj18	obj47
obj18	obj141
obj18	obj345
obj19	obj19
obj19	obj21
obj19	obj23
obj19	obj29
obj19	obj35
obj19	obj39
obj19	obj120
obj20	obj24
obj20	obj26
obj20	obj29
obj20	obj33
obj20	obj38
obj20	obj40
obj20	obj209
obj20	obj258
obj21	obj28
obj21	obj35
obj21	obj133
obj21	obj238
obj22	obj28
obj22	obj67
obj22	obj79
obj22	obj193
obj22	obj347
obj23	obj24
obj23	obj28
obj23	obj33
obj23	obj35
obj23	obj135
obj23	obj230
obj23	obj278
obj24	obj27
obj24	obj29
obj24	obj32
obj24	obj37
obj24	obj174
obj24	obj299
obj24	obj353
obj25	obj26
obj25	obj29
obj25	obj30
obj25	obj230
obj26	obj27
obj26	obj33
obj26	obj36
obj26	obj39
obj26	obj40
obj26	obj89
obj26	obj93
obj26	obj173
obj27	obj28
obj27	obj30
obj27	obj31
obj27	obj34
obj27	obj38
obj27	obj233
obj27	obj242
obj27	obj321
obj28	obj29
obj28	obj37
obj28	obj39
obj28	obj232
obj28	obj236
obj29	obj30
obj29	obj40
obj29	obj257
obj30	obj30
obj30	obj33
obj30	obj160
obj30	obj187
obj30	obj311
obj31	obj32
obj31	obj35
obj31	obj65
obj31	obj114
obj31	obj301
obj31	obj320
obj31	obj345
obj32	obj36
obj32	obj51
obj32	obj107
obj32	obj151
obj32	obj177
obj32	obj215
obj32	obj312
obj33	obj33
obj33	obj38
obj33	obj69
obj33	obj94
obj34	obj34
obj34	obj36
obj34	obj38
obj34	obj273
obj34	obj274
obj34	obj308
obj35	obj62
obj35	obj283
obj35	obj308
obj35	obj350
obj36	obj222
obj37	obj39
obj37	obj45
obj37	obj50
obj37	obj101
obj37	obj222
obj38	obj39
obj38	obj46
obj38	obj95
obj38	obj195
obj38	obj253
obj39	obj42
obj39	obj56
obj39	obj108
obj39	obj149
obj39	obj190
obj39	obj254
obj39	obj348
obj40	obj40
obj40	obj53
obj40	obj55
obj40	obj137
obj40	obj252
obj40	obj254
obj40	obj329
obj40	obj349
obj41	obj43
obj41	obj46
obj41	obj50
obj41	obj54
obj41	obj61
obj41	obj69
obj41	obj73
obj41	obj80
obj41	obj89
obj41	obj165
obj41	obj217
obj42	obj44
obj42	obj50
obj42	obj55
obj42	obj60
obj42	obj62
obj42	obj65
obj42	obj78
obj42	obj99
obj42	obj105
obj42	obj179
obj42	obj204
obj42	obj220
obj43	obj48
obj43	obj50
obj43	obj52
obj43	obj57
obj43	obj58
obj43	obj59
obj43	obj65
obj43	obj68
obj43	obj69
obj43	obj80
obj43	obj303
obj43	obj357
obj44	obj44
obj44	obj52
obj44	obj55
obj44	obj62
obj44	obj65
obj44	obj66
obj44	obj70
obj44	obj71
obj44	obj75
obj44	obj80
obj44	obj121
obj44	obj161
obj44	obj193
obj44	obj259
obj45	obj49
obj45	obj54
obj45	obj59
obj45	obj62
obj45	obj70
obj45	obj72
obj45	obj95
obj45	obj220
obj46	obj58
obj46	obj62
obj46	obj63
obj46	obj66
obj46	obj75
obj46	obj77
obj46	obj80
obj46	obj230
obj47	obj48
obj47	obj50
obj47	obj55
obj47	obj60
obj47	obj64
obj47	obj68
obj47	obj73
obj47	obj76
obj47	obj107
obj47	obj116
obj47	obj268
obj48	obj56
obj48	obj66
obj48	obj69
obj48	obj71
obj48	obj75
obj48	obj77
obj48	obj80
obj48	obj144
obj48	obj180
obj48	obj257
obj48	obj289
obj48	obj294
obj48	obj333
obj49	obj50
obj49	obj51
obj49	obj52
obj49	obj54
obj49	obj61
obj49	obj62
obj49	obj71
obj49	obj77
obj49	obj79
obj49	obj80
obj49	obj159
obj50	obj50
obj50	obj51
obj50	obj53
obj50	obj56
obj50	obj64
obj50	obj65
obj50	obj66
obj50	obj74
obj50	obj78
obj50	obj79
obj50	obj80
obj50	obj358
obj51	obj54
obj51	obj55
obj51	obj56
obj51	obj69
obj51	obj71
obj51	obj72
obj51	obj73
obj51	obj78
obj51	obj80
obj51	obj348
obj52	obj54
obj52	obj58
obj52	obj63
obj52	obj64
obj52	obj72
obj52	obj75
obj52	obj282
obj53	obj56
obj53	obj63
obj53	obj64
obj53	obj67
obj53	obj72
obj53	obj348
obj54	obj66
obj54	obj67
obj54	obj70
obj54	obj71
obj54	obj75
obj54	obj79
obj54	obj304
obj55	obj66
obj55	obj67
obj55	obj72
obj55	obj76
obj55	obj124
obj55	obj218
obj55	obj257
obj56	obj56
obj56	obj59
obj56	obj63
obj56	obj66
obj56	obj69
obj56	obj70
obj56	obj93
obj57	obj57
obj57	obj61
obj57	obj78
obj57	obj79
obj57	obj83
obj57	obj112
obj57	obj331
obj58	obj61
obj58	obj68
obj58	obj71
obj58	obj212
obj58	obj265
obj58	obj315
obj59	obj64
obj59	obj65
obj59	obj73
obj59	obj77
obj59	obj78
obj59	obj155
obj59	obj190
obj60	obj68
obj60	obj69
obj60	obj71
obj60	obj73
obj60	obj75
obj60	obj76
obj60	obj147
obj61	obj62
obj61	obj67
obj61	obj188
obj62	obj68
obj62	obj69
obj62	obj76
obj62	obj80
obj62	obj312
obj63	obj64
obj63	obj69
obj63	obj78
obj63	obj137
obj64	obj65
obj64	obj66
obj64	obj67
obj64	obj73
obj64	obj76
obj64	obj122
obj64	obj223
obj65	obj70
obj65	obj74
obj65	obj77
obj65	obj78
obj65	obj107
obj65	obj247
obj66	obj69
obj66	obj73
obj66	obj79
obj66	obj112
obj66	obj122
obj66	obj234
obj66	obj275
obj66	obj300
obj67	obj101
obj67	obj119
obj67	obj275
obj68	obj71
obj68	obj72
obj68	obj77
obj68	obj80
obj69	obj70
obj69	obj79
obj69	obj80
obj69	obj125
obj69	obj151
obj69	obj250
obj69	obj281
obj69	obj315
obj70	obj78
obj70	obj79
obj71	obj74
obj71	obj78
obj71	obj88
obj71	obj138
obj71	obj216
obj71	obj310
obj72	obj79
obj72	obj125
obj72	obj150
obj73	obj73
obj73	obj77
obj73	obj340
obj74	obj77
obj74	obj88
obj74	obj100
obj74	obj146
obj74	obj152
obj74	obj162
obj75	obj76
obj75	obj181
obj75	obj187
obj75	obj225
obj75	obj307
obj76	obj77
obj76	obj204
obj76	obj302
obj77	obj77
obj77	obj79
obj77	obj110
obj77	obj163
obj77	obj269
obj78	obj78
obj79	obj79
obj79	obj152
obj79	obj227
obj79	obj252
obj80	obj195
obj80	obj267
obj80	obj303
obj80	obj325
obj81	obj81
obj81	obj82
obj81	obj87
obj81	obj90
obj81	obj96
obj81	obj119
obj81	obj232
obj81	obj266
obj81	obj267
obj81	obj277
obj81	obj354
obj82	obj84
obj82	obj87
obj82	obj98
obj82	obj102
obj82	obj107
obj82	obj111
obj82	obj114
obj82	obj116
obj82	obj119
obj82	obj271
obj83	obj84
obj83	obj87
obj83	obj88
obj83	obj89
obj83	obj90
obj83	obj94
obj83	obj100
obj83	obj104
obj83	obj105
obj83	obj108
obj83	obj110
obj83	obj111
obj83	obj113
obj83	obj118
obj83	obj120
obj83	obj181
obj83	obj224
obj83	obj259
obj84	obj86
obj84	obj96
obj84	obj100
obj84	obj101
obj84	obj112
obj84	obj113
obj84	obj114
obj84	obj115
obj84	obj119
obj84	obj197
obj84	obj263
obj84	obj302
obj84	obj326
obj85	obj86
obj85	obj92
obj85	obj93
obj85	obj94
obj85	obj95
obj85	obj97
obj85	obj99
obj85	obj109
obj85	obj110
obj85	obj112
obj85	obj116
obj85	obj117
obj85	obj120
obj85	obj214
obj85	obj285
obj85	obj292
obj86	obj94
obj86	obj97
obj86	obj104
obj86	obj105
obj86	obj107
obj86	obj111
obj86	obj118
obj87	obj88
obj87	obj96
obj87	obj101
obj87	obj102
obj87	obj103
obj87	obj104
obj87	obj116
obj87	obj118
obj87	obj120
obj87	obj142
obj88	obj90
obj88	obj94
obj88	obj107
obj88	obj108
obj88	obj110
obj88	obj111
obj88	obj117
obj88	obj297
obj89	obj105
obj89	obj107
obj89	obj115
obj89	obj119
obj90	obj92
obj90	obj117
obj91	obj92
obj91	obj96
obj91	obj100
obj91	obj102
obj91	obj107
obj91	obj111
obj91	obj230
obj91	obj282
obj92	obj100
obj92	obj113
obj92	obj114
obj92	obj115
obj92	obj242
obj92	obj329
obj93	obj96
obj93	obj105
obj93	obj109
obj93	obj200
obj93	obj211
obj93	obj216
obj93	obj229
obj94	obj104
obj94	obj107
obj94	obj108
obj94	obj111
obj94	obj161
obj95	obj95
obj95	obj101
obj95	obj107
obj95	obj108
obj95	obj111
obj95	obj113
obj95	obj114
obj95	obj117
obj95	obj248
obj95	obj271
obj96	obj103
obj96	obj105
obj96	obj108
obj96	obj111
obj96	obj114
obj96	obj259
obj97	obj101
obj97	obj103
obj97	obj107
obj97	obj108
obj97	obj110
obj97	obj111
obj97	obj112
obj97	obj114
obj97	obj116
obj97	obj120
obj97	obj153
obj97	obj172
obj97	obj259
obj98	obj104
obj98	obj106
obj98	obj112
obj98	obj238
obj98	obj250
obj98	obj278
obj98	obj296
obj98	obj339
obj99	obj100
obj99	obj105
obj99	obj108
obj99	obj113
obj99	obj115
obj99	obj159
obj99	obj241
obj100	obj103
obj100	obj106
obj100	obj107
obj100	obj173
obj100	obj247
obj100	obj333
obj100	obj353
obj101	obj105
obj101	obj112
obj101	obj117
obj101	obj118
obj101	obj214
obj102	obj114
obj102	obj115
obj102	obj153
obj102	obj291
obj103	obj110
obj103	obj120
obj103	obj316
obj104	obj104
obj104	obj106
obj104	obj110
obj104	obj112
obj104	obj116
obj104	obj118
obj104	obj175
obj104	obj290
obj105	obj105
obj105	obj107
obj105	obj108
obj105	obj115
obj105	obj179
obj105	obj240
obj105	obj258
obj105	obj341
obj106	obj120
obj106	obj223
obj106	obj350
obj107	obj113
obj107	obj119
obj108	obj110
obj108	obj115
obj108	obj116
obj108	obj136
obj108	obj294
obj108	obj310
obj109	obj112
obj109	obj113
obj109	obj266
obj109	obj297
obj110	obj114
obj110	obj118
obj110	obj122
obj110	obj275
obj111	obj120
obj111	obj172
obj111	obj252
obj112	obj112
obj112	obj113
obj112	obj128
obj112	obj149
obj112	obj178
obj112	obj207
obj112	obj247
obj114	obj115
obj114	obj116
obj114	obj119
obj114	obj172
obj114	obj237
obj114	obj272
obj114	obj347
obj115	obj116
obj115	obj117
obj115	obj118
obj115	obj217
obj115	obj248
obj115	obj298
obj115	obj315
obj116	obj116
obj116	obj117
obj116	obj168
obj116	obj334
obj117	obj135
obj117	obj282
obj118	obj118
obj118	obj120
obj118	obj200
obj118	obj214
obj118	obj224
obj118	obj276
obj119	obj178
obj119	obj248
obj119	obj340
obj119	obj348
obj121	obj126
obj121	obj288
obj122	obj198
obj122	obj226
obj122	obj248
obj122	obj299
obj123	obj210
obj123	obj217
obj124	obj353
obj125	obj184
obj126	obj231
obj127	obj310
obj128	obj330
obj129	obj343
obj130	obj142
obj130	obj166
obj130	obj267
obj131	obj186
obj132	obj158
obj132	obj210
obj132	obj249
obj132	obj276
obj133	obj200
obj133	obj220
obj133	obj221
obj134	obj189
obj134	obj196
obj134	obj250
obj135	obj184
obj135	obj284
obj136	obj321
obj137	obj233
obj137	obj237
obj138	obj211
obj138	obj253
obj139	obj198
obj139	obj215
obj140	obj226
obj140	obj313
obj140	obj344
obj141	obj197
obj141	obj214
obj141	obj231
obj141	obj275
obj141	obj282
obj142	obj178
obj142	obj213
obj143	obj176
obj143	obj184
obj144	obj169
obj144	obj207
obj144	obj232
obj144	obj310
obj144	obj354
obj145	obj187
obj145	obj337
obj146	obj204
obj146	obj243
obj147	obj359
obj148	obj201
obj148	obj242
obj148	obj261
obj148	obj303
obj149	obj169
obj149	obj206
obj149	obj207
obj151	obj163
obj151	obj223
obj151	obj315
obj151	obj317
obj152	obj334
obj153	obj202
obj153	obj312
obj153	obj329
obj154	obj201
obj154	obj204
obj154	obj343
obj155	obj243
obj156	obj309
obj157	obj292
obj157	obj345
obj158	obj290
obj159	obj178
obj159	obj181
obj159	obj212
obj159	obj257
obj160	obj298
obj160	obj309
obj162	obj215
obj162	obj251
obj163	obj243
obj164	obj169
obj166	obj193
obj166	obj217
obj166	obj260
obj167	obj283
obj167	obj304
obj168	obj282
obj168	obj353
obj169	obj232
obj170	obj246
obj170	obj253
obj170	obj260
obj170	obj265
obj170	obj330
obj172	obj228
obj172	obj282
obj172	obj299
obj173	obj260
obj174	obj280
obj175	obj290
obj176	obj178
obj176	obj225
obj177	obj282
obj178	obj333
obj179	obj260
obj180	obj226
obj180	obj321
obj180	obj351
obj181	obj240
obj181	obj278
obj182	obj197
obj182	obj215
obj182	obj218
obj182	obj298
obj182	obj313
obj184	obj205
obj185	obj254
obj185	obj269
obj185	obj297
obj185	obj299
obj185	obj352
obj186	obj194
obj186	obj311
obj188	obj278
obj188	obj318
obj189	obj225
obj189	obj340
obj190	obj206
obj192	obj209
obj192	obj270
obj194	obj277
obj194	obj350
obj194	obj353
obj194	obj358
obj196	obj281
obj196	obj306
obj196	obj349
obj197	obj262
obj197	obj332
obj197	obj336
obj197	obj350
obj198	obj230
obj198	obj286
obj199	obj259
obj200	obj221
obj203	obj208
obj203	obj271
obj204	obj216
obj206	obj323
obj207	obj248
obj210	obj293
obj211	obj234
obj211	obj338
obj213	obj250
obj213	obj266
obj214	obj254
obj214	obj290
obj214	obj298
obj214	obj299
obj214	obj309
obj215	obj224
obj215	obj253
obj215	obj313
obj215	obj317
obj215	obj330
obj215	obj359
obj216	obj312
obj217	obj228
obj217	obj341
obj219	obj330
obj221	obj315
obj222	obj246
obj222	obj269
obj223	obj242
obj224	obj296
obj224	obj332
obj226	obj255
obj226	obj281
obj226	obj286
obj226	obj334
obj227	obj234
obj227	obj315
obj227	obj334
obj228	obj298
obj228	obj343
obj229	obj252
obj229	obj293
obj229	obj352
obj231	obj322
obj231	obj339
obj232	obj272
obj232	obj334
obj232	obj340
obj233	obj269
obj233	obj352
obj234	obj314
obj235	obj331
obj236	obj292
obj236	obj311
obj236	obj314
obj237	obj245
obj237	obj291
obj237	obj319
obj237	obj356
obj239	obj246
obj239	obj299
obj239	obj306
obj240	obj262
obj240	obj315
obj241	obj258
obj243	obj266
obj243	obj283
obj243	obj334
obj244	obj264
obj244	obj345
obj246	obj271
obj246	obj308
obj247	obj322
obj249	obj337
obj251	obj281
obj251	obj333
obj251	obj353
obj252	obj264
obj252	obj288
obj252	obj305
obj252	obj327
obj253	obj359
obj254	obj320
obj254	obj348
obj256	obj288
obj258	obj316
obj258	obj324
obj258	obj341
obj259	obj321
obj260	obj279
obj261	obj291
obj264	obj272
obj264	obj344
obj265	obj338
obj265	obj358
obj267	obj289
obj268	obj352
obj269	obj302
obj269	obj313
obj270	obj311
obj270	obj323
obj271	obj331
obj273	obj283
obj273	obj320
obj273	obj329
obj274	obj333
obj275	obj306
obj275	obj328
obj276	obj344
obj277	obj350
obj278	obj283
obj279	obj316
obj281	obj287
obj282	obj322
obj282	obj343
obj285	obj329
obj286	obj319
obj286	obj323
obj287	obj327
obj287	obj349
obj289	obj333
obj291	obj291
obj291	obj319
obj291	obj325
obj294	obj331
obj296	obj321
obj296	obj349
obj301	obj337
obj302	obj339
obj304	obj358
obj305	obj333
obj309	obj313
obj313	obj340
obj318	obj357
obj319	obj332
obj324	obj353
obj327	obj341
obj333	obj350
obj335	obj347
obj342	obj359
