id0	sample0	obj0	129	11	0	0	0
id1	sample0	obj1	147	771	438	3325	1179
id2	sample0	obj2	61	272	738	1082	6850
id3	sample0	obj3	50	4	0	0	0
id4	sample0	obj4	75	399	100	203	132
id5	sample0	obj5	145	132	583	1545	3980
id6	sample0	obj6	29	8	24	6	5
id7	sample0	obj7	35	5	1	0	0
id8	sample0	obj8	110	41	144	52	26
id9	sample0	obj9	195	689	109	654	537
id10	sample0	obj10	3	0	0	0	0
id11	sample0	obj11	147	222	34	4	2
id12	sample0	obj12	193	42	251	37	34
id13	sample0	obj13	77	60	237	621	307
id14	sample0	obj14	149	27	124	105	765
id15	sample0	obj15	180	89	16	103	27
id16	sample0	obj16	37	196	753	1314	174
id17	sample0	obj17	104	350	1222	2580	3280
id18	sample0	obj18	111	14	89	577	4132
id19	sample0	obj19	39	30	14	71	81
id20	sample0	obj20	74	520	644	3078	833
id21	sample0	obj21	112	88	215	303	603
id22	sample0	obj22	142	84	505	130	252
id23	sample0	obj23	21	4	2	0	0
id24	sample0	obj24	128	223	68	214	85
id25	sample0	obj25	98	54	9	3	3
id26	sample0	obj26	4	16	11	21	4
id27	sample0	obj27	139	386	1673	771	3052
id28	sample0	obj28	194	511	1226	304	302
id29	sample0	obj29	36	51	95	104	378
id30	sample0	obj30	34	27	61	160	1262
id31	sample0	obj31	198	60	24	49	183
id32	sample0	obj32	138	277	817	304	43
id33	sample0	obj33	97	17	94	35	33
id34	sample0	obj34	123	808	1266	294	179
id35	sample0	obj35	122	31	64	95	300
id36	sample0	obj36	59	3	0	0	0
id37	sample0	obj37	129	186	36	133	68
id38	sample0	obj38	13	24	9	42	25
id39	sample0	obj39	84	65	14	5	5
id40	sample0	obj40	47	10	56	9	10
id41	sample0	obj41	181	90	76	73	28
id42	sample0	obj42	7	1	0	0	0
id43	sample0	obj43	150	517	67	68	113
id44	sample0	obj44	149	462	414	189	86
id45	sample0	obj45	149	52	17	4	0
id46	sample0	obj46	67	10	4	5	38
id47	sample0	obj47	54	85	272	108	306
id48	sample0	obj48	37	6	0	0	0
id49	sample0	obj49	88	29	32	25	40
id50	sample0	obj50	26	2	0	0	0
id51	sample0	obj51	83	54	22	147	207
id52	sample0	obj52	105	29	7	14	92
id53	sample0	obj53	75	251	75	138	195
id54	sample0	obj54	10	3	1	2	5
id55	sample0	obj55	159	343	76	45	68
id56	sample0	obj56	55	28	91	625	3464
id57	sample0	obj57	96	15	2	13	95
id58	sample0	obj58	183	53	331	126	92
id59	sample0	obj59	67	5	0	0	0
id60	sample0	obj60	187	767	999	323	101
id61	sample0	obj61	198	52	124	21	11
id62	sample0	obj62	41	84	28	148	90
id63	sample0	obj63	59	101	457	371	609
id64	sample0	obj64	59	147	465	251	71
id65	sample0	obj65	116	267	1120	8357	1936
id66	sample0	obj66	41	3	0	0	0
id67	sample0	obj67	121	516	482	96	50
id68	sample0	obj68	57	7	23	8	11
id69	sample0	obj69	39	206	31	195	150
id70	sample0	obj70	138	22	124	32	36
id71	sample0	obj71	141	208	1045	531	3200
id72	sample0	obj72	113	136	933	1375	4384
id73	sample0	obj73	80	88	592	127	76
id74	sample0	obj74	200	32	6	47	211
id75	sample0	obj75	104	17	1	6	26
id76	sample0	obj76	106	47	10	9	3
id77	sample0	obj77	33	197	37	97	152
id78	sample0	obj78	34	50	9	21	8
id79	sample0	obj79	151	10	0	0	0
id80	sample0	obj80	21	93	323	57	20
id81	sample0	obj81	96	170	249	1702	304
id82	sample0	obj82	186	117	130	235	1375
id83	sample0	obj83	135	171	36	91	66
id84	sample0	obj84	148	80	11	2	0
id85	sample0	obj85	76	17	100	10	8
id86	sample0	obj86	167	506	3879	702	96
id87	sample0	obj87	21	98	30	82	116
id88	sample0	obj88	200	421	107	34	71
id89	sample0	obj89	166	451	352	80	358
id90	sample0	obj90	115	22	24	7	39
id91	sample0	obj91	184	116	95	156	27
id92	sample0	obj92	101	110	69	9	3
id93	sample0	obj93	29	16	87	19	49
id94	sample0	obj94	150	128	53	47	6
id95	sample0	obj95	156	700	3064	405	1729
id96	sample0	obj96	86	447	2845	18152	4574
id97	sample0	obj97	122	87	39	67	77
id98	sample0	obj98	120	35	4	1	3
id99	sample0	obj99	171	401	114	98	363
id100	sample0	obj100	82	42	301	2324	13218
id101	sample0	obj101	93	35	222	48	66
id102	sample0	obj102	58	13	14	2	15
id103	sample0	obj103	170	230	314	420	85
id104	sample0	obj104	124	638	286	755	283
id105	sample0	obj105	92	305	550	2182	329
id106	sample0	obj106	21	91	126	344	436
id107	sample0	obj107	87	436	74	410	213
id108	sample0	obj108	56	387	626	90	20
id109	sample0	obj109	63	134	28	161	165
id110	sample0	obj110	87	14	1	6	61
id111	sample0	obj111	71	24	37	7	1
id112	sample0	obj112	125	32	4	5	5
id113	sample0	obj113	1	3	1	3	2
id114	sample0	obj114	76	46	19	3	18
id115	sample0	obj115	149	21	2	8	32
id116	sample0	obj116	86	24	33	16	7
id117	sample0	obj117	171	31	31	9	12
id118	sample0	obj118	106	514	114	85	42
id119	sample0	obj119	158	26	58	109	44
id120	sample0	obj120	166	17	90	15	11
id121	sample0	obj121	134	97	306	478	2422
id122	sample0	obj122	72	384	234	1377	499
id123	sample0	obj123	118	226	332	50	50
id124	sample0	obj124	144	7	0	0	0
id125	sample0	obj125	113	12	1	7	35
id126	sample0	obj126	177	25	112	25	31
id127	sample0	obj127	161	46	124	36	30
id128	sample0	obj128	132	241	1373	5405	1786
id129	sample0	obj129	57	13	69	13	17
id130	sample0	obj130	34	5	35	28	195
id131	sample0	obj131	113	182	69	242	248
id132	sample0	obj132	22	4	11	34	54
id133	sample0	obj133	106	65	187	134	19
id134	sample0	obj134	118	63	150	95	321
id135	sample0	obj135	158	51	276	50	67
id136	sample0	obj136	191	107	165	1086	8503
id137	sample0	obj137	84	317	91	298	121
id138	sample0	obj138	139	808	2379	1131	640
id139	sample0	obj139	138	398	60	383	414
id140	sample0	obj140	53	393	166	22	37
id141	sample0	obj141	51	21	29	32	220
id142	sample0	obj142	49	110	19	119	136
id143	sample0	obj143	21	18	17	3	0
id144	sample0	obj144	148	118	117	44	270
id145	sample0	obj145	179	32	167	38	40
id146	sample0	obj146	193	331	204	1107	582
id147	sample0	obj147	26	163	23	54	66
id148	sample0	obj148	142	7	1	7	73
id149	sample0	obj149	16	36	18	6	1
id150	sample0	obj150	95	5	0	0	0
id151	sample0	obj151	198	755	4036	27673	12471
id152	sample0	obj152	55	21	74	13	3
id153	sample0	obj153	198	1453	273	38	27
id154	sample0	obj154	14	57	19	71	72
id155	sample0	obj155	99	131	88	173	839
id156	sample0	obj156	114	25	61	54	93
id157	sample0	obj157	59	286	66	185	230
id158	sample0	obj158	125	8	0	0	0
id159	sample0	obj159	48	170	20	80	120
id160	sample0	obj160	68	12	1	8	58
id161	sample0	obj161	46	31	237	395	148
id162	sample0	obj162	54	4	0	0	0
id163	sample0	obj163	100	211	83	12	57
id164	sample0	obj164	43	173	63	259	327
id165	sample0	obj165	183	189	241	1389	587
id166	sample0	obj166	83	25	88	353	335
id167	sample0	obj167	96	36	150	26	13
id168	sample0	obj168	7	47	13	8	18
id169	sample0	obj169	177	31	136	15	20
id170	sample0	obj170	162	174	1249	2672	486
id171	sample0	obj171	33	13	12	2	0
id172	sample0	obj172	34	7	1	0	0
id173	sample0	obj173	178	24	2	9	103
id174	sample0	obj174	190	45	124	30	23
id175	sample0	obj175	174	32	32	51	23
id176	sample0	obj176	126	692	107	25	158
id177	sample0	obj177	31	5	24	6	7
id178	sample0	obj178	41	127	39	44	71
id179	sample0	obj179	95	547	390	1686	3383
id180	sample0	obj180	58	11	41	9	6
id181	sample0	obj181	113	507	149	246	109
id182	sample0	obj182	78	4	0	0	0
id183	sample0	obj183	22	58	81	254	573
id184	sample0	obj184	28	163	113	17	8
id185	sample0	obj185	111	14	1	4	31
id186	sample0	obj186	22	4	1	0	0
id187	sample0	obj187	32	13	62	75	10
id188	sample0	obj188	22	134	52	14	25
id189	sample0	obj189	137	17	121	161	44
id190	sample0	obj190	171	167	242	231	584
id191	sample0	obj191	178	270	350	407	86
id192	sample0	obj192	56	20	58	18	19
id193	sample0	obj193	166	28	217	495	117
id194	sample0	obj194	158	133	98	145	297
id195	sample0	obj195	164	717	273	481	2271
id196	sample0	obj196	122	306	93	462	586
id197	sample0	obj197	135	32	72	15	13
id198	sample0	obj198	177	17	2	24	81
id199	sample0	obj199	22	89	24	44	21
id200	sample0	obj200	52	32	9	3	15
id201	sample0	obj201	152	30	13	55	46
id202	sample0	obj202	28	3	0	0	0
id203	sample0	obj203	143	650	1017	219	673
id204	sample0	obj204	43	3	0	0	0
id205	sample0	obj205	40	50	15	10	7
id206	sample0	obj206	116	536	82	101	579
id207	sample0	obj207	30	107	103	44	129
id208	sample0	obj208	169	893	4668	11692	40517
id209	sample0	obj209	6	3	13	54	40
id210	sample0	obj210	85	51	216	378	184
id211	sample0	obj211	15	58	84	233	544
id212	sample0	obj212	100	242	1368	860	1041
id213	sample0	obj213	101	10	1	5	54
id214	sample0	obj214	53	166	123	582	156
id215	sample0	obj215	157	408	2374	7268	31048
id216	sample0	obj216	133	110	58	13	2
id217	sample0	obj217	17	6	2	1	0
id218	sample0	obj218	129	17	4	0	0
id219	sample0	obj219	121	55	203	1200	1041
id220	sample0	obj220	173	634	171	241	433
id221	sample0	obj221	155	286	1224	641	5071
id222	sample0	obj222	57	11	9	1	3
id223	sample0	obj223	74	328	429	110	188
id224	sample0	obj224	183	32	142	47	60
id225	sample0	obj225	54	32	172	307	1404
id226	sample0	obj226	84	346	169	33	65
id227	sample0	obj227	163	526	62	388	436
id228	sample0	obj228	172	26	24	31	28
id229	sample0	obj229	24	3	5	1	1
id230	sample0	obj230	2	1	2	0	0
id231	sample0	obj231	94	147	513	2556	13193
id232	sample0	obj232	51	249	28	155	132
id233	sample0	obj233	10	7	15	23	24
id234	sample0	obj234	90	24	19	10	23
id235	sample0	obj235	92	54	70	19	19
id236	sample0	obj236	73	83	136	224	162
id237	sample0	obj237	21	56	12	4	1
id238	sample0	obj238	59	103	56	348	1555
id239	sample0	obj239	108	851	3092	1384	4977
id240	sample0	obj240	88	672	4103	17693	7561
id241	sample0	obj241	161	31	53	19	10
id242	sample0	obj242	81	19	146	754	300
id243	sample0	obj243	172	861	293	172	108
id244	sample0	obj244	17	7	8	3	10
id245	sample0	obj245	93	63	14	10	5
id246	sample0	obj246	67	95	101	537	161
id247	sample0	obj247	158	679	120	688	875
id248	sample0	obj248	23	128	349	399	59
id249	sample0	obj249	171	36	7	2	4
id250	sample0	obj250	40	128	21	105	137
id251	sample0	obj251	67	23	32	27	108
id252	sample0	obj252	84	468	99	279	256
id253	sample0	obj253	198	19	116	19	25
id254	sample0	obj254	106	37	34	70	439
id255	sample0	obj255	130	316	84	92	199
id256	sample0	obj256	103	15	58	32	113
id257	sample0	obj257	183	29	49	10	9
id258	sample0	obj258	189	56	39	41	25
id259	sample0	obj259	155	20	94	40	29
id260	sample0	obj260	103	16	6	1	0
id261	sample0	obj261	147	275	37	140	28
id262	sample0	obj262	163	28	136	30	26
id263	sample0	obj263	78	136	39	231	278
id264	sample0	obj264	43	62	17	134	19
id265	sample0	obj265	3	0	0	0	0
id266	sample0	obj266	14	3	0	0	0
id267	sample0	obj267	57	360	825	2591	20099
id268	sample0	obj268	20	106	14	49	301
id269	sample0	obj269	39	6	0	0	0
id270	sample0	obj270	35	187	32	187	240
id271	sample0	obj271	41	6	12	3	3
id272	sample0	obj272	200	27	3	26	309
id273	sample0	obj273	111	419	2923	3657	19811
id274	sample0	obj274	94	36	96	11	10
id275	sample0	obj275	80	630	2165	944	2343
id276	sample0	obj276	53	9	2	0	0
id277	sample0	obj277	1	0	0	0	0
id278	sample0	obj278	84	274	45	204	142
id279	sample0	obj279	72	10	4	1	2
id280	sample0	obj280	25	6	26	9	13
id281	sample0	obj281	177	59	222	152	60
id282	sample0	obj282	70	376	90	389	182
id283	sample0	obj283	58	63	310	51	53
id284	sample0	obj284	81	404	85	384	448
id285	sample0	obj285	23	93	13	2	1
id286	sample0	obj286	80	68	220	92	22
id287	sample0	obj287	12	3	0	0	0
id288	sample0	obj288	155	17	1	9	69
id289	sample0	obj289	182	722	224	1156	1753
id290	sample0	obj290	139	21	59	37	63
id291	sample0	obj291	7	1	4	0	0
id292	sample0	obj292	175	734	795	447	175
id293	sample0	obj293	152	32	32	13	8
id294	sample0	obj294	164	44	211	79	125
id295	sample0	obj295	22	45	12	55	126
id296	sample0	obj296	180	662	139	187	46
id297	sample0	obj297	94	563	135	611	442
id298	sample0	obj298	54	24	26	12	11
id299	sample0	obj299	181	1374	172	50	154
id300	sample0	obj300	57	16	12	2	10
id301	sample0	obj301	169	688	2943	1598	1906
id302	sample0	obj302	108	14	41	17	10
id303	sample0	obj303	62	361	1006	946	3090
id304	sample0	obj304	128	519	102	22	47
id305	sample0	obj305	134	65	384	2285	4139
id306	sample0	obj306	144	16	1	10	52
id307	sample0	obj307	12	1	1	0	0
id308	sample0	obj308	99	189	1121	5540	2850
id309	sample0	obj309	104	269	387	1865	6787
id310	sample0	obj310	138	550	734	5591	3419
id311	sample0	obj311	151	327	104	474	363
id312	sample0	obj312	95	16	63	21	27
id313	sample0	obj313	43	55	140	37	58
id314	sample0	obj314	180	47	262	46	25
id315	sample0	obj315	6	20	4	8	4
id316	sample0	obj316	166	737	865	5642	4349
id317	sample0	obj317	27	4	0	0	0
id318	sample0	obj318	106	44	208	31	9
id319	sample0	obj319	141	108	252	91	329
id320	sample0	obj320	149	26	12	26	68
id321	sample0	obj321	165	535	67	297	158
id322	sample0	obj322	96	101	34	13	17
id323	sample0	obj323	85	201	178	29	6
id324	sample0	obj324	65	235	47	293	1511
id325	sample0	obj325	139	203	1377	290	587
id326	sample0	obj326	133	97	99	491	72
id327	sample0	obj327	159	21	4	3	1
id328	sample0	obj328	58	5	0	0	0
id329	sample0	obj329	69	326	104	403	1799
id330	sample0	obj330	133	263	1355	4886	10706
id331	sample0	obj331	184	143	562	84	29
id332	sample0	obj332	41	37	124	485	3198
id333	sample0	obj333	176	33	3	30	296
id334	sample0	obj334	14	48	5	31	18
id335	sample0	obj335	195	1095	4688	12259	12080
id336	sample0	obj336	31	7	19	6	3
id337	sample0	obj337	196	245	450	144	177
id338	sample0	obj338	184	494	221	49	28
id339	sample0	obj339	59	7	23	7	3
id340	sample0	obj340	196	1561	2777	3204	1592
id341	sample0	obj341	18	13	10	23	10
id342	sample0	obj342	28	3	0	0	0
id343	sample0	obj343	40	177	57	297	425
id344	sample0	obj344	129	192	66	36	167
id345	sample0	obj345	22	2	0	0	0
id346	sample0	obj346	101	48	170	92	50
id347	sample0	obj347	174	10	1	7	67
id348	sample0	obj348	82	144	107	252	777
id349	sample0	obj349	155	274	977	330	508
id350	sample0	obj350	90	16	1	11	38
id351	sample0	obj351	46	2	0	0	0
id352	sample0	obj352	16	4	1	0	0
id353	sample0	obj353	187	1036	435	947	205
id354	sample0	obj354	107	32	82	23	19
id355	sample0	obj355	38	17	37	31	18
id356	sample0	obj356	171	756	4043	17037	47310
id357	sample0	obj357	136	379	104	530	347
id358	sample0	obj358	42	69	12	2	6
id359	sample0	obj359	64	15	25	7	8
id360	sample1	obj0	67	5	0	0	0
id361	sample1	obj1	96	170	249	1702	304
id362	sample1	obj2	194	511	1226	304	302
id363	sample1	obj3	183	189	241	1389	587
id364	sample1	obj4	190	45	124	30	23
id365	sample1	obj5	22	134	52	14	25
id366	sample1	obj6	132	241	1373	5405	1786
id367	sample1	obj7	29	8	24	6	5
id368	sample1	obj8	128	519	102	22	47
id369	sample1	obj9	156	700	3064	405	1729
id370	sample1	obj10	122	87	39	67	77
id371	sample1	obj11	21	56	12	4	1
id372	sample1	obj12	90	16	1	11	38
id373	sample1	obj13	113	12	1	7	35
id374	sample1	obj14	172	861	293	172	108
id375	sample1	obj15	166	28	217	495	117
id376	sample1	obj16	118	226	332	50	50
id377	sample1	obj17	198	60	24	49	183
id378	sample1	obj18	28	3	0	0	0
id379	sample1	obj19	16	4	1	0	0
id380	sample1	obj20	106	44	208	31	9
id381	sample1	obj21	58	13	14	2	15
id382	sample1	obj22	152	30	13	55	46
id383	sample1	obj23	155	20	94	40	29
id384	sample1	obj24	94	147	513	2556	13193
id385	sample1	obj25	106	514	114	85	42
id386	sample1	obj26	189	56	39	41	25
id387	sample1	obj27	36	51	95	104	378
id388	sample1	obj28	137	17	121	161	44
id389	sample1	obj29	71	24	37	7	1
id390	sample1	obj30	41	84	28	148	90
id391	sample1	obj31	144	7	0	0	0
id392	sample1	obj32	83	25	88	353	335
id393	sample1	obj33	43	62	17	134	19
id394	sample1	obj34	37	6	0	0	0
id395	sample1	obj35	161	46	124	36	30
id396	sample1	obj36	78	136	39	231	278
id397	sample1	obj37	142	84	505	130	252
id398	sample1	obj38	56	387	626	90	20
id399	sample1	obj39	133	110	58	13	2
id400	sample1	obj40	35	187	32	187	240
id401	sample1	obj41	164	717	273	481	2271
id402	sample1	obj42	180	47	262	46	25
id403	sample1	obj43	103	15	58	32	113
id404	sample1	obj44	151	327	104	474	363
id405	sample1	obj45	158	679	120	688	875
id406	sample1	obj46	25	6	26	9	13
id407	sample1	obj47	121	55	203	1200	1041
id408	sample1	obj48	106	37	34	70	439
id409	sample1	obj49	169	893	4668	11692	40517
id410	sample1	obj50	16	36	18	6	1
id411	sample1	obj51	125	32	4	5	5
id412	sample1	obj52	96	101	34	13	17
id413	sample1	obj53	193	331	204	1107	582
id414	sample1	obj54	28	163	113	17	8
id415	sample1	obj55	184	116	95	156	27
id416	sample1	obj56	75	251	75	138	195
id417	sample1	obj57	110	41	144	52	26
id418	sample1	obj58	26	2	0	0	0
id419	sample1	obj59	174	32	32	51	23
id420	sample1	obj60	61	272	738	1082	6850
id421	sample1	obj61	130	316	84	92	199
id422	sample1	obj62	177	31	136	15	20
id423	sample1	obj63	34	50	9	21	8
id424	sample1	obj64	163	28	136	30	26
id425	sample1	obj65	86	24	33	16	7
id426	sample1	obj66	4	16	11	21	4
id427	sample1	obj67	180	662	139	187	46
id428	sample1	obj68	158	51	276	50	67
id429	sample1	obj69	77	60	237	621	307
id430	sample1	obj70	120	35	4	1	3
id431	sample1	obj71	182	722	224	1156	1753
id432	sample1	obj72	85	51	216	378	184
id433	sample1	obj73	136	379	104	530	347
id434	sample1	obj74	48	170	20	80	120
id435	sample1	obj75	76	46	19	3	18
id436	sample1	obj76	73	83	136	224	162
id437	sample1	obj77	157	408	2374	7268	31048
id438	sample1	obj78	23	93	13	2	1
id439	sample1	obj79	126	692	107	25	158
id440	sample1	obj80	171	36	7	2	4
id441	sample1	obj81	82	42	301	2324	13218
id442	sample1	obj82	17	7	8	3	10
id443	sample1	obj83	108	851	3092	1384	4977
id444	sample1	obj84	41	127	39	44	71
id445	sample1	obj85	3	0	0	0	0
id446	sample1	obj86	155	274	977	330	508
id447	sample1	obj87	148	118	117	44	270
id448	sample1	obj88	195	689	109	654	537
id449	sample1	obj89	34	27	61	160	1262
id450	sample1	obj90	147	275	37	140	28
id451	sample1	obj91	200	27	3	26	309
id452	sample1	obj92	121	516	482	96	50
id453	sample1	obj93	171	167	242	231	584
id454	sample1	obj94	90	24	19	10	23
id455	sample1	obj95	88	29	32	25	40
id456	sample1	obj96	145	132	583	1545	3980
id457	sample1	obj97	26	163	23	54	66
id458	sample1	obj98	87	436	74	410	213
id459	sample1	obj99	176	33	3	30	296
id460	sample1	obj100	94	563	135	611	442
id461	sample1	obj101	106	47	10	9	3
id462	sample1	obj102	183	29	49	10	9
id463	sample1	obj103	10	7	15	23	24
id464	sample1	obj104	43	173	63	259	327
id465	sample1	obj105	55	28	91	625	3464
id466	sample1	obj106	80	88	592	127	76
id467	sample1	obj107	159	343	76	45	68
id468	sample1	obj108	43	3	0	0	0
id469	sample1	obj109	100	242	1368	860	1041
id470	sample1	obj110	69	326	104	403	1799
id471	sample1	obj111	84	274	45	204	142
id472	sample1	obj112	18	13	10	23	10
id473	sample1	obj113	40	50	15	10	7
id474	sample1	obj114	7	47	13	8	18
id475	sample1	obj115	135	32	72	15	13
id476	sample1	obj116	31	5	24	6	7
id477	sample1	obj117	33	197	37	97	152
id478	sample1	obj118	14	3	0	0	0
id479	sample1	obj119	12	3	0	0	0
id480	sample1	obj120	54	24	26	12	11
id481	sample1	obj121	74	328	429	110	188
id482	sample1	obj122	123	808	1266	294	179
id483	sample1	obj123	22	45	12	55	126
id484	sample1	obj124	179	32	167	38	40
id485	sample1	obj125	118	63	150	95	321
id486	sample1	obj126	170	230	314	420	85
id487	sample1	obj127	128	223	68	214	85
id488	sample1	obj128	164	44	211	79	125
id489	sample1	obj129	171	31	31	9	12
id490	sample1	obj130	87	14	1	6	61
id491	sample1	obj131	55	21	74	13	3
id492	sample1	obj132	113	507	149	246	109
id493	sample1	obj133	54	32	172	307	1404
id494	sample1	obj134	177	25	112	25	31
id495	sample1	obj135	57	7	23	8	11
id496	sample1	obj136	177	59	222	152	60
id497	sample1	obj137	41	6	12	3	3
id498	sample1	obj138	198	755	4036	27673	12471
id499	sample1	obj139	84	346	169	33	65
id500	sample1	obj140	20	106	14	49	301
id501	sample1	obj141	98	54	9	3	3
id502	sample1	obj142	101	110	69	9	3
id503	sample1	obj143	166	17	90	15	11
id504	sample1	obj144	31	7	19	6	3
id505	sample1	obj145	58	11	41	9	6
id506	sample1	obj146	114	25	61	54	93
id507	sample1	obj147	29	16	87	19	49
id508	sample1	obj148	163	526	62	388	436
id509	sample1	obj149	95	547	390	1686	3383
id510	sample1	obj150	111	14	1	4	31
id511	sample1	obj151	21	98	30	82	116
id512	sample1	obj152	171	401	114	98	363
id513	sample1	obj153	173	634	171	241	433
id514	sample1	obj154	198	52	124	21	11
id515	sample1	obj155	42	69	12	2	6
id516	sample1	obj156	94	36	96	11	10
id517	sample1	obj157	151	10	0	0	0
id518	sample1	obj158	21	93	323	57	20
id519	sample1	obj159	161	31	53	19	10
id520	sample1	obj160	96	15	2	13	95
id521	sample1	obj161	22	4	11	34	54
id522	sample1	obj162	28	3	0	0	0
id523	sample1	obj163	62	361	1006	946	3090
id524	sample1	obj164	162	174	1249	2672	486
id525	sample1	obj165	34	5	35	28	195
id526	sample1	obj166	68	12	1	8	58
id527	sample1	obj167	92	54	70	19	19
id528	sample1	obj168	50	4	0	0	0
id529	sample1	obj169	178	24	2	9	103
id530	sample1	obj170	85	201	178	29	6
id531	sample1	obj171	129	192	66	36	167
id532	sample1	obj172	57	13	69	13	17
id533	sample1	obj173	47	10	56	9	10
id534	sample1	obj174	22	89	24	44	21
id535	sample1	obj175	84	65	14	5	5
id536	sample1	obj176	165	535	67	297	158
id537	sample1	obj177	138	277	817	304	43
id538	sample1	obj178	57	11	9	1	3
id539	sample1	obj179	178	270	350	407	86
id540	sample1	obj180	198	19	116	19	25
id541	sample1	obj181	171	756	4043	17037	47310
id542	sample1	obj182	12	1	1	0	0
id543	sample1	obj183	167	506	3879	702	96
id544	sample1	obj184	129	11	0	0	0
id545	sample1	obj185	150	517	67	68	113
id546	sample1	obj186	24	3	5	1	1
id547	sample1	obj187	84	468	99	279	256
id548	sample1	obj188	191	107	165	1086	8503
id549	sample1	obj189	46	2	0	0	0
id550	sample1	obj190	108	14	41	17	10
id551	sample1	obj191	158	133	98	145	297
id552	sample1	obj192	59	101	457	371	609
id553	sample1	obj193	152	32	32	13	8
id554	sample1	obj194	104	269	387	1865	6787
id555	sample1	obj195	57	360	825	2591	20099
id556	sample1	obj196	104	17	1	6	26
id557	sample1	obj197	149	21	2	8	32
id558	sample1	obj198	7	1	4	0	0
id559	sample1	obj199	129	186	36	133	68
id560	sample1	obj200	139	386	1673	771	3052
id561	sample1	obj201	122	306	93	462	586
id562	sample1	obj202	57	16	12	2	10
id563	sample1	obj203	115	22	24	7	39
id564	sample1	obj204	72	10	4	1	2
id565	sample1	obj205	81	404	85	384	448
id566	sample1	obj206	80	68	220	92	22
id567	sample1	obj207	169	688	2943	1598	1906
id568	sample1	obj208	135	171	36	91	66
id569	sample1	obj209	88	672	4103	17693	7561
id570	sample1	obj210	149	52	17	4	0
id571	sample1	obj211	27	4	0	0	0
id572	sample1	obj212	22	4	1	0	0
id573	sample1	obj213	142	7	1	7	73
id574	sample1	obj214	14	48	5	31	18
id575	sample1	obj215	177	17	2	24	81
id576	sample1	obj216	144	16	1	10	52
id577	sample1	obj217	104	350	1222	2580	3280
id578	sample1	obj218	141	208	1045	531	3200
id579	sample1	obj219	107	32	82	23	19
id580	sample1	obj220	124	638	286	755	283
id581	sample1	obj221	147	771	438	3325	1179
id582	sample1	obj222	95	5	0	0	0
id583	sample1	obj223	198	1453	273	38	27
id584	sample1	obj224	35	5	1	0	0
id585	sample1	obj225	56	20	58	18	19
id586	sample1	obj226	196	245	450	144	177
id587	sample1	obj227	183	53	331	126	92
id588	sample1	obj228	175	734	795	447	175
id589	sample1	obj229	39	206	31	195	150
id590	sample1	obj230	6	20	4	8	4
id591	sample1	obj231	187	767	999	323	101
id592	sample1	obj232	59	286	66	185	230
id593	sample1	obj233	22	2	0	0	0
id594	sample1	obj234	181	90	76	73	28
id595	sample1	obj235	43	55	140	37	58
id596	sample1	obj236	59	147	465	251	71
id597	sample1	obj237	116	536	82	101	579
id598	sample1	obj238	150	128	53	47	6
id599	sample1	obj239	139	21	59	37	63
id600	sample1	obj240	86	447	2845	18152	4574
id601	sample1	obj241	174	10	1	7	67
id602	sample1	obj242	21	91	126	344	436
id603	sample1	obj243	134	97	306	478	2422
id604	sample1	obj244	59	7	23	7	3
id605	sample1	obj245	10	3	1	2	5
id606	sample1	obj246	193	42	251	37	34
id607	sample1	obj247	40	128	21	105	137
id608	sample1	obj248	158	26	58	109	44
id609	sample1	obj249	93	35	222	48	66
id610	sample1	obj250	184	494	221	49	28
id611	sample1	obj251	75	399	100	203	132
id612	sample1	obj252	38	17	37	31	18
id613	sample1	obj253	74	520	644	3078	833
id614	sample1	obj254	53	166	123	582	156
id615	sample1	obj255	54	85	272	108	306
id616	sample1	obj256	155	286	1224	641	5071
id617	sample1	obj257	82	144	107	252	777
id618	sample1	obj258	103	16	6	1	0
id619	sample1	obj259	41	37	124	485	3198
id620	sample1	obj260	53	393	166	22	37
id621	sample1	obj261	97	17	94	35	33
id622	sample1	obj262	14	57	19	71	72
id623	sample1	obj263	70	376	90	389	182
id624	sample1	obj264	133	97	99	491	72
id625	sample1	obj265	72	384	234	1377	499
id626	sample1	obj266	78	4	0	0	0
id627	sample1	obj267	67	23	32	27	108
id628	sample1	obj268	183	32	142	47	60
id629	sample1	obj269	200	421	107	34	71
id630	sample1	obj270	134	65	384	2285	4139
id631	sample1	obj271	101	48	170	92	50
id632	sample1	obj272	51	249	28	155	132
id633	sample1	obj273	33	13	12	2	0
id634	sample1	obj274	122	31	64	95	300
id635	sample1	obj275	99	189	1121	5540	2850
id636	sample1	obj276	83	54	22	147	207
id637	sample1	obj277	59	103	56	348	1555
id638	sample1	obj278	49	110	19	119	136
id639	sample1	obj279	58	63	310	51	53
id640	sample1	obj280	105	29	7	14	92
id641	sample1	obj281	112	88	215	303	603
id642	sample1	obj282	141	108	252	91	329
id643	sample1	obj283	139	203	1377	290	587
id644	sample1	obj284	155	17	1	9	69
id645	sample1	obj285	46	31	237	395	148
id646	sample1	obj286	84	317	91	298	121
id647	sample1	obj287	67	95	101	537	161
id648	sample1	obj288	93	63	14	10	5
id649	sample1	obj289	34	7	1	0	0
id650	sample1	obj290	59	3	0	0	0
id651	sample1	obj291	149	462	414	189	86
id652	sample1	obj292	139	808	2379	1131	640
id653	sample1	obj293	166	451	352	80	358
id654	sample1	obj294	7	1	0	0	0
id655	sample1	obj295	187	1036	435	947	205
id656	sample1	obj296	113	136	933	1375	4384
id657	sample1	obj297	81	19	146	754	300
id658	sample1	obj298	80	630	2165	944	2343
id659	sample1	obj299	96	36	150	26	13
id660	sample1	obj300	113	182	69	242	248
id661	sample1	obj301	64	15	25	7	8
id662	sample1	obj302	101	10	1	5	54
id663	sample1	obj303	200	32	6	47	211
id664	sample1	obj304	166	737	865	5642	4349
id665	sample1	obj305	23	128	349	399	59
id666	sample1	obj306	92	305	550	2182	329
id667	sample1	obj307	1	0	0	0	0
id668	sample1	obj308	39	30	14	71	81
id669	sample1	obj309	41	3	0	0	0
id670	sample1	obj310	184	143	562	84	29
id671	sample1	obj311	3	0	0	0	0
id672	sample1	obj312	58	5	0	0	0
id673	sample1	obj313	143	650	1017	219	673
id674	sample1	obj314	1	3	1	3	2
id675	sample1	obj315	95	16	63	21	27
id676	sample1	obj316	159	21	4	3	1
id677	sample1	obj317	125	8	0	0	0
id678	sample1	obj318	21	18	17	3	0
id679	sample1	obj319	133	263	1355	4886	10706
id680	sample1	obj320	30	107	103	44	129
id681	sample1	obj321	32	13	62	75	10
id682	sample1	obj322	2	1	2	0	0
id683	sample1	obj323	111	419	2923	3657	19811
id684	sample1	obj324	149	26	12	26	68
id685	sample1	obj325	17	6	2	1	0
id686	sample1	obj326	99	131	88	173	839
id687	sample1	obj327	129	17	4	0	0
id688	sample1	obj328	138	550	734	5591	3419
id689	sample1	obj329	15	58	84	233	544
id690	sample1	obj330	195	1095	4688	12259	12080
id691	sample1	obj331	54	4	0	0	0
id692	sample1	obj332	100	211	83	12	57
id693	sample1	obj333	116	267	1120	8357	1936
id694	sample1	obj334	21	4	2	0	0
id695	sample1	obj335	22	58	81	254	573
id696	sample1	obj336	65	235	47	293	1511
id697	sample1	obj337	51	21	29	32	220
id698	sample1	obj338	180	89	16	103	27
id699	sample1	obj339	196	1561	2777	3204	1592
id700	sample1	obj340	13	24	9	42	25
id701	sample1	obj341	39	6	0	0	0
id702	sample1	obj342	181	1374	172	50	154
id703	sample1	obj343	148	80	11	2	0
id704	sample1	obj344	138	398	60	383	414
id705	sample1	obj345	37	196	753	1314	174
id706	sample1	obj346	149	27	124	105	765
id707	sample1	obj347	172	26	24	31	28
id708	sample1	obj348	111	14	89	577	4132
id709	sample1	obj349	6	3	13	54	40
id710	sample1	obj350	76	17	100	10	8
id711	sample1	obj351	147	222	34	4	2
id712	sample1	obj352	53	9	2	0	0
id713	sample1	obj353	67	10	4	5	38
id714	sample1	obj354	138	22	124	32	36
id715	sample1	obj355	52	32	9	3	15
id716	sample1	obj356	40	177	57	297	425
id717	sample1	obj357	63	134	28	161	165
id718	sample1	obj358	106	65	187	134	19
id719	sample1	obj359	186	117	130	235	1375
