id0	sample0	obj0	30	47	278	50	10
id1	sample0	obj1	26	6	25	4	11
id2	sample0	obj2	37	56	11	26	62
id3	sample0	obj3	96	342	49	84	14
id4	sample0	obj4	62	8	1	8	58
id5	sample0	obj5	128	525	518	2175	693
id6	sample0	obj6	51	20	28	7	1
id7	sample0	obj7	105	60	39	13	40
id8	sample0	obj8	106	596	1644	1078	2846
id9	sample0	obj9	181	194	108	17	5
id10	sample0	obj10	51	115	622	3993	1725
id11	sample0	obj11	101	13	29	18	29
id12	sample0	obj12	34	136	37	135	140
id13	sample0	obj13	97	423	114	432	442
id14	sample0	obj14	188	24	3	24	195
id15	sample0	obj15	193	25	137	118	131
id16	sample0	obj16	162	38	151	35	36
id17	sample0	obj17	107	442	100	415	412
id18	sample0	obj18	100	13	1	8	68
id19	sample0	obj19	96	50	318	193	171
id20	sample0	obj20	144	548	124	521	561
id21	sample0	obj21	36	4	0	0	0
id22	sample0	obj22	164	22	2	16	135
id23	sample0	obj23	177	697	211	27	107
id24	sample0	obj24	75	181	26	170	246
id25	sample0	obj25	1	3	12	18	5
id26	sample0	obj26	148	20	9	1	7
id27	sample0	obj27	96	82	15	5	7
id28	sample0	obj28	113	190	233	50	246
id29	sample0	obj29	26	4	0	0	0
id30	sample0	obj30	140	21	48	168	305
id31	sample0	obj31	20	40	34	123	27
id32	sample0	obj32	22	85	23	91	89
id33	sample0	obj33	13	1	0	0	0
id34	sample0	obj34	89	321	82	350	321
id35	sample0	obj35	56	14	55	13	11
id36	sample0	obj36	12	3	12	2	2
id37	sample0	obj37	198	164	152	173	96
id38	sample0	obj38	64	60	167	45	79
id39	sample0	obj39	191	1352	1043	131	18
id40	sample0	obj40	52	187	48	189	195
id41	sample0	obj41	121	489	111	470	506
id42	sample0	obj42	66	246	61	232	227
id43	sample0	obj43	119	182	44	33	18
id44	sample0	obj44	157	207	96	65	450
id45	sample0	obj45	4	7	15	2	3
id46	sample0	obj46	15	24	95	32	50
id47	sample0	obj47	60	11	4	3	1
id48	sample0	obj48	39	32	16	23	32
id49	sample0	obj49	30	178	135	720	479
id50	sample0	obj50	153	348	1491	2616	794
id51	sample0	obj51	17	3	11	2	1
id52	sample0	obj52	9	2	7	1	1
id53	sample0	obj53	170	672	3064	4026	27678
id54	sample0	obj54	129	463	851	123	774
id55	sample0	obj55	191	43	177	43	43
id56	sample0	obj56	158	392	637	125	209
id57	sample0	obj57	120	16	96	51	120
id58	sample0	obj58	147	543	931	219	92
id59	sample0	obj59	129	160	110	25	76
id60	sample0	obj60	40	4	0	0	0
id61	sample0	obj61	127	152	38	33	6
id62	sample0	obj62	139	320	299	271	1826
id63	sample0	obj63	14	58	14	60	57
id64	sample0	obj64	125	490	132	551	537
id65	sample0	obj65	66	45	49	256	173
id66	sample0	obj66	34	139	36	137	147
id67	sample0	obj67	91	373	85	363	383
id68	sample0	obj68	125	78	490	159	163
id69	sample0	obj69	148	632	158	589	629
id70	sample0	obj70	131	149	573	364	1436
id71	sample0	obj71	104	412	98	372	373
id72	sample0	obj72	46	319	172	619	336
id73	sample0	obj73	91	21	18	35	19
id74	sample0	obj74	77	8	0	0	0
id75	sample0	obj75	138	264	1974	8604	1803
id76	sample0	obj76	101	12	1	8	69
id77	sample0	obj77	149	63	438	297	550
id78	sample0	obj78	110	25	19	2	3
id79	sample0	obj79	94	12	1	7	51
id80	sample0	obj80	115	454	117	486	471
id81	sample0	obj81	11	78	175	125	24
id82	sample0	obj82	120	449	101	425	452
id83	sample0	obj83	94	23	11	8	3
id84	sample0	obj84	126	174	836	1126	181
id85	sample0	obj85	92	32	66	112	28
id86	sample0	obj86	17	69	17	70	73
id87	sample0	obj87	127	588	4302	2911	4236
id88	sample0	obj88	6	3	1	0	0
id89	sample0	obj89	172	683	1818	854	5200
id90	sample0	obj90	151	483	616	301	96
id91	sample0	obj91	98	394	1403	2982	18948
id92	sample0	obj92	164	186	822	3287	579
id93	sample0	obj93	77	53	37	293	47
id94	sample0	obj94	171	145	43	13	90
id95	sample0	obj95	8	7	3	1	0
id96	sample0	obj96	25	3	0	0	0
id97	sample0	obj97	54	113	24	132	36
id98	sample0	obj98	155	40	145	35	36
id99	sample0	obj99	194	24	3	23	172
id100	sample0	obj100	86	23	83	22	20
id101	sample0	obj101	32	48	119	819	1905
id102	sample0	obj102	153	37	158	42	38
id103	sample0	obj103	30	131	31	125	124
id104	sample0	obj104	138	1014	1834	11637	6335
id105	sample0	obj105	29	162	20	3	0
id106	sample0	obj106	56	9	15	9	3
id107	sample0	obj107	22	152	19	26	131
id108	sample0	obj108	158	772	3985	1932	326
id109	sample0	obj109	98	293	185	36	10
id110	sample0	obj110	90	17	7	3	19
id111	sample0	obj111	149	795	832	204	601
id112	sample0	obj112	32	38	194	156	50
id113	sample0	obj113	25	13	65	8	3
id114	sample0	obj114	15	3	11	2	1
id115	sample0	obj115	163	92	34	13	7
id116	sample0	obj116	16	25	36	103	468
id117	sample0	obj117	127	38	167	485	931
id118	sample0	obj118	118	220	337	1406	3754
id119	sample0	obj119	45	79	41	272	485
id120	sample0	obj120	87	165	802	103	110
id121	sample0	obj121	4	8	9	10	5
id122	sample0	obj122	181	94	346	769	187
id123	sample0	obj123	194	343	69	245	1152
id124	sample0	obj124	40	9	38	8	7
id125	sample0	obj125	159	38	24	166	1281
id126	sample0	obj126	80	326	76	288	285
id127	sample0	obj127	148	18	2	15	118
id128	sample0	obj128	48	14	27	104	30
id129	sample0	obj129	151	18	2	16	117
id130	sample0	obj130	34	10	2	7	8
id131	sample0	obj131	106	122	681	4671	1007
id132	sample0	obj132	198	314	517	210	136
id133	sample0	obj133	53	222	52	208	220
id134	sample0	obj134	35	7	1	2	5
id135	sample0	obj135	78	22	28	9	37
id136	sample0	obj136	144	19	2	17	130
id137	sample0	obj137	49	5	0	0	0
id138	sample0	obj138	179	703	187	716	677
id139	sample0	obj139	170	39	171	43	41
id140	sample0	obj140	114	706	5584	947	551
id141	sample0	obj141	183	1029	290	49	20
id142	sample0	obj142	2	2	3	13	2
id143	sample0	obj143	190	23	3	21	17
id144	sample0	obj144	91	260	145	476	427
id145	sample0	obj145	73	170	74	211	705
id146	sample0	obj146	13	52	24	32	4
id147	sample0	obj147	53	239	193	32	7
id148	sample0	obj148	199	29	6	35	22
id149	sample0	obj149	99	205	32	22	9
id150	sample0	obj150	170	644	172	690	708
id151	sample0	obj151	86	136	105	241	127
id152	sample0	obj152	17	39	115	145	128
id153	sample0	obj153	192	521	143	45	7
id154	sample0	obj154	122	29	116	29	30
id155	sample0	obj155	56	62	100	14	3
id156	sample0	obj156	143	25	55	79	386
id157	sample0	obj157	96	139	314	627	4424
id158	sample0	obj158	137	29	132	164	99
id159	sample0	obj159	26	14	9	34	11
id160	sample0	obj160	65	19	15	3	6
id161	sample0	obj161	8	1	0	0	0
id162	sample0	obj162	89	127	361	1516	2795
id163	sample0	obj163	112	15	1	8	60
id164	sample0	obj164	198	27	13	59	20
id165	sample0	obj165	171	63	141	132	936
id166	sample0	obj166	160	86	84	47	58
id167	sample0	obj167	162	37	149	39	42
id168	sample0	obj168	198	809	212	852	839
id169	sample0	obj169	183	352	47	274	405
id170	sample0	obj170	199	26	3	22	180
id171	sample0	obj171	189	350	1140	4332	567
id172	sample0	obj172	81	398	72	18	6
id173	sample0	obj173	8	22	53	42	5
id174	sample0	obj174	66	92	50	197	239
id175	sample0	obj175	153	35	126	33	34
id176	sample0	obj176	39	70	60	10	41
id177	sample0	obj177	31	37	26	81	208
id178	sample0	obj178	117	166	86	59	7
id179	sample0	obj179	114	619	1445	2384	741
id180	sample0	obj180	16	3	12	2	1
id181	sample0	obj181	143	118	868	110	165
id182	sample0	obj182	116	155	40	17	2
id183	sample0	obj183	120	301	1088	8289	7077
id184	sample0	obj184	167	19	2	16	135
id185	sample0	obj185	184	1020	4795	18610	78822
id186	sample0	obj186	158	396	157	77	604
id187	sample0	obj187	89	226	109	68	245
id188	sample0	obj188	83	18	4	12	4
id189	sample0	obj189	106	27	108	25	27
id190	sample0	obj190	71	281	75	302	319
id191	sample0	obj191	181	223	156	355	1085
id192	sample0	obj192	35	260	1801	5666	4907
id193	sample0	obj193	21	2	0	0	0
id194	sample0	obj194	25	3	0	0	0
id195	sample0	obj195	88	55	8	2	2
id196	sample0	obj196	104	27	103	24	26
id197	sample0	obj197	143	408	2415	696	2951
id198	sample0	obj198	75	10	1	8	65
id199	sample0	obj199	154	30	8	12	82
id200	sample0	obj200	42	64	9	2	0
id201	sample0	obj201	64	50	36	55	115
id202	sample0	obj202	97	12	1	8	61
id203	sample0	obj203	130	29	116	29	27
id204	sample0	obj204	16	1	0	0	0
id205	sample0	obj205	83	58	222	61	199
id206	sample0	obj206	10	10	50	77	26
id207	sample0	obj207	69	457	293	674	1892
id208	sample0	obj208	126	30	121	29	29
id209	sample0	obj209	173	47	181	41	40
id210	sample0	obj210	69	295	78	324	298
id211	sample0	obj211	119	62	190	110	78
id212	sample0	obj212	118	14	1	8	61
id213	sample0	obj213	34	8	33	7	6
id214	sample0	obj214	188	24	2	16	136
id215	sample0	obj215	47	81	86	12	4
id216	sample0	obj216	12	6	1	0	0
id217	sample0	obj217	32	48	61	21	41
id218	sample0	obj218	116	660	2180	13002	67348
id219	sample0	obj219	183	98	16	32	187
id220	sample0	obj220	79	14	26	19	6
id221	sample0	obj221	66	8	0	0	0
id222	sample0	obj222	131	16	1	7	61
id223	sample0	obj223	109	169	149	32	217
id224	sample0	obj224	136	47	90	446	3121
id225	sample0	obj225	99	24	100	23	21
id226	sample0	obj226	6	2	0	0	0
id227	sample0	obj227	93	80	19	33	67
id228	sample0	obj228	100	404	1064	201	534
id229	sample0	obj229	188	224	123	22	6
id230	sample0	obj230	7	10	7	38	44
id231	sample0	obj231	150	378	149	1132	209
id232	sample0	obj232	183	687	172	717	757
id233	sample0	obj233	118	876	542	817	263
id234	sample0	obj234	151	543	146	576	609
id235	sample0	obj235	175	46	196	52	50
id236	sample0	obj236	102	170	72	19	3
id237	sample0	obj237	29	11	5	23	5
id238	sample0	obj238	111	25	11	2	7
id239	sample0	obj239	69	16	63	15	16
id240	sample0	obj240	85	23	34	193	1476
id241	sample0	obj241	117	385	335	88	29
id242	sample0	obj242	59	101	37	33	60
id243	sample0	obj243	114	27	106	107	22
id244	sample0	obj244	163	22	2	17	147
id245	sample0	obj245	146	820	509	394	185
id246	sample0	obj246	101	79	14	95	86
id247	sample0	obj247	50	12	27	3	7
id248	sample0	obj248	123	401	573	113	15
id249	sample0	obj249	184	49	187	50	46
id250	sample0	obj250	138	20	54	30	143
id251	sample0	obj251	195	58	23	37	106
id252	sample0	obj252	61	40	83	10	18
id253	sample0	obj253	62	7	11	16	64
id254	sample0	obj254	74	11	24	128	717
id255	sample0	obj255	69	286	66	250	268
id256	sample0	obj256	170	22	59	79	67
id257	sample0	obj257	121	824	3898	1423	3371
id258	sample0	obj258	17	8	1	1	5
id259	sample0	obj259	43	10	39	10	9
id260	sample0	obj260	5	3	0	0	0
id261	sample0	obj261	181	47	183	49	48
id262	sample0	obj262	89	445	126	165	730
id263	sample0	obj263	153	52	40	42	23
id264	sample0	obj264	169	623	170	747	821
id265	sample0	obj265	189	1041	135	29	57
id266	sample0	obj266	70	16	5	4	1
id267	sample0	obj267	56	103	46	30	67
id268	sample0	obj268	142	61	372	462	74
id269	sample0	obj269	198	32	10	53	12
id270	sample0	obj270	159	104	112	15	35
id271	sample0	obj271	27	21	8	6	0
id272	sample0	obj272	183	39	8	3	7
id273	sample0	obj273	46	36	26	34	217
id274	sample0	obj274	91	164	388	614	101
id275	sample0	obj275	140	412	346	148	273
id276	sample0	obj276	91	399	284	129	19
id277	sample0	obj277	14	3	12	3	3
id278	sample0	obj278	132	16	1	7	57
id279	sample0	obj279	88	83	100	246	225
id280	sample0	obj280	141	473	165	59	26
id281	sample0	obj281	116	13	1	7	54
id282	sample0	obj282	200	117	27	26	177
id283	sample0	obj283	135	346	186	385	2477
id284	sample0	obj284	133	547	539	1471	341
id285	sample0	obj285	75	27	13	97	15
id286	sample0	obj286	17	71	17	69	64
id287	sample0	obj287	161	61	22	5	13
id288	sample0	obj288	105	23	91	20	18
id289	sample0	obj289	124	33	120	27	28
id290	sample0	obj290	5	21	5	20	21
id291	sample0	obj291	70	433	154	23	78
id292	sample0	obj292	145	36	11	8	18
id293	sample0	obj293	53	6	0	0	0
id294	sample0	obj294	132	317	457	1037	1289
id295	sample0	obj295	90	185	37	10	2
id296	sample0	obj296	86	291	73	32	99
id297	sample0	obj297	19	4	1	0	0
id298	sample0	obj298	175	97	32	27	20
id299	sample0	obj299	186	24	3	26	225
id300	sample0	obj300	34	4	0	0	0
id301	sample0	obj301	161	440	527	406	157
id302	sample0	obj302	91	24	94	25	25
id303	sample0	obj303	106	104	28	13	20
id304	sample0	obj304	174	293	617	3359	740
id305	sample0	obj305	157	18	2	15	126
id306	sample0	obj306	108	106	190	267	65
id307	sample0	obj307	8	2	1	0	0
id308	sample0	obj308	61	237	56	206	219
id309	sample0	obj309	151	37	161	36	37
id310	sample0	obj310	78	430	123	191	24
id311	sample0	obj311	158	30	49	98	107
id312	sample0	obj312	112	95	101	148	447
id313	sample0	obj313	43	30	141	827	4444
id314	sample0	obj314	189	490	928	126	48
id315	sample0	obj315	68	17	65	16	15
id316	sample0	obj316	42	27	4	0	0
id317	sample0	obj317	69	363	1222	222	1580
id318	sample0	obj318	164	21	2	16	135
id319	sample0	obj319	171	72	49	34	179
id320	sample0	obj320	46	63	66	76	98
id321	sample0	obj321	73	10	1	4	0
id322	sample0	obj322	89	83	102	802	3184
id323	sample0	obj323	170	1339	2031	11010	4291
id324	sample0	obj324	179	264	560	1878	8565
id325	sample0	obj325	91	17	36	6	44
id326	sample0	obj326	13	11	19	58	72
id327	sample0	obj327	191	25	2	16	127
id328	sample0	obj328	82	351	90	352	334
id329	sample0	obj329	20	4	17	3	3
id330	sample0	obj330	91	216	1318	272	437
id331	sample0	obj331	25	3	0	0	0
id332	sample0	obj332	178	28	48	13	64
id333	sample0	obj333	177	162	93	29	51
id334	sample0	obj334	197	115	26	3	9
id335	sample0	obj335	116	15	1	0	0
id336	sample0	obj336	60	13	4	16	7
id337	sample0	obj337	14	3	12	3	2
id338	sample0	obj338	184	48	13	45	291
id339	sample0	obj339	104	28	114	29	31
id340	sample0	obj340	96	300	1448	495	231
id341	sample0	obj341	66	288	66	243	251
id342	sample0	obj342	34	140	38	142	150
id343	sample0	obj343	22	96	22	90	89
id344	sample0	obj344	197	1556	1787	13432	93091
id345	sample0	obj345	186	768	208	774	715
id346	sample0	obj346	118	138	37	24	7
id347	sample0	obj347	200	73	52	10	2
id348	sample0	obj348	99	113	235	63	8
id349	sample0	obj349	131	533	141	563	598
id350	sample0	obj350	177	174	21	2	5
id351	sample0	obj351	99	423	100	379	367
id352	sample0	obj352	124	223	144	353	2365
id353	sample0	obj353	24	3	0	0	0
id354	sample0	obj354	17	4	16	3	3
id355	sample0	obj355	139	50	23	7	38
id356	sample0	obj356	33	8	31	7	7
id357	sample0	obj357	35	15	9	1	1
id358	sample0	obj358	92	35	7	2	0
id359	sample0	obj359	74	18	65	15	15
id360	sample1	obj0	164	21	2	16	135
id361	sample1	obj1	154	30	8	12	82
id362	sample1	obj2	82	351	90	352	334
id363	sample1	obj3	124	33	120	27	28
id364	sample1	obj4	192	521	143	45	7
id365	sample1	obj5	10	10	50	77	26
id366	sample1	obj6	6	2	0	0	0
id367	sample1	obj7	149	795	832	204	601
id368	sample1	obj8	21	2	0	0	0
id369	sample1	obj9	183	39	8	3	7
id370	sample1	obj10	92	35	7	2	0
id371	sample1	obj11	26	6	25	4	11
id372	sample1	obj12	117	385	335	88	29
id373	sample1	obj13	14	58	14	60	57
id374	sample1	obj14	20	40	34	123	27
id375	sample1	obj15	16	25	36	103	468
id376	sample1	obj16	89	445	126	165	730
id377	sample1	obj17	11	78	175	125	24
id378	sample1	obj18	2	2	3	13	2
id379	sample1	obj19	181	223	156	355	1085
id380	sample1	obj20	99	24	100	23	21
id381	sample1	obj21	147	543	931	219	92
id382	sample1	obj22	32	48	119	819	1905
id383	sample1	obj23	181	94	346	769	187
id384	sample1	obj24	141	473	165	59	26
id385	sample1	obj25	101	79	14	95	86
id386	sample1	obj26	104	28	114	29	31
id387	sample1	obj27	29	162	20	3	0
id388	sample1	obj28	121	824	3898	1423	3371
id389	sample1	obj29	135	346	186	385	2477
id390	sample1	obj30	90	17	7	3	19
id391	sample1	obj31	96	300	1448	495	231
id392	sample1	obj32	17	71	17	69	64
id393	sample1	obj33	16	1	0	0	0
id394	sample1	obj34	35	260	1801	5666	4907
id395	sample1	obj35	5	21	5	20	21
id396	sample1	obj36	105	23	91	20	18
id397	sample1	obj37	130	29	116	29	27
id398	sample1	obj38	88	55	8	2	2
id399	sample1	obj39	184	48	13	45	291
id400	sample1	obj40	69	286	66	250	268
id401	sample1	obj41	26	4	0	0	0
id402	sample1	obj42	101	13	29	18	29
id403	sample1	obj43	106	596	1644	1078	2846
id404	sample1	obj44	29	11	5	23	5
id405	sample1	obj45	56	14	55	13	11
id406	sample1	obj46	170	672	3064	4026	27678
id407	sample1	obj47	200	117	27	26	177
id408	sample1	obj48	144	548	124	521	561
id409	sample1	obj49	161	61	22	5	13
id410	sample1	obj50	133	547	539	1471	341
id411	sample1	obj51	70	16	5	4	1
id412	sample1	obj52	157	207	96	65	450
id413	sample1	obj53	22	85	23	91	89
id414	sample1	obj54	144	19	2	17	130
id415	sample1	obj55	70	433	154	23	78
id416	sample1	obj56	77	53	37	293	47
id417	sample1	obj57	53	222	52	208	220
id418	sample1	obj58	4	8	9	10	5
id419	sample1	obj59	127	588	4302	2911	4236
id420	sample1	obj60	126	30	121	29	29
id421	sample1	obj61	48	14	27	104	30
id422	sample1	obj62	96	50	318	193	171
id423	sample1	obj63	81	398	72	18	6
id424	sample1	obj64	17	8	1	1	5
id425	sample1	obj65	113	190	233	50	246
id426	sample1	obj66	92	32	66	112	28
id427	sample1	obj67	197	115	26	3	9
id428	sample1	obj68	194	24	3	23	172
id429	sample1	obj69	107	442	100	415	412
id430	sample1	obj70	89	127	361	1516	2795
id431	sample1	obj71	116	15	1	0	0
id432	sample1	obj72	43	10	39	10	9
id433	sample1	obj73	117	166	86	59	7
id434	sample1	obj74	39	32	16	23	32
id435	sample1	obj75	88	83	100	246	225
id436	sample1	obj76	163	22	2	17	147
id437	sample1	obj77	111	25	11	2	7
id438	sample1	obj78	46	63	66	76	98
id439	sample1	obj79	6	3	1	0	0
id440	sample1	obj80	188	224	123	22	6
id441	sample1	obj81	8	1	0	0	0
id442	sample1	obj82	143	118	868	110	165
id443	sample1	obj83	40	9	38	8	7
id444	sample1	obj84	164	22	2	16	135
id445	sample1	obj85	93	80	19	33	67
id446	sample1	obj86	99	205	32	22	9
id447	sample1	obj87	119	182	44	33	18
id448	sample1	obj88	188	24	3	24	195
id449	sample1	obj89	83	18	4	12	4
id450	sample1	obj90	120	301	1088	8289	7077
id451	sample1	obj91	32	48	61	21	41
id452	sample1	obj92	142	61	372	462	74
id453	sample1	obj93	116	155	40	17	2
id454	sample1	obj94	139	320	299	271	1826
id455	sample1	obj95	102	170	72	19	3
id456	sample1	obj96	151	543	146	576	609
id457	sample1	obj97	86	23	83	22	20
id458	sample1	obj98	105	60	39	13	40
id459	sample1	obj99	91	17	36	6	44
id460	sample1	obj100	91	164	388	614	101
id461	sample1	obj101	191	1352	1043	131	18
id462	sample1	obj102	98	394	1403	2982	18948
id463	sample1	obj103	34	136	37	135	140
id464	sample1	obj104	68	17	65	16	15
id465	sample1	obj105	78	22	28	9	37
id466	sample1	obj106	33	8	31	7	7
id467	sample1	obj107	64	60	167	45	79
id468	sample1	obj108	153	52	40	42	23
id469	sample1	obj109	34	139	36	137	147
id470	sample1	obj110	14	3	12	3	3
id471	sample1	obj111	9	2	7	1	1
id472	sample1	obj112	17	39	115	145	128
id473	sample1	obj113	170	22	59	79	67
id474	sample1	obj114	56	9	15	9	3
id475	sample1	obj115	94	23	11	8	3
id476	sample1	obj116	73	170	74	211	705
id477	sample1	obj117	132	16	1	7	57
id478	sample1	obj118	90	185	37	10	2
id479	sample1	obj119	100	404	1064	201	534
id480	sample1	obj120	126	174	836	1126	181
id481	sample1	obj121	151	37	161	36	37
id482	sample1	obj122	170	39	171	43	41
id483	sample1	obj123	30	178	135	720	479
id484	sample1	obj124	1	3	12	18	5
id485	sample1	obj125	171	145	43	13	90
id486	sample1	obj126	52	187	48	189	195
id487	sample1	obj127	34	8	33	7	6
id488	sample1	obj128	34	140	38	142	150
id489	sample1	obj129	61	237	56	206	219
id490	sample1	obj130	183	1029	290	49	20
id491	sample1	obj131	86	291	73	32	99
id492	sample1	obj132	139	50	23	7	38
id493	sample1	obj133	116	13	1	7	54
id494	sample1	obj134	96	342	49	84	14
id495	sample1	obj135	151	18	2	16	117
id496	sample1	obj136	198	27	13	59	20
id497	sample1	obj137	131	16	1	7	61
id498	sample1	obj138	148	20	9	1	7
id499	sample1	obj139	198	809	212	852	839
id500	sample1	obj140	34	10	2	7	8
id501	sample1	obj141	138	1014	1834	11637	6335
id502	sample1	obj142	14	3	12	3	2
id503	sample1	obj143	123	401	573	113	15
id504	sample1	obj144	5	3	0	0	0
id505	sample1	obj145	158	772	3985	1932	326
id506	sample1	obj146	65	19	15	3	6
id507	sample1	obj147	39	70	60	10	41
id508	sample1	obj148	30	131	31	125	124
id509	sample1	obj149	15	3	11	2	1
id510	sample1	obj150	181	194	108	17	5
id511	sample1	obj151	177	697	211	27	107
id512	sample1	obj152	148	18	2	15	118
id513	sample1	obj153	181	47	183	49	48
id514	sample1	obj154	74	11	24	128	717
id515	sample1	obj155	66	288	66	243	251
id516	sample1	obj156	35	15	9	1	1
id517	sample1	obj157	120	16	96	51	120
id518	sample1	obj158	183	352	47	274	405
id519	sample1	obj159	174	293	617	3359	740
id520	sample1	obj160	19	4	1	0	0
id521	sample1	obj161	96	82	15	5	7
id522	sample1	obj162	106	104	28	13	20
id523	sample1	obj163	83	58	222	61	199
id524	sample1	obj164	86	136	105	241	127
id525	sample1	obj165	101	12	1	8	69
id526	sample1	obj166	40	4	0	0	0
id527	sample1	obj167	118	14	1	8	61
id528	sample1	obj168	194	343	69	245	1152
id529	sample1	obj169	183	98	16	32	187
id530	sample1	obj170	97	12	1	8	61
id531	sample1	obj171	75	10	1	8	65
id532	sample1	obj172	54	113	24	132	36
id533	sample1	obj173	26	14	9	34	11
id534	sample1	obj174	175	46	196	52	50
id535	sample1	obj175	190	23	3	21	17
id536	sample1	obj176	114	619	1445	2384	741
id537	sample1	obj177	30	47	278	50	10
id538	sample1	obj178	89	226	109	68	245
id539	sample1	obj179	143	25	55	79	386
id540	sample1	obj180	158	30	49	98	107
id541	sample1	obj181	197	1556	1787	13432	93091
id542	sample1	obj182	20	4	17	3	3
id543	sample1	obj183	25	3	0	0	0
id544	sample1	obj184	169	623	170	747	821
id545	sample1	obj185	106	122	681	4671	1007
id546	sample1	obj186	42	27	4	0	0
id547	sample1	obj187	25	3	0	0	0
id548	sample1	obj188	71	281	75	302	319
id549	sample1	obj189	17	4	16	3	3
id550	sample1	obj190	13	1	0	0	0
id551	sample1	obj191	108	106	190	267	65
id552	sample1	obj192	199	29	6	35	22
id553	sample1	obj193	73	10	1	4	0
id554	sample1	obj194	167	19	2	16	135
id555	sample1	obj195	53	239	193	32	7
id556	sample1	obj196	59	101	37	33	60
id557	sample1	obj197	89	321	82	350	321
id558	sample1	obj198	104	27	103	24	26
id559	sample1	obj199	159	104	112	15	35
id560	sample1	obj200	112	15	1	8	60
id561	sample1	obj201	125	490	132	551	537
id562	sample1	obj202	69	457	293	674	1892
id563	sample1	obj203	162	38	151	35	36
id564	sample1	obj204	62	8	1	8	58
id565	sample1	obj205	198	314	517	210	136
id566	sample1	obj206	66	246	61	232	227
id567	sample1	obj207	35	7	1	2	5
id568	sample1	obj208	149	63	438	297	550
id569	sample1	obj209	172	683	1818	854	5200
id570	sample1	obj210	53	6	0	0	0
id571	sample1	obj211	91	21	18	35	19
id572	sample1	obj212	158	392	637	125	209
id573	sample1	obj213	12	3	12	2	2
id574	sample1	obj214	34	4	0	0	0
id575	sample1	obj215	79	14	26	19	6
id576	sample1	obj216	75	27	13	97	15
id577	sample1	obj217	98	293	185	36	10
id578	sample1	obj218	66	45	49	256	173
id579	sample1	obj219	170	1339	2031	11010	4291
id580	sample1	obj220	164	186	822	3287	579
id581	sample1	obj221	47	81	86	12	4
id582	sample1	obj222	138	20	54	30	143
id583	sample1	obj223	127	152	38	33	6
id584	sample1	obj224	171	72	49	34	179
id585	sample1	obj225	91	373	85	363	383
id586	sample1	obj226	60	11	4	3	1
id587	sample1	obj227	110	25	19	2	3
id588	sample1	obj228	17	3	11	2	1
id589	sample1	obj229	120	449	101	425	452
id590	sample1	obj230	80	326	76	288	285
id591	sample1	obj231	118	138	37	24	7
id592	sample1	obj232	74	18	65	15	15
id593	sample1	obj233	153	35	126	33	34
id594	sample1	obj234	184	1020	4795	18610	78822
id595	sample1	obj235	114	706	5584	947	551
id596	sample1	obj236	8	7	3	1	0
id597	sample1	obj237	43	30	141	827	4444
id598	sample1	obj238	125	78	490	159	163
id599	sample1	obj239	189	1041	135	29	57
id600	sample1	obj240	49	5	0	0	0
id601	sample1	obj241	46	36	26	34	217
id602	sample1	obj242	77	8	0	0	0
id603	sample1	obj243	25	3	0	0	0
id604	sample1	obj244	193	25	137	118	131
id605	sample1	obj245	115	454	117	486	471
id606	sample1	obj246	160	86	84	47	58
id607	sample1	obj247	158	396	157	77	604
id608	sample1	obj248	13	11	19	58	72
id609	sample1	obj249	61	40	83	10	18
id610	sample1	obj250	127	38	167	485	931
id611	sample1	obj251	157	18	2	15	126
id612	sample1	obj252	4	7	15	2	3
id613	sample1	obj253	162	37	149	39	42
id614	sample1	obj254	132	317	457	1037	1289
id615	sample1	obj255	56	103	46	30	67
id616	sample1	obj256	31	37	26	81	208
id617	sample1	obj257	131	149	573	364	1436
id618	sample1	obj258	146	820	509	394	185
id619	sample1	obj259	153	37	158	42	38
id620	sample1	obj260	91	24	94	25	25
id621	sample1	obj261	175	97	32	27	20
id622	sample1	obj262	27	21	8	6	0
id623	sample1	obj263	89	83	102	802	3184
id624	sample1	obj264	104	412	98	372	373
id625	sample1	obj265	191	43	177	43	43
id626	sample1	obj266	183	687	172	717	757
id627	sample1	obj267	100	13	1	8	68
id628	sample1	obj268	136	47	90	446	3121
id629	sample1	obj269	106	27	108	25	27
id630	sample1	obj270	50	12	27	3	7
id631	sample1	obj271	66	92	50	197	239
id632	sample1	obj272	159	38	24	166	1281
id633	sample1	obj273	199	26	3	22	180
id634	sample1	obj274	151	483	616	301	96
id635	sample1	obj275	46	319	172	619	336
id636	sample1	obj276	171	63	141	132	936
id637	sample1	obj277	25	13	65	8	3
id638	sample1	obj278	189	490	928	126	48
id639	sample1	obj279	137	29	132	164	99
id640	sample1	obj280	195	58	23	37	106
id641	sample1	obj281	32	38	194	156	50
id642	sample1	obj282	62	7	11	16	64
id643	sample1	obj283	91	260	145	476	427
id644	sample1	obj284	124	223	144	353	2365
id645	sample1	obj285	161	440	527	406	157
id646	sample1	obj286	148	632	158	589	629
id647	sample1	obj287	109	169	149	32	217
id648	sample1	obj288	69	295	78	324	298
id649	sample1	obj289	8	22	53	42	5
id650	sample1	obj290	112	95	101	148	447
id651	sample1	obj291	155	40	145	35	36
id652	sample1	obj292	8	2	1	0	0
id653	sample1	obj293	186	768	208	774	715
id654	sample1	obj294	56	62	100	14	3
id655	sample1	obj295	163	92	34	13	7
id656	sample1	obj296	75	181	26	170	246
id657	sample1	obj297	131	533	141	563	598
id658	sample1	obj298	177	162	93	29	51
id659	sample1	obj299	37	56	11	26	62
id660	sample1	obj300	140	412	346	148	273
id661	sample1	obj301	51	115	622	3993	1725
id662	sample1	obj302	36	4	0	0	0
id663	sample1	obj303	138	264	1974	8604	1803
id664	sample1	obj304	122	29	116	29	30
id665	sample1	obj305	179	264	560	1878	8565
id666	sample1	obj306	15	24	95	32	50
id667	sample1	obj307	51	20	28	7	1
id668	sample1	obj308	118	220	337	1406	3754
id669	sample1	obj309	170	644	172	690	708
id670	sample1	obj310	69	363	1222	222	1580
id671	sample1	obj311	140	21	48	168	305
id672	sample1	obj312	24	3	0	0	0
id673	sample1	obj313	16	3	12	2	1
id674	sample1	obj314	200	73	52	10	2
id675	sample1	obj315	94	12	1	7	51
id676	sample1	obj316	22	152	19	26	131
id677	sample1	obj317	91	216	1318	272	437
id678	sample1	obj318	69	16	63	15	16
id679	sample1	obj319	114	27	106	107	22
id680	sample1	obj320	188	24	2	16	136
id681	sample1	obj321	91	399	284	129	19
id682	sample1	obj322	177	174	21	2	5
id683	sample1	obj323	129	463	851	123	774
id684	sample1	obj324	87	165	802	103	110
id685	sample1	obj325	143	408	2415	696	2951
id686	sample1	obj326	145	36	11	8	18
id687	sample1	obj327	13	52	24	32	4
id688	sample1	obj328	64	50	36	55	115
id689	sample1	obj329	99	113	235	63	8
id690	sample1	obj330	191	25	2	16	127
id691	sample1	obj331	66	8	0	0	0
id692	sample1	obj332	184	49	187	50	46
id693	sample1	obj333	198	164	152	173	96
id694	sample1	obj334	179	703	187	716	677
id695	sample1	obj335	85	23	34	193	1476
id696	sample1	obj336	12	6	1	0	0
id697	sample1	obj337	42	64	9	2	0
id698	sample1	obj338	173	47	181	41	40
id699	sample1	obj339	60	13	4	16	7
id700	sample1	obj340	99	423	100	379	367
id701	sample1	obj341	198	32	10	53	12
id702	sample1	obj342	22	96	22	90	89
id703	sample1	obj343	129	160	110	25	76
id704	sample1	obj344	189	350	1140	4332	567
id705	sample1	obj345	128	525	518	2175	693
id706	sample1	obj346	186	24	3	26	225
id707	sample1	obj347	7	10	7	38	44
id708	sample1	obj348	78	430	123	191	24
id709	sample1	obj349	178	28	48	13	64
id710	sample1	obj350	119	62	190	110	78
id711	sample1	obj351	150	378	149	1132	209
id712	sample1	obj352	45	79	41	272	485
id713	sample1	obj353	116	660	2180	13002	67348
id714	sample1	obj354	17	69	17	70	73
id715	sample1	obj355	96	139	314	627	4424
id716	sample1	obj356	118	876	542	817	263
id717	sample1	obj357	121	489	111	470	506
id718	sample1	obj358	97	423	114	432	442
id719	sample1	obj359	153	348	1491	2616	794
