obj67	0
obj68	0
obj69	0
obj60	0
obj61	0
obj62	0
obj63	0
obj64	0
obj239	2
obj65	0
obj238	2
obj66	0
obj247	2
obj248	2
obj245	2
obj246	2
obj243	2
obj244	2
obj241	2
obj242	2
obj100	0
obj240	2
obj101	1
obj104	1
obj105	1
obj102	1
obj103	1
obj58	0
obj107	1
obj59	0
obj106	1
obj56	0
obj109	1
obj57	0
obj108	1
obj50	0
obj51	0
obj54	0
obj249	2
obj55	0
obj52	0
obj53	0
obj256	2
obj257	2
obj258	2
obj259	2
obj252	2
obj253	2
obj254	2
obj255	2
obj110	1
obj250	2
obj111	1
obj251	2
obj112	1
obj113	1
obj114	1
obj115	1
obj116	1
obj49	0
obj45	0
obj46	0
obj119	1
obj47	0
obj118	1
obj48	0
obj117	1
obj219	2
obj41	0
obj218	2
obj42	0
obj217	2
obj43	0
obj216	2
obj44	0
obj40	0
obj221	2
obj222	2
obj220	2
obj225	2
obj226	2
obj223	2
obj224	2
obj126	1
obj127	1
obj124	1
obj125	1
obj122	1
obj123	1
obj120	1
obj121	1
obj38	0
obj39	0
obj36	0
obj129	1
obj37	0
obj128	1
obj34	0
obj35	0
obj228	2
obj32	0
obj227	2
obj33	0
obj30	0
obj229	2
obj31	0
obj230	2
obj231	2
obj232	2
obj233	2
obj130	1
obj234	2
obj235	2
obj236	2
obj237	2
obj135	1
obj136	1
obj137	1
obj138	1
obj131	1
obj132	1
obj133	1
obj134	1
obj20	0
obj22	0
obj21	0
obj24	0
obj23	0
obj26	0
obj25	0
obj28	0
obj27	0
obj29	0
obj204	2
obj203	2
obj202	2
obj201	2
obj200	1
obj209	2
obj205	2
obj11	0
obj206	2
obj10	0
obj207	2
obj208	2
obj15	0
obj14	0
obj13	0
obj12	0
obj19	0
obj18	0
obj17	0
obj16	0
obj213	2
obj212	2
obj215	2
obj214	2
obj211	2
obj210	2
obj195	1
obj196	1
obj193	1
obj194	1
obj191	1
obj192	1
obj190	1
obj199	1
obj197	1
obj198	1
obj182	1
obj183	1
obj184	1
obj185	1
obj180	1
obj181	1
obj186	1
obj187	1
obj188	1
obj189	1
obj300	2
obj291	2
obj290	2
obj159	1
obj158	1
obj157	1
obj295	2
obj156	1
obj294	2
obj155	1
obj293	2
obj154	1
obj292	2
obj153	1
obj299	2
obj152	1
obj298	2
obj151	1
obj297	2
obj90	0
obj150	1
obj296	2
obj91	0
obj97	0
obj96	0
obj99	0
obj98	0
obj93	0
obj92	0
obj95	0
obj94	0
obj147	1
obj146	1
obj280	2
obj149	1
obj148	1
obj282	2
obj143	1
obj281	2
obj142	1
obj284	2
obj145	1
obj283	2
obj144	1
obj286	2
obj285	2
obj288	2
obj141	1
obj287	2
obj140	1
obj289	2
obj139	1
obj273	2
obj178	1
obj272	2
obj177	1
obj271	2
obj176	1
obj270	2
obj175	1
obj179	1
obj170	1
obj279	2
obj278	2
obj277	2
obj174	1
obj276	2
obj173	1
obj275	2
obj172	1
obj274	2
obj171	1
obj71	0
obj3	0
obj70	0
obj4	0
obj73	0
obj5	0
obj72	0
obj6	0
obj75	0
obj74	0
obj77	0
obj1	0
obj76	0
obj2	0
obj79	0
obj78	0
obj260	2
obj165	1
obj164	1
obj262	2
obj167	1
obj261	2
obj166	1
obj169	1
obj168	1
obj268	2
obj267	2
obj269	2
obj264	2
obj161	1
obj263	2
obj80	0
obj9	0
obj160	1
obj266	2
obj8	0
obj163	1
obj265	2
obj7	0
obj162	1
obj84	0
obj83	0
obj82	0
obj81	0
obj88	0
obj87	0
obj86	0
obj85	0
obj89	0
