sample0	obj0	68.0	274.0	49.0	251.0	220.0
sample0	obj1	23.0	111.0	28.0	112.0	84.0
sample0	obj2	184.0	843.0	219.0	864.0	672.0
sample0	obj3	130.0	461.0	94.0	431.0	345.0
sample0	obj4	53.0	195.0	44.0	196.0	158.0
sample0	obj5	68.0	300.0	76.0	237.0	190.0
sample0	obj6	128.0	427.0	79.0	351.0	369.0
sample0	obj7	92.0	423.0	132.0	614.0	659.0
sample0	obj8	72.0	277.0	62.0	245.0	242.0
sample0	obj9	169.0	669.0	142.0	647.0	763.0
sample0	obj10	28.0	130.0	31.0	139.0	102.0
sample0	obj11	164.0	714.0	151.0	684.0	826.0
sample0	obj12	130.0	554.0	173.0	673.0	495.0
sample0	obj13	166.0	711.0	172.0	819.0	705.0
sample0	obj14	120.0	416.0	76.0	228.0	291.0
sample0	obj15	178.0	763.0	144.0	729.0	848.0
sample0	obj16	76.0	311.0	57.0	232.0	167.0
sample0	obj17	37.0	141.0	33.0	119.0	91.0
sample0	obj18	62.0	208.0	52.0	195.0	244.0
sample0	obj19	77.0	391.0	97.0	323.0	237.0
sample0	obj20	128.0	490.0	89.0	367.0	343.0
sample0	obj21	167.0	534.0	150.0	772.0	763.0
sample0	obj22	191.0	865.0	247.0	885.0	952.0
sample0	obj23	98.0	463.0	147.0	676.0	695.0
sample0	obj24	148.0	671.0	146.0	515.0	395.0
sample0	obj25	148.0	535.0	137.0	579.0	698.0
sample0	obj26	47.0	203.0	38.0	159.0	124.0
sample0	obj27	180.0	875.0	265.0	1186.0	972.0
sample0	obj28	20.0	80.0	14.0	41.0	29.0
sample0	obj29	155.0	684.0	139.0	391.0	351.0
sample0	obj30	106.0	542.0	138.0	677.0	625.0
sample0	obj31	114.0	494.0	155.0	612.0	636.0
sample0	obj32	24.0	99.0	22.0	63.0	60.0
sample0	obj33	155.0	776.0	202.0	880.0	656.0
sample0	obj34	46.0	194.0	59.0	168.0	122.0
sample0	obj35	7.0	20.0	3.0	11.0	7.0
sample0	obj36	135.0	478.0	108.0	329.0	333.0
sample0	obj37	132.0	435.0	104.0	495.0	526.0
sample0	obj38	31.0	129.0	32.0	161.0	193.0
sample0	obj39	67.0	326.0	57.0	223.0	157.0
sample0	obj40	117.0	29.0	129.0	24.0	18.0
sample0	obj41	114.0	30.0	127.0	32.0	35.0
sample0	obj42	130.0	28.0	110.0	31.0	36.0
sample0	obj43	31.0	8.0	33.0	6.0	7.0
sample0	obj44	181.0	46.0	140.0	27.0	20.0
sample0	obj45	8.0	1.0	3.0	0.0	0.0
sample0	obj46	7.0	2.0	7.0	1.0	0.0
sample0	obj47	116.0	37.0	129.0	28.0	20.0
sample0	obj48	196.0	45.0	225.0	51.0	51.0
sample0	obj49	129.0	26.0	109.0	24.0	28.0
sample0	obj50	140.0	29.0	139.0	35.0	27.0
sample0	obj51	77.0	17.0	57.0	14.0	11.0
sample0	obj52	45.0	8.0	29.0	7.0	5.0
sample0	obj53	96.0	23.0	95.0	18.0	15.0
sample0	obj54	141.0	34.0	128.0	29.0	24.0
sample0	obj55	69.0	17.0	60.0	11.0	9.0
sample0	obj56	149.0	39.0	127.0	34.0	26.0
sample0	obj57	157.0	40.0	141.0	28.0	21.0
sample0	obj58	138.0	44.0	199.0	49.0	55.0
sample0	obj59	102.0	23.0	76.0	18.0	18.0
sample0	obj60	184.0	48.0	247.0	53.0	58.0
sample0	obj61	115.0	21.0	102.0	24.0	19.0
sample0	obj62	75.0	19.0	98.0	25.0	30.0
sample0	obj63	38.0	9.0	39.0	10.0	10.0
sample0	obj64	54.0	14.0	51.0	9.0	8.0
sample0	obj65	54.0	15.0	42.0	8.0	8.0
sample0	obj66	135.0	27.0	85.0	25.0	24.0
sample0	obj67	127.0	37.0	181.0	34.0	39.0
sample0	obj68	140.0	40.0	120.0	21.0	16.0
sample0	obj69	39.0	7.0	30.0	8.0	8.0
sample0	obj70	183.0	46.0	196.0	48.0	42.0
sample0	obj71	21.0	5.0	25.0	6.0	7.0
sample0	obj72	197.0	46.0	141.0	39.0	32.0
sample0	obj73	30.0	8.0	39.0	10.0	9.0
sample0	obj74	181.0	45.0	163.0	49.0	61.0
sample0	obj75	187.0	50.0	204.0	43.0	55.0
sample0	obj76	50.0	9.0	44.0	13.0	13.0
sample0	obj77	13.0	2.0	7.0	1.0	0.0
sample0	obj78	83.0	21.0	89.0	17.0	19.0
sample0	obj79	145.0	45.0	155.0	28.0	30.0
sample0	obj80	54.0	5.0	0.0	0.0	0.0
sample0	obj81	180.0	26.0	2.0	12.0	92.0
sample0	obj82	141.0	13.0	2.0	11.0	114.0
sample0	obj83	108.0	14.0	1.0	8.0	55.0
sample0	obj84	49.0	4.0	0.0	0.0	0.0
sample0	obj85	119.0	18.0	1.0	10.0	94.0
sample0	obj86	159.0	21.0	3.0	28.0	230.0
sample0	obj87	83.0	8.0	1.0	8.0	81.0
sample0	obj88	41.0	5.0	0.0	0.0	0.0
sample0	obj89	169.0	15.0	2.0	14.0	119.0
sample0	obj90	151.0	22.0	2.0	16.0	149.0
sample0	obj91	62.0	6.0	0.0	0.0	0.0
sample0	obj92	182.0	29.0	4.0	39.0	323.0
sample0	obj93	147.0	20.0	2.0	15.0	120.0
sample0	obj94	184.0	27.0	2.0	19.0	177.0
sample0	obj95	195.0	26.0	2.0	12.0	68.0
sample0	obj96	197.0	31.0	4.0	30.0	239.0
sample0	obj97	63.0	6.0	0.0	0.0	0.0
sample0	obj98	186.0	28.0	3.0	31.0	319.0
sample0	obj99	55.0	7.0	0.0	0.0	0.0
sample0	obj100	84.0	9.0	1.0	9.0	69.0
sample0	obj101	163.0	23.0	2.0	16.0	104.0
sample0	obj102	79.0	7.0	0.0	0.0	0.0
sample0	obj103	86.0	8.0	0.0	0.0	0.0
sample0	obj104	31.0	4.0	0.0	0.0	0.0
sample0	obj105	80.0	8.0	1.0	10.0	85.0
sample0	obj106	167.0	20.0	2.0	18.0	145.0
sample0	obj107	136.0	11.0	1.0	8.0	45.0
sample0	obj108	13.0	1.0	0.0	0.0	0.0
sample0	obj109	54.0	6.0	0.0	0.0	0.0
sample0	obj110	59.0	9.0	1.0	6.0	51.0
sample0	obj111	190.0	25.0	2.0	14.0	93.0
sample0	obj112	31.0	3.0	0.0	0.0	0.0
sample0	obj113	101.0	15.0	1.0	8.0	70.0
sample0	obj114	185.0	25.0	3.0	17.0	110.0
sample0	obj115	76.0	9.0	1.0	6.0	45.0
sample0	obj116	124.0	16.0	1.0	9.0	52.0
sample0	obj117	145.0	22.0	3.0	30.0	261.0
sample0	obj118	133.0	18.0	1.0	10.0	71.0
sample0	obj119	129.0	19.0	2.0	16.0	103.0
sample0	obj120	65.0	20.0	11.0	1.0	0.0
sample0	obj121	76.0	64.0	118.0	517.0	800.0
sample0	obj122	155.0	164.0	267.0	1022.0	387.0
sample0	obj123	4.0	5.0	3.0	3.0	22.0
sample0	obj124	149.0	794.0	205.0	67.0	62.0
sample0	obj125	139.0	1072.0	4439.0	4825.0	11948.0
sample0	obj126	152.0	803.0	2957.0	1176.0	395.0
sample0	obj127	132.0	680.0	204.0	720.0	4784.0
sample0	obj128	141.0	512.0	113.0	231.0	498.0
sample0	obj129	154.0	51.0	149.0	926.0	156.0
sample0	obj130	28.0	117.0	95.0	441.0	80.0
sample0	obj131	60.0	288.0	1528.0	413.0	91.0
sample0	obj132	53.0	11.0	6.0	2.0	2.0
sample0	obj133	69.0	115.0	15.0	3.0	2.0
sample0	obj134	49.0	8.0	9.0	8.0	14.0
sample0	obj135	49.0	14.0	13.0	2.0	1.0
sample0	obj136	48.0	6.0	28.0	4.0	4.0
sample0	obj137	47.0	353.0	47.0	317.0	1102.0
sample0	obj138	149.0	18.0	5.0	11.0	61.0
sample0	obj139	116.0	18.0	47.0	67.0	126.0
sample0	obj140	193.0	236.0	34.0	96.0	71.0
sample0	obj141	30.0	4.0	17.0	130.0	566.0
sample0	obj142	44.0	8.0	4.0	5.0	3.0
sample0	obj143	64.0	424.0	335.0	1374.0	5051.0
sample0	obj144	140.0	570.0	3378.0	6776.0	1145.0
sample0	obj145	83.0	229.0	95.0	18.0	56.0
sample0	obj146	195.0	243.0	310.0	315.0	2311.0
sample0	obj147	71.0	10.0	13.0	34.0	31.0
sample0	obj148	88.0	506.0	331.0	1634.0	337.0
sample0	obj149	117.0	68.0	172.0	165.0	61.0
sample0	obj150	183.0	105.0	317.0	41.0	6.0
sample0	obj151	92.0	17.0	4.0	0.0	0.0
sample0	obj152	128.0	361.0	74.0	20.0	2.0
sample0	obj153	163.0	184.0	24.0	140.0	353.0
sample0	obj154	27.0	137.0	299.0	58.0	16.0
sample0	obj155	169.0	21.0	43.0	64.0	12.0
sample0	obj156	197.0	137.0	134.0	17.0	2.0
sample0	obj157	125.0	158.0	207.0	265.0	432.0
sample0	obj158	50.0	397.0	92.0	648.0	210.0
sample0	obj159	75.0	21.0	32.0	243.0	927.0
sample0	obj160	49.0	9.0	2.0	0.0	0.0
sample0	obj161	181.0	443.0	747.0	724.0	3750.0
sample0	obj162	64.0	70.0	12.0	14.0	71.0
sample0	obj163	115.0	37.0	8.0	7.0	14.0
sample0	obj164	65.0	14.0	59.0	106.0	16.0
sample0	obj165	140.0	68.0	13.0	11.0	2.0
sample0	obj166	192.0	1178.0	5892.0	5169.0	6732.0
sample0	obj167	69.0	282.0	1409.0	8400.0	3686.0
sample0	obj168	38.0	49.0	15.0	58.0	17.0
sample0	obj169	18.0	71.0	487.0	390.0	1268.0
sample0	obj170	164.0	438.0	834.0	288.0	410.0
sample0	obj171	52.0	109.0	90.0	374.0	119.0
sample0	obj172	84.0	38.0	17.0	4.0	1.0
sample0	obj173	35.0	90.0	51.0	11.0	50.0
sample0	obj174	87.0	19.0	93.0	194.0	135.0
sample0	obj175	45.0	8.0	12.0	21.0	3.0
sample0	obj176	88.0	237.0	133.0	35.0	6.0
sample0	obj177	11.0	3.0	6.0	0.0	0.0
sample0	obj178	144.0	101.0	162.0	210.0	449.0
sample0	obj179	187.0	387.0	2923.0	392.0	64.0
sample0	obj180	148.0	60.0	204.0	175.0	37.0
sample0	obj181	3.0	1.0	0.0	0.0	0.0
sample0	obj182	172.0	523.0	2044.0	8886.0	5116.0
sample0	obj183	50.0	9.0	6.0	5.0	1.0
sample0	obj184	20.0	123.0	683.0	474.0	1449.0
sample0	obj185	99.0	15.0	86.0	21.0	18.0
sample0	obj186	169.0	235.0	594.0	2297.0	1091.0
sample0	obj187	44.0	180.0	1073.0	242.0	262.0
sample0	obj188	54.0	153.0	97.0	82.0	93.0
sample0	obj189	12.0	7.0	13.0	1.0	0.0
sample0	obj190	63.0	478.0	163.0	21.0	46.0
sample0	obj191	27.0	13.0	9.0	8.0	2.0
sample0	obj192	109.0	75.0	52.0	34.0	75.0
sample0	obj193	55.0	189.0	50.0	25.0	70.0
sample0	obj194	164.0	61.0	10.0	2.0	0.0
sample0	obj195	155.0	378.0	2875.0	961.0	125.0
sample0	obj196	161.0	20.0	2.0	0.0	0.0
sample0	obj197	89.0	75.0	64.0	222.0	942.0
sample0	obj198	177.0	174.0	48.0	49.0	294.0
sample0	obj199	130.0	994.0	6544.0	1000.0	3711.0
sample0	obj200	23.0	26.0	18.0	9.0	14.0
sample0	obj201	189.0	380.0	360.0	446.0	114.0
sample0	obj202	17.0	31.0	14.0	4.0	2.0
sample0	obj203	132.0	124.0	307.0	455.0	3575.0
sample0	obj204	36.0	11.0	44.0	50.0	34.0
sample0	obj205	40.0	39.0	7.0	10.0	4.0
sample0	obj206	150.0	788.0	414.0	850.0	1245.0
sample0	obj207	63.0	32.0	90.0	92.0	80.0
sample0	obj208	145.0	871.0	5554.0	3206.0	988.0
sample0	obj209	108.0	54.0	217.0	1699.0	1457.0
sample0	obj210	176.0	192.0	234.0	183.0	237.0
sample0	obj211	149.0	346.0	1495.0	2055.0	593.0
sample0	obj212	63.0	55.0	81.0	16.0	18.0
sample0	obj213	148.0	24.0	4.0	1.0	1.0
sample0	obj214	165.0	682.0	256.0	459.0	2445.0
sample0	obj215	16.0	120.0	169.0	576.0	91.0
sample0	obj216	186.0	32.0	231.0	77.0	211.0
sample0	obj217	117.0	21.0	9.0	3.0	0.0
sample0	obj218	38.0	9.0	18.0	63.0	38.0
sample0	obj219	130.0	134.0	49.0	292.0	1152.0
sample0	obj220	18.0	20.0	106.0	67.0	315.0
sample0	obj221	29.0	87.0	534.0	198.0	79.0
sample0	obj222	52.0	81.0	47.0	126.0	891.0
sample0	obj223	198.0	155.0	131.0	26.0	21.0
sample0	obj224	93.0	14.0	2.0	4.0	1.0
sample0	obj225	40.0	49.0	7.0	1.0	3.0
sample0	obj226	180.0	115.0	502.0	2546.0	377.0
sample0	obj227	152.0	585.0	495.0	368.0	2437.0
sample0	obj228	194.0	78.0	118.0	799.0	517.0
sample0	obj229	48.0	68.0	10.0	57.0	24.0
sample0	obj230	45.0	15.0	31.0	48.0	7.0
sample0	obj231	156.0	218.0	112.0	106.0	17.0
sample0	obj232	197.0	32.0	187.0	272.0	112.0
sample0	obj233	67.0	433.0	1432.0	825.0	5725.0
sample0	obj234	122.0	117.0	639.0	1440.0	972.0
sample0	obj235	53.0	15.0	24.0	5.0	5.0
sample0	obj236	28.0	100.0	17.0	4.0	0.0
sample0	obj237	129.0	130.0	175.0	1315.0	197.0
sample0	obj238	17.0	9.0	18.0	121.0	17.0
sample0	obj239	25.0	33.0	95.0	23.0	18.0
sample0	obj240	11.0	3.0	8.0	31.0	14.0
sample0	obj241	55.0	38.0	264.0	622.0	215.0
sample0	obj242	132.0	567.0	420.0	936.0	242.0
sample0	obj243	112.0	34.0	62.0	95.0	218.0
sample0	obj244	79.0	19.0	21.0	3.0	9.0
sample0	obj245	195.0	696.0	91.0	19.0	8.0
sample0	obj246	103.0	182.0	179.0	981.0	612.0
sample0	obj247	173.0	387.0	638.0	145.0	888.0
sample0	obj248	80.0	360.0	47.0	130.0	25.0
sample0	obj249	36.0	9.0	6.0	13.0	12.0
sample0	obj250	176.0	125.0	209.0	171.0	499.0
sample0	obj251	115.0	845.0	292.0	66.0	244.0
sample0	obj252	14.0	92.0	433.0	582.0	902.0
sample0	obj253	191.0	52.0	178.0	251.0	64.0
sample0	obj254	26.0	15.0	29.0	7.0	6.0
sample0	obj255	93.0	79.0	251.0	35.0	17.0
sample0	obj256	134.0	211.0	32.0	10.0	2.0
sample0	obj257	113.0	18.0	8.0	12.0	30.0
sample0	obj258	98.0	71.0	281.0	300.0	459.0
sample0	obj259	180.0	246.0	351.0	1038.0	784.0
sample0	obj260	147.0	61.0	17.0	4.0	0.0
sample0	obj261	44.0	280.0	174.0	160.0	228.0
sample0	obj262	145.0	27.0	7.0	20.0	3.0
sample0	obj263	79.0	108.0	15.0	10.0	2.0
sample0	obj264	44.0	234.0	672.0	1601.0	366.0
sample0	obj265	39.0	26.0	15.0	35.0	6.0
sample0	obj266	90.0	575.0	1268.0	1454.0	289.0
sample0	obj267	114.0	58.0	165.0	34.0	4.0
sample0	obj268	131.0	54.0	352.0	840.0	733.0
sample0	obj269	26.0	14.0	38.0	198.0	64.0
sample0	obj270	76.0	221.0	78.0	166.0	472.0
sample0	obj271	64.0	20.0	67.0	95.0	311.0
sample0	obj272	31.0	104.0	24.0	7.0	2.0
sample0	obj273	34.0	5.0	1.0	0.0	0.0
sample0	obj274	163.0	79.0	489.0	634.0	99.0
sample0	obj275	179.0	511.0	89.0	25.0	179.0
sample0	obj276	94.0	35.0	106.0	458.0	466.0
sample0	obj277	68.0	191.0	514.0	1039.0	2838.0
sample0	obj278	9.0	37.0	5.0	32.0	112.0
sample0	obj279	113.0	14.0	67.0	11.0	4.0
sample0	obj280	111.0	33.0	4.0	0.0	0.0
sample0	obj281	86.0	42.0	5.0	1.0	2.0
sample0	obj282	107.0	28.0	74.0	14.0	38.0
sample0	obj283	63.0	257.0	68.0	16.0	3.0
sample0	obj284	154.0	176.0	67.0	125.0	91.0
sample0	obj285	55.0	157.0	23.0	5.0	27.0
sample0	obj286	95.0	108.0	34.0	15.0	11.0
sample0	obj287	63.0	26.0	51.0	215.0	1452.0
sample0	obj288	76.0	298.0	1937.0	5490.0	11958.0
sample0	obj289	20.0	2.0	2.0	9.0	8.0
sample0	obj290	191.0	250.0	119.0	526.0	4142.0
sample0	obj291	164.0	54.0	83.0	93.0	14.0
sample0	obj292	99.0	138.0	277.0	90.0	485.0
sample0	obj293	38.0	158.0	93.0	43.0	10.0
sample0	obj294	14.0	12.0	23.0	41.0	23.0
sample0	obj295	132.0	64.0	19.0	3.0	22.0
sample0	obj296	157.0	27.0	3.0	1.0	2.0
sample0	obj297	130.0	199.0	35.0	23.0	3.0
sample0	obj298	28.0	218.0	576.0	96.0	19.0
sample0	obj299	74.0	574.0	3750.0	4921.0	12897.0
sample0	obj300	51.0	406.0	1122.0	295.0	62.0
sample0	obj301	92.0	63.0	109.0	36.0	19.0
sample0	obj302	62.0	21.0	2.0	1.0	3.0
sample0	obj303	194.0	660.0	4970.0	32678.0	44939.0
sample0	obj304	6.0	15.0	38.0	105.0	62.0
sample0	obj305	118.0	169.0	970.0	1093.0	172.0
sample0	obj306	64.0	45.0	7.0	11.0	64.0
sample0	obj307	190.0	34.0	57.0	80.0	604.0
sample0	obj308	19.0	16.0	20.0	42.0	66.0
sample0	obj309	105.0	79.0	78.0	262.0	312.0
sample0	obj310	113.0	145.0	177.0	49.0	103.0
sample0	obj311	181.0	185.0	87.0	144.0	25.0
sample0	obj312	63.0	134.0	21.0	40.0	27.0
sample0	obj313	64.0	68.0	14.0	86.0	18.0
sample0	obj314	128.0	214.0	825.0	4306.0	22131.0
sample0	obj315	62.0	29.0	19.0	2.0	4.0
sample0	obj316	19.0	35.0	63.0	68.0	17.0
sample0	obj317	86.0	20.0	13.0	51.0	84.0
sample0	obj318	168.0	46.0	266.0	38.0	50.0
sample0	obj319	34.0	236.0	29.0	85.0	90.0
sample0	obj320	82.0	243.0	736.0	730.0	456.0
sample0	obj321	146.0	59.0	304.0	881.0	142.0
sample0	obj322	91.0	86.0	17.0	7.0	2.0
sample0	obj323	64.0	158.0	235.0	224.0	164.0
sample0	obj324	74.0	79.0	112.0	128.0	549.0
sample0	obj325	31.0	7.0	9.0	63.0	28.0
sample0	obj326	43.0	187.0	617.0	220.0	39.0
sample0	obj327	55.0	52.0	8.0	45.0	129.0
sample0	obj328	38.0	270.0	100.0	62.0	13.0
sample0	obj329	2.0	1.0	0.0	0.0	0.0
sample0	obj330	106.0	60.0	18.0	129.0	28.0
sample0	obj331	29.0	5.0	13.0	40.0	288.0
sample0	obj332	180.0	103.0	183.0	69.0	542.0
sample0	obj333	193.0	424.0	744.0	299.0	694.0
sample0	obj334	104.0	199.0	108.0	81.0	175.0
sample0	obj335	11.0	86.0	25.0	7.0	1.0
sample0	obj336	15.0	2.0	0.0	0.0	0.0
sample0	obj337	49.0	184.0	87.0	36.0	8.0
sample0	obj338	17.0	4.0	5.0	13.0	22.0
sample0	obj339	90.0	120.0	195.0	803.0	821.0
sample0	obj340	37.0	16.0	39.0	113.0	540.0
sample0	obj341	20.0	30.0	7.0	25.0	65.0
sample0	obj342	75.0	232.0	212.0	474.0	3417.0
sample0	obj343	88.0	55.0	33.0	202.0	54.0
sample0	obj344	20.0	4.0	23.0	3.0	6.0
sample0	obj345	136.0	20.0	27.0	10.0	5.0
sample0	obj346	152.0	20.0	70.0	59.0	32.0
sample0	obj347	42.0	50.0	88.0	160.0	24.0
sample0	obj348	185.0	185.0	73.0	111.0	364.0
sample0	obj349	157.0	56.0	143.0	719.0	1658.0
sample0	obj350	148.0	60.0	11.0	49.0	41.0
sample0	obj351	68.0	73.0	28.0	14.0	52.0
sample0	obj352	79.0	66.0	9.0	42.0	133.0
sample0	obj353	143.0	392.0	91.0	149.0	25.0
sample0	obj354	62.0	16.0	94.0	22.0	29.0
sample0	obj355	133.0	217.0	426.0	268.0	130.0
sample0	obj356	114.0	29.0	64.0	116.0	26.0
sample0	obj357	172.0	28.0	15.0	3.0	3.0
sample0	obj358	114.0	14.0	10.0	1.0	0.0
sample0	obj359	111.0	34.0	4.0	2.0	3.0
sample1	obj0	68.0	274.0	49.0	251.0	220.0
sample1	obj1	23.0	111.0	28.0	112.0	84.0
sample1	obj2	184.0	843.0	219.0	864.0	672.0
sample1	obj3	130.0	461.0	94.0	431.0	345.0
sample1	obj4	53.0	195.0	44.0	196.0	158.0
sample1	obj5	68.0	300.0	76.0	237.0	190.0
sample1	obj6	128.0	427.0	79.0	351.0	369.0
sample1	obj7	92.0	423.0	132.0	614.0	659.0
sample1	obj8	72.0	277.0	62.0	245.0	242.0
sample1	obj9	169.0	669.0	142.0	647.0	763.0
sample1	obj10	28.0	130.0	31.0	139.0	102.0
sample1	obj11	164.0	714.0	151.0	684.0	826.0
sample1	obj12	130.0	554.0	173.0	673.0	495.0
sample1	obj13	166.0	711.0	172.0	819.0	705.0
sample1	obj14	120.0	416.0	76.0	228.0	291.0
sample1	obj15	178.0	763.0	144.0	729.0	848.0
sample1	obj16	76.0	311.0	57.0	232.0	167.0
sample1	obj17	37.0	141.0	33.0	119.0	91.0
sample1	obj18	62.0	208.0	52.0	195.0	244.0
sample1	obj19	77.0	391.0	97.0	323.0	237.0
sample1	obj20	128.0	490.0	89.0	367.0	343.0
sample1	obj21	167.0	534.0	150.0	772.0	763.0
sample1	obj22	191.0	865.0	247.0	885.0	952.0
sample1	obj23	98.0	463.0	147.0	676.0	695.0
sample1	obj24	148.0	671.0	146.0	515.0	395.0
sample1	obj25	148.0	535.0	137.0	579.0	698.0
sample1	obj26	47.0	203.0	38.0	159.0	124.0
sample1	obj27	180.0	875.0	265.0	1186.0	972.0
sample1	obj28	20.0	80.0	14.0	41.0	29.0
sample1	obj29	155.0	684.0	139.0	391.0	351.0
sample1	obj30	106.0	542.0	138.0	677.0	625.0
sample1	obj31	114.0	494.0	155.0	612.0	636.0
sample1	obj32	24.0	99.0	22.0	63.0	60.0
sample1	obj33	155.0	776.0	202.0	880.0	656.0
sample1	obj34	46.0	194.0	59.0	168.0	122.0
sample1	obj35	7.0	20.0	3.0	11.0	7.0
sample1	obj36	135.0	478.0	108.0	329.0	333.0
sample1	obj37	132.0	435.0	104.0	495.0	526.0
sample1	obj38	31.0	129.0	32.0	161.0	193.0
sample1	obj39	67.0	326.0	57.0	223.0	157.0
sample1	obj40	117.0	29.0	129.0	24.0	18.0
sample1	obj41	114.0	30.0	127.0	32.0	35.0
sample1	obj42	130.0	28.0	110.0	31.0	36.0
sample1	obj43	31.0	8.0	33.0	6.0	7.0
sample1	obj44	181.0	46.0	140.0	27.0	20.0
sample1	obj45	8.0	1.0	3.0	0.0	0.0
sample1	obj46	7.0	2.0	7.0	1.0	0.0
sample1	obj47	116.0	37.0	129.0	28.0	20.0
sample1	obj48	196.0	45.0	225.0	51.0	51.0
sample1	obj49	129.0	26.0	109.0	24.0	28.0
sample1	obj50	140.0	29.0	139.0	35.0	27.0
sample1	obj51	77.0	17.0	57.0	14.0	11.0
sample1	obj52	45.0	8.0	29.0	7.0	5.0
sample1	obj53	96.0	23.0	95.0	18.0	15.0
sample1	obj54	141.0	34.0	128.0	29.0	24.0
sample1	obj55	69.0	17.0	60.0	11.0	9.0
sample1	obj56	149.0	39.0	127.0	34.0	26.0
sample1	obj57	157.0	40.0	141.0	28.0	21.0
sample1	obj58	138.0	44.0	199.0	49.0	55.0
sample1	obj59	102.0	23.0	76.0	18.0	18.0
sample1	obj60	184.0	48.0	247.0	53.0	58.0
sample1	obj61	115.0	21.0	102.0	24.0	19.0
sample1	obj62	75.0	19.0	98.0	25.0	30.0
sample1	obj63	38.0	9.0	39.0	10.0	10.0
sample1	obj64	54.0	14.0	51.0	9.0	8.0
sample1	obj65	54.0	15.0	42.0	8.0	8.0
sample1	obj66	135.0	27.0	85.0	25.0	24.0
sample1	obj67	127.0	37.0	181.0	34.0	39.0
sample1	obj68	140.0	40.0	120.0	21.0	16.0
sample1	obj69	39.0	7.0	30.0	8.0	8.0
sample1	obj70	183.0	46.0	196.0	48.0	42.0
sample1	obj71	21.0	5.0	25.0	6.0	7.0
sample1	obj72	197.0	46.0	141.0	39.0	32.0
sample1	obj73	30.0	8.0	39.0	10.0	9.0
sample1	obj74	181.0	45.0	163.0	49.0	61.0
sample1	obj75	187.0	50.0	204.0	43.0	55.0
sample1	obj76	50.0	9.0	44.0	13.0	13.0
sample1	obj77	13.0	2.0	7.0	1.0	0.0
sample1	obj78	83.0	21.0	89.0	17.0	19.0
sample1	obj79	145.0	45.0	155.0	28.0	30.0
sample1	obj80	54.0	5.0	0.0	0.0	0.0
sample1	obj81	180.0	26.0	2.0	12.0	92.0
sample1	obj82	141.0	13.0	2.0	11.0	114.0
sample1	obj83	108.0	14.0	1.0	8.0	55.0
sample1	obj84	49.0	4.0	0.0	0.0	0.0
sample1	obj85	119.0	18.0	1.0	10.0	94.0
sample1	obj86	159.0	21.0	3.0	28.0	230.0
sample1	obj87	83.0	8.0	1.0	8.0	81.0
sample1	obj88	41.0	5.0	0.0	0.0	0.0
sample1	obj89	169.0	15.0	2.0	14.0	119.0
sample1	obj90	151.0	22.0	2.0	16.0	149.0
sample1	obj91	62.0	6.0	0.0	0.0	0.0
sample1	obj92	182.0	29.0	4.0	39.0	323.0
sample1	obj93	147.0	20.0	2.0	15.0	120.0
sample1	obj94	184.0	27.0	2.0	19.0	177.0
sample1	obj95	195.0	26.0	2.0	12.0	68.0
sample1	obj96	197.0	31.0	4.0	30.0	239.0
sample1	obj97	63.0	6.0	0.0	0.0	0.0
sample1	obj98	186.0	28.0	3.0	31.0	319.0
sample1	obj99	55.0	7.0	0.0	0.0	0.0
sample1	obj100	84.0	9.0	1.0	9.0	69.0
sample1	obj101	163.0	23.0	2.0	16.0	104.0
sample1	obj102	79.0	7.0	0.0	0.0	0.0
sample1	obj103	86.0	8.0	0.0	0.0	0.0
sample1	obj104	31.0	4.0	0.0	0.0	0.0
sample1	obj105	80.0	8.0	1.0	10.0	85.0
sample1	obj106	167.0	20.0	2.0	18.0	145.0
sample1	obj107	136.0	11.0	1.0	8.0	45.0
sample1	obj108	13.0	1.0	0.0	0.0	0.0
sample1	obj109	54.0	6.0	0.0	0.0	0.0
sample1	obj110	59.0	9.0	1.0	6.0	51.0
sample1	obj111	190.0	25.0	2.0	14.0	93.0
sample1	obj112	31.0	3.0	0.0	0.0	0.0
sample1	obj113	101.0	15.0	1.0	8.0	70.0
sample1	obj114	185.0	25.0	3.0	17.0	110.0
sample1	obj115	76.0	9.0	1.0	6.0	45.0
sample1	obj116	124.0	16.0	1.0	9.0	52.0
sample1	obj117	145.0	22.0	3.0	30.0	261.0
sample1	obj118	133.0	18.0	1.0	10.0	71.0
sample1	obj119	129.0	19.0	2.0	16.0	103.0
sample1	obj120	65.0	20.0	11.0	1.0	0.0
sample1	obj121	76.0	64.0	118.0	517.0	800.0
sample1	obj122	155.0	164.0	267.0	1022.0	387.0
sample1	obj123	4.0	5.0	3.0	3.0	22.0
sample1	obj124	149.0	794.0	205.0	67.0	62.0
sample1	obj125	139.0	1072.0	4439.0	4825.0	11948.0
sample1	obj126	152.0	803.0	2957.0	1176.0	395.0
sample1	obj127	132.0	680.0	204.0	720.0	4784.0
sample1	obj128	141.0	512.0	113.0	231.0	498.0
sample1	obj129	154.0	51.0	149.0	926.0	156.0
sample1	obj130	28.0	117.0	95.0	441.0	80.0
sample1	obj131	60.0	288.0	1528.0	413.0	91.0
sample1	obj132	53.0	11.0	6.0	2.0	2.0
sample1	obj133	69.0	115.0	15.0	3.0	2.0
sample1	obj134	49.0	8.0	9.0	8.0	14.0
sample1	obj135	49.0	14.0	13.0	2.0	1.0
sample1	obj136	48.0	6.0	28.0	4.0	4.0
sample1	obj137	47.0	353.0	47.0	317.0	1102.0
sample1	obj138	149.0	18.0	5.0	11.0	61.0
sample1	obj139	116.0	18.0	47.0	67.0	126.0
sample1	obj140	193.0	236.0	34.0	96.0	71.0
sample1	obj141	30.0	4.0	17.0	130.0	566.0
sample1	obj142	44.0	8.0	4.0	5.0	3.0
sample1	obj143	64.0	424.0	335.0	1374.0	5051.0
sample1	obj144	140.0	570.0	3378.0	6776.0	1145.0
sample1	obj145	83.0	229.0	95.0	18.0	56.0
sample1	obj146	195.0	243.0	310.0	315.0	2311.0
sample1	obj147	71.0	10.0	13.0	34.0	31.0
sample1	obj148	88.0	506.0	331.0	1634.0	337.0
sample1	obj149	117.0	68.0	172.0	165.0	61.0
sample1	obj150	183.0	105.0	317.0	41.0	6.0
sample1	obj151	92.0	17.0	4.0	0.0	0.0
sample1	obj152	128.0	361.0	74.0	20.0	2.0
sample1	obj153	163.0	184.0	24.0	140.0	353.0
sample1	obj154	27.0	137.0	299.0	58.0	16.0
sample1	obj155	169.0	21.0	43.0	64.0	12.0
sample1	obj156	197.0	137.0	134.0	17.0	2.0
sample1	obj157	125.0	158.0	207.0	265.0	432.0
sample1	obj158	50.0	397.0	92.0	648.0	210.0
sample1	obj159	75.0	21.0	32.0	243.0	927.0
sample1	obj160	49.0	9.0	2.0	0.0	0.0
sample1	obj161	181.0	443.0	747.0	724.0	3750.0
sample1	obj162	64.0	70.0	12.0	14.0	71.0
sample1	obj163	115.0	37.0	8.0	7.0	14.0
sample1	obj164	65.0	14.0	59.0	106.0	16.0
sample1	obj165	140.0	68.0	13.0	11.0	2.0
sample1	obj166	192.0	1178.0	5892.0	5169.0	6732.0
sample1	obj167	69.0	282.0	1409.0	8400.0	3686.0
sample1	obj168	38.0	49.0	15.0	58.0	17.0
sample1	obj169	18.0	71.0	487.0	390.0	1268.0
sample1	obj170	164.0	438.0	834.0	288.0	410.0
sample1	obj171	52.0	109.0	90.0	374.0	119.0
sample1	obj172	84.0	38.0	17.0	4.0	1.0
sample1	obj173	35.0	90.0	51.0	11.0	50.0
sample1	obj174	87.0	19.0	93.0	194.0	135.0
sample1	obj175	45.0	8.0	12.0	21.0	3.0
sample1	obj176	88.0	237.0	133.0	35.0	6.0
sample1	obj177	11.0	3.0	6.0	0.0	0.0
sample1	obj178	144.0	101.0	162.0	210.0	449.0
sample1	obj179	187.0	387.0	2923.0	392.0	64.0
sample1	obj180	148.0	60.0	204.0	175.0	37.0
sample1	obj181	3.0	1.0	0.0	0.0	0.0
sample1	obj182	172.0	523.0	2044.0	8886.0	5116.0
sample1	obj183	50.0	9.0	6.0	5.0	1.0
sample1	obj184	20.0	123.0	683.0	474.0	1449.0
sample1	obj185	99.0	15.0	86.0	21.0	18.0
sample1	obj186	169.0	235.0	594.0	2297.0	1091.0
sample1	obj187	44.0	180.0	1073.0	242.0	262.0
sample1	obj188	54.0	153.0	97.0	82.0	93.0
sample1	obj189	12.0	7.0	13.0	1.0	0.0
sample1	obj190	63.0	478.0	163.0	21.0	46.0
sample1	obj191	27.0	13.0	9.0	8.0	2.0
sample1	obj192	109.0	75.0	52.0	34.0	75.0
sample1	obj193	55.0	189.0	50.0	25.0	70.0
sample1	obj194	164.0	61.0	10.0	2.0	0.0
sample1	obj195	155.0	378.0	2875.0	961.0	125.0
sample1	obj196	161.0	20.0	2.0	0.0	0.0
sample1	obj197	89.0	75.0	64.0	222.0	942.0
sample1	obj198	177.0	174.0	48.0	49.0	294.0
sample1	obj199	130.0	994.0	6544.0	1000.0	3711.0
sample1	obj200	23.0	26.0	18.0	9.0	14.0
sample1	obj201	189.0	380.0	360.0	446.0	114.0
sample1	obj202	17.0	31.0	14.0	4.0	2.0
sample1	obj203	132.0	124.0	307.0	455.0	3575.0
sample1	obj204	36.0	11.0	44.0	50.0	34.0
sample1	obj205	40.0	39.0	7.0	10.0	4.0
sample1	obj206	150.0	788.0	414.0	850.0	1245.0
sample1	obj207	63.0	32.0	90.0	92.0	80.0
sample1	obj208	145.0	871.0	5554.0	3206.0	988.0
sample1	obj209	108.0	54.0	217.0	1699.0	1457.0
sample1	obj210	176.0	192.0	234.0	183.0	237.0
sample1	obj211	149.0	346.0	1495.0	2055.0	593.0
sample1	obj212	63.0	55.0	81.0	16.0	18.0
sample1	obj213	148.0	24.0	4.0	1.0	1.0
sample1	obj214	165.0	682.0	256.0	459.0	2445.0
sample1	obj215	16.0	120.0	169.0	576.0	91.0
sample1	obj216	186.0	32.0	231.0	77.0	211.0
sample1	obj217	117.0	21.0	9.0	3.0	0.0
sample1	obj218	38.0	9.0	18.0	63.0	38.0
sample1	obj219	130.0	134.0	49.0	292.0	1152.0
sample1	obj220	18.0	20.0	106.0	67.0	315.0
sample1	obj221	29.0	87.0	534.0	198.0	79.0
sample1	obj222	52.0	81.0	47.0	126.0	891.0
sample1	obj223	198.0	155.0	131.0	26.0	21.0
sample1	obj224	93.0	14.0	2.0	4.0	1.0
sample1	obj225	40.0	49.0	7.0	1.0	3.0
sample1	obj226	180.0	115.0	502.0	2546.0	377.0
sample1	obj227	152.0	585.0	495.0	368.0	2437.0
sample1	obj228	194.0	78.0	118.0	799.0	517.0
sample1	obj229	48.0	68.0	10.0	57.0	24.0
sample1	obj230	45.0	15.0	31.0	48.0	7.0
sample1	obj231	156.0	218.0	112.0	106.0	17.0
sample1	obj232	197.0	32.0	187.0	272.0	112.0
sample1	obj233	67.0	433.0	1432.0	825.0	5725.0
sample1	obj234	122.0	117.0	639.0	1440.0	972.0
sample1	obj235	53.0	15.0	24.0	5.0	5.0
sample1	obj236	28.0	100.0	17.0	4.0	0.0
sample1	obj237	129.0	130.0	175.0	1315.0	197.0
sample1	obj238	17.0	9.0	18.0	121.0	17.0
sample1	obj239	25.0	33.0	95.0	23.0	18.0
sample1	obj240	11.0	3.0	8.0	31.0	14.0
sample1	obj241	55.0	38.0	264.0	622.0	215.0
sample1	obj242	132.0	567.0	420.0	936.0	242.0
sample1	obj243	112.0	34.0	62.0	95.0	218.0
sample1	obj244	79.0	19.0	21.0	3.0	9.0
sample1	obj245	195.0	696.0	91.0	19.0	8.0
sample1	obj246	103.0	182.0	179.0	981.0	612.0
sample1	obj247	173.0	387.0	638.0	145.0	888.0
sample1	obj248	80.0	360.0	47.0	130.0	25.0
sample1	obj249	36.0	9.0	6.0	13.0	12.0
sample1	obj250	176.0	125.0	209.0	171.0	499.0
sample1	obj251	115.0	845.0	292.0	66.0	244.0
sample1	obj252	14.0	92.0	433.0	582.0	902.0
sample1	obj253	191.0	52.0	178.0	251.0	64.0
sample1	obj254	26.0	15.0	29.0	7.0	6.0
sample1	obj255	93.0	79.0	251.0	35.0	17.0
sample1	obj256	134.0	211.0	32.0	10.0	2.0
sample1	obj257	113.0	18.0	8.0	12.0	30.0
sample1	obj258	98.0	71.0	281.0	300.0	459.0
sample1	obj259	180.0	246.0	351.0	1038.0	784.0
sample1	obj260	147.0	61.0	17.0	4.0	0.0
sample1	obj261	44.0	280.0	174.0	160.0	228.0
sample1	obj262	145.0	27.0	7.0	20.0	3.0
sample1	obj263	79.0	108.0	15.0	10.0	2.0
sample1	obj264	44.0	234.0	672.0	1601.0	366.0
sample1	obj265	39.0	26.0	15.0	35.0	6.0
sample1	obj266	90.0	575.0	1268.0	1454.0	289.0
sample1	obj267	114.0	58.0	165.0	34.0	4.0
sample1	obj268	131.0	54.0	352.0	840.0	733.0
sample1	obj269	26.0	14.0	38.0	198.0	64.0
sample1	obj270	76.0	221.0	78.0	166.0	472.0
sample1	obj271	64.0	20.0	67.0	95.0	311.0
sample1	obj272	31.0	104.0	24.0	7.0	2.0
sample1	obj273	34.0	5.0	1.0	0.0	0.0
sample1	obj274	163.0	79.0	489.0	634.0	99.0
sample1	obj275	179.0	511.0	89.0	25.0	179.0
sample1	obj276	94.0	35.0	106.0	458.0	466.0
sample1	obj277	68.0	191.0	514.0	1039.0	2838.0
sample1	obj278	9.0	37.0	5.0	32.0	112.0
sample1	obj279	113.0	14.0	67.0	11.0	4.0
sample1	obj280	111.0	33.0	4.0	0.0	0.0
sample1	obj281	86.0	42.0	5.0	1.0	2.0
sample1	obj282	107.0	28.0	74.0	14.0	38.0
sample1	obj283	63.0	257.0	68.0	16.0	3.0
sample1	obj284	154.0	176.0	67.0	125.0	91.0
sample1	obj285	55.0	157.0	23.0	5.0	27.0
sample1	obj286	95.0	108.0	34.0	15.0	11.0
sample1	obj287	63.0	26.0	51.0	215.0	1452.0
sample1	obj288	76.0	298.0	1937.0	5490.0	11958.0
sample1	obj289	20.0	2.0	2.0	9.0	8.0
sample1	obj290	191.0	250.0	119.0	526.0	4142.0
sample1	obj291	164.0	54.0	83.0	93.0	14.0
sample1	obj292	99.0	138.0	277.0	90.0	485.0
sample1	obj293	38.0	158.0	93.0	43.0	10.0
sample1	obj294	14.0	12.0	23.0	41.0	23.0
sample1	obj295	132.0	64.0	19.0	3.0	22.0
sample1	obj296	157.0	27.0	3.0	1.0	2.0
sample1	obj297	130.0	199.0	35.0	23.0	3.0
sample1	obj298	28.0	218.0	576.0	96.0	19.0
sample1	obj299	74.0	574.0	3750.0	4921.0	12897.0
sample1	obj300	51.0	406.0	1122.0	295.0	62.0
sample1	obj301	92.0	63.0	109.0	36.0	19.0
sample1	obj302	62.0	21.0	2.0	1.0	3.0
sample1	obj303	194.0	660.0	4970.0	32678.0	44939.0
sample1	obj304	6.0	15.0	38.0	105.0	62.0
sample1	obj305	118.0	169.0	970.0	1093.0	172.0
sample1	obj306	64.0	45.0	7.0	11.0	64.0
sample1	obj307	190.0	34.0	57.0	80.0	604.0
sample1	obj308	19.0	16.0	20.0	42.0	66.0
sample1	obj309	105.0	79.0	78.0	262.0	312.0
sample1	obj310	113.0	145.0	177.0	49.0	103.0
sample1	obj311	181.0	185.0	87.0	144.0	25.0
sample1	obj312	63.0	134.0	21.0	40.0	27.0
sample1	obj313	64.0	68.0	14.0	86.0	18.0
sample1	obj314	128.0	214.0	825.0	4306.0	22131.0
sample1	obj315	62.0	29.0	19.0	2.0	4.0
sample1	obj316	19.0	35.0	63.0	68.0	17.0
sample1	obj317	86.0	20.0	13.0	51.0	84.0
sample1	obj318	168.0	46.0	266.0	38.0	50.0
sample1	obj319	34.0	236.0	29.0	85.0	90.0
sample1	obj320	82.0	243.0	736.0	730.0	456.0
sample1	obj321	146.0	59.0	304.0	881.0	142.0
sample1	obj322	91.0	86.0	17.0	7.0	2.0
sample1	obj323	64.0	158.0	235.0	224.0	164.0
sample1	obj324	74.0	79.0	112.0	128.0	549.0
sample1	obj325	31.0	7.0	9.0	63.0	28.0
sample1	obj326	43.0	187.0	617.0	220.0	39.0
sample1	obj327	55.0	52.0	8.0	45.0	129.0
sample1	obj328	38.0	270.0	100.0	62.0	13.0
sample1	obj329	2.0	1.0	0.0	0.0	0.0
sample1	obj330	106.0	60.0	18.0	129.0	28.0
sample1	obj331	29.0	5.0	13.0	40.0	288.0
sample1	obj332	180.0	103.0	183.0	69.0	542.0
sample1	obj333	193.0	424.0	744.0	299.0	694.0
sample1	obj334	104.0	199.0	108.0	81.0	175.0
sample1	obj335	11.0	86.0	25.0	7.0	1.0
sample1	obj336	15.0	2.0	0.0	0.0	0.0
sample1	obj337	49.0	184.0	87.0	36.0	8.0
sample1	obj338	17.0	4.0	5.0	13.0	22.0
sample1	obj339	90.0	120.0	195.0	803.0	821.0
sample1	obj340	37.0	16.0	39.0	113.0	540.0
sample1	obj341	20.0	30.0	7.0	25.0	65.0
sample1	obj342	75.0	232.0	212.0	474.0	3417.0
sample1	obj343	88.0	55.0	33.0	202.0	54.0
sample1	obj344	20.0	4.0	23.0	3.0	6.0
sample1	obj345	136.0	20.0	27.0	10.0	5.0
sample1	obj346	152.0	20.0	70.0	59.0	32.0
sample1	obj347	42.0	50.0	88.0	160.0	24.0
sample1	obj348	185.0	185.0	73.0	111.0	364.0
sample1	obj349	157.0	56.0	143.0	719.0	1658.0
sample1	obj350	148.0	60.0	11.0	49.0	41.0
sample1	obj351	68.0	73.0	28.0	14.0	52.0
sample1	obj352	79.0	66.0	9.0	42.0	133.0
sample1	obj353	143.0	392.0	91.0	149.0	25.0
sample1	obj354	62.0	16.0	94.0	22.0	29.0
sample1	obj355	133.0	217.0	426.0	268.0	130.0
sample1	obj356	114.0	29.0	64.0	116.0	26.0
sample1	obj357	172.0	28.0	15.0	3.0	3.0
sample1	obj358	114.0	14.0	10.0	1.0	0.0
sample1	obj359	111.0	34.0	4.0	2.0	3.0
