obj631	2
obj630	2
obj633	2
obj632	2
obj532	2
obj531	2
obj534	2
obj533	2
obj530	2
obj528	2
obj529	2
obj524	2
obj525	2
obj526	2
obj527	2
obj623	2
obj624	2
obj625	2
obj626	2
obj627	2
obj628	2
obj629	2
obj622	2
obj621	2
obj620	2
obj523	2
obj522	2
obj521	2
obj520	2
obj519	2
obj517	2
obj518	2
obj515	2
obj516	2
obj513	2
obj514	2
obj614	2
obj615	2
obj612	2
obj613	2
obj618	2
obj619	2
obj616	2
obj617	2
obj653	2
obj652	2
obj655	2
obj654	2
obj651	2
obj650	2
obj510	2
obj512	2
obj511	2
obj502	2
obj503	2
obj504	2
obj505	2
obj506	2
obj507	2
obj508	2
obj509	2
obj649	2
obj645	2
obj646	2
obj647	2
obj648	2
obj644	2
obj643	2
obj642	2
obj641	2
obj640	2
obj501	2
obj500	1
obj638	2
obj639	2
obj636	2
obj637	2
obj634	2
obj635	2
obj407	1
obj408	1
obj610	2
obj409	1
obj611	2
obj403	1
obj404	1
obj405	1
obj406	1
obj606	2
obj411	1
obj605	2
obj410	1
obj608	2
obj413	1
obj607	2
obj412	1
obj602	2
obj601	2
obj604	2
obj603	2
obj609	2
obj600	2
obj402	1
obj401	1
obj400	1
obj195	0
obj335	1
obj196	0
obj336	1
obj193	0
obj333	1
obj194	0
obj334	1
obj191	0
obj331	1
obj192	0
obj332	1
obj719	2
obj190	0
obj330	1
obj717	2
obj430	1
obj718	2
obj431	1
obj715	2
obj716	2
obj713	2
obj434	1
obj199	0
obj714	2
obj435	1
obj711	2
obj432	1
obj197	0
obj712	2
obj433	1
obj198	0
obj721	2
obj428	1
obj720	2
obj427	1
obj426	1
obj425	1
obj429	1
obj329	1
obj328	1
obj327	1
obj326	1
obj182	0
obj322	1
obj183	0
obj323	1
obj184	0
obj324	1
obj185	0
obj325	1
obj180	0
obj320	1
obj181	0
obj321	1
obj726	2
obj727	2
obj728	2
obj729	2
obj420	1
obj722	2
obj421	1
obj186	0
obj723	2
obj422	1
obj187	0
obj724	2
obj423	1
obj188	0
obj725	2
obj424	1
obj189	0
obj730	2
obj415	1
obj414	1
obj732	2
obj417	1
obj731	2
obj416	1
obj419	1
obj418	1
obj319	1
obj316	1
obj315	1
obj318	1
obj317	1
obj310	1
obj313	1
obj314	1
obj311	1
obj312	1
obj456	1
obj457	1
obj454	1
obj455	1
obj452	1
obj453	1
obj450	1
obj451	1
obj592	2
obj591	2
obj449	1
obj590	2
obj448	1
obj447	1
obj596	2
obj307	1
obj595	2
obj306	1
obj594	2
obj305	1
obj593	2
obj304	1
obj599	2
obj598	2
obj309	1
obj597	2
obj308	1
obj708	2
obj579	2
obj709	2
obj300	1
obj301	1
obj302	1
obj303	1
obj700	2
obj443	1
obj701	2
obj444	1
obj702	2
obj445	1
obj703	2
obj446	1
obj704	2
obj705	2
obj440	1
obj706	2
obj441	1
obj707	2
obj442	1
obj437	1
obj436	1
obj710	2
obj581	2
obj439	1
obj580	2
obj438	1
obj583	2
obj582	2
obj585	2
obj584	2
obj587	2
obj586	2
obj589	2
obj588	2
obj475	1
obj291	1
obj372	1
obj669	2
obj474	1
obj159	0
obj290	1
obj371	1
obj668	2
obj473	1
obj158	0
obj370	1
obj667	2
obj472	1
obj157	0
obj479	1
obj156	0
obj295	1
obj478	1
obj155	0
obj294	1
obj477	1
obj154	0
obj293	1
obj476	1
obj153	0
obj292	1
obj152	0
obj299	1
obj151	0
obj298	1
obj379	1
obj150	0
obj90	0
obj297	1
obj378	1
obj91	0
obj296	1
obj377	1
obj471	1
obj376	1
obj470	1
obj375	1
obj569	2
obj374	1
obj568	2
obj373	1
obj577	2
obj97	0
obj578	2
obj96	0
obj575	2
obj99	0
obj576	2
obj98	0
obj573	2
obj93	0
obj574	2
obj92	0
obj571	2
obj95	0
obj572	2
obj94	0
obj672	2
obj673	2
obj570	2
obj670	2
obj469	1
obj671	2
obj676	2
obj677	2
obj674	2
obj675	2
obj657	2
obj462	1
obj147	0
obj656	2
obj461	1
obj146	0
obj659	2
obj464	1
obj149	0
obj280	1
obj361	1
obj658	2
obj463	1
obj148	0
obj360	1
obj466	1
obj143	0
obj282	1
obj465	1
obj142	0
obj281	1
obj468	1
obj145	0
obj284	1
obj467	1
obj144	0
obj283	1
obj286	1
obj367	1
obj285	1
obj366	1
obj141	0
obj288	1
obj369	1
obj140	0
obj287	1
obj368	1
obj558	2
obj363	1
obj557	2
obj289	1
obj362	1
obj460	1
obj365	1
obj559	2
obj364	1
obj564	2
obj565	2
obj566	2
obj567	2
obj560	2
obj359	1
obj561	2
obj562	2
obj563	2
obj458	1
obj660	2
obj459	1
obj661	2
obj662	2
obj663	2
obj139	0
obj664	2
obj665	2
obj666	2
obj736	2
obj178	0
obj273	1
obj735	2
obj177	0
obj272	1
obj734	2
obj499	1
obj176	0
obj271	1
obj733	2
obj498	1
obj175	0
obj270	1
obj497	1
obj350	1
obj739	2
obj496	1
obj738	2
obj495	1
obj737	2
obj689	2
obj494	1
obj179	0
obj549	2
obj493	1
obj170	0
obj354	1
obj548	2
obj492	1
obj353	1
obj547	2
obj491	1
obj279	1
obj352	1
obj546	2
obj490	1
obj278	1
obj351	1
obj174	0
obj277	1
obj358	1
obj173	0
obj276	1
obj357	1
obj172	0
obj275	1
obj356	1
obj171	0
obj274	1
obj355	1
obj690	2
obj551	2
obj3	0
obj71	0
obj691	2
obj552	2
obj4	0
obj70	0
obj5	0
obj73	0
obj348	1
obj550	2
obj6	0
obj72	0
obj349	1
obj555	2
obj75	0
obj556	2
obj74	0
obj553	2
obj1	0
obj77	0
obj554	2
obj2	0
obj76	0
obj698	2
obj79	0
obj699	2
obj78	0
obj696	2
obj697	2
obj742	2
obj694	2
obj743	2
obj695	2
obj740	2
obj692	2
obj741	2
obj693	2
obj745	2
obj488	1
obj165	0
obj260	1
obj744	2
obj487	1
obj164	0
obj747	2
obj167	0
obj262	1
obj746	2
obj489	1
obj166	0
obj261	1
obj749	2
obj679	2
obj484	1
obj169	0
obj748	2
obj678	2
obj483	1
obj168	0
obj486	1
obj485	1
obj536	2
obj480	1
obj268	1
obj341	1
obj535	2
obj267	1
obj340	1
obj538	2
obj482	1
obj343	1
obj537	2
obj481	1
obj269	1
obj342	1
obj161	0
obj264	1
obj345	1
obj539	2
obj160	0
obj9	0
obj80	0
obj263	1
obj344	1
obj163	0
obj8	0
obj266	1
obj347	1
obj162	0
obj7	0
obj265	1
obj346	1
obj84	0
obj337	1
obj83	0
obj338	1
obj540	2
obj82	0
obj339	1
obj680	2
obj541	2
obj81	0
obj542	2
obj88	0
obj543	2
obj87	0
obj544	2
obj86	0
obj545	2
obj85	0
obj685	2
obj686	2
obj687	2
obj750	2
obj688	2
obj89	0
obj681	2
obj682	2
obj683	2
obj684	2
obj67	0
obj68	0
obj69	0
obj60	0
obj61	0
obj62	0
obj63	0
obj64	0
obj65	0
obj239	0
obj66	0
obj238	0
obj247	0
obj248	0
obj245	0
obj246	0
obj243	0
obj244	0
obj241	0
obj242	0
obj100	0
obj101	0
obj240	0
obj104	0
obj105	0
obj102	0
obj103	0
obj107	0
obj58	0
obj106	0
obj59	0
obj109	0
obj56	0
obj108	0
obj57	0
obj50	0
obj51	0
obj54	0
obj55	0
obj249	0
obj52	0
obj53	0
obj256	1
obj257	1
obj258	1
obj259	1
obj252	1
obj253	1
obj254	1
obj255	1
obj110	0
obj111	0
obj250	0
obj112	0
obj251	1
obj113	0
obj114	0
obj115	0
obj116	0
obj49	0
obj45	0
obj119	0
obj46	0
obj118	0
obj47	0
obj117	0
obj48	0
obj41	0
obj219	0
obj42	0
obj218	0
obj43	0
obj217	0
obj44	0
obj216	0
obj40	0
obj221	0
obj222	0
obj388	1
obj389	1
obj220	0
obj386	1
obj225	0
obj387	1
obj226	0
obj223	0
obj384	1
obj385	1
obj224	0
obj126	0
obj382	1
obj127	0
obj383	1
obj124	0
obj380	1
obj125	0
obj381	1
obj122	0
obj123	0
obj120	0
obj121	0
obj38	0
obj39	0
obj129	0
obj36	0
obj128	0
obj37	0
obj34	0
obj35	0
obj32	0
obj228	0
obj33	0
obj227	0
obj30	0
obj31	0
obj229	0
obj399	1
obj230	0
obj231	0
obj232	0
obj130	0
obj233	0
obj395	1
obj234	0
obj396	1
obj235	0
obj397	1
obj236	0
obj398	1
obj237	0
obj391	1
obj135	0
obj392	1
obj136	0
obj393	1
obj137	0
obj394	1
obj138	0
obj131	0
obj132	0
obj133	0
obj390	1
obj134	0
obj20	0
obj22	0
obj21	0
obj24	0
obj23	0
obj26	0
obj25	0
obj28	0
obj27	0
obj29	0
obj204	0
obj203	0
obj202	0
obj201	0
obj200	0
obj209	0
obj11	0
obj205	0
obj10	0
obj206	0
obj207	0
obj208	0
obj15	0
obj14	0
obj13	0
obj12	0
obj19	0
obj18	0
obj17	0
obj16	0
obj213	0
obj212	0
obj215	0
obj214	0
obj211	0
obj210	0
