obj67	1
obj68	1
obj69	1
obj60	1
obj61	1
obj62	1
obj63	1
obj64	1
obj65	1
obj66	1
obj100	2
obj101	2
obj104	2
obj105	2
obj102	2
obj103	2
obj107	2
obj58	1
obj106	2
obj59	1
obj109	2
obj56	1
obj108	2
obj57	1
obj50	1
obj51	1
obj54	1
obj55	1
obj52	1
obj53	1
obj110	2
obj111	2
obj112	2
obj113	2
obj114	2
obj115	2
obj116	2
obj49	1
obj45	1
obj119	2
obj46	1
obj118	2
obj47	1
obj117	2
obj48	1
obj41	1
obj42	1
obj43	1
obj44	1
obj40	0
obj120	2
obj38	0
obj39	0
obj36	0
obj37	0
obj34	0
obj35	0
obj32	0
obj33	0
obj30	0
obj31	0
obj20	0
obj22	0
obj21	0
obj24	0
obj23	0
obj26	0
obj90	2
obj25	0
obj91	2
obj28	0
obj27	0
obj29	0
obj97	2
obj96	2
obj99	2
obj98	2
obj93	2
obj92	2
obj95	2
obj94	2
obj11	0
obj10	0
obj15	0
obj14	0
obj13	0
obj12	0
obj19	0
obj18	0
obj17	0
obj16	0
obj3	0
obj71	1
obj4	0
obj70	1
obj5	0
obj73	1
obj6	0
obj72	1
obj75	1
obj74	1
obj1	0
obj77	1
obj2	0
obj76	1
obj79	1
obj78	1
obj9	0
obj80	1
obj8	0
obj7	0
obj84	2
obj83	2
obj82	2
obj81	2
obj88	2
obj87	2
obj86	2
obj85	2
obj89	2
