obj2192	10
obj2191	10
obj2190	10
obj1486	7
obj1487	7
obj1488	7
obj1489	7
obj532	2
obj1482	7
obj531	2
obj1483	7
obj534	2
obj1484	7
obj533	2
obj1485	7
obj530	2
obj1480	7
obj1481	7
obj1898	9
obj528	2
obj1897	9
obj529	2
obj1899	9
obj1894	9
obj524	2
obj1069	5
obj1893	9
obj525	2
obj1068	5
obj1896	9
obj526	2
obj1895	9
obj527	2
obj2199	10
obj1890	9
obj1065	5
obj1064	5
obj2197	10
obj1892	9
obj1067	5
obj2198	10
obj1891	9
obj1066	5
obj2195	10
obj1061	5
obj2196	10
obj1060	5
obj2193	10
obj1063	5
obj2194	10
obj1062	5
obj1070	5
obj1499	7
obj1497	7
obj1498	7
obj523	2
obj1495	7
obj522	2
obj1496	7
obj521	2
obj1493	7
obj520	2
obj1494	7
obj1491	7
obj1492	7
obj1879	9
obj1490	7
obj1889	9
obj519	2
obj1888	9
obj1887	9
obj517	2
obj1886	9
obj518	2
obj1885	9
obj515	2
obj1884	9
obj516	2
obj1883	9
obj513	2
obj1882	9
obj514	2
obj1079	5
obj1881	9
obj1078	5
obj1880	9
obj1077	5
obj1076	5
obj1075	5
obj1074	5
obj1073	5
obj1072	5
obj1071	5
obj1464	7
obj1465	7
obj1466	7
obj1467	7
obj1468	7
obj1469	7
obj1080	5
obj1081	5
obj1868	9
obj1869	9
obj510	2
obj1460	7
obj1461	7
obj512	2
obj1462	7
obj511	2
obj1463	7
obj1872	9
obj502	2
obj1871	9
obj503	2
obj1874	9
obj504	2
obj1873	9
obj505	2
obj1876	9
obj506	2
obj1875	9
obj507	2
obj1878	9
obj508	2
obj1877	9
obj509	2
obj1083	5
obj1082	5
obj1085	5
obj1084	5
obj1087	5
obj1086	5
obj1870	9
obj1089	5
obj1088	5
obj1477	7
obj1478	7
obj1475	7
obj1476	7
obj1091	5
obj1092	5
obj1479	7
obj1090	5
obj1859	9
obj1470	7
obj1857	9
obj1858	9
obj501	2
obj1473	7
obj500	2
obj1474	7
obj1471	7
obj1472	7
obj2993	14
obj1863	9
obj2994	14
obj1862	9
obj2995	14
obj1861	9
obj2996	14
obj1860	9
obj2997	14
obj1867	9
obj2998	14
obj1866	9
obj2999	14
obj1865	9
obj1864	9
obj1096	5
obj1095	5
obj1094	5
obj1093	5
obj2990	14
obj1099	5
obj2991	14
obj1098	5
obj2992	14
obj1097	5
obj1441	7
obj1440	7
obj1847	9
obj1846	9
obj1849	9
obj1848	9
obj1447	7
obj1446	7
obj1449	7
obj1448	7
obj1443	7
obj1442	7
obj1445	7
obj1444	7
obj1020	5
obj1021	5
obj1022	5
obj1023	5
obj1439	7
obj1853	9
obj1028	5
obj1854	9
obj1029	5
obj1855	9
obj1856	9
obj1024	5
obj1850	9
obj1025	5
obj1851	9
obj1026	5
obj1852	9
obj1027	5
obj1452	7
obj1451	7
obj1450	7
obj1839	9
obj1838	9
obj1837	9
obj1836	9
obj1835	9
obj2502	12
obj2503	12
obj1459	7
obj2504	12
obj1458	7
obj2505	12
obj1457	7
obj1456	7
obj1455	7
obj2500	12
obj1454	7
obj2501	12
obj1453	7
obj1033	5
obj1034	5
obj1031	5
obj1032	5
obj1030	5
obj1844	9
obj1845	9
obj1842	9
obj1039	5
obj1843	9
obj1840	9
obj1037	5
obj1841	9
obj1038	5
obj1035	5
obj1036	5
obj1825	9
obj1824	9
obj1827	9
obj1826	9
obj1829	9
obj1828	9
obj1421	7
obj1420	7
obj1423	7
obj1422	7
obj1425	7
obj1424	7
obj1427	7
obj1426	7
obj1417	7
obj1418	7
obj1040	5
obj1419	7
obj1041	5
obj1042	5
obj1043	5
obj1044	5
obj1045	5
obj1046	5
obj1047	5
obj1048	5
obj1830	9
obj1049	5
obj1831	9
obj1832	9
obj1833	9
obj1834	9
obj1816	9
obj1815	9
obj1814	9
obj1813	9
obj1430	7
obj1819	9
obj1818	9
obj1817	9
obj1434	7
obj1433	7
obj1432	7
obj1431	7
obj1438	7
obj1437	7
obj1436	7
obj1435	7
obj1051	5
obj1052	5
obj1428	7
obj1050	5
obj1429	7
obj1055	5
obj1056	5
obj1053	5
obj1054	5
obj1059	5
obj1057	5
obj1058	5
obj1822	9
obj1823	9
obj1820	9
obj1821	9
obj2942	14
obj2117	10
obj195	0
obj2943	14
obj2118	10
obj196	0
obj2944	14
obj2119	10
obj193	0
obj2945	14
obj194	0
obj2113	10
obj191	0
obj2114	10
obj192	0
obj2940	14
obj2115	10
obj2941	14
obj2116	10
obj190	0
obj2110	10
obj2111	10
obj2112	10
obj2528	12
obj199	0
obj2529	12
obj197	0
obj198	0
obj2536	12
obj1404	7
obj2535	12
obj1405	7
obj2538	12
obj1402	7
obj2537	12
obj1403	7
obj2532	12
obj1400	6
obj2531	12
obj999	4
obj1401	7
obj2534	12
obj998	4
obj2533	12
obj997	4
obj2939	14
obj2530	12
obj2936	14
obj2935	14
obj2938	14
obj2937	14
obj2933	14
obj182	0
obj2934	14
obj183	0
obj2931	14
obj2128	10
obj184	0
obj2932	14
obj2129	10
obj185	0
obj2126	10
obj2930	14
obj2127	10
obj2124	10
obj180	0
obj2125	10
obj181	0
obj2122	10
obj2123	10
obj2120	10
obj2121	10
obj186	0
obj1407	7
obj187	0
obj1406	7
obj2539	12
obj188	0
obj1409	7
obj189	0
obj1408	7
obj2549	12
obj1413	7
obj2548	12
obj1414	7
obj2547	12
obj1415	7
obj2546	12
obj1416	7
obj2545	12
obj2544	12
obj1410	7
obj2543	12
obj1411	7
obj2542	12
obj1412	7
obj2541	12
obj2540	12
obj2929	14
obj2928	14
obj2927	14
obj2926	14
obj2925	14
obj2924	14
obj2135	10
obj2136	10
obj2137	10
obj2138	10
obj2920	14
obj2139	10
obj2921	14
obj2922	14
obj2923	14
obj2506	12
obj980	4
obj2507	12
obj981	4
obj2508	12
obj2509	12
obj2130	10
obj2131	10
obj984	4
obj2132	10
obj985	4
obj2133	10
obj982	4
obj2134	10
obj983	4
obj2510	12
obj978	4
obj977	4
obj2512	12
obj976	4
obj2511	12
obj975	4
obj2514	12
obj592	2
obj2513	12
obj591	2
obj2516	12
obj590	2
obj2515	12
obj979	4
obj2914	14
obj596	2
obj2913	14
obj595	2
obj2916	14
obj594	2
obj2915	14
obj593	2
obj2918	14
obj2917	14
obj599	2
obj598	2
obj2919	14
obj597	2
obj2148	10
obj579	2
obj2149	10
obj2146	10
obj2147	10
obj2911	14
obj2912	14
obj2910	14
obj2519	12
obj2140	10
obj2141	10
obj990	4
obj2517	12
obj991	4
obj2518	12
obj992	4
obj2144	10
obj993	4
obj2145	10
obj994	4
obj2142	10
obj995	4
obj2143	10
obj996	4
obj2523	12
obj987	4
obj2522	12
obj986	4
obj2521	12
obj989	4
obj2520	12
obj988	4
obj2527	12
obj2526	12
obj2525	12
obj581	2
obj2524	12
obj580	2
obj2905	14
obj583	2
obj2904	14
obj582	2
obj2903	14
obj585	2
obj2902	14
obj584	2
obj2909	14
obj587	2
obj2908	14
obj586	2
obj2907	14
obj589	2
obj2906	14
obj588	2
obj2154	10
obj963	4
obj2153	10
obj159	0
obj962	4
obj2981	14
obj2156	10
obj158	0
obj961	4
obj2980	14
obj2155	10
obj157	0
obj960	4
obj2150	10
obj156	0
obj155	0
obj2152	10
obj154	0
obj2151	10
obj153	0
obj2987	14
obj152	0
obj2986	14
obj151	0
obj2989	14
obj150	0
obj90	0
obj2988	14
obj91	0
obj2983	14
obj2158	10
obj2982	14
obj2157	10
obj2985	14
obj569	2
obj2984	14
obj2159	10
obj568	2
obj2571	12
obj577	2
obj97	0
obj2572	12
obj578	2
obj96	0
obj2573	12
obj575	2
obj99	0
obj2574	12
obj576	2
obj98	0
obj2979	14
obj573	2
obj93	0
obj574	2
obj92	0
obj571	2
obj95	0
obj2570	12
obj572	2
obj94	0
obj2579	12
obj959	4
obj570	2
obj957	4
obj958	4
obj2575	12
obj955	4
obj2576	12
obj956	4
obj2577	12
obj953	4
obj2578	12
obj954	4
obj2970	14
obj2167	10
obj147	0
obj972	4
obj2166	10
obj146	0
obj971	4
obj2165	10
obj149	0
obj974	4
obj2164	10
obj148	0
obj973	4
obj2163	10
obj143	0
obj2162	10
obj142	0
obj2161	10
obj145	0
obj970	4
obj2160	10
obj144	0
obj2978	14
obj2977	14
obj2976	14
obj141	0
obj2975	14
obj140	0
obj2974	14
obj558	2
obj2973	14
obj557	2
obj2972	14
obj2169	10
obj2971	14
obj2168	10
obj559	2
obj2584	12
obj564	2
obj2585	12
obj565	2
obj2582	12
obj566	2
obj2583	12
obj567	2
obj2580	12
obj560	2
obj2581	12
obj561	2
obj2968	14
obj562	2
obj2969	14
obj563	2
obj968	4
obj969	4
obj2588	12
obj139	0
obj964	4
obj2589	12
obj965	4
obj2586	12
obj966	4
obj2587	12
obj967	4
obj2172	10
obj178	0
obj2171	10
obj177	0
obj2174	10
obj176	0
obj2173	10
obj175	0
obj2176	10
obj941	4
obj2175	10
obj940	4
obj2178	10
obj2177	10
obj179	0
obj2961	14
obj549	2
obj170	0
obj2960	14
obj2179	10
obj548	2
obj2963	14
obj547	2
obj2962	14
obj546	2
obj2965	14
obj174	0
obj2964	14
obj173	0
obj2967	14
obj172	0
obj2966	14
obj171	0
obj2957	14
obj551	2
obj71	0
obj2958	14
obj552	2
obj70	0
obj2959	14
obj73	0
obj939	4
obj550	2
obj72	0
obj555	2
obj75	0
obj2550	12
obj556	2
obj74	0
obj2551	12
obj553	2
obj77	0
obj2552	12
obj554	2
obj76	0
obj2553	12
obj79	0
obj933	4
obj2554	12
obj78	0
obj934	4
obj2555	12
obj931	4
obj2556	12
obj932	4
obj2557	12
obj937	4
obj2558	12
obj938	4
obj2559	12
obj935	4
obj2170	10
obj936	4
obj2185	10
obj165	0
obj2184	10
obj164	0
obj2183	10
obj167	0
obj2182	10
obj166	0
obj2189	10
obj169	0
obj950	4
obj2188	10
obj168	0
obj2187	10
obj952	4
obj2186	10
obj951	4
obj2952	14
obj536	2
obj2951	14
obj535	2
obj2950	14
obj538	2
obj537	2
obj2956	14
obj161	0
obj2955	14
obj539	2
obj160	0
obj80	0
obj2954	14
obj163	0
obj2953	14
obj162	0
obj2948	14
obj84	0
obj2949	14
obj83	0
obj2946	14
obj540	2
obj82	0
obj2947	14
obj541	2
obj81	0
obj2562	12
obj542	2
obj88	0
obj2563	12
obj543	2
obj87	0
obj2560	12
obj544	2
obj86	0
obj2561	12
obj545	2
obj85	0
obj2566	12
obj942	4
obj2567	12
obj943	4
obj2564	12
obj944	4
obj2565	12
obj89	0
obj945	4
obj2180	10
obj946	4
obj2181	10
obj947	4
obj2568	12
obj948	4
obj2569	12
obj949	4
obj67	0
obj68	0
obj69	0
obj60	0
obj61	0
obj62	0
obj63	0
obj64	0
obj65	0
obj66	0
obj100	0
obj101	0
obj104	0
obj105	0
obj102	0
obj103	0
obj107	0
obj58	0
obj106	0
obj59	0
obj109	0
obj56	0
obj108	0
obj57	0
obj50	0
obj51	0
obj54	0
obj55	0
obj52	0
obj53	0
obj110	0
obj111	0
obj112	0
obj113	0
obj114	0
obj115	0
obj116	0
obj49	0
obj45	0
obj119	0
obj46	0
obj118	0
obj47	0
obj117	0
obj48	0
obj41	0
obj42	0
obj43	0
obj44	0
obj40	0
obj126	0
obj127	0
obj124	0
obj125	0
obj122	0
obj123	0
obj120	0
obj121	0
obj38	0
obj39	0
obj129	0
obj36	0
obj2599	12
obj128	0
obj37	0
obj2598	12
obj34	0
obj2597	12
obj35	0
obj2596	12
obj32	0
obj2595	12
obj33	0
obj2594	12
obj30	0
obj2593	12
obj31	0
obj2592	12
obj2591	12
obj2590	12
obj130	0
obj135	0
obj136	0
obj137	0
obj138	0
obj131	0
obj132	0
obj133	0
obj134	0
obj20	0
obj22	0
obj21	0
obj24	0
obj23	0
obj26	0
obj25	0
obj28	0
obj27	0
obj29	0
obj11	0
obj10	0
obj15	0
obj14	0
obj13	0
obj12	0
obj19	0
obj18	0
obj17	0
obj16	0
obj2101	10
obj2100	10
obj2107	10
obj2106	10
obj2109	10
obj2108	10
obj2103	10
obj2102	10
obj2105	10
obj2104	10
obj1920	9
obj1922	9
obj1921	9
obj1912	9
obj1913	9
obj1914	9
obj1915	9
obj1916	9
obj1917	9
obj1918	9
obj1919	9
obj1933	9
obj1932	9
obj1931	9
obj1930	9
obj1925	9
obj1926	9
obj1923	9
obj1924	9
obj1929	9
obj1927	9
obj1928	9
obj1018	5
obj1017	5
obj1900	9
obj1019	5
obj1014	5
obj1013	5
obj1016	5
obj1015	5
obj1010	5
obj1012	5
obj1011	5
obj1911	9
obj1009	5
obj1910	9
obj1008	5
obj1007	5
obj1006	5
obj1005	5
obj1004	5
obj1003	5
obj1002	5
obj1001	5
obj1000	4
obj1909	9
obj1907	9
obj1908	9
obj1905	9
obj1906	9
obj1903	9
obj1904	9
obj1901	9
obj1902	9
obj1989	9
obj1580	7
obj1581	7
obj631	3
obj1582	7
obj630	3
obj1583	7
obj633	3
obj1584	7
obj632	3
obj1585	7
obj1586	7
obj1587	7
obj1588	7
obj1589	7
obj1991	9
obj1990	9
obj1993	9
obj623	3
obj1992	9
obj624	3
obj1995	9
obj625	3
obj1994	9
obj626	3
obj1997	9
obj627	3
obj1996	9
obj628	3
obj1999	9
obj629	3
obj1998	9
obj1590	7
obj1591	7
obj1978	9
obj1979	9
obj1594	7
obj622	3
obj1595	7
obj621	3
obj1592	7
obj620	3
obj1593	7
obj1598	7
obj1599	7
obj1596	7
obj1597	7
obj1980	9
obj1984	9
obj614	3
obj1983	9
obj615	3
obj1982	9
obj612	3
obj1981	9
obj613	3
obj1988	9
obj618	3
obj1987	9
obj619	3
obj1986	9
obj616	3
obj1985	9
obj617	3
obj653	3
obj652	3
obj655	3
obj654	3
obj651	3
obj650	3
obj1180	5
obj1186	5
obj1185	5
obj1188	5
obj1187	5
obj1182	5
obj1181	5
obj1184	5
obj1183	5
obj649	3
obj645	3
obj646	3
obj1189	5
obj647	3
obj648	3
obj644	3
obj643	3
obj642	3
obj641	3
obj640	3
obj1190	5
obj1191	5
obj1199	5
obj1198	5
obj1197	5
obj1196	5
obj1195	5
obj1194	5
obj1193	5
obj1192	5
obj638	3
obj639	3
obj636	3
obj637	3
obj634	3
obj635	3
obj1542	7
obj1541	7
obj1544	7
obj1543	7
obj1546	7
obj1545	7
obj1548	7
obj1547	7
obj1946	9
obj1945	9
obj1948	9
obj1947	9
obj1949	9
obj1540	7
obj1167	5
obj1168	5
obj1950	9
obj1169	5
obj1951	9
obj1952	9
obj1953	9
obj1954	9
obj1955	9
obj1538	7
obj1539	7
obj1160	5
obj1161	5
obj1162	5
obj1163	5
obj1164	5
obj1165	5
obj1166	5
obj1555	7
obj1554	7
obj1553	7
obj2600	12
obj1552	7
obj2601	13
obj1559	7
obj2602	13
obj1558	7
obj2603	13
obj1557	7
obj2604	13
obj1556	7
obj1937	9
obj1936	9
obj1935	9
obj1934	9
obj1551	7
obj1550	7
obj1939	9
obj1938	9
obj1940	9
obj1178	5
obj1179	5
obj1943	9
obj1944	9
obj1941	9
obj1942	9
obj1172	5
obj1173	5
obj1549	7
obj1170	5
obj1171	5
obj1176	5
obj1177	5
obj1174	5
obj1175	5
obj2614	13
obj1568	7
obj2615	13
obj1567	7
obj2612	13
obj2613	13
obj1569	7
obj2610	13
obj1564	7
obj2611	13
obj1563	7
obj1566	7
obj1565	7
obj1560	7
obj1562	7
obj610	3
obj1561	7
obj611	3
obj1968	9
obj1967	9
obj1969	9
obj1974	9
obj606	3
obj1149	5
obj1975	9
obj605	3
obj1976	9
obj608	3
obj1977	9
obj607	3
obj1970	9
obj602	3
obj1145	5
obj1971	9
obj601	3
obj1146	5
obj1972	9
obj604	3
obj1147	5
obj1973	9
obj603	3
obj1148	5
obj1141	5
obj1142	5
obj1143	5
obj2609	13
obj1144	5
obj2608	13
obj2607	13
obj609	3
obj2606	13
obj2605	13
obj1140	5
obj2623	13
obj2624	13
obj2625	13
obj1579	7
obj2626	13
obj1578	7
obj1577	7
obj2620	13
obj1576	7
obj2621	13
obj1575	7
obj2622	13
obj1574	7
obj1573	7
obj1572	7
obj600	2
obj1571	7
obj1570	7
obj1959	9
obj1958	9
obj1957	9
obj1956	9
obj1965	9
obj1966	9
obj1963	9
obj1964	9
obj1961	9
obj1158	5
obj1962	9
obj1159	5
obj1156	5
obj1960	9
obj1157	5
obj1154	5
obj1155	5
obj1152	5
obj1153	5
obj2617	13
obj1150	5
obj2616	13
obj1151	5
obj2619	13
obj2618	13
obj2627	13
obj2628	13
obj2629	13
obj2250	11
obj2251	11
obj2252	11
obj2253	11
obj2254	11
obj2255	11
obj2256	11
obj2257	11
obj2258	11
obj2259	11
obj2631	13
obj2630	13
obj1500	7
obj2633	13
obj2632	13
obj2635	13
obj1503	7
obj2634	13
obj1504	7
obj2637	13
obj1501	7
obj2636	13
obj1502	7
obj2261	11
obj1506	7
obj2262	11
obj1505	7
obj2638	13
obj1508	7
obj2639	13
obj2260	11
obj1507	7
obj2265	11
obj2266	11
obj1509	7
obj2263	11
obj2264	11
obj2269	11
obj2267	11
obj2268	11
obj2640	13
obj2644	13
obj2643	13
obj2642	13
obj1510	7
obj2641	13
obj1511	7
obj2648	13
obj1512	7
obj2647	13
obj1513	7
obj2646	13
obj1514	7
obj2645	13
obj1515	7
obj2230	11
obj2231	11
obj2232	11
obj2233	11
obj2649	13
obj1519	7
obj1518	7
obj1517	7
obj1516	7
obj2238	11
obj2239	11
obj2234	11
obj2235	11
obj2236	11
obj2237	11
obj2651	13
obj2650	13
obj2657	13
obj1525	7
obj2656	13
obj1526	7
obj2659	13
obj1523	7
obj2658	13
obj1524	7
obj2653	13
obj1521	7
obj2652	13
obj1522	7
obj2655	13
obj2654	13
obj1520	7
obj2243	11
obj2244	11
obj2241	11
obj2242	11
obj1528	7
obj2240	11
obj1527	7
obj1529	7
obj2249	11
obj2247	11
obj2248	11
obj2245	11
obj2246	11
obj2662	13
obj2661	13
obj2660	13
obj1534	7
obj2669	13
obj1535	7
obj2668	13
obj1536	7
obj2667	13
obj1537	7
obj2666	13
obj1530	7
obj2665	13
obj1531	7
obj2664	13
obj1532	7
obj2663	13
obj1533	7
obj291	1
obj669	3
obj290	1
obj668	3
obj667	3
obj295	1
obj294	1
obj293	1
obj292	1
obj2293	11
obj299	1
obj2292	11
obj298	1
obj2295	11
obj297	1
obj2294	11
obj296	1
obj2297	11
obj2296	11
obj2299	11
obj2298	11
obj2674	13
obj2675	13
obj2676	13
obj2677	13
obj2678	13
obj2679	13
obj2290	11
obj2291	11
obj672	3
obj673	3
obj670	3
obj671	3
obj2670	13
obj676	3
obj2671	13
obj677	3
obj2672	13
obj674	3
obj2673	13
obj675	3
obj657	3
obj656	3
obj659	3
obj280	1
obj658	3
obj282	1
obj281	1
obj284	1
obj283	1
obj286	1
obj285	1
obj288	1
obj287	1
obj289	1
obj2687	13
obj2688	13
obj2685	13
obj2686	13
obj2689	13
obj2680	13
obj660	3
obj661	3
obj662	3
obj2683	13
obj663	3
obj2684	13
obj664	3
obj2681	13
obj665	3
obj2682	13
obj666	3
obj273	1
obj272	1
obj271	1
obj270	1
obj2279	11
obj2278	11
obj689	3
obj2275	11
obj2274	11
obj2277	11
obj279	1
obj2276	11
obj278	1
obj2271	11
obj277	1
obj2270	11
obj276	1
obj2273	11
obj275	1
obj2272	11
obj274	1
obj690	3
obj691	3
obj2696	13
obj2697	13
obj2698	13
obj2699	13
obj2692	13
obj698	3
obj2693	13
obj699	3
obj2694	13
obj696	3
obj2695	13
obj697	3
obj694	3
obj695	3
obj2690	13
obj692	3
obj2691	13
obj693	3
obj260	1
obj262	1
obj261	1
obj679	3
obj678	3
obj2289	11
obj2288	11
obj268	1
obj2287	11
obj267	1
obj2286	11
obj2285	11
obj269	1
obj2284	11
obj264	1
obj2283	11
obj263	1
obj2282	11
obj266	1
obj2281	11
obj265	1
obj2280	11
obj680	3
obj685	3
obj686	3
obj687	3
obj688	3
obj681	3
obj682	3
obj683	3
obj684	3
obj239	1
obj238	1
obj247	1
obj248	1
obj245	1
obj246	1
obj243	1
obj244	1
obj241	1
obj242	1
obj240	1
obj249	1
obj256	1
obj257	1
obj258	1
obj259	1
obj252	1
obj253	1
obj254	1
obj255	1
obj250	1
obj251	1
obj219	1
obj218	1
obj217	1
obj216	1
obj221	1
obj222	1
obj220	1
obj225	1
obj226	1
obj223	1
obj224	1
obj228	1
obj227	1
obj229	1
obj230	1
obj231	1
obj232	1
obj233	1
obj234	1
obj235	1
obj236	1
obj237	1
obj2228	11
obj2227	11
obj2229	11
obj2224	11
obj2223	11
obj2226	11
obj2225	11
obj2220	11
obj204	1
obj203	1
obj2222	11
obj202	1
obj2221	11
obj201	1
obj200	0
obj209	1
obj205	1
obj206	1
obj207	1
obj208	1
obj2209	11
obj2219	11
obj2218	11
obj2217	11
obj2216	11
obj2215	11
obj2214	11
obj2213	11
obj2212	11
obj2211	11
obj213	1
obj2210	11
obj212	1
obj215	1
obj214	1
obj211	1
obj210	1
obj2202	11
obj2201	11
obj2204	11
obj2203	11
obj2206	11
obj2205	11
obj2208	11
obj2207	11
obj2200	10
obj1131	5
obj1130	5
obj1133	5
obj1132	5
obj1139	5
obj1138	5
obj1135	5
obj1134	5
obj1137	5
obj1136	5
obj1122	5
obj1121	5
obj1120	5
obj1129	5
obj1128	5
obj1127	5
obj1126	5
obj1125	5
obj1124	5
obj1123	5
obj1111	5
obj1110	5
obj1113	5
obj1112	5
obj1115	5
obj1114	5
obj1117	5
obj1116	5
obj1119	5
obj1118	5
obj1109	5
obj1100	5
obj1104	5
obj1103	5
obj1102	5
obj1101	5
obj1108	5
obj1107	5
obj1106	5
obj1105	5
obj3000	14
obj2729	13
obj2728	13
obj2727	13
obj2726	13
obj1611	8
obj1612	8
obj1613	8
obj1614	8
obj1610	8
obj1609	8
obj1608	8
obj1605	8
obj1604	8
obj1607	8
obj1606	8
obj2735	13
obj1205	6
obj2736	13
obj1204	6
obj2733	13
obj1207	6
obj2734	13
obj1206	6
obj2731	13
obj799	3
obj1201	6
obj2732	13
obj1200	5
obj1203	6
obj2730	13
obj1202	6
obj2738	13
obj2737	13
obj1208	6
obj2739	13
obj1209	6
obj1602	8
obj1603	8
obj1600	7
obj1601	8
obj1210	6
obj2744	13
obj1218	6
obj2745	13
obj1217	6
obj2746	13
obj1216	6
obj2747	13
obj1215	6
obj2740	13
obj1214	6
obj2741	13
obj1213	6
obj2742	13
obj1212	6
obj2743	13
obj1211	6
obj2707	13
obj781	3
obj2706	13
obj780	3
obj2705	13
obj783	3
obj2704	13
obj782	3
obj785	3
obj784	3
obj2709	13
obj787	3
obj2708	13
obj786	3
obj777	3
obj2710	13
obj778	3
obj779	3
obj2713	13
obj2714	13
obj2711	13
obj2712	13
obj2716	13
obj794	3
obj2715	13
obj793	3
obj2718	13
obj792	3
obj2717	13
obj791	3
obj798	3
obj2719	13
obj797	3
obj796	3
obj795	3
obj790	3
obj2720	13
obj788	3
obj2721	13
obj789	3
obj2722	13
obj2723	13
obj2724	13
obj2725	13
obj1656	8
obj1655	8
obj1658	8
obj1657	8
obj1652	8
obj1651	8
obj1654	8
obj1653	8
obj1650	8
obj1248	6
obj1249	6
obj1244	6
obj1245	6
obj1246	6
obj1247	6
obj1240	6
obj1241	6
obj1242	6
obj1243	6
obj1648	8
obj1649	8
obj1647	8
obj1646	8
obj1645	8
obj1644	8
obj1643	8
obj1642	8
obj1641	8
obj1640	8
obj2701	13
obj2700	13
obj2703	13
obj1259	6
obj2702	13
obj1257	6
obj1258	6
obj1255	6
obj1256	6
obj1253	6
obj1254	6
obj1251	6
obj1252	6
obj1639	8
obj1250	6
obj1637	8
obj1638	8
obj1630	8
obj1632	8
obj1631	8
obj1634	8
obj1633	8
obj1636	8
obj1635	8
obj1219	6
obj1222	6
obj1223	6
obj1224	6
obj1225	6
obj1226	6
obj1227	6
obj1228	6
obj1229	6
obj1626	8
obj1627	8
obj1628	8
obj1629	8
obj1220	6
obj1221	6
obj1621	8
obj1620	8
obj1625	8
obj1624	8
obj1623	8
obj1622	8
obj1235	6
obj1236	6
obj1233	6
obj1234	6
obj1239	6
obj1237	6
obj1238	6
obj1617	8
obj1618	8
obj1615	8
obj1616	8
obj1231	6
obj1232	6
obj1619	8
obj1230	6
obj335	1
obj336	1
obj333	1
obj334	1
obj331	1
obj332	1
obj719	3
obj330	1
obj717	3
obj718	3
obj715	3
obj2390	11
obj716	3
obj713	3
obj714	3
obj711	3
obj712	3
obj2396	11
obj1693	8
obj721	3
obj2395	11
obj1694	8
obj720	3
obj2398	11
obj1691	8
obj2397	11
obj1692	8
obj2392	11
obj2391	11
obj1690	8
obj2394	11
obj2393	11
obj1699	8
obj1697	8
obj329	1
obj2399	11
obj1698	8
obj328	1
obj1695	8
obj327	1
obj1696	8
obj326	1
obj322	1
obj323	1
obj324	1
obj325	1
obj320	1
obj321	1
obj726	3
obj727	3
obj728	3
obj729	3
obj722	3
obj723	3
obj724	3
obj725	3
obj1680	8
obj730	3
obj1681	8
obj1682	8
obj732	3
obj1683	8
obj731	3
obj1688	8
obj1689	8
obj319	1
obj1684	8
obj316	1
obj1685	8
obj315	1
obj1686	8
obj318	1
obj1687	8
obj317	1
obj310	1
obj2790	13
obj2791	13
obj313	1
obj2792	13
obj314	1
obj2793	13
obj311	1
obj2794	13
obj312	1
obj2795	13
obj2796	13
obj2797	13
obj2798	13
obj2799	13
obj1671	8
obj1672	8
obj1670	8
obj1675	8
obj307	1
obj1676	8
obj306	1
obj1673	8
obj305	1
obj1674	8
obj304	1
obj1679	8
obj1677	8
obj309	1
obj1678	8
obj308	1
obj708	3
obj1659	8
obj709	3
obj300	1
obj301	1
obj302	1
obj303	1
obj700	3
obj701	3
obj702	3
obj703	3
obj704	3
obj705	3
obj706	3
obj707	3
obj1660	8
obj710	3
obj1661	8
obj1662	8
obj1663	8
obj1664	8
obj1665	8
obj1666	8
obj1667	8
obj1668	8
obj1669	8
obj2778	13
obj372	1
obj2777	13
obj371	1
obj370	1
obj2779	13
obj759	3
obj2774	13
obj758	3
obj2773	13
obj757	3
obj2776	13
obj756	3
obj2775	13
obj755	3
obj2770	13
obj379	1
obj2772	13
obj378	1
obj2771	13
obj377	1
obj376	1
obj375	1
obj374	1
obj373	1
obj2359	11
obj2355	11
obj2356	11
obj2357	11
obj2358	11
obj2351	11
obj764	3
obj2352	11
obj765	3
obj2353	11
obj762	3
obj2354	11
obj763	3
obj760	3
obj761	3
obj2350	11
obj2789	13
obj361	1
obj2788	13
obj360	1
obj2787	13
obj767	3
obj2786	13
obj766	3
obj2785	13
obj769	3
obj2784	13
obj768	3
obj2783	13
obj367	1
obj2782	13
obj366	1
obj2781	13
obj369	1
obj2780	13
obj368	1
obj363	1
obj362	1
obj365	1
obj364	1
obj2368	11
obj359	1
obj2369	11
obj2366	11
obj2367	11
obj2364	11
obj773	3
obj2365	11
obj774	3
obj2362	11
obj775	3
obj2363	11
obj776	3
obj2360	11
obj2361	11
obj770	3
obj771	3
obj772	3
obj2752	13
obj736	3
obj2751	13
obj735	3
obj2754	13
obj734	3
obj2753	13
obj733	3
obj2756	13
obj350	1
obj2755	13
obj739	3
obj2758	13
obj738	3
obj2757	13
obj737	3
obj354	1
obj353	1
obj352	1
obj351	1
obj358	1
obj357	1
obj2750	13
obj356	1
obj355	1
obj2377	11
obj3	0
obj2378	11
obj4	0
obj2379	11
obj5	0
obj348	1
obj6	0
obj349	1
obj1	0
obj2	0
obj2748	13
obj2749	13
obj2370	11
obj2371	11
obj2372	11
obj2373	11
obj742	3
obj2374	11
obj743	3
obj2375	11
obj740	3
obj2376	11
obj741	3
obj2765	13
obj745	3
obj2764	13
obj744	3
obj2763	13
obj747	3
obj2762	13
obj746	3
obj2769	13
obj749	3
obj2768	13
obj748	3
obj2767	13
obj2766	13
obj341	1
obj340	1
obj343	1
obj342	1
obj2761	13
obj345	1
obj2760	13
obj9	0
obj344	1
obj8	0
obj347	1
obj7	0
obj346	1
obj337	1
obj338	1
obj2388	11
obj339	1
obj2389	11
obj2382	11
obj2383	11
obj2759	13
obj2380	11
obj2381	11
obj750	3
obj2386	11
obj751	3
obj2387	11
obj752	3
obj2384	11
obj753	3
obj2385	11
obj754	3
obj2321	11
obj2320	11
obj2323	11
obj2322	11
obj2325	11
obj2324	11
obj2327	11
obj2326	11
obj2329	11
obj2328	11
obj2319	11
obj2310	11
obj2314	11
obj2313	11
obj2312	11
obj2311	11
obj2318	11
obj2317	11
obj2316	11
obj2315	11
obj2308	11
obj2309	11
obj2341	11
obj2340	11
obj2343	11
obj2342	11
obj2349	11
obj2348	11
obj2345	11
obj2344	11
obj2347	11
obj2346	11
obj388	1
obj389	1
obj386	1
obj387	1
obj384	1
obj385	1
obj382	1
obj383	1
obj380	1
obj381	1
obj2332	11
obj2331	11
obj2330	11
obj2339	11
obj2338	11
obj2337	11
obj2336	11
obj2335	11
obj2334	11
obj2333	11
obj399	1
obj395	1
obj396	1
obj397	1
obj398	1
obj391	1
obj392	1
obj393	1
obj394	1
obj390	1
obj802	4
obj801	4
obj800	3
obj806	4
obj805	4
obj804	4
obj803	4
obj809	4
obj808	4
obj807	4
obj2304	11
obj2305	11
obj2306	11
obj2307	11
obj2300	11
obj2301	11
obj2302	11
obj2303	11
obj1292	6
obj1291	6
obj1294	6
obj1293	6
obj1296	6
obj1295	6
obj1298	6
obj1297	6
obj1299	6
obj1290	6
obj1283	6
obj1282	6
obj1281	6
obj1280	6
obj1287	6
obj1286	6
obj1285	6
obj1284	6
obj1289	6
obj1288	6
obj1274	6
obj1273	6
obj1276	6
obj1275	6
obj1270	6
obj1272	6
obj1271	6
obj1278	6
obj1277	6
obj1279	6
obj1265	6
obj1264	6
obj1263	6
obj1262	6
obj1261	6
obj1260	6
obj1269	6
obj1268	6
obj1267	6
obj1266	6
obj2060	10
obj1710	8
obj1711	8
obj1712	8
obj1713	8
obj2828	14
obj2827	14
obj2826	14
obj2825	14
obj2829	14
obj2830	14
obj898	4
obj1300	6
obj2831	14
obj899	4
obj2069	10
obj1302	6
obj1301	6
obj2834	14
obj1304	6
obj2835	14
obj1303	6
obj2832	14
obj1306	6
obj2833	14
obj1305	6
obj2063	10
obj1704	8
obj2064	10
obj1703	8
obj2061	10
obj1706	8
obj2062	10
obj1705	8
obj2067	10
obj1708	8
obj2068	10
obj1707	8
obj2065	10
obj2066	10
obj1709	8
obj1701	8
obj1702	8
obj1700	8
obj2837	14
obj1309	6
obj2836	14
obj2839	14
obj1307	6
obj2838	14
obj1308	6
obj2058	10
obj1313	6
obj2840	14
obj2059	10
obj1312	6
obj2841	14
obj1311	6
obj2842	14
obj1310	6
obj2843	14
obj1317	6
obj2844	14
obj1316	6
obj2845	14
obj1315	6
obj2846	14
obj1314	6
obj2050	10
obj2051	10
obj2052	10
obj2053	10
obj2054	10
obj2055	10
obj2056	10
obj2057	10
obj1732	8
obj1733	8
obj1734	8
obj1735	8
obj1730	8
obj1731	8
obj1318	6
obj2849	14
obj1319	6
obj2848	14
obj2847	14
obj2856	14
obj1326	6
obj2857	14
obj1325	6
obj2854	14
obj1328	6
obj2855	14
obj1327	6
obj2852	14
obj2049	10
obj1322	6
obj2853	14
obj1321	6
obj2850	14
obj2047	10
obj1324	6
obj2851	14
obj2048	10
obj1323	6
obj2045	10
obj2046	10
obj1729	8
obj2043	10
obj1320	6
obj2044	10
obj2041	10
obj1726	8
obj2042	10
obj1725	8
obj1728	8
obj2040	10
obj1727	8
obj1723	8
obj1724	8
obj1721	8
obj1722	8
obj1720	8
obj2859	14
obj2858	14
obj1329	6
obj2865	14
obj1339	6
obj2866	14
obj1338	6
obj2867	14
obj1337	6
obj2868	14
obj1336	6
obj2861	14
obj2036	10
obj1335	6
obj2862	14
obj2037	10
obj1334	6
obj2863	14
obj2038	10
obj1333	6
obj2864	14
obj2039	10
obj1332	6
obj2032	10
obj1331	6
obj2033	10
obj1330	6
obj2034	10
obj1719	8
obj2860	14
obj2035	10
obj1718	8
obj1717	8
obj1716	8
obj2030	10
obj1715	8
obj2031	10
obj1714	8
obj1751	8
obj1750	8
obj1753	8
obj1752	8
obj1755	8
obj1754	8
obj1757	8
obj1756	8
obj2020	10
obj1747	8
obj1748	8
obj1749	8
obj2024	10
obj2023	10
obj1340	6
obj2022	10
obj1341	6
obj2021	10
obj1342	6
obj2028	10
obj1343	6
obj2027	10
obj1344	6
obj2026	10
obj1345	6
obj2025	10
obj1346	6
obj1347	6
obj1348	6
obj1349	6
obj2029	10
obj1742	8
obj1741	8
obj1740	8
obj1746	8
obj1745	8
obj1744	8
obj1743	8
obj1738	8
obj1739	8
obj1736	8
obj1737	8
obj2011	10
obj1352	6
obj2010	10
obj1353	6
obj2013	10
obj1350	6
obj2012	10
obj1351	6
obj2015	10
obj1356	6
obj2014	10
obj1357	6
obj2017	10
obj1354	6
obj2016	10
obj1355	6
obj2800	13
obj2019	10
obj2018	10
obj2802	14
obj1358	6
obj2801	14
obj1359	6
obj2809	14
obj2807	14
obj1771	8
obj2808	14
obj1770	8
obj2805	14
obj2806	14
obj2803	14
obj2804	14
obj1777	8
obj407	2
obj1776	8
obj408	2
obj1779	8
obj409	2
obj1778	8
obj1773	8
obj403	2
obj1772	8
obj404	2
obj1775	8
obj405	2
obj1774	8
obj406	2
obj2002	10
obj411	2
obj1361	6
obj2001	10
obj410	2
obj1362	6
obj2000	9
obj413	2
obj1363	6
obj412	2
obj1364	6
obj1769	8
obj1360	6
obj2813	14
obj1369	6
obj2812	14
obj2009	10
obj2811	14
obj2008	10
obj2810	14
obj2007	10
obj2006	10
obj1365	6
obj2005	10
obj1366	6
obj2004	10
obj1367	6
obj2003	10
obj1368	6
obj2818	14
obj1760	8
obj2819	14
obj2814	14
obj2815	14
obj2816	14
obj2817	14
obj1768	8
obj1767	8
obj1766	8
obj1765	8
obj1764	8
obj1763	8
obj1762	8
obj1761	8
obj402	2
obj1374	6
obj401	2
obj1375	6
obj400	1
obj1372	6
obj1373	6
obj1370	6
obj1371	6
obj1758	8
obj1759	8
obj2822	14
obj2821	14
obj2824	14
obj2823	14
obj1378	6
obj1379	6
obj2820	14
obj1376	6
obj1377	6
obj812	4
obj813	4
obj810	4
obj811	4
obj816	4
obj817	4
obj814	4
obj815	4
obj430	2
obj431	2
obj818	4
obj819	4
obj434	2
obj435	2
obj432	2
obj433	2
obj1796	8
obj428	2
obj1797	8
obj427	2
obj1794	8
obj426	2
obj1795	8
obj425	2
obj1798	8
obj1799	8
obj429	2
obj1792	8
obj820	4
obj1793	8
obj1790	8
obj1791	8
obj821	4
obj822	4
obj823	4
obj824	4
obj825	4
obj826	4
obj827	4
obj828	4
obj829	4
obj420	2
obj421	2
obj422	2
obj423	2
obj424	2
obj1783	8
obj415	2
obj1784	8
obj414	2
obj1785	8
obj417	2
obj1786	8
obj416	2
obj1787	8
obj419	2
obj1788	8
obj418	2
obj1789	8
obj1780	8
obj1781	8
obj831	4
obj1782	8
obj830	4
obj838	4
obj839	4
obj836	4
obj837	4
obj834	4
obj835	4
obj832	4
obj833	4
obj456	2
obj457	2
obj454	2
obj455	2
obj452	2
obj453	2
obj450	2
obj451	2
obj449	2
obj448	2
obj447	2
obj842	4
obj841	4
obj840	4
obj847	4
obj848	4
obj849	4
obj843	4
obj844	4
obj845	4
obj846	4
obj443	2
obj444	2
obj445	2
obj446	2
obj440	2
obj441	2
obj442	2
obj437	2
obj436	2
obj439	2
obj438	2
obj851	4
obj850	4
obj853	4
obj852	4
obj475	2
obj474	2
obj473	2
obj472	2
obj479	2
obj478	2
obj2871	14
obj477	2
obj2870	14
obj476	2
obj2873	14
obj857	4
obj2872	14
obj856	4
obj2875	14
obj855	4
obj2874	14
obj854	4
obj2877	14
obj471	2
obj2876	14
obj470	2
obj2879	14
obj859	4
obj2878	14
obj858	4
obj2869	14
obj2490	12
obj2491	12
obj860	4
obj2492	12
obj2493	12
obj2494	12
obj863	4
obj2495	12
obj864	4
obj2496	12
obj861	4
obj2497	12
obj862	4
obj2498	12
obj2499	12
obj469	2
obj2097	10
obj462	2
obj2096	10
obj461	2
obj2095	10
obj464	2
obj2094	10
obj463	2
obj2882	14
obj466	2
obj2881	14
obj465	2
obj2880	14
obj2099	10
obj468	2
obj2098	10
obj467	2
obj2886	14
obj866	4
obj2885	14
obj865	4
obj2884	14
obj868	4
obj2883	14
obj867	4
obj2889	14
obj869	4
obj2888	14
obj460	2
obj2887	14
obj870	4
obj871	4
obj872	4
obj873	4
obj874	4
obj875	4
obj458	2
obj459	2
obj2092	10
obj2093	10
obj2090	10
obj2091	10
obj2891	14
obj2088	10
obj2890	14
obj2087	10
obj2893	14
obj499	2
obj2892	14
obj2089	10
obj498	2
obj2084	10
obj497	2
obj2083	10
obj496	2
obj2086	10
obj495	2
obj2085	10
obj494	2
obj2899	14
obj493	2
obj2898	14
obj492	2
obj491	2
obj490	2
obj2895	14
obj879	4
obj2894	14
obj878	4
obj2897	14
obj877	4
obj2896	14
obj876	4
obj2472	12
obj885	4
obj2473	12
obj886	4
obj2474	12
obj883	4
obj2475	12
obj884	4
obj881	4
obj882	4
obj2470	12
obj2471	12
obj880	4
obj2080	10
obj2081	10
obj2082	10
obj2476	12
obj2477	12
obj2478	12
obj2479	12
obj2079	10
obj488	2
obj2078	10
obj487	2
obj2077	10
obj2076	10
obj489	2
obj2075	10
obj484	2
obj2074	10
obj483	2
obj2073	10
obj486	2
obj2072	10
obj485	2
obj480	2
obj482	2
obj481	2
obj888	4
obj887	4
obj889	4
obj2485	12
obj894	4
obj2486	12
obj895	4
obj2483	12
obj896	4
obj2484	12
obj897	4
obj2481	12
obj890	4
obj2482	12
obj891	4
obj892	4
obj2480	12
obj893	4
obj2070	10
obj2071	10
obj2489	12
obj2487	12
obj2488	12
obj2469	12
obj2466	12
obj2465	12
obj2468	12
obj2467	12
obj2462	12
obj2461	12
obj2464	12
obj2463	12
obj2460	12
obj2459	12
obj2458	12
obj2457	12
obj2456	12
obj2455	12
obj2454	12
obj2453	12
obj2452	12
obj2451	12
obj2450	12
obj2444	12
obj2443	12
obj2446	12
obj2445	12
obj2448	12
obj2447	12
obj2449	12
obj2440	12
obj2442	12
obj2441	12
obj2435	12
obj2434	12
obj2433	12
obj2432	12
obj2439	12
obj2438	12
obj2437	12
obj2436	12
obj2431	12
obj2430	12
obj2429	12
obj2420	12
obj2425	12
obj2426	12
obj2427	12
obj2428	12
obj2421	12
obj2422	12
obj2423	12
obj2424	12
obj2419	12
obj909	4
obj2418	12
obj908	4
obj907	4
obj906	4
obj905	4
obj904	4
obj903	4
obj902	4
obj901	4
obj900	4
obj2416	12
obj2417	12
obj2414	12
obj2415	12
obj2412	12
obj2413	12
obj2410	12
obj2411	12
obj2409	12
obj2408	12
obj2407	12
obj930	4
obj2400	11
obj2401	12
obj2402	12
obj2403	12
obj2404	12
obj2405	12
obj2406	12
obj929	4
obj928	4
obj923	4
obj922	4
obj921	4
obj920	4
obj927	4
obj926	4
obj925	4
obj924	4
obj918	4
obj917	4
obj919	4
obj910	4
obj912	4
obj911	4
obj914	4
obj913	4
obj916	4
obj915	4
obj1399	6
obj1398	6
obj1395	6
obj1394	6
obj1397	6
obj1396	6
obj1391	6
obj1390	6
obj1393	6
obj1392	6
obj1389	6
obj1388	6
obj1387	6
obj1386	6
obj1385	6
obj1384	6
obj1383	6
obj1382	6
obj1381	6
obj1380	6
obj2900	14
obj2901	14
obj1801	9
obj1800	8
obj1804	9
obj1805	9
obj1802	9
obj1803	9
obj1808	9
obj1809	9
obj1806	9
obj1807	9
obj1812	9
obj1811	9
obj1810	9
